data/PSU_switch/PSU1_CV_20A_OFF.CSV

Model,TBS1102C
Firmware Version,v2015-08-04-prequal4ch70_v1.3

Point Format,Y
Horizontal Units,S
Horizontal Scale,0.02
Sample Interval,0.00016
Filter Frequency,2e+08
Record Length,2000
Gating,0.0% to 100.0%
Probe Attenuation,1
Vertical Units,V
Vertical Offset,0
Vertical Scale,5
Label,
TIME,CH1
-6.080e-02,6
-6.064e-02,6
-6.048e-02,6
-6.032e-02,6
-6.016e-02,6
-6.000e-02,6
-5.984e-02,6
-5.968e-02,6
-5.952e-02,6
-5.936e-02,5.8
-5.920e-02,6
-5.904e-02,6
-5.888e-02,6
-5.872e-02,6
-5.856e-02,6
-5.840e-02,6
-5.824e-02,6
-5.808e-02,6
-5.792e-02,6
-5.776e-02,6
-5.760e-02,6
-5.744e-02,6
-5.728e-02,6
-5.712e-02,6
-5.696e-02,6
-5.680e-02,6
-5.664e-02,6
-5.648e-02,6
-5.632e-02,6
-5.616e-02,5.8
-5.600e-02,6
-5.584e-02,6
-5.568e-02,6
-5.552e-02,6
-5.536e-02,6
-5.520e-02,6
-5.504e-02,6
-5.488e-02,6
-5.472e-02,6
-5.456e-02,6
-5.440e-02,6
-5.424e-02,6
-5.408e-02,6
-5.392e-02,5.8
-5.376e-02,6
-5.360e-02,6
-5.344e-02,6
-5.328e-02,5.8
-5.312e-02,6
-5.296e-02,5.8
-5.280e-02,6
-5.264e-02,6
-5.248e-02,6
-5.232e-02,6
-5.216e-02,6
-5.200e-02,6
-5.184e-02,6
-5.168e-02,6
-5.152e-02,6
-5.136e-02,6
-5.120e-02,6
-5.104e-02,6
-5.088e-02,5.8
-5.072e-02,6
-5.056e-02,6
-5.040e-02,6
-5.024e-02,6
-5.008e-02,6
-4.992e-02,6
-4.976e-02,6
-4.960e-02,6
-4.944e-02,6
-4.928e-02,6
-4.912e-02,6
-4.896e-02,6
-4.880e-02,6
-4.864e-02,5.8
-4.848e-02,6
-4.832e-02,5.8
-4.816e-02,5.8
-4.800e-02,6
-4.784e-02,6
-4.768e-02,6
-4.752e-02,6
-4.736e-02,5.8
-4.720e-02,6
-4.704e-02,6
-4.688e-02,6
-4.672e-02,6
-4.656e-02,6
-4.640e-02,6
-4.624e-02,6
-4.608e-02,6
-4.592e-02,6
-4.576e-02,6
-4.560e-02,5.8
-4.544e-02,5.8
-4.528e-02,6
-4.512e-02,6
-4.496e-02,6
-4.480e-02,6
-4.464e-02,5.8
-4.448e-02,5.8
-4.432e-02,6
-4.416e-02,6
-4.400e-02,6
-4.384e-02,6
-4.368e-02,6
-4.352e-02,6
-4.336e-02,6
-4.320e-02,6
-4.304e-02,5.8
-4.288e-02,6
-4.272e-02,6
-4.256e-02,6
-4.240e-02,6
-4.224e-02,6
-4.208e-02,6
-4.192e-02,6
-4.176e-02,6
-4.160e-02,6
-4.144e-02,6
-4.128e-02,6
-4.112e-02,6
-4.096e-02,6
-4.080e-02,5.8
-4.064e-02,6
-4.048e-02,6
-4.032e-02,6
-4.016e-02,6
-4.000e-02,6
-3.984e-02,6
-3.968e-02,6
-3.952e-02,6
-3.936e-02,5.8
-3.920e-02,6
-3.904e-02,6
-3.888e-02,6
-3.872e-02,6
-3.856e-02,6
-3.840e-02,6
-3.824e-02,6
-3.808e-02,6
-3.792e-02,6
-3.776e-02,6
-3.760e-02,5.8
-3.744e-02,6
-3.728e-02,6
-3.712e-02,6
-3.696e-02,6
-3.680e-02,6
-3.664e-02,6
-3.648e-02,6
-3.632e-02,5.8
-3.616e-02,6
-3.600e-02,6
-3.584e-02,6
-3.568e-02,6
-3.552e-02,6
-3.536e-02,6
-3.520e-02,6
-3.504e-02,6
-3.488e-02,5.8
-3.472e-02,6
-3.456e-02,5.8
-3.440e-02,5.8
-3.424e-02,6
-3.408e-02,5.8
-3.392e-02,6
-3.376e-02,6
-3.360e-02,6
-3.344e-02,6
-3.328e-02,6
-3.312e-02,6
-3.296e-02,6
-3.280e-02,6
-3.264e-02,6
-3.248e-02,5.8
-3.232e-02,6
-3.216e-02,6
-3.200e-02,5.8
-3.184e-02,6
-3.168e-02,5.8
-3.152e-02,6
-3.136e-02,6
-3.120e-02,6
-3.104e-02,6
-3.088e-02,6
-3.072e-02,6
-3.056e-02,6
-3.040e-02,6
-3.024e-02,6
-3.008e-02,6
-2.992e-02,6
-2.976e-02,5.8
-2.960e-02,6
-2.944e-02,6
-2.928e-02,6
-2.912e-02,6
-2.896e-02,6
-2.880e-02,6
-2.864e-02,6
-2.848e-02,6
-2.832e-02,6
-2.816e-02,6
-2.800e-02,6
-2.784e-02,6
-2.768e-02,6
-2.752e-02,6
-2.736e-02,6
-2.720e-02,6
-2.704e-02,6
-2.688e-02,6
-2.672e-02,5.8
-2.656e-02,5.8
-2.640e-02,6
-2.624e-02,6
-2.608e-02,6
-2.592e-02,6
-2.576e-02,5.8
-2.560e-02,5.8
-2.544e-02,6
-2.528e-02,6
-2.512e-02,6
-2.496e-02,6
-2.480e-02,6
-2.464e-02,5.8
-2.448e-02,5.8
-2.432e-02,6
-2.416e-02,6
-2.400e-02,6
-2.384e-02,6
-2.368e-02,5.8
-2.352e-02,6
-2.336e-02,6
-2.320e-02,6
-2.304e-02,6
-2.288e-02,6
-2.272e-02,6
-2.256e-02,6
-2.240e-02,6
-2.224e-02,6
-2.208e-02,6
-2.192e-02,6
-2.176e-02,6
-2.160e-02,6
-2.144e-02,6
-2.128e-02,6
-2.112e-02,6
-2.096e-02,5.8
-2.080e-02,6
-2.064e-02,6
-2.048e-02,6
-2.032e-02,6
-2.016e-02,6
-2.000e-02,6
-1.984e-02,6
-1.968e-02,6
-1.952e-02,6
-1.936e-02,6
-1.920e-02,6
-1.904e-02,6
-1.888e-02,6
-1.872e-02,6
-1.856e-02,6
-1.840e-02,6
-1.824e-02,6
-1.808e-02,6
-1.792e-02,6
-1.776e-02,6
-1.760e-02,6
-1.744e-02,6
-1.728e-02,6
-1.712e-02,5.8
-1.696e-02,5.8
-1.680e-02,6
-1.664e-02,5.8
-1.648e-02,6
-1.632e-02,6
-1.616e-02,6
-1.600e-02,6
-1.584e-02,6
-1.568e-02,6
-1.552e-02,5.8
-1.536e-02,6
-1.520e-02,6
-1.504e-02,6
-1.488e-02,5.8
-1.472e-02,6
-1.456e-02,6
-1.440e-02,6
-1.424e-02,5.8
-1.408e-02,5.8
-1.392e-02,6
-1.376e-02,6
-1.360e-02,6
-1.344e-02,6
-1.328e-02,6
-1.312e-02,6
-1.296e-02,6
-1.280e-02,6
-1.264e-02,6
-1.248e-02,6
-1.232e-02,6
-1.216e-02,6
-1.200e-02,6
-1.184e-02,6
-1.168e-02,5.8
-1.152e-02,6
-1.136e-02,6
-1.120e-02,6
-1.104e-02,6
-1.088e-02,6
-1.072e-02,6
-1.056e-02,6
-1.040e-02,6
-1.024e-02,6
-1.008e-02,6
-9.920e-03,6
-9.760e-03,6
-9.600e-03,6
-9.440e-03,6
-9.280e-03,6
-9.120e-03,6
-8.960e-03,6
-8.800e-03,6
-8.640e-03,6
-8.480e-03,6
-8.320e-03,6
-8.160e-03,6
-8.000e-03,6
-7.840e-03,6
-7.680e-03,6
-7.520e-03,6
-7.360e-03,6
-7.200e-03,6
-7.040e-03,6
-6.880e-03,6
-6.720e-03,6
-6.560e-03,5.8
-6.400e-03,6
-6.240e-03,6
-6.080e-03,6
-5.920e-03,6
-5.760e-03,6
-5.600e-03,6
-5.440e-03,6
-5.280e-03,6
-5.120e-03,6
-4.960e-03,6
-4.800e-03,6
-4.640e-03,6
-4.480e-03,6
-4.320e-03,5.8
-4.160e-03,6
-4.000e-03,6
-3.840e-03,6
-3.680e-03,6
-3.520e-03,6
-3.360e-03,5.8
-3.200e-03,6
-3.040e-03,6
-2.880e-03,5.8
-2.720e-03,6
-2.560e-03,6
-2.400e-03,5.8
-2.240e-03,6
-2.080e-03,6
-1.920e-03,6
-1.760e-03,6
-1.600e-03,6
-1.440e-03,6
-1.280e-03,6
-1.120e-03,6
-9.600e-04,6
-8.000e-04,6
-6.400e-04,6
-4.800e-04,6
-3.200e-04,3.4
-1.600e-04,1.8
1.834e-16,1
1.600e-04,0.4
3.200e-04,0.2
4.800e-04,0.2
6.400e-04,0
8.000e-04,0.2
9.600e-04,0
1.120e-03,0
1.280e-03,0
1.440e-03,0
1.600e-03,0
1.760e-03,0
1.920e-03,0
2.080e-03,0
2.240e-03,0
2.400e-03,0
2.560e-03,0
2.720e-03,0
2.880e-03,0
3.040e-03,0
3.200e-03,0
3.360e-03,0
3.520e-03,0
3.680e-03,0.2
3.840e-03,0
4.000e-03,0
4.160e-03,0
4.320e-03,0
4.480e-03,0
4.640e-03,0
4.800e-03,0
4.960e-03,0
5.120e-03,0
5.280e-03,0
5.440e-03,0
5.600e-03,0
5.760e-03,0
5.920e-03,0
6.080e-03,0
6.240e-03,0
6.400e-03,0
6.560e-03,0
6.720e-03,0
6.880e-03,0
7.040e-03,0
7.200e-03,0
7.360e-03,0
7.520e-03,0
7.680e-03,0
7.840e-03,0
8.000e-03,0
8.160e-03,0
8.320e-03,0
8.480e-03,0
8.640e-03,0
8.800e-03,0
8.960e-03,0.2
9.120e-03,0
9.280e-03,0
9.440e-03,0
9.600e-03,0
9.760e-03,0
9.920e-03,0
1.008e-02,0
1.024e-02,0
1.040e-02,0
1.056e-02,0
1.072e-02,0
1.088e-02,0.2
1.104e-02,0.2
1.120e-02,0
1.136e-02,0
1.152e-02,0
1.168e-02,0
1.184e-02,0
1.200e-02,0
1.216e-02,0
1.232e-02,0.2
1.248e-02,0
1.264e-02,0
1.280e-02,0
1.296e-02,0
1.312e-02,0
1.328e-02,0
1.344e-02,0
1.360e-02,0
1.376e-02,0
1.392e-02,0
1.408e-02,0
1.424e-02,0
1.440e-02,0
1.456e-02,0
1.472e-02,0
1.488e-02,0
1.504e-02,0
1.520e-02,0
1.536e-02,0
1.552e-02,0
1.568e-02,0
1.584e-02,0
1.600e-02,0
1.616e-02,0
1.632e-02,0.2
1.648e-02,0
1.664e-02,0
1.680e-02,0
1.696e-02,0
1.712e-02,0.2
1.728e-02,0
1.744e-02,0
1.760e-02,0.2
1.776e-02,0
1.792e-02,0
1.808e-02,0
1.824e-02,0
1.840e-02,0
1.856e-02,0
1.872e-02,0
1.888e-02,0
1.904e-02,0
1.920e-02,0
1.936e-02,0
1.952e-02,0
1.968e-02,0
1.984e-02,0
2.000e-02,0
2.016e-02,0
2.032e-02,0
2.048e-02,0
2.064e-02,0
2.080e-02,0
2.096e-02,0
2.112e-02,0
2.128e-02,0
2.144e-02,0
2.160e-02,0.2
2.176e-02,0
2.192e-02,0
2.208e-02,0
2.224e-02,0
2.240e-02,0
2.256e-02,0
2.272e-02,0
2.288e-02,0.2
2.304e-02,0.2
2.320e-02,0
2.336e-02,0.2
2.352e-02,0
2.368e-02,0
2.384e-02,0
2.400e-02,0
2.416e-02,0
2.432e-02,0
2.448e-02,0.2
2.464e-02,0
2.480e-02,0
2.496e-02,0
2.512e-02,0
2.528e-02,0
2.544e-02,0
2.560e-02,0
2.576e-02,0
2.592e-02,0
2.608e-02,0
2.624e-02,0
2.640e-02,0
2.656e-02,0
2.672e-02,0
2.688e-02,0
2.704e-02,0
2.720e-02,0
2.736e-02,0
2.752e-02,0
2.768e-02,0
2.784e-02,0
2.800e-02,0
2.816e-02,0
2.832e-02,0
2.848e-02,0
2.864e-02,0
2.880e-02,0
2.896e-02,0
2.912e-02,0
2.928e-02,0
2.944e-02,0
2.960e-02,0
2.976e-02,0
2.992e-02,0
3.008e-02,0
3.024e-02,0
3.040e-02,0
3.056e-02,0
3.072e-02,0
3.088e-02,0
3.104e-02,0
3.120e-02,0
3.136e-02,0
3.152e-02,0
3.168e-02,0
3.184e-02,0
3.200e-02,0
3.216e-02,0
3.232e-02,0
3.248e-02,0
3.264e-02,0
3.280e-02,0
3.296e-02,0
3.312e-02,0
3.328e-02,0
3.344e-02,0.2
3.360e-02,0
3.376e-02,0
3.392e-02,0
3.408e-02,0
3.424e-02,0
3.440e-02,0
3.456e-02,0
3.472e-02,0.2
3.488e-02,0
3.504e-02,0
3.520e-02,0
3.536e-02,0
3.552e-02,0
3.568e-02,0
3.584e-02,0
3.600e-02,0
3.616e-02,0
3.632e-02,0
3.648e-02,0
3.664e-02,0
3.680e-02,0
3.696e-02,0
3.712e-02,0
3.728e-02,0
3.744e-02,0
3.760e-02,0
3.776e-02,0
3.792e-02,0
3.808e-02,0
3.824e-02,0
3.840e-02,0
3.856e-02,0.2
3.872e-02,0
3.888e-02,0
3.904e-02,0
3.920e-02,0
3.936e-02,0.2
3.952e-02,0
3.968e-02,0.2
3.984e-02,0
4.000e-02,0
4.016e-02,0
4.032e-02,0
4.048e-02,0
4.064e-02,0
4.080e-02,0
4.096e-02,0
4.112e-02,0
4.128e-02,0
4.144e-02,0
4.160e-02,0.2
4.176e-02,0
4.192e-02,0
4.208e-02,0.2
4.224e-02,0.2
4.240e-02,0
4.256e-02,0
4.272e-02,0
4.288e-02,0
4.304e-02,0
4.320e-02,0
4.336e-02,0
4.352e-02,0
4.368e-02,0.2
4.384e-02,0.2
4.400e-02,0
4.416e-02,0
4.432e-02,0
4.448e-02,0
4.464e-02,0
4.480e-02,0.2
4.496e-02,0
4.512e-02,0
4.528e-02,0
4.544e-02,0
4.560e-02,0.2
4.576e-02,0
4.592e-02,0
4.608e-02,0
4.624e-02,0
4.640e-02,0
4.656e-02,0
4.672e-02,0
4.688e-02,0
4.704e-02,0
4.720e-02,0
4.736e-02,0
4.752e-02,0
4.768e-02,0
4.784e-02,0
4.800e-02,0.2
4.816e-02,0
4.832e-02,0
4.848e-02,0
4.864e-02,0
4.880e-02,0
4.896e-02,0
4.912e-02,0
4.928e-02,0
4.944e-02,0
4.960e-02,0
4.976e-02,0
4.992e-02,0
5.008e-02,0
5.024e-02,0
5.040e-02,0
5.056e-02,0
5.072e-02,0
5.088e-02,0
5.104e-02,0
5.120e-02,0
5.136e-02,0
5.152e-02,0
5.168e-02,0
5.184e-02,0
5.200e-02,0
5.216e-02,0
5.232e-02,0
5.248e-02,0
5.264e-02,0
5.280e-02,0
5.296e-02,0
5.312e-02,0
5.328e-02,0
5.344e-02,0
5.360e-02,0
5.376e-02,0
5.392e-02,0
5.408e-02,0
5.424e-02,0
5.440e-02,0
5.456e-02,0
5.472e-02,0
5.488e-02,0
5.504e-02,0
5.520e-02,0
5.536e-02,0
5.552e-02,0
5.568e-02,0
5.584e-02,0
5.600e-02,0
5.616e-02,0
5.632e-02,0
5.648e-02,0
5.664e-02,0
5.680e-02,0
5.696e-02,0
5.712e-02,0
5.728e-02,0
5.744e-02,0
5.760e-02,0
5.776e-02,0
5.792e-02,0
5.808e-02,0
5.824e-02,0
5.840e-02,0
5.856e-02,0
5.872e-02,0
5.888e-02,0
5.904e-02,0
5.920e-02,0
5.936e-02,0.2
5.952e-02,0
5.968e-02,0
5.984e-02,0
6.000e-02,0
6.016e-02,0
6.032e-02,0
6.048e-02,0
6.064e-02,0
6.080e-02,0
6.096e-02,0
6.112e-02,0
6.128e-02,0
6.144e-02,0.2
6.160e-02,0
6.176e-02,0
6.192e-02,0
6.208e-02,0
6.224e-02,0
6.240e-02,0
6.256e-02,0
6.272e-02,0
6.288e-02,0
6.304e-02,0
6.320e-02,0
6.336e-02,0
6.352e-02,0.2
6.368e-02,0
6.384e-02,0
6.400e-02,0
6.416e-02,0
6.432e-02,0
6.448e-02,0
6.464e-02,0
6.480e-02,0
6.496e-02,0
6.512e-02,0
6.528e-02,0
6.544e-02,0
6.560e-02,0
6.576e-02,0
6.592e-02,0
6.608e-02,0.2
6.624e-02,0
6.640e-02,0
6.656e-02,0
6.672e-02,0
6.688e-02,0
6.704e-02,0
6.720e-02,0
6.736e-02,0
6.752e-02,0
6.768e-02,0
6.784e-02,0
6.800e-02,0
6.816e-02,0
6.832e-02,0
6.848e-02,0
6.864e-02,0
6.880e-02,0
6.896e-02,0
6.912e-02,0
6.928e-02,0
6.944e-02,0
6.960e-02,0
6.976e-02,0
6.992e-02,0
7.008e-02,0
7.024e-02,0
7.040e-02,0
7.056e-02,0
7.072e-02,0
7.088e-02,0
7.104e-02,0
7.120e-02,0
7.136e-02,0
7.152e-02,0
7.168e-02,0
7.184e-02,0
7.200e-02,0
7.216e-02,0.2
7.232e-02,0.2
7.248e-02,0
7.264e-02,0
7.280e-02,0
7.296e-02,0
7.312e-02,0
7.328e-02,0
7.344e-02,0
7.360e-02,0
7.376e-02,0
7.392e-02,0
7.408e-02,0
7.424e-02,0
7.440e-02,0
7.456e-02,0.2
7.472e-02,0
7.488e-02,0
7.504e-02,0.2
7.520e-02,0
7.536e-02,0
7.552e-02,0
7.568e-02,0
7.584e-02,0
7.600e-02,0
7.616e-02,0
7.632e-02,0
7.648e-02,0
7.664e-02,0
7.680e-02,0
7.696e-02,0
7.712e-02,0
7.728e-02,0
7.744e-02,0
7.760e-02,0.2
7.776e-02,0
7.792e-02,0
7.808e-02,0
7.824e-02,0
7.840e-02,0
7.856e-02,0
7.872e-02,0
7.888e-02,0
7.904e-02,0
7.920e-02,0.2
7.936e-02,0
7.952e-02,0
7.968e-02,0
7.984e-02,0
8.000e-02,0.2
8.016e-02,0
8.032e-02,0
8.048e-02,0
8.064e-02,0
8.080e-02,0
8.096e-02,0
8.112e-02,0
8.128e-02,0
8.144e-02,0
8.160e-02,0.2
8.176e-02,0
8.192e-02,0
8.208e-02,0
8.224e-02,0
8.240e-02,0
8.256e-02,0
8.272e-02,0
8.288e-02,0.2
8.304e-02,0
8.320e-02,0
8.336e-02,0
8.352e-02,0
8.368e-02,0
8.384e-02,0
8.400e-02,0.2
8.416e-02,0
8.432e-02,0.2
8.448e-02,0
8.464e-02,0
8.480e-02,0.2
8.496e-02,0
8.512e-02,0
8.528e-02,0
8.544e-02,0
8.560e-02,0
8.576e-02,0.2
8.592e-02,0
8.608e-02,0.2
8.624e-02,0
8.640e-02,0
8.656e-02,0
8.672e-02,0
8.688e-02,0
8.704e-02,0
8.720e-02,0
8.736e-02,0
8.752e-02,0.2
8.768e-02,0.2
8.784e-02,0.2
8.800e-02,0
8.816e-02,0
8.832e-02,0
8.848e-02,0
8.864e-02,0.2
8.880e-02,0
8.896e-02,0
8.912e-02,0
8.928e-02,0
8.944e-02,0
8.960e-02,0.2
8.976e-02,0
8.992e-02,0
9.008e-02,0.2
9.024e-02,0
9.040e-02,0
9.056e-02,0
9.072e-02,0
9.088e-02,0
9.104e-02,0
9.120e-02,0
9.136e-02,0
9.152e-02,0
9.168e-02,0
9.184e-02,0
9.200e-02,0
9.216e-02,0
9.232e-02,0.2
9.248e-02,0
9.264e-02,0
9.280e-02,0
9.296e-02,0
9.312e-02,0
9.328e-02,0
9.344e-02,0
9.360e-02,0
9.376e-02,0
9.392e-02,0.2
9.408e-02,0
9.424e-02,0
9.440e-02,0
9.456e-02,0
9.472e-02,0
9.488e-02,0
9.504e-02,0
9.520e-02,0
9.536e-02,0
9.552e-02,0
9.568e-02,0
9.584e-02,0
9.600e-02,0
9.616e-02,0
9.632e-02,0
9.648e-02,0
9.664e-02,0
9.680e-02,0
9.696e-02,0
9.712e-02,0
9.728e-02,0
9.744e-02,0
9.760e-02,0
9.776e-02,0
9.792e-02,0
9.808e-02,0
9.824e-02,0
9.840e-02,0
9.856e-02,0
9.872e-02,0
9.888e-02,0
9.904e-02,0
9.920e-02,0
9.936e-02,0
9.952e-02,0
9.968e-02,0
9.984e-02,0
1.000e-01,0
1.002e-01,0
1.003e-01,0
1.005e-01,0
1.006e-01,0
1.008e-01,0
1.010e-01,0
1.011e-01,0
1.013e-01,0
1.014e-01,0.2
1.016e-01,0
1.018e-01,0
1.019e-01,0
1.021e-01,0
1.022e-01,0
1.024e-01,0
1.026e-01,0.2
1.027e-01,0
1.029e-01,0
1.030e-01,0
1.032e-01,0
1.034e-01,0
1.035e-01,0
1.037e-01,0
1.038e-01,0
1.040e-01,0.2
1.042e-01,0
1.043e-01,0
1.045e-01,0
1.046e-01,0
1.048e-01,0
1.050e-01,0
1.051e-01,0
1.053e-01,0
1.054e-01,0
1.056e-01,0
1.058e-01,0
1.059e-01,0
1.061e-01,0
1.062e-01,0
1.064e-01,0
1.066e-01,0
1.067e-01,0.2
1.069e-01,0
1.070e-01,0
1.072e-01,0
1.074e-01,0.2
1.075e-01,0
1.077e-01,0
1.078e-01,0
1.080e-01,0
1.082e-01,0
1.083e-01,0
1.085e-01,0
1.086e-01,0
1.088e-01,0
1.090e-01,0
1.091e-01,0
1.093e-01,0
1.094e-01,0
1.096e-01,0
1.098e-01,0.2
1.099e-01,0
1.101e-01,0
1.102e-01,0
1.104e-01,0
1.106e-01,0
1.107e-01,0
1.109e-01,0
1.110e-01,0
1.112e-01,0
1.114e-01,0
1.115e-01,0
1.117e-01,0
1.118e-01,0.2
1.120e-01,0
1.122e-01,0
1.123e-01,0
1.125e-01,0
1.126e-01,0
1.128e-01,0
1.130e-01,0
1.131e-01,0
1.133e-01,0
1.134e-01,0
1.136e-01,0
1.138e-01,0
1.139e-01,0
1.141e-01,0
1.142e-01,0
1.144e-01,0
1.146e-01,0
1.147e-01,0
1.149e-01,0
1.150e-01,0
1.152e-01,0
1.154e-01,0
1.155e-01,0
1.157e-01,0
1.158e-01,0
1.160e-01,0
1.162e-01,0
1.163e-01,0
1.165e-01,0
1.166e-01,0
1.168e-01,0
1.170e-01,0
1.171e-01,0
1.173e-01,0
1.174e-01,0
1.176e-01,0
1.178e-01,0
1.179e-01,0
1.181e-01,0.2
1.182e-01,0
1.184e-01,0
1.186e-01,0
1.187e-01,0
1.189e-01,0
1.190e-01,0
1.192e-01,0
1.194e-01,0
1.195e-01,0
1.197e-01,0
1.198e-01,0
1.200e-01,0
1.202e-01,0
1.203e-01,0
1.205e-01,0
1.206e-01,0
1.208e-01,0
1.210e-01,0
1.211e-01,0
1.213e-01,0
1.214e-01,0
1.216e-01,0
1.218e-01,0
1.219e-01,0
1.221e-01,0
1.222e-01,0
1.224e-01,0
1.226e-01,0
1.227e-01,0
1.229e-01,0
1.230e-01,0
1.232e-01,0
1.234e-01,0
1.235e-01,0
1.237e-01,0
1.238e-01,0
1.240e-01,0
1.242e-01,0
1.243e-01,0.2
1.245e-01,0
1.246e-01,0
1.248e-01,0
1.250e-01,0
1.251e-01,0
1.253e-01,0
1.254e-01,0
1.256e-01,0
1.258e-01,0
1.259e-01,0
1.261e-01,0
1.262e-01,0
1.264e-01,0
1.266e-01,0
1.267e-01,0
1.269e-01,0
1.270e-01,0
1.272e-01,0
1.274e-01,0
1.275e-01,0
1.277e-01,0
1.278e-01,0
1.280e-01,0
1.282e-01,0
1.283e-01,0
1.285e-01,0
1.286e-01,0
1.288e-01,0
1.290e-01,0.2
1.291e-01,0
1.293e-01,0
1.294e-01,0
1.296e-01,0
1.298e-01,0
1.299e-01,0
1.301e-01,0
1.302e-01,0
1.304e-01,0
1.306e-01,0
1.307e-01,0
1.309e-01,0
1.310e-01,0.2
1.312e-01,0
1.314e-01,0
1.315e-01,0
1.317e-01,-0.2
1.318e-01,0
1.320e-01,0
1.322e-01,0
1.323e-01,0
1.325e-01,0
1.326e-01,0
1.328e-01,0
1.330e-01,0
1.331e-01,0
1.333e-01,0
1.334e-01,0
1.336e-01,0
1.338e-01,0
1.339e-01,0
1.341e-01,0
1.342e-01,0
1.344e-01,0
1.346e-01,0
1.347e-01,0
1.349e-01,0
1.350e-01,0
1.352e-01,0
1.354e-01,0
1.355e-01,0
1.357e-01,0
1.358e-01,0
1.360e-01,0
1.362e-01,0
1.363e-01,0
1.365e-01,0
1.366e-01,0
1.368e-01,0
1.370e-01,0
1.371e-01,0
1.373e-01,0
1.374e-01,0
1.376e-01,0
1.378e-01,0
1.379e-01,0
1.381e-01,0
1.382e-01,0
1.384e-01,0
1.386e-01,0
1.387e-01,0
1.389e-01,0
1.390e-01,0
1.392e-01,0
1.394e-01,0
1.395e-01,0.2
1.397e-01,0
1.398e-01,0
1.400e-01,0
1.402e-01,0
1.403e-01,0
1.405e-01,0
1.406e-01,0
1.408e-01,0
1.410e-01,0
1.411e-01,0.2
1.413e-01,0
1.414e-01,0
1.416e-01,0
1.418e-01,0
1.419e-01,0
1.421e-01,0
1.422e-01,0
1.424e-01,0
1.426e-01,0
1.427e-01,0.2
1.429e-01,0
1.430e-01,0
1.432e-01,0
1.434e-01,0
1.435e-01,0.2
1.437e-01,0
1.438e-01,0
1.440e-01,0
1.442e-01,0
1.443e-01,0
1.445e-01,0
1.446e-01,0
1.448e-01,0
1.450e-01,0
1.451e-01,0
1.453e-01,0
1.454e-01,0.2
1.456e-01,0
1.458e-01,0
1.459e-01,0
1.461e-01,0
1.462e-01,0
1.464e-01,0
1.466e-01,0
1.467e-01,0
1.469e-01,0
1.470e-01,0
1.472e-01,0
1.474e-01,0
1.475e-01,0
1.477e-01,0.2
1.478e-01,0
1.480e-01,0.2
1.482e-01,0
1.483e-01,0
1.485e-01,0
1.486e-01,0
1.488e-01,0
1.490e-01,0
1.491e-01,0.2
1.493e-01,0
1.494e-01,0
1.496e-01,0
1.498e-01,0
1.499e-01,0
1.501e-01,0
1.502e-01,0
1.504e-01,0
1.506e-01,0
1.507e-01,0
1.509e-01,0.2
1.510e-01,0
1.512e-01,0
1.514e-01,0
1.515e-01,0.2
1.517e-01,0
1.518e-01,0
1.520e-01,0
1.522e-01,0
1.523e-01,0.2
1.525e-01,0
1.526e-01,0
1.528e-01,0
1.530e-01,0
1.531e-01,0.2
1.533e-01,0
1.534e-01,0
1.536e-01,0
1.538e-01,0
1.539e-01,0.2
1.541e-01,0
1.542e-01,0
1.544e-01,0
1.546e-01,0
1.547e-01,0
1.549e-01,0
1.550e-01,0.2
1.552e-01,0
1.554e-01,0
1.555e-01,0
1.557e-01,0
1.558e-01,0
1.560e-01,0
1.562e-01,0
1.563e-01,0
1.565e-01,0
1.566e-01,0
1.568e-01,0
1.570e-01,0
1.571e-01,0
1.573e-01,0
1.574e-01,0
1.576e-01,0
1.578e-01,0
1.579e-01,0
1.581e-01,0
1.582e-01,0
1.584e-01,0
1.586e-01,0
1.587e-01,0
1.589e-01,0
1.590e-01,0
1.592e-01,0.2
1.594e-01,0
1.595e-01,0
1.597e-01,0
1.598e-01,0
1.600e-01,0
1.602e-01,0
1.603e-01,0
1.605e-01,0
1.606e-01,0
1.608e-01,0
1.610e-01,0
1.611e-01,0
1.613e-01,0
1.614e-01,0
1.616e-01,0
1.618e-01,0
1.619e-01,0
1.621e-01,0.2
1.622e-01,0
1.624e-01,0
1.626e-01,0.2
1.627e-01,0
1.629e-01,0
1.630e-01,0
1.632e-01,0
1.634e-01,0.2
1.635e-01,0
1.637e-01,0
1.638e-01,0
1.640e-01,0
1.642e-01,0
1.643e-01,0
1.645e-01,0.2
1.646e-01,0
1.648e-01,0
1.650e-01,0
1.651e-01,0
1.653e-01,0
1.654e-01,0
1.656e-01,0
1.658e-01,0.2
1.659e-01,0
1.661e-01,0
1.662e-01,0
1.664e-01,0
1.666e-01,0
1.667e-01,0
1.669e-01,0
1.670e-01,0
1.672e-01,0
1.674e-01,0.2
1.675e-01,0.2
1.677e-01,0
1.678e-01,0
1.680e-01,0
1.682e-01,0
1.683e-01,0
1.685e-01,0
1.686e-01,0
1.688e-01,0
1.690e-01,0
1.691e-01,0
1.693e-01,0
1.694e-01,0
1.696e-01,0
1.698e-01,0
1.699e-01,0
1.701e-01,0
1.702e-01,0
1.704e-01,0
1.706e-01,0
1.707e-01,0
1.709e-01,0
1.710e-01,0
1.712e-01,0
1.714e-01,0
1.715e-01,0
1.717e-01,0
1.718e-01,0
1.720e-01,0
1.722e-01,0
1.723e-01,0.2
1.725e-01,0.2
1.726e-01,0
1.728e-01,0
1.730e-01,0
1.731e-01,0
1.733e-01,0
1.734e-01,0.2
1.736e-01,0
1.738e-01,0
1.739e-01,0
1.741e-01,0
1.742e-01,0
1.744e-01,0
1.746e-01,0
1.747e-01,0
1.749e-01,0
1.750e-01,0
1.752e-01,0.2
1.754e-01,0.2
1.755e-01,0
1.757e-01,0
1.758e-01,0
1.760e-01,0
1.762e-01,0
1.763e-01,0
1.765e-01,0
1.766e-01,0
1.768e-01,0
1.770e-01,0
1.771e-01,0
1.773e-01,0
1.774e-01,0
1.776e-01,0
1.778e-01,0
1.779e-01,0
1.781e-01,0
1.782e-01,0.2
1.784e-01,0.2
1.786e-01,0
1.787e-01,0
1.789e-01,0
1.790e-01,0
1.792e-01,0
1.794e-01,0
1.795e-01,0
1.797e-01,0
1.798e-01,0
1.800e-01,0
1.802e-01,0
1.803e-01,0
1.805e-01,0
1.806e-01,0
1.808e-01,0
1.810e-01,0
1.811e-01,0
1.813e-01,0
1.814e-01,0
1.816e-01,0
1.818e-01,0
1.819e-01,0
1.821e-01,0
1.822e-01,0
1.824e-01,0
1.826e-01,0
1.827e-01,0
1.829e-01,0
1.830e-01,0
1.832e-01,0
1.834e-01,0
1.835e-01,0
1.837e-01,0
1.838e-01,0.2
1.840e-01,0
1.842e-01,0
1.843e-01,0
1.845e-01,0
1.846e-01,0
1.848e-01,0
1.850e-01,0
1.851e-01,0
1.853e-01,0
1.854e-01,0
1.856e-01,0
1.858e-01,0.2
1.859e-01,0
1.861e-01,0
1.862e-01,0
1.864e-01,0
1.866e-01,0
1.867e-01,0.2
1.869e-01,0
1.870e-01,0
1.872e-01,0
1.874e-01,0
1.875e-01,0.2
1.877e-01,0
1.878e-01,0
1.880e-01,0
1.882e-01,0
1.883e-01,0
1.885e-01,0
1.886e-01,0
1.888e-01,0
1.890e-01,0
1.891e-01,0
1.893e-01,0
1.894e-01,0
1.896e-01,0
1.898e-01,0
1.899e-01,0.2
1.901e-01,0
1.902e-01,0
1.904e-01,0
1.906e-01,0
1.907e-01,0
1.909e-01,0
1.910e-01,0
1.912e-01,0
1.914e-01,0
1.915e-01,0
1.917e-01,0.2
1.918e-01,0
1.920e-01,0
1.922e-01,0
1.923e-01,0
1.925e-01,0
