data/PSU_switch/PSU2_CC_40A_ON.CSV

Model,TBS1102C
Firmware Version,v2015-08-04-prequal4ch70_v1.3

Point Format,Y
Horizontal Units,S
Horizontal Scale,0.02
Sample Interval,0.00016
Filter Frequency,2e+08
Record Length,2000
Gating,0.0% to 100.0%
Probe Attenuation,1
Vertical Units,V
Vertical Offset,0
Vertical Scale,5
Label,
TIME,CH1
-6.080e-02,0
-6.064e-02,0
-6.048e-02,0
-6.032e-02,0
-6.016e-02,0
-6.000e-02,0
-5.984e-02,0
-5.968e-02,0
-5.952e-02,0
-5.936e-02,0
-5.920e-02,0
-5.904e-02,0
-5.888e-02,0
-5.872e-02,0
-5.856e-02,0
-5.840e-02,0
-5.824e-02,0
-5.808e-02,0
-5.792e-02,0
-5.776e-02,0
-5.760e-02,0
-5.744e-02,0
-5.728e-02,0
-5.712e-02,0.2
-5.696e-02,0
-5.680e-02,0
-5.664e-02,0
-5.648e-02,0
-5.632e-02,0
-5.616e-02,0
-5.600e-02,0
-5.584e-02,0
-5.568e-02,0
-5.552e-02,0.2
-5.536e-02,0.2
-5.520e-02,0
-5.504e-02,0
-5.488e-02,0
-5.472e-02,0
-5.456e-02,0
-5.440e-02,0
-5.424e-02,0.2
-5.408e-02,0
-5.392e-02,0
-5.376e-02,0
-5.360e-02,0
-5.344e-02,0.2
-5.328e-02,0
-5.312e-02,0
-5.296e-02,0
-5.280e-02,0
-5.264e-02,0
-5.248e-02,0
-5.232e-02,0
-5.216e-02,0
-5.200e-02,0
-5.184e-02,0
-5.168e-02,0
-5.152e-02,0
-5.136e-02,0
-5.120e-02,0
-5.104e-02,0
-5.088e-02,0
-5.072e-02,0
-5.056e-02,0
-5.040e-02,0
-5.024e-02,0
-5.008e-02,0
-4.992e-02,0
-4.976e-02,0
-4.960e-02,0
-4.944e-02,0
-4.928e-02,0
-4.912e-02,0
-4.896e-02,0
-4.880e-02,0
-4.864e-02,0
-4.848e-02,0
-4.832e-02,0
-4.816e-02,0
-4.800e-02,0
-4.784e-02,0
-4.768e-02,0
-4.752e-02,0
-4.736e-02,0
-4.720e-02,0
-4.704e-02,0
-4.688e-02,0.2
-4.672e-02,0
-4.656e-02,0
-4.640e-02,0
-4.624e-02,0.2
-4.608e-02,0
-4.592e-02,0
-4.576e-02,0
-4.560e-02,0
-4.544e-02,0
-4.528e-02,0
-4.512e-02,0
-4.496e-02,0
-4.480e-02,0
-4.464e-02,0
-4.448e-02,0
-4.432e-02,0
-4.416e-02,0
-4.400e-02,0.2
-4.384e-02,0
-4.368e-02,0
-4.352e-02,0
-4.336e-02,0
-4.320e-02,0
-4.304e-02,0
-4.288e-02,0
-4.272e-02,0
-4.256e-02,0
-4.240e-02,0
-4.224e-02,0
-4.208e-02,0
-4.192e-02,0
-4.176e-02,0
-4.160e-02,0
-4.144e-02,0
-4.128e-02,0.2
-4.112e-02,0
-4.096e-02,0
-4.080e-02,0
-4.064e-02,0
-4.048e-02,0
-4.032e-02,0
-4.016e-02,0
-4.000e-02,0
-3.984e-02,0
-3.968e-02,0
-3.952e-02,0
-3.936e-02,0
-3.920e-02,0
-3.904e-02,0
-3.888e-02,0.2
-3.872e-02,0
-3.856e-02,0
-3.840e-02,0
-3.824e-02,0
-3.808e-02,0
-3.792e-02,0
-3.776e-02,0
-3.760e-02,0
-3.744e-02,0
-3.728e-02,0
-3.712e-02,0
-3.696e-02,0
-3.680e-02,0
-3.664e-02,0
-3.648e-02,0
-3.632e-02,0
-3.616e-02,0
-3.600e-02,0.2
-3.584e-02,0
-3.568e-02,0
-3.552e-02,0
-3.536e-02,0
-3.520e-02,0
-3.504e-02,0
-3.488e-02,0
-3.472e-02,0
-3.456e-02,0
-3.440e-02,0
-3.424e-02,0
-3.408e-02,0
-3.392e-02,0.2
-3.376e-02,0
-3.360e-02,0.2
-3.344e-02,0
-3.328e-02,0
-3.312e-02,0
-3.296e-02,0
-3.280e-02,0
-3.264e-02,0
-3.248e-02,0
-3.232e-02,0
-3.216e-02,0
-3.200e-02,0
-3.184e-02,0.2
-3.168e-02,0
-3.152e-02,0.2
-3.136e-02,0
-3.120e-02,0
-3.104e-02,0
-3.088e-02,0
-3.072e-02,0
-3.056e-02,0
-3.040e-02,0
-3.024e-02,0
-3.008e-02,0
-2.992e-02,0
-2.976e-02,0
-2.960e-02,0.2
-2.944e-02,0
-2.928e-02,0
-2.912e-02,0
-2.896e-02,0
-2.880e-02,0
-2.864e-02,0.2
-2.848e-02,0
-2.832e-02,0
-2.816e-02,0
-2.800e-02,0
-2.784e-02,0
-2.768e-02,0
-2.752e-02,0
-2.736e-02,0
-2.720e-02,0
-2.704e-02,0
-2.688e-02,0
-2.672e-02,0
-2.656e-02,0
-2.640e-02,0
-2.624e-02,0
-2.608e-02,0.2
-2.592e-02,0
-2.576e-02,0
-2.560e-02,0
-2.544e-02,0
-2.528e-02,0.2
-2.512e-02,0
-2.496e-02,0
-2.480e-02,0
-2.464e-02,0
-2.448e-02,0
-2.432e-02,0
-2.416e-02,0
-2.400e-02,0
-2.384e-02,0
-2.368e-02,0
-2.352e-02,0
-2.336e-02,0.2
-2.320e-02,0
-2.304e-02,0
-2.288e-02,0
-2.272e-02,0
-2.256e-02,0
-2.240e-02,0.2
-2.224e-02,0
-2.208e-02,0
-2.192e-02,0
-2.176e-02,0
-2.160e-02,0
-2.144e-02,0
-2.128e-02,0
-2.112e-02,0
-2.096e-02,0
-2.080e-02,0
-2.064e-02,0
-2.048e-02,0
-2.032e-02,0
-2.016e-02,0
-2.000e-02,0
-1.984e-02,0
-1.968e-02,0
-1.952e-02,0
-1.936e-02,0
-1.920e-02,0
-1.904e-02,0
-1.888e-02,0
-1.872e-02,0
-1.856e-02,0
-1.840e-02,0
-1.824e-02,0.2
-1.808e-02,0
-1.792e-02,0
-1.776e-02,0.2
-1.760e-02,0
-1.744e-02,0
-1.728e-02,0
-1.712e-02,0
-1.696e-02,0
-1.680e-02,0
-1.664e-02,0
-1.648e-02,0
-1.632e-02,0
-1.616e-02,0
-1.600e-02,0
-1.584e-02,0
-1.568e-02,0
-1.552e-02,0
-1.536e-02,0
-1.520e-02,0
-1.504e-02,0
-1.488e-02,0
-1.472e-02,0
-1.456e-02,0
-1.440e-02,0
-1.424e-02,0
-1.408e-02,0
-1.392e-02,0
-1.376e-02,0
-1.360e-02,0
-1.344e-02,0
-1.328e-02,0
-1.312e-02,0
-1.296e-02,0
-1.280e-02,0
-1.264e-02,0
-1.248e-02,0
-1.232e-02,0
-1.216e-02,0
-1.200e-02,0.2
-1.184e-02,0
-1.168e-02,0.2
-1.152e-02,0
-1.136e-02,0
-1.120e-02,0
-1.104e-02,0
-1.088e-02,0
-1.072e-02,0
-1.056e-02,0
-1.040e-02,0.2
-1.024e-02,0
-1.008e-02,0
-9.920e-03,0.2
-9.760e-03,0
-9.600e-03,0
-9.440e-03,0
-9.280e-03,0
-9.120e-03,0
-8.960e-03,0
-8.800e-03,0
-8.640e-03,0
-8.480e-03,0
-8.320e-03,0
-8.160e-03,0.2
-8.000e-03,0
-7.840e-03,0
-7.680e-03,0
-7.520e-03,0
-7.360e-03,0
-7.200e-03,0
-7.040e-03,0
-6.880e-03,0.2
-6.720e-03,0
-6.560e-03,0
-6.400e-03,0
-6.240e-03,0
-6.080e-03,0
-5.920e-03,0
-5.760e-03,0
-5.600e-03,0.2
-5.440e-03,0
-5.280e-03,0
-5.120e-03,0
-4.960e-03,0
-4.800e-03,0
-4.640e-03,0
-4.480e-03,0
-4.320e-03,0
-4.160e-03,0
-4.000e-03,0
-3.840e-03,0
-3.680e-03,0
-3.520e-03,0
-3.360e-03,0
-3.200e-03,0
-3.040e-03,0
-2.880e-03,0
-2.720e-03,0
-2.560e-03,0
-2.400e-03,0
-2.240e-03,0
-2.080e-03,0.2
-1.920e-03,0
-1.760e-03,0
-1.600e-03,0.2
-1.440e-03,0
-1.280e-03,0
-1.120e-03,0
-9.600e-04,0
-8.000e-04,0
-6.400e-04,0.8
-4.800e-04,2
-3.200e-04,3.2
-1.600e-04,4.4
1.834e-16,5.4
1.600e-04,6.4
3.200e-04,7.4
4.800e-04,8.4
6.400e-04,9.2
8.000e-04,10.2
9.600e-04,11
1.120e-03,11.8
1.280e-03,12.6
1.440e-03,13.4
1.600e-03,14
1.760e-03,14.8
1.920e-03,15.4
2.080e-03,16.2
2.240e-03,16.8
2.400e-03,17.4
2.560e-03,17.8
2.720e-03,18.4
2.880e-03,19
3.040e-03,19.4
3.200e-03,19.6
3.360e-03,20.2
3.520e-03,20.4
3.680e-03,20.8
3.840e-03,21.2
4.000e-03,21.4
4.160e-03,21.8
4.320e-03,22
4.480e-03,22.4
4.640e-03,22.6
4.800e-03,22.8
4.960e-03,23
5.120e-03,23.2
5.280e-03,23.4
5.440e-03,23.6
5.600e-03,24
5.760e-03,24.2
5.920e-03,24.2
6.080e-03,24.6
6.240e-03,24.6
6.400e-03,24.8
6.560e-03,24.8
6.720e-03,24.8
6.880e-03,24.6
7.040e-03,24.4
7.200e-03,24.4
7.360e-03,24.4
7.520e-03,24.6
7.680e-03,24.2
7.840e-03,24.2
8.000e-03,24.2
8.160e-03,24
8.320e-03,24
8.480e-03,24
8.640e-03,24
8.800e-03,24
8.960e-03,23.8
9.120e-03,23.6
9.280e-03,23.6
9.440e-03,23.6
9.600e-03,23.6
9.760e-03,23.4
9.920e-03,23.4
1.008e-02,23.4
1.024e-02,23.4
1.040e-02,23.2
1.056e-02,23.2
1.072e-02,23.2
1.088e-02,23
1.104e-02,23
1.120e-02,23
1.136e-02,23
1.152e-02,22.8
1.168e-02,22.8
1.184e-02,22.8
1.200e-02,22.8
1.216e-02,22.6
1.232e-02,22.8
1.248e-02,22.6
1.264e-02,22.4
1.280e-02,22.6
1.296e-02,22.4
1.312e-02,22.4
1.328e-02,22.2
1.344e-02,22.2
1.360e-02,22.2
1.376e-02,22.2
1.392e-02,22
1.408e-02,22
1.424e-02,22
1.440e-02,21.8
1.456e-02,21.8
1.472e-02,21.8
1.488e-02,21.8
1.504e-02,21.8
1.520e-02,21.6
1.536e-02,21.6
1.552e-02,21.6
1.568e-02,21.6
1.584e-02,21.4
1.600e-02,21.4
1.616e-02,21.4
1.632e-02,21.6
1.648e-02,21.2
1.664e-02,21.2
1.680e-02,21.2
1.696e-02,21.2
1.712e-02,21
1.728e-02,21
1.744e-02,21
1.760e-02,21
1.776e-02,21
1.792e-02,21
1.808e-02,20.8
1.824e-02,21
1.840e-02,20.8
1.856e-02,20.6
1.872e-02,20.6
1.888e-02,20.6
1.904e-02,20.6
1.920e-02,20.4
1.936e-02,20.4
1.952e-02,20.4
1.968e-02,20.4
1.984e-02,20.4
2.000e-02,20.2
2.016e-02,20.2
2.032e-02,20.2
2.048e-02,20.2
2.064e-02,20.2
2.080e-02,20.2
2.096e-02,20
2.112e-02,20
2.128e-02,20
2.144e-02,20
2.160e-02,19.8
2.176e-02,19.8
2.192e-02,20
2.208e-02,19.8
2.224e-02,19.8
2.240e-02,19.8
2.256e-02,19.8
2.272e-02,19.8
2.288e-02,19.6
2.304e-02,19.6
2.320e-02,19.6
2.336e-02,19.6
2.352e-02,19.4
2.368e-02,19.4
2.384e-02,19.4
2.400e-02,19.2
2.416e-02,19.4
2.432e-02,19.2
2.448e-02,19.4
2.464e-02,19.2
2.480e-02,19.2
2.496e-02,19.2
2.512e-02,19.2
2.528e-02,19
2.544e-02,19
2.560e-02,19
2.576e-02,19
2.592e-02,19
2.608e-02,18.8
2.624e-02,19
2.640e-02,18.8
2.656e-02,18.8
2.672e-02,18.8
2.688e-02,18.8
2.704e-02,18.8
2.720e-02,18.6
2.736e-02,18.6
2.752e-02,18.6
2.768e-02,18.6
2.784e-02,18.4
2.800e-02,18.6
2.816e-02,18.4
2.832e-02,18.4
2.848e-02,18.4
2.864e-02,18.4
2.880e-02,18.4
2.896e-02,18.4
2.912e-02,18.2
2.928e-02,18.2
2.944e-02,18.2
2.960e-02,18.2
2.976e-02,18.2
2.992e-02,18.2
3.008e-02,18.2
3.024e-02,18.2
3.040e-02,18
3.056e-02,18
3.072e-02,18
3.088e-02,18
3.104e-02,18
3.120e-02,17.8
3.136e-02,17.8
3.152e-02,17.8
3.168e-02,17.8
3.184e-02,17.8
3.200e-02,17.8
3.216e-02,17.8
3.232e-02,17.6
3.248e-02,17.6
3.264e-02,17.6
3.280e-02,17.6
3.296e-02,17.6
3.312e-02,17.4
3.328e-02,17.4
3.344e-02,17.4
3.360e-02,17.4
3.376e-02,17.4
3.392e-02,17.4
3.408e-02,17.4
3.424e-02,17.4
3.440e-02,17.2
3.456e-02,17
3.472e-02,17.2
3.488e-02,17.2
3.504e-02,17.2
3.520e-02,17.2
3.536e-02,17.2
3.552e-02,17.2
3.568e-02,17
3.584e-02,17
3.600e-02,17
3.616e-02,16.8
3.632e-02,16.8
3.648e-02,16.8
3.664e-02,16.8
3.680e-02,16.8
3.696e-02,16.8
3.712e-02,16.8
3.728e-02,16.8
3.744e-02,16.8
3.760e-02,16.8
3.776e-02,16.8
3.792e-02,16.8
3.808e-02,16.6
3.824e-02,16.6
3.840e-02,16.6
3.856e-02,16.6
3.872e-02,16.6
3.888e-02,16.6
3.904e-02,16.6
3.920e-02,16.6
3.936e-02,16.6
3.952e-02,16.4
3.968e-02,16.4
3.984e-02,16.4
4.000e-02,16.4
4.016e-02,16.4
4.032e-02,16.2
4.048e-02,16.4
4.064e-02,16.2
4.080e-02,16.2
4.096e-02,16.2
4.112e-02,16.2
4.128e-02,16.2
4.144e-02,16.2
4.160e-02,16.2
4.176e-02,16.2
4.192e-02,16
4.208e-02,16
4.224e-02,16
4.240e-02,16
4.256e-02,16
4.272e-02,16
4.288e-02,16
4.304e-02,15.8
4.320e-02,15.8
4.336e-02,15.8
4.352e-02,15.8
4.368e-02,15.8
4.384e-02,15.8
4.400e-02,15.8
4.416e-02,15.8
4.432e-02,15.6
4.448e-02,15.8
4.464e-02,15.6
4.480e-02,15.6
4.496e-02,15.6
4.512e-02,15.6
4.528e-02,15.6
4.544e-02,15.6
4.560e-02,15.6
4.576e-02,15.6
4.592e-02,15.6
4.608e-02,15.4
4.624e-02,15.6
4.640e-02,15.4
4.656e-02,15.4
4.672e-02,15.4
4.688e-02,15.4
4.704e-02,15.4
4.720e-02,15.4
4.736e-02,15.2
4.752e-02,15.4
4.768e-02,15.4
4.784e-02,15.2
4.800e-02,15.2
4.816e-02,15.2
4.832e-02,15
4.848e-02,15.2
4.864e-02,15.2
4.880e-02,15.2
4.896e-02,15.2
4.912e-02,15.2
4.928e-02,15.2
4.944e-02,15.2
4.960e-02,15
4.976e-02,15
4.992e-02,15
5.008e-02,15
5.024e-02,15
5.040e-02,15
5.056e-02,15
5.072e-02,14.8
5.088e-02,14.8
5.104e-02,14.8
5.120e-02,15
5.136e-02,14.8
5.152e-02,14.8
5.168e-02,14.8
5.184e-02,14.6
5.200e-02,14.6
5.216e-02,14.8
5.232e-02,14.8
5.248e-02,14.8
5.264e-02,14.8
5.280e-02,14.6
5.296e-02,14.8
5.312e-02,14.8
5.328e-02,14.6
5.344e-02,14.6
5.360e-02,14.6
5.376e-02,14.6
5.392e-02,14.6
5.408e-02,14.6
5.424e-02,14.6
5.440e-02,14.6
5.456e-02,14.6
5.472e-02,14.6
5.488e-02,14.6
5.504e-02,14.4
5.520e-02,14.4
5.536e-02,14.4
5.552e-02,14.4
5.568e-02,14.4
5.584e-02,14.4
5.600e-02,14.2
5.616e-02,14.4
5.632e-02,14.2
5.648e-02,14.4
5.664e-02,14.4
5.680e-02,14.2
5.696e-02,14.2
5.712e-02,14.2
5.728e-02,14.2
5.744e-02,14.2
5.760e-02,14.2
5.776e-02,14.2
5.792e-02,14.2
5.808e-02,14.2
5.824e-02,14.2
5.840e-02,14.2
5.856e-02,14.2
5.872e-02,14
5.888e-02,14
5.904e-02,14
5.920e-02,14.2
5.936e-02,14
5.952e-02,14
5.968e-02,14
5.984e-02,14
6.000e-02,14
6.016e-02,14
6.032e-02,14
6.048e-02,14
6.064e-02,14
6.080e-02,14
6.096e-02,14
6.112e-02,13.8
6.128e-02,13.8
6.144e-02,13.8
6.160e-02,14
6.176e-02,13.8
6.192e-02,13.8
6.208e-02,13.6
6.224e-02,13.6
6.240e-02,13.8
6.256e-02,13.8
6.272e-02,13.8
6.288e-02,13.6
6.304e-02,13.8
6.320e-02,13.8
6.336e-02,13.8
6.352e-02,13.6
6.368e-02,13.8
6.384e-02,13.8
6.400e-02,13.6
6.416e-02,13.6
6.432e-02,13.6
6.448e-02,13.6
6.464e-02,13.6
6.480e-02,13.6
6.496e-02,13.4
6.512e-02,13.6
6.528e-02,13.4
6.544e-02,13.6
6.560e-02,13.4
6.576e-02,13.6
6.592e-02,13.6
6.608e-02,13.4
6.624e-02,13.4
6.640e-02,13.4
6.656e-02,13.4
6.672e-02,13.6
6.688e-02,13.4
6.704e-02,13.4
6.720e-02,13.4
6.736e-02,13.4
6.752e-02,13.4
6.768e-02,13.4
6.784e-02,13.4
6.800e-02,13.4
6.816e-02,13.4
6.832e-02,13.4
6.848e-02,13.4
6.864e-02,13.4
6.880e-02,13.4
6.896e-02,13.4
6.912e-02,13.4
6.928e-02,13.4
6.944e-02,13.2
6.960e-02,13.4
6.976e-02,13.2
6.992e-02,13.2
7.008e-02,13
7.024e-02,13.2
7.040e-02,13.2
7.056e-02,13.2
7.072e-02,13.2
7.088e-02,13.2
7.104e-02,13.2
7.120e-02,13.2
7.136e-02,13.2
7.152e-02,13.2
7.168e-02,13.2
7.184e-02,13.2
7.200e-02,13.2
7.216e-02,13
7.232e-02,13.2
7.248e-02,13.2
7.264e-02,13
7.280e-02,13
7.296e-02,13
7.312e-02,13
7.328e-02,13
7.344e-02,13.2
7.360e-02,13
7.376e-02,13
7.392e-02,13
7.408e-02,13
7.424e-02,13
7.440e-02,13
7.456e-02,13
7.472e-02,13
7.488e-02,13
7.504e-02,13
7.520e-02,13
7.536e-02,12.8
7.552e-02,13
7.568e-02,13
7.584e-02,12.8
7.600e-02,12.8
7.616e-02,12.8
7.632e-02,12.8
7.648e-02,12.8
7.664e-02,12.8
7.680e-02,12.8
7.696e-02,12.8
7.712e-02,12.8
7.728e-02,12.6
7.744e-02,12.8
7.760e-02,12.8
7.776e-02,12.8
7.792e-02,12.8
7.808e-02,12.8
7.824e-02,12.8
7.840e-02,12.6
7.856e-02,12.8
7.872e-02,12.8
7.888e-02,12.6
7.904e-02,12.6
7.920e-02,12.4
7.936e-02,12.6
7.952e-02,12.6
7.968e-02,12.6
7.984e-02,12.8
8.000e-02,12.6
8.016e-02,12.4
8.032e-02,12.6
8.048e-02,12.6
8.064e-02,12.6
8.080e-02,12.6
8.096e-02,12.6
8.112e-02,12.6
8.128e-02,12.6
8.144e-02,12.4
8.160e-02,12.4
8.176e-02,12.6
8.192e-02,12.4
8.208e-02,12.6
8.224e-02,12.4
8.240e-02,12.6
8.256e-02,12.6
8.272e-02,12.6
8.288e-02,12.4
8.304e-02,12.4
8.320e-02,12.4
8.336e-02,12.4
8.352e-02,12.4
8.368e-02,12.4
8.384e-02,12.4
8.400e-02,12.4
8.416e-02,12.4
8.432e-02,12.4
8.448e-02,12.2
8.464e-02,12.4
8.480e-02,12.4
8.496e-02,12.4
8.512e-02,12.4
8.528e-02,12.4
8.544e-02,12.4
8.560e-02,12.4
8.576e-02,12.4
8.592e-02,12.4
8.608e-02,12.4
8.624e-02,12.4
8.640e-02,12.4
8.656e-02,12.2
8.672e-02,12.4
8.688e-02,12.2
8.704e-02,12.4
8.720e-02,12.2
8.736e-02,12.2
8.752e-02,12.2
8.768e-02,12.2
8.784e-02,12.2
8.800e-02,12.2
8.816e-02,12.2
8.832e-02,12.2
8.848e-02,12.2
8.864e-02,12.2
8.880e-02,12.2
8.896e-02,12
8.912e-02,12.2
8.928e-02,12.2
8.944e-02,12
8.960e-02,12.2
8.976e-02,12.2
8.992e-02,12.2
9.008e-02,12.2
9.024e-02,12.2
9.040e-02,12.2
9.056e-02,12.2
9.072e-02,12.2
9.088e-02,12.2
9.104e-02,12
9.120e-02,12.2
9.136e-02,12.2
9.152e-02,12.2
9.168e-02,12.2
9.184e-02,12.2
9.200e-02,12.2
9.216e-02,12.2
9.232e-02,12.2
9.248e-02,12
9.264e-02,12
9.280e-02,12
9.296e-02,12
9.312e-02,12
9.328e-02,12
9.344e-02,12
9.360e-02,12
9.376e-02,12
9.392e-02,12
9.408e-02,12
9.424e-02,11.8
9.440e-02,12
9.456e-02,12
9.472e-02,11.8
9.488e-02,12
9.504e-02,12
9.520e-02,12
9.536e-02,12
9.552e-02,12
9.568e-02,12
9.584e-02,12
9.600e-02,12
9.616e-02,12
9.632e-02,11.8
9.648e-02,12
9.664e-02,12
9.680e-02,12
9.696e-02,12
9.712e-02,12
9.728e-02,12
9.744e-02,12
9.760e-02,11.8
9.776e-02,12
9.792e-02,12
9.808e-02,12
9.824e-02,12
9.840e-02,12
9.856e-02,12
9.872e-02,11.8
9.888e-02,11.8
9.904e-02,12
9.920e-02,11.8
9.936e-02,11.8
9.952e-02,11.8
9.968e-02,11.8
9.984e-02,11.8
1.000e-01,11.8
1.002e-01,11.8
1.003e-01,11.8
1.005e-01,11.8
1.006e-01,11.8
1.008e-01,11.6
1.010e-01,11.8
1.011e-01,11.8
1.013e-01,11.8
1.014e-01,11.6
1.016e-01,11.8
1.018e-01,11.6
1.019e-01,11.8
1.021e-01,11.8
1.022e-01,11.8
1.024e-01,11.8
1.026e-01,11.8
1.027e-01,11.6
1.029e-01,11.6
1.030e-01,11.8
1.032e-01,11.8
1.034e-01,11.8
1.035e-01,11.8
1.037e-01,11.8
1.038e-01,11.6
1.040e-01,11.8
1.042e-01,11.6
1.043e-01,11.6
1.045e-01,11.6
1.046e-01,11.6
1.048e-01,11.6
1.050e-01,11.6
1.051e-01,11.8
1.053e-01,11.6
1.054e-01,11.6
1.056e-01,11.6
1.058e-01,11.8
1.059e-01,11.6
1.061e-01,11.4
1.062e-01,11.6
1.064e-01,11.6
1.066e-01,11.6
1.067e-01,11.6
1.069e-01,11.6
1.070e-01,11.6
1.072e-01,11.4
1.074e-01,11.6
1.075e-01,11.6
1.077e-01,11.6
1.078e-01,11.6
1.080e-01,11.6
1.082e-01,11.6
1.083e-01,11.6
1.085e-01,11.6
1.086e-01,11.6
1.088e-01,11.6
1.090e-01,11.6
1.091e-01,11.6
1.093e-01,11.4
1.094e-01,11.4
1.096e-01,11.6
1.098e-01,11.6
1.099e-01,11.6
1.101e-01,11.6
1.102e-01,11.6
1.104e-01,11.6
1.106e-01,11.6
1.107e-01,11.6
1.109e-01,11.6
1.110e-01,11.6
1.112e-01,11.6
1.114e-01,11.4
1.115e-01,11.6
1.117e-01,11.6
1.118e-01,11.4
1.120e-01,11.4
1.122e-01,11.4
1.123e-01,11.6
1.125e-01,11.6
1.126e-01,11.4
1.128e-01,11.4
1.130e-01,11.4
1.131e-01,11.4
1.133e-01,11.4
1.134e-01,11.4
1.136e-01,11.4
1.138e-01,11.4
1.139e-01,11.4
1.141e-01,11.4
1.142e-01,11.4
1.144e-01,11.4
1.146e-01,11.4
1.147e-01,11.4
1.149e-01,11.4
1.150e-01,11.4
1.152e-01,11.4
1.154e-01,11.4
1.155e-01,11.4
1.157e-01,11.6
1.158e-01,11.4
1.160e-01,11.4
1.162e-01,11.4
1.163e-01,11.4
1.165e-01,11.4
1.166e-01,11.4
1.168e-01,11.2
1.170e-01,11.4
1.171e-01,11.4
1.173e-01,11.4
1.174e-01,11.2
1.176e-01,11.2
1.178e-01,11.4
1.179e-01,11.2
1.181e-01,11.4
1.182e-01,11.4
1.184e-01,11.2
1.186e-01,11.4
1.187e-01,11.2
1.189e-01,11.2
1.190e-01,11.4
1.192e-01,11.2
1.194e-01,11.2
1.195e-01,11.4
1.197e-01,11.2
1.198e-01,11.4
1.200e-01,11.2
1.202e-01,11.2
1.203e-01,11.2
1.205e-01,11.4
1.206e-01,11.2
1.208e-01,11.2
1.210e-01,11.4
1.211e-01,11.2
1.213e-01,11.2
1.214e-01,11.2
1.216e-01,11.2
1.218e-01,11.2
1.219e-01,11.2
1.221e-01,11.2
1.222e-01,11.2
1.224e-01,11.4
1.226e-01,11.2
1.227e-01,11.2
1.229e-01,11.2
1.230e-01,11.2
1.232e-01,11.2
1.234e-01,11.2
1.235e-01,11.2
1.237e-01,11.2
1.238e-01,11.2
1.240e-01,11.2
1.242e-01,11.2
1.243e-01,11.2
1.245e-01,11.2
1.246e-01,11.2
1.248e-01,11.2
1.250e-01,11.2
1.251e-01,11.2
1.253e-01,11.2
1.254e-01,11.2
1.256e-01,11.2
1.258e-01,11.2
1.259e-01,11.2
1.261e-01,11.2
1.262e-01,11.2
1.264e-01,11.2
1.266e-01,11.2
1.267e-01,11.2
1.269e-01,11.2
1.270e-01,11.2
1.272e-01,11.2
1.274e-01,11.2
1.275e-01,11.2
1.277e-01,11.2
1.278e-01,11.2
1.280e-01,11.2
1.282e-01,11.2
1.283e-01,11.2
1.285e-01,11.2
1.286e-01,11.2
1.288e-01,11.2
1.290e-01,11.2
1.291e-01,11.2
1.293e-01,11
1.294e-01,11.2
1.296e-01,11.2
1.298e-01,11.2
1.299e-01,11
1.301e-01,11
1.302e-01,11.2
1.304e-01,11
1.306e-01,11.2
1.307e-01,11.2
1.309e-01,11
1.310e-01,11
1.312e-01,11
1.314e-01,11.2
1.315e-01,11.2
1.317e-01,11
1.318e-01,11
1.320e-01,11.2
1.322e-01,11.2
1.323e-01,11.2
1.325e-01,11.2
1.326e-01,11.2
1.328e-01,11
1.330e-01,11
1.331e-01,11
1.333e-01,11
1.334e-01,11
1.336e-01,11.2
1.338e-01,11
1.339e-01,11
1.341e-01,11
1.342e-01,11
1.344e-01,11.2
1.346e-01,11
1.347e-01,11
1.349e-01,11
1.350e-01,11
1.352e-01,11
1.354e-01,11
1.355e-01,11
1.357e-01,11
1.358e-01,11.2
1.360e-01,11
1.362e-01,11
1.363e-01,11
1.365e-01,11
1.366e-01,11
1.368e-01,11
1.370e-01,11
1.371e-01,11
1.373e-01,11
1.374e-01,11
1.376e-01,11
1.378e-01,11.2
1.379e-01,11
1.381e-01,11
1.382e-01,11
1.384e-01,11
1.386e-01,11
1.387e-01,11
1.389e-01,11
1.390e-01,11
1.392e-01,11
1.394e-01,11
1.395e-01,11
1.397e-01,11
1.398e-01,11
1.400e-01,11
1.402e-01,11
1.403e-01,11
1.405e-01,11
1.406e-01,11
1.408e-01,11
1.410e-01,11
1.411e-01,11
1.413e-01,11
1.414e-01,11
1.416e-01,11
1.418e-01,11
1.419e-01,11
1.421e-01,11
1.422e-01,11
1.424e-01,11
1.426e-01,11
1.427e-01,11
1.429e-01,11
1.430e-01,11
1.432e-01,11
1.434e-01,11
1.435e-01,11
1.437e-01,11
1.438e-01,10.8
1.440e-01,11
1.442e-01,11
1.443e-01,11
1.445e-01,11
1.446e-01,11
1.448e-01,10.8
1.450e-01,11
1.451e-01,11
1.453e-01,11
1.454e-01,11
1.456e-01,11
1.458e-01,11
1.459e-01,10.8
1.461e-01,11
1.462e-01,11
1.464e-01,11
1.466e-01,10.8
1.467e-01,11
1.469e-01,10.8
1.470e-01,11
1.472e-01,11
1.474e-01,11
1.475e-01,10.8
1.477e-01,11
1.478e-01,10.8
1.480e-01,11
1.482e-01,10.8
1.483e-01,11
1.485e-01,11
1.486e-01,11
1.488e-01,11
1.490e-01,11
1.491e-01,10.8
1.493e-01,10.8
1.494e-01,10.8
1.496e-01,11
1.498e-01,11
1.499e-01,11
1.501e-01,11
1.502e-01,11
1.504e-01,10.8
1.506e-01,11
1.507e-01,11
1.509e-01,11
1.510e-01,10.8
1.512e-01,11
1.514e-01,10.8
1.515e-01,10.8
1.517e-01,11
1.518e-01,11
1.520e-01,10.8
1.522e-01,11
1.523e-01,11
1.525e-01,10.8
1.526e-01,10.8
1.528e-01,10.8
1.530e-01,10.8
1.531e-01,10.8
1.533e-01,10.8
1.534e-01,10.8
1.536e-01,11
1.538e-01,10.8
1.539e-01,10.8
1.541e-01,11
1.542e-01,10.8
1.544e-01,10.8
1.546e-01,10.8
1.547e-01,10.8
1.549e-01,10.8
1.550e-01,10.8
1.552e-01,10.8
1.554e-01,10.8
1.555e-01,10.8
1.557e-01,11
1.558e-01,10.8
1.560e-01,10.8
1.562e-01,10.8
1.563e-01,10.8
1.565e-01,11
1.566e-01,10.8
1.568e-01,11
1.570e-01,10.8
1.571e-01,10.8
1.573e-01,10.8
1.574e-01,10.8
1.576e-01,10.8
1.578e-01,10.8
1.579e-01,10.8
1.581e-01,10.8
1.582e-01,10.8
1.584e-01,10.8
1.586e-01,10.8
1.587e-01,10.8
1.589e-01,11
1.590e-01,10.8
1.592e-01,10.8
1.594e-01,10.8
1.595e-01,10.8
1.597e-01,10.8
1.598e-01,10.8
1.600e-01,10.8
1.602e-01,10.8
1.603e-01,10.8
1.605e-01,10.8
1.606e-01,10.8
1.608e-01,10.8
1.610e-01,10.8
1.611e-01,10.8
1.613e-01,10.8
1.614e-01,10.8
1.616e-01,10.8
1.618e-01,10.8
1.619e-01,10.8
