data/PSU_noise/BG2_100ms.CSV

Model,TBS1102C
Firmware Version,v2015-08-04-prequal4ch70_v1.3

Point Format,Y
Horizontal Units,S
Horizontal Scale,0.1
Sample Interval,0.0008
Filter Frequency,2e+08
Record Length,2000
Gating,0.0% to 100.0%
Probe Attenuation,1
Vertical Units,V
Vertical Offset,0
Vertical Scale,0.001
Label,
TIME,CH1
-7.904e-01,0.00044
-7.896e-01,0.00044
-7.888e-01,0.0006
-7.880e-01,0.00068
-7.872e-01,-0.00076
-7.864e-01,-0.00056
-7.856e-01,-0.0002
-7.848e-01,0.00096
-7.840e-01,0.0006
-7.832e-01,0.00088
-7.824e-01,-0.00056
-7.816e-01,8e-05
-7.808e-01,0.00048
-7.800e-01,0.0006
-7.792e-01,-0.00028
-7.784e-01,-0.00052
-7.776e-01,-8e-05
-7.768e-01,-0.00024
-7.760e-01,0.00036
-7.752e-01,0.00068
-7.744e-01,4e-05
-7.736e-01,-0.0004
-7.728e-01,0.00024
-7.720e-01,0.0008
-7.712e-01,-0.00016
-7.704e-01,-0.00032
-7.696e-01,0.0006
-7.688e-01,0.00012
-7.680e-01,0.00068
-7.672e-01,0.00104
-7.664e-01,0.00012
-7.656e-01,0.00048
-7.648e-01,-0.00048
-7.640e-01,-0.00052
-7.632e-01,-0.00032
-7.624e-01,-0.00036
-7.616e-01,-4e-05
-7.608e-01,0
-7.600e-01,0.00036
-7.592e-01,-0.00032
-7.584e-01,-0.00048
-7.576e-01,-0.00068
-7.568e-01,-0.00044
-7.560e-01,0
-7.552e-01,-0.00016
-7.544e-01,0.00056
-7.536e-01,-0.00032
-7.528e-01,-8e-05
-7.520e-01,0.00036
-7.512e-01,0.00064
-7.504e-01,-0.0004
-7.496e-01,0.00048
-7.488e-01,0.00024
-7.480e-01,0.0006
-7.472e-01,-0.00028
-7.464e-01,0.0004
-7.456e-01,0.00064
-7.448e-01,0.00068
-7.440e-01,-0.0004
-7.432e-01,-0.00072
-7.424e-01,0.00012
-7.416e-01,0.0004
-7.408e-01,0.00056
-7.400e-01,0.00056
-7.392e-01,-0.00044
-7.384e-01,0.00048
-7.376e-01,-0.00056
-7.368e-01,0.00092
-7.360e-01,0.00024
-7.352e-01,0.00012
-7.344e-01,0
-7.336e-01,-0.0004
-7.328e-01,-0.00068
-7.320e-01,0.00076
-7.312e-01,0.00024
-7.304e-01,-0.00028
-7.296e-01,-0.00028
-7.288e-01,0.00068
-7.280e-01,-0.0002
-7.272e-01,0.00044
-7.264e-01,-0.0006
-7.256e-01,-8e-05
-7.248e-01,0.00016
-7.240e-01,0.00012
-7.232e-01,0.00068
-7.224e-01,-0.00064
-7.216e-01,0.00076
-7.208e-01,0.00056
-7.200e-01,0.00084
-7.192e-01,0.00056
-7.184e-01,0.00048
-7.176e-01,0.00056
-7.168e-01,0.00092
-7.160e-01,0.00032
-7.152e-01,-0.00024
-7.144e-01,-0.00036
-7.136e-01,-0.00056
-7.128e-01,0.00032
-7.120e-01,0.00064
-7.112e-01,0.00056
-7.104e-01,-0.00016
-7.096e-01,0.00028
-7.088e-01,0.0006
-7.080e-01,0.00052
-7.072e-01,0.00032
-7.064e-01,0.00068
-7.056e-01,0.0004
-7.048e-01,0.00064
-7.040e-01,0.0006
-7.032e-01,0.00048
-7.024e-01,-0.00032
-7.016e-01,0.00012
-7.008e-01,0.00028
-7.000e-01,0.00032
-6.992e-01,-0.00052
-6.984e-01,0
-6.976e-01,-0.00036
-6.968e-01,0.00044
-6.960e-01,0.001
-6.952e-01,-0.0008
-6.944e-01,-0.00024
-6.936e-01,0.00024
-6.928e-01,0.00036
-6.920e-01,-8e-05
-6.912e-01,-4e-05
-6.904e-01,-0.00024
-6.896e-01,-0.00024
-6.888e-01,0.00072
-6.880e-01,0.00072
-6.872e-01,0.00036
-6.864e-01,0.00024
-6.856e-01,0.00024
-6.848e-01,-0.0002
-6.840e-01,0.00056
-6.832e-01,0.00068
-6.824e-01,0.0006
-6.816e-01,-0.00052
-6.808e-01,-0.00024
-6.800e-01,0.00032
-6.792e-01,-0.00052
-6.784e-01,0.00052
-6.776e-01,0.00044
-6.768e-01,0.00036
-6.760e-01,8e-05
-6.752e-01,0.00056
-6.744e-01,-0.0002
-6.736e-01,0.0004
-6.728e-01,0.0008
-6.720e-01,0.0004
-6.712e-01,0.00064
-6.704e-01,-0.00032
-6.696e-01,-0.00048
-6.688e-01,0.00036
-6.680e-01,0.00016
-6.672e-01,0.00024
-6.664e-01,0.00064
-6.656e-01,0.00064
-6.648e-01,-0.00028
-6.640e-01,0.00036
-6.632e-01,0.00032
-6.624e-01,0.00068
-6.616e-01,0.00048
-6.608e-01,-0.00032
-6.600e-01,0.00088
-6.592e-01,-0.0004
-6.584e-01,-0.00036
-6.576e-01,0.00088
-6.568e-01,0.00064
-6.560e-01,0.00068
-6.552e-01,-0.0004
-6.544e-01,-0.0004
-6.536e-01,0.00068
-6.528e-01,4e-05
-6.520e-01,0.00036
-6.512e-01,0.00088
-6.504e-01,0.00044
-6.496e-01,8e-05
-6.488e-01,0.00084
-6.480e-01,0.00108
-6.472e-01,4e-05
-6.464e-01,-8e-05
-6.456e-01,-0.00072
-6.448e-01,0.00076
-6.440e-01,4e-05
-6.432e-01,0.0002
-6.424e-01,-0.00056
-6.416e-01,0.00036
-6.408e-01,0.00028
-6.400e-01,0.0004
-6.392e-01,0.00068
-6.384e-01,4e-05
-6.376e-01,0.00064
-6.368e-01,0.00036
-6.360e-01,0.0006
-6.352e-01,-0.00036
-6.344e-01,-0.00052
-6.336e-01,-0.00024
-6.328e-01,0.00028
-6.320e-01,0.00052
-6.312e-01,0.00032
-6.304e-01,0.00052
-6.296e-01,0.0004
-6.288e-01,0.00068
-6.280e-01,-4e-05
-6.272e-01,-4e-05
-6.264e-01,0.0006
-6.256e-01,0.00016
-6.248e-01,-0.00048
-6.240e-01,0.0006
-6.232e-01,0.00072
-6.224e-01,-0.0006
-6.216e-01,-0.0004
-6.208e-01,-0.00072
-6.200e-01,8e-05
-6.192e-01,0.00056
-6.184e-01,0.00016
-6.176e-01,0.00064
-6.168e-01,0.00068
-6.160e-01,-0.00012
-6.152e-01,-0.00028
-6.144e-01,-0.00016
-6.136e-01,0.00108
-6.128e-01,0.0004
-6.120e-01,0.00012
-6.112e-01,-0.00048
-6.104e-01,-8e-05
-6.096e-01,0.0002
-6.088e-01,-0.0006
-6.080e-01,0.0008
-6.072e-01,0.00016
-6.064e-01,-4e-05
-6.056e-01,-0.00048
-6.048e-01,0.0004
-6.040e-01,-0.0002
-6.032e-01,0.00048
-6.024e-01,0.00052
-6.016e-01,0.0002
-6.008e-01,-0.00028
-6.000e-01,8e-05
-5.992e-01,-0.00024
-5.984e-01,0.00012
-5.976e-01,-0.00084
-5.968e-01,-0.00016
-5.960e-01,-0.00012
-5.952e-01,0.0008
-5.944e-01,-8e-05
-5.936e-01,-0.0002
-5.928e-01,-8e-05
-5.920e-01,0.00032
-5.912e-01,0.00084
-5.904e-01,0.00072
-5.896e-01,-0.0004
-5.888e-01,0.00024
-5.880e-01,0.00064
-5.872e-01,-0.00044
-5.864e-01,0
-5.856e-01,0.00076
-5.848e-01,-0.0002
-5.840e-01,0.00068
-5.832e-01,-0.0004
-5.824e-01,0.00084
-5.816e-01,0.00032
-5.808e-01,0.00052
-5.800e-01,-0.00028
-5.792e-01,0.0006
-5.784e-01,0.00032
-5.776e-01,8e-05
-5.768e-01,-4e-05
-5.760e-01,-0.00036
-5.752e-01,-0.00024
-5.744e-01,0.0002
-5.736e-01,-0.00044
-5.728e-01,-0.0004
-5.720e-01,-0.00012
-5.712e-01,-0.00024
-5.704e-01,0.00016
-5.696e-01,0.00036
-5.688e-01,0.00068
-5.680e-01,0.00032
-5.672e-01,0
-5.664e-01,-0.0006
-5.656e-01,0.00028
-5.648e-01,0.00044
-5.640e-01,-0.00044
-5.632e-01,-0.00032
-5.624e-01,0
-5.616e-01,0.00068
-5.608e-01,0.00024
-5.600e-01,0.0004
-5.592e-01,0.00012
-5.584e-01,-0.0006
-5.576e-01,-0.00024
-5.568e-01,-0.00044
-5.560e-01,-0.00068
-5.552e-01,0.0006
-5.544e-01,-4e-05
-5.536e-01,0.00028
-5.528e-01,-4e-05
-5.520e-01,0.00076
-5.512e-01,-0.0008
-5.504e-01,-8e-05
-5.496e-01,0.00048
-5.488e-01,-0.00056
-5.480e-01,-0.00012
-5.472e-01,0
-5.464e-01,8e-05
-5.456e-01,0.00056
-5.448e-01,0.00052
-5.440e-01,-0.00036
-5.432e-01,-0.00056
-5.424e-01,-0.0002
-5.416e-01,-0.00016
-5.408e-01,0.00052
-5.400e-01,0.00092
-5.392e-01,0.00056
-5.384e-01,4e-05
-5.376e-01,-0.00012
-5.368e-01,0.00028
-5.360e-01,-0.00032
-5.352e-01,-0.00024
-5.344e-01,0.00052
-5.336e-01,0.00044
-5.328e-01,0.00056
-5.320e-01,0.00052
-5.312e-01,0.00056
-5.304e-01,-0.00048
-5.296e-01,0.00036
-5.288e-01,-0.00048
-5.280e-01,-0.00052
-5.272e-01,-0.00036
-5.264e-01,0.00056
-5.256e-01,-0.00024
-5.248e-01,0.00024
-5.240e-01,4e-05
-5.232e-01,-0.00012
-5.224e-01,0.00088
-5.216e-01,-4e-05
-5.208e-01,-8e-05
-5.200e-01,0.0006
-5.192e-01,8e-05
-5.184e-01,0.0006
-5.176e-01,-0.00072
-5.168e-01,-0.00048
-5.160e-01,-0.0006
-5.152e-01,4e-05
-5.144e-01,-0.00032
-5.136e-01,-4e-05
-5.128e-01,-0.0004
-5.120e-01,0.00032
-5.112e-01,0.0002
-5.104e-01,-0.0004
-5.096e-01,0
-5.088e-01,4e-05
-5.080e-01,-8e-05
-5.072e-01,-0.00024
-5.064e-01,0.00052
-5.056e-01,-0.00048
-5.048e-01,0.00036
-5.040e-01,-0.00032
-5.032e-01,-4e-05
-5.024e-01,0.00064
-5.016e-01,0.00016
-5.008e-01,-0.00012
-5.000e-01,-0.0004
-4.992e-01,-0.00036
-4.984e-01,8e-05
-4.976e-01,0.00056
-4.968e-01,0.00088
-4.960e-01,0.00016
-4.952e-01,-4e-05
-4.944e-01,0.00036
-4.936e-01,0.0004
-4.928e-01,0.00068
-4.920e-01,0.00024
-4.912e-01,0.00016
-4.904e-01,-0.00016
-4.896e-01,-0.00064
-4.888e-01,0.00048
-4.880e-01,-0.00024
-4.872e-01,-8e-05
-4.864e-01,-4e-05
-4.856e-01,-0.00012
-4.848e-01,-0.0004
-4.840e-01,0.0002
-4.832e-01,0.00024
-4.824e-01,0.00048
-4.816e-01,0
-4.808e-01,-0.00016
-4.800e-01,4e-05
-4.792e-01,0.0004
-4.784e-01,0.00048
-4.776e-01,-0.00024
-4.768e-01,0.00048
-4.760e-01,4e-05
-4.752e-01,-0.00024
-4.744e-01,-4e-05
-4.736e-01,-0.00016
-4.728e-01,0.00064
-4.720e-01,0.0002
-4.712e-01,-0.00052
-4.704e-01,0.00036
-4.696e-01,0.0006
-4.688e-01,0
-4.680e-01,4e-05
-4.672e-01,-0.00032
-4.664e-01,0.0002
-4.656e-01,0.00052
-4.648e-01,0.00076
-4.640e-01,0.00056
-4.632e-01,-4e-05
-4.624e-01,4e-05
-4.616e-01,-0.00048
-4.608e-01,0.00024
-4.600e-01,0.00016
-4.592e-01,-8e-05
-4.584e-01,-0.00032
-4.576e-01,0.00032
-4.568e-01,0.00072
-4.560e-01,-0.00024
-4.552e-01,0.00032
-4.544e-01,-0.00044
-4.536e-01,0.00036
-4.528e-01,0.0002
-4.520e-01,0.00076
-4.512e-01,-0.00016
-4.504e-01,-0.00012
-4.496e-01,0.0008
-4.488e-01,0.00068
-4.480e-01,-0.00032
-4.472e-01,0.0008
-4.464e-01,0.0006
-4.456e-01,-0.00032
-4.448e-01,-0.00012
-4.440e-01,-0.00044
-4.432e-01,0.00012
-4.424e-01,-4e-05
-4.416e-01,0.00092
-4.408e-01,0.00044
-4.400e-01,0.0002
-4.392e-01,-0.00028
-4.384e-01,0.0002
-4.376e-01,0.00048
-4.368e-01,-0.00032
-4.360e-01,0.00064
-4.352e-01,0.00048
-4.344e-01,-0.0002
-4.336e-01,-0.00048
-4.328e-01,-0.0008
-4.320e-01,-4e-05
-4.312e-01,0.00068
-4.304e-01,-0.0002
-4.296e-01,-0.00016
-4.288e-01,0
-4.280e-01,0.00032
-4.272e-01,-0.00032
-4.264e-01,0.00056
-4.256e-01,8e-05
-4.248e-01,0.0002
-4.240e-01,0.00064
-4.232e-01,-0.00044
-4.224e-01,-0.00096
-4.216e-01,0.00016
-4.208e-01,-0.00044
-4.200e-01,-0.00036
-4.192e-01,-4e-05
-4.184e-01,-8e-05
-4.176e-01,-0.00024
-4.168e-01,0.00076
-4.160e-01,4e-05
-4.152e-01,-8e-05
-4.144e-01,-4e-05
-4.136e-01,0.00016
-4.128e-01,0.0002
-4.120e-01,0.0002
-4.112e-01,-0.00016
-4.104e-01,0.00028
-4.096e-01,-0.00024
-4.088e-01,0.00024
-4.080e-01,-0.001
-4.072e-01,-0.00052
-4.064e-01,-0.00036
-4.056e-01,-0.00036
-4.048e-01,-0.00052
-4.040e-01,-0.00064
-4.032e-01,-0.00032
-4.024e-01,-0.00052
-4.016e-01,0.00072
-4.008e-01,0.0008
-4.000e-01,0.00044
-3.992e-01,0.0006
-3.984e-01,0.00028
-3.976e-01,0.00068
-3.968e-01,-4e-05
-3.960e-01,0.00064
-3.952e-01,0.00024
-3.944e-01,0.001
-3.936e-01,0.00064
-3.928e-01,0.00076
-3.920e-01,0.00048
-3.912e-01,-0.00044
-3.904e-01,0.00048
-3.896e-01,-4e-05
-3.888e-01,-0.00028
-3.880e-01,-0.00012
-3.872e-01,-8e-05
-3.864e-01,0.00044
-3.856e-01,0.00048
-3.848e-01,-4e-05
-3.840e-01,-0.00048
-3.832e-01,0.00012
-3.824e-01,-0.0008
-3.816e-01,0.00048
-3.808e-01,0.00032
-3.800e-01,-0.00028
-3.792e-01,0
-3.784e-01,-0.00064
-3.776e-01,-0.00076
-3.768e-01,-0.00024
-3.760e-01,0.00076
-3.752e-01,8e-05
-3.744e-01,-0.00012
-3.736e-01,0.00016
-3.728e-01,-0.00028
-3.720e-01,0.00056
-3.712e-01,-0.00048
-3.704e-01,-8e-05
-3.696e-01,0.00044
-3.688e-01,-0.00036
-3.680e-01,0.00064
-3.672e-01,4e-05
-3.664e-01,-0.00024
-3.656e-01,0.0004
-3.648e-01,-8e-05
-3.640e-01,0.00052
-3.632e-01,0.0006
-3.624e-01,-0.00084
-3.616e-01,-0.00048
-3.608e-01,0.00032
-3.600e-01,-0.00048
-3.592e-01,-0.00032
-3.584e-01,-0.00028
-3.576e-01,0.0002
-3.568e-01,0.0008
-3.560e-01,0.0002
-3.552e-01,0.00032
-3.544e-01,0.00052
-3.536e-01,0.00056
-3.528e-01,0.00076
-3.520e-01,0.00064
-3.512e-01,0
-3.504e-01,0.0008
-3.496e-01,-0.00028
-3.488e-01,-0.00052
-3.480e-01,-0.00024
-3.472e-01,-0.00032
-3.464e-01,-4e-05
-3.456e-01,0.00104
-3.448e-01,-0.00024
-3.440e-01,-0.00032
-3.432e-01,0
-3.424e-01,-4e-05
-3.416e-01,0.0012
-3.408e-01,0.00012
-3.400e-01,-0.00016
-3.392e-01,-0.00044
-3.384e-01,0.00012
-3.376e-01,0.00024
-3.368e-01,0.00056
-3.360e-01,-0.00068
-3.352e-01,-8e-05
-3.344e-01,0.00056
-3.336e-01,0.00044
-3.328e-01,-0.00012
-3.320e-01,0.00016
-3.312e-01,0.00064
-3.304e-01,-0.0006
-3.296e-01,0
-3.288e-01,-0.00044
-3.280e-01,-0.00024
-3.272e-01,0.00028
-3.264e-01,-8e-05
-3.256e-01,-0.0004
-3.248e-01,-0.00072
-3.240e-01,0.00072
-3.232e-01,-8e-05
-3.224e-01,-0.00032
-3.216e-01,-0.00012
-3.208e-01,-0.00056
-3.200e-01,0.00072
-3.192e-01,0.00036
-3.184e-01,-0.00024
-3.176e-01,0.00032
-3.168e-01,0.00028
-3.160e-01,-0.00012
-3.152e-01,0.00036
-3.144e-01,-0.00052
-3.136e-01,-0.0004
-3.128e-01,0.00076
-3.120e-01,-0.00016
-3.112e-01,-4e-05
-3.104e-01,0.00076
-3.096e-01,-0.00024
-3.088e-01,-0.00048
-3.080e-01,0.00044
-3.072e-01,0.001
-3.064e-01,-0.00044
-3.056e-01,-4e-05
-3.048e-01,0.00028
-3.040e-01,0.00068
-3.032e-01,-0.00024
-3.024e-01,0.00044
-3.016e-01,-0.00012
-3.008e-01,0.00084
-3.000e-01,-0.00068
-2.992e-01,0.0006
-2.984e-01,0.0006
-2.976e-01,0.0002
-2.968e-01,0.00028
-2.960e-01,-0.0002
-2.952e-01,0.00072
-2.944e-01,-0.00056
-2.936e-01,-0.00036
-2.928e-01,4e-05
-2.920e-01,-0.00032
-2.912e-01,8e-05
-2.904e-01,0.00044
-2.896e-01,0.0002
-2.888e-01,0.0002
-2.880e-01,-0.00012
-2.872e-01,0.00076
-2.864e-01,-4e-05
-2.856e-01,-0.0004
-2.848e-01,0.00064
-2.840e-01,-0.00036
-2.832e-01,-0.00028
-2.824e-01,0.00096
-2.816e-01,0.00012
-2.808e-01,0.00072
-2.800e-01,-4e-05
-2.792e-01,0.001
-2.784e-01,8e-05
-2.776e-01,0.00028
-2.768e-01,0.0002
-2.760e-01,0.00016
-2.752e-01,-0.00024
-2.744e-01,-0.00016
-2.736e-01,0.0008
-2.728e-01,-0.00024
-2.720e-01,-0.00012
-2.712e-01,0.00048
-2.704e-01,-0.0002
-2.696e-01,4e-05
-2.688e-01,0.00084
-2.680e-01,0.00052
-2.672e-01,0.00064
-2.664e-01,-0.00052
-2.656e-01,0.00032
-2.648e-01,0.00052
-2.640e-01,0.00028
-2.632e-01,0.00028
-2.624e-01,-0.00024
-2.616e-01,-0.0006
-2.608e-01,0.00032
-2.600e-01,0
-2.592e-01,0.0004
-2.584e-01,0.00084
-2.576e-01,-0.00012
-2.568e-01,-0.00076
-2.560e-01,0.0004
-2.552e-01,0.00056
-2.544e-01,0.00032
-2.536e-01,8e-05
-2.528e-01,-0.00056
-2.520e-01,-0.00036
-2.512e-01,8e-05
-2.504e-01,-0.00024
-2.496e-01,-4e-05
-2.488e-01,0
-2.480e-01,0.00056
-2.472e-01,0.00092
-2.464e-01,-0.00028
-2.456e-01,-0.00056
-2.448e-01,0.00092
-2.440e-01,0.00028
-2.432e-01,0.0006
-2.424e-01,-0.00056
-2.416e-01,-0.00056
-2.408e-01,0.00056
-2.400e-01,0.00012
-2.392e-01,0
-2.384e-01,0.0008
-2.376e-01,0.00052
-2.368e-01,0.00036
-2.360e-01,-8e-05
-2.352e-01,-0.00016
-2.344e-01,0.0006
-2.336e-01,0.00032
-2.328e-01,-0.00012
-2.320e-01,0.00012
-2.312e-01,0.00072
-2.304e-01,0.00072
-2.296e-01,-0.00028
-2.288e-01,-0.00012
-2.280e-01,0.00056
-2.272e-01,0.00068
-2.264e-01,-0.00016
-2.256e-01,-8e-05
-2.248e-01,-0.00056
-2.240e-01,-0.00076
-2.232e-01,-4e-05
-2.224e-01,0.00028
-2.216e-01,0.00072
-2.208e-01,0.00064
-2.200e-01,0.00028
-2.192e-01,0.00064
-2.184e-01,-0.00012
-2.176e-01,0.0004
-2.168e-01,0.00016
-2.160e-01,-0.00048
-2.152e-01,0.00052
-2.144e-01,0.00076
-2.136e-01,0.00064
-2.128e-01,0.00096
-2.120e-01,0.00064
-2.112e-01,0.00068
-2.104e-01,0.00028
-2.096e-01,0.00056
-2.088e-01,0.00016
-2.080e-01,0.00032
-2.072e-01,-0.0004
-2.064e-01,4e-05
-2.056e-01,-0.00048
-2.048e-01,-0.0006
-2.040e-01,0.0004
-2.032e-01,0.00064
-2.024e-01,0
-2.016e-01,-0.00024
-2.008e-01,0.00024
-2.000e-01,-0.00036
-1.992e-01,-0.00048
-1.984e-01,-0.00012
-1.976e-01,0.00048
-1.968e-01,0.00076
-1.960e-01,0.00024
-1.952e-01,0.0006
-1.944e-01,0.0004
-1.936e-01,0.0008
-1.928e-01,0.00064
-1.920e-01,0.00012
-1.912e-01,0.00024
-1.904e-01,8e-05
-1.896e-01,0.00068
-1.888e-01,-0.00024
-1.880e-01,0.00024
-1.872e-01,-0.00016
-1.864e-01,8e-05
-1.856e-01,-0.00036
-1.848e-01,-0.00052
-1.840e-01,8e-05
-1.832e-01,-0.00032
-1.824e-01,0.00072
-1.816e-01,-0.00044
-1.808e-01,-0.00024
-1.800e-01,0.00108
-1.792e-01,-0.0002
-1.784e-01,-8e-05
-1.776e-01,-0.0006
-1.768e-01,4e-05
-1.760e-01,-0.00044
-1.752e-01,-0.00036
-1.744e-01,0.00024
-1.736e-01,-0.00028
-1.728e-01,0.0008
-1.720e-01,0
-1.712e-01,0.0006
-1.704e-01,0.00024
-1.696e-01,0.00036
-1.688e-01,-0.00012
-1.680e-01,-0.0002
-1.672e-01,0.00092
-1.664e-01,0.00028
-1.656e-01,0.00044
-1.648e-01,0.00048
-1.640e-01,0.00024
-1.632e-01,0.00072
-1.624e-01,-0.0004
-1.616e-01,-0.00072
-1.608e-01,-0.00024
-1.600e-01,-4e-05
-1.592e-01,-0.00016
-1.584e-01,-4e-05
-1.576e-01,8e-05
-1.568e-01,0.00052
-1.560e-01,0
-1.552e-01,-0.00024
-1.544e-01,0.00052
-1.536e-01,-0.00028
-1.528e-01,-0.00052
-1.520e-01,0.00096
-1.512e-01,0.00064
-1.504e-01,0.00028
-1.496e-01,0.00088
-1.488e-01,-0.00032
-1.480e-01,-0.0002
-1.472e-01,4e-05
-1.464e-01,-0.00012
-1.456e-01,0.00028
-1.448e-01,0.00024
-1.440e-01,-0.00048
-1.432e-01,0.00072
-1.424e-01,0.00068
-1.416e-01,0.00056
-1.408e-01,-0.00016
-1.400e-01,0.00028
-1.392e-01,0.00016
-1.384e-01,0.00064
-1.376e-01,-0.0002
-1.368e-01,-0.0002
-1.360e-01,0.00072
-1.352e-01,0.00044
-1.344e-01,0.0004
-1.336e-01,-0.00028
-1.328e-01,0.00044
-1.320e-01,-0.00028
-1.312e-01,-0.00036
-1.304e-01,-0.00036
-1.296e-01,-4e-05
-1.288e-01,0.00032
-1.280e-01,-0.00048
-1.272e-01,-0.00028
-1.264e-01,0.00012
-1.256e-01,0.00064
-1.248e-01,-4e-05
-1.240e-01,0.00016
-1.232e-01,-0.0002
-1.224e-01,0.00064
-1.216e-01,0.0004
-1.208e-01,0.00084
-1.200e-01,-0.0004
-1.192e-01,0.00076
-1.184e-01,0.00072
-1.176e-01,0.0004
-1.168e-01,0.00056
-1.160e-01,-0.00032
-1.152e-01,0.00036
-1.144e-01,0.00036
-1.136e-01,-0.00048
-1.128e-01,-0.00048
-1.120e-01,-0.00016
-1.112e-01,0.00044
-1.104e-01,0.00044
-1.096e-01,0.00088
-1.088e-01,0.00076
-1.080e-01,0.00064
-1.072e-01,0.00056
-1.064e-01,0.00084
-1.056e-01,0.0006
-1.048e-01,-8e-05
-1.040e-01,-0.00052
-1.032e-01,8e-05
-1.024e-01,-0.00036
-1.016e-01,0.001
-1.008e-01,0.00032
-1.000e-01,-4e-05
-9.920e-02,-0.00044
-9.840e-02,0.00036
-9.760e-02,-0.00036
-9.680e-02,-0.00024
-9.600e-02,8e-05
-9.520e-02,0.0006
-9.440e-02,0.0004
-9.360e-02,4e-05
-9.280e-02,4e-05
-9.200e-02,-4e-05
-9.120e-02,0
-9.040e-02,-0.00012
-8.960e-02,0.00064
-8.880e-02,0.0004
-8.800e-02,4e-05
-8.720e-02,0.00036
-8.640e-02,0
-8.560e-02,-0.00032
-8.480e-02,0.00036
-8.400e-02,0.0002
-8.320e-02,0.00012
-8.240e-02,0.00016
-8.160e-02,-0.00024
-8.080e-02,0.00084
-8.000e-02,-0.00016
-7.920e-02,0.00044
-7.840e-02,-8e-05
-7.760e-02,-4e-05
-7.680e-02,0.00028
-7.600e-02,0.00064
-7.520e-02,-0.00052
-7.440e-02,8e-05
-7.360e-02,-0.00068
-7.280e-02,-8e-05
-7.200e-02,0
-7.120e-02,-0.00088
-7.040e-02,0.00044
-6.960e-02,-8e-05
-6.880e-02,0.00016
-6.800e-02,-0.0004
-6.720e-02,0.0002
-6.640e-02,0.00048
-6.560e-02,-0.0002
-6.480e-02,-0.00076
-6.400e-02,0.00028
-6.320e-02,0.00024
-6.240e-02,-0.0002
-6.160e-02,-8e-05
-6.080e-02,0.00048
-6.000e-02,-4e-05
-5.920e-02,0.00052
-5.840e-02,-0.00012
-5.760e-02,8e-05
-5.680e-02,-0.00036
-5.600e-02,0.00092
-5.520e-02,-0.00028
-5.440e-02,-0.00044
-5.360e-02,-4e-05
-5.280e-02,0.00012
-5.200e-02,-0.0002
-5.120e-02,0.00032
-5.040e-02,-0.0002
-4.960e-02,0.0004
-4.880e-02,0.0004
-4.800e-02,-0.00064
-4.720e-02,-0.0004
-4.640e-02,0.0004
-4.560e-02,-0.0002
-4.480e-02,0.0004
-4.400e-02,-0.00064
-4.320e-02,0.00064
-4.240e-02,0.00028
-4.160e-02,-0.0002
-4.080e-02,-0.00024
-4.000e-02,0.00072
-3.920e-02,0.00056
-3.840e-02,0.00024
-3.760e-02,-0.00016
-3.680e-02,0.00052
-3.600e-02,-0.00036
-3.520e-02,-0.00068
-3.440e-02,-0.00032
-3.360e-02,0.00032
-3.280e-02,0.0002
-3.200e-02,-0.00056
-3.120e-02,0.00068
-3.040e-02,0.00092
-2.960e-02,-0.0008
-2.880e-02,0.00056
-2.800e-02,0.00052
-2.720e-02,0.00056
-2.640e-02,0
-2.560e-02,8e-05
-2.480e-02,0.00068
-2.400e-02,0.0004
-2.320e-02,0.0004
-2.240e-02,-0.00052
-2.160e-02,0.00072
-2.080e-02,0.00044
-2.000e-02,0.0004
-1.920e-02,-0.0002
-1.840e-02,-0.00032
-1.760e-02,-0.00024
-1.680e-02,0.0004
-1.600e-02,0.0004
-1.520e-02,0.00032
-1.440e-02,0.00052
-1.360e-02,0.00036
-1.280e-02,-0.00036
-1.200e-02,0.00036
-1.120e-02,-0.0002
-1.040e-02,0.00044
-9.600e-03,-0.00096
-8.800e-03,-0.00028
-8.000e-03,-0.00044
-7.200e-03,0.0006
-6.400e-03,4e-05
-5.600e-03,-0.00024
-4.800e-03,0.00036
-4.000e-03,0.0006
-3.200e-03,0.00052
-2.400e-03,-8e-05
-1.600e-03,-0.00032
-8.000e-04,4e-05
1.440e-14,0.00044
8.000e-04,-0.00012
1.600e-03,0.00072
2.400e-03,-0.00032
3.200e-03,-4e-05
4.000e-03,-0.00024
4.800e-03,-0.0002
5.600e-03,8e-05
6.400e-03,0.00056
7.200e-03,0.0006
8.000e-03,0.00036
8.800e-03,-0.00048
9.600e-03,0.00076
1.040e-02,-0.00028
1.120e-02,0.00056
1.200e-02,0.00064
1.280e-02,0.00056
1.360e-02,0.00052
1.440e-02,0.00068
1.520e-02,-0.00052
1.600e-02,-0.0002
1.680e-02,-0.00024
1.760e-02,0.00056
1.840e-02,-0.00052
1.920e-02,8e-05
2.000e-02,4e-05
2.080e-02,-0.00044
2.160e-02,0.00084
2.240e-02,0.00028
2.320e-02,-0.00032
2.400e-02,-0.00056
2.480e-02,0.0006
2.560e-02,-4e-05
2.640e-02,0.00076
2.720e-02,-0.00044
2.800e-02,4e-05
2.880e-02,0.00036
2.960e-02,-0.00044
3.040e-02,0.00084
3.120e-02,0.00016
3.200e-02,-0.00024
3.280e-02,0
3.360e-02,0.00064
3.440e-02,-4e-05
3.520e-02,0.00024
3.600e-02,0.00056
3.680e-02,0
3.760e-02,-8e-05
3.840e-02,0.00044
3.920e-02,0.00052
4.000e-02,0.0006
4.080e-02,0.00036
4.160e-02,0.00032
4.240e-02,0.0002
4.320e-02,-0.0006
4.400e-02,-0.00016
4.480e-02,0.00016
4.560e-02,-0.00056
4.640e-02,0
4.720e-02,-8e-05
4.800e-02,0.00028
