data/PSU_noise/BG_10ms.CSV

Model,TBS1102C
Firmware Version,v2015-08-04-prequal4ch70_v1.3

Point Format,Y
Horizontal Units,S
Horizontal Scale,0.01
Sample Interval,8e-05
Filter Frequency,2e+08
Record Length,2000
Gating,0.0% to 100.0%
Probe Attenuation,1
Vertical Units,V
Vertical Offset,0
Vertical Scale,0.001
Label,
TIME,CH1
-7.040e-02,-4e-05
-7.032e-02,0.00016
-7.024e-02,-0.00064
-7.016e-02,-0.00052
-7.008e-02,-0.00028
-7.000e-02,-8e-05
-6.992e-02,0.00096
-6.984e-02,-0.00024
-6.976e-02,-0.00044
-6.968e-02,0.00032
-6.960e-02,0.0008
-6.952e-02,0.00024
-6.944e-02,0.00052
-6.936e-02,0.00112
-6.928e-02,-0.00048
-6.920e-02,-0.0002
-6.912e-02,0.00032
-6.904e-02,0.00076
-6.896e-02,0.00044
-6.888e-02,0.0006
-6.880e-02,-0.00024
-6.872e-02,0.00052
-6.864e-02,0.00076
-6.856e-02,-0.0004
-6.848e-02,0.00028
-6.840e-02,-0.00036
-6.832e-02,0.00052
-6.824e-02,-0.00084
-6.816e-02,0.0004
-6.808e-02,0.00048
-6.800e-02,0.00052
-6.792e-02,0.0004
-6.784e-02,-0.00044
-6.776e-02,0.00092
-6.768e-02,-0.00024
-6.760e-02,-0.00112
-6.752e-02,0.00052
-6.744e-02,0.00036
-6.736e-02,-4e-05
-6.728e-02,0.00032
-6.720e-02,0.00064
-6.712e-02,0.00064
-6.704e-02,-0.0006
-6.696e-02,-0.00044
-6.688e-02,4e-05
-6.680e-02,0.00012
-6.672e-02,8e-05
-6.664e-02,-0.00032
-6.656e-02,-0.00064
-6.648e-02,0.001
-6.640e-02,0.0008
-6.632e-02,0.0002
-6.624e-02,-0.00032
-6.616e-02,-0.00036
-6.608e-02,0.00036
-6.600e-02,0.00064
-6.592e-02,0.00072
-6.584e-02,-0.00016
-6.576e-02,-0.00056
-6.568e-02,0.00056
-6.560e-02,-0.00048
-6.552e-02,0.00016
-6.544e-02,-4e-05
-6.536e-02,0.00036
-6.528e-02,-0.00052
-6.520e-02,-0.00048
-6.512e-02,0.00072
-6.504e-02,8e-05
-6.496e-02,0.0012
-6.488e-02,0.00088
-6.480e-02,0.00032
-6.472e-02,-0.00032
-6.464e-02,-0.00028
-6.456e-02,0.00016
-6.448e-02,-0.0004
-6.440e-02,0.00052
-6.432e-02,-0.00036
-6.424e-02,-0.00016
-6.416e-02,0.00028
-6.408e-02,0.00016
-6.400e-02,-4e-05
-6.392e-02,-0.00012
-6.384e-02,-8e-05
-6.376e-02,-0.00028
-6.368e-02,-0.00112
-6.360e-02,-0.0004
-6.352e-02,-0.00056
-6.344e-02,0.00088
-6.336e-02,0.00092
-6.328e-02,0.00036
-6.320e-02,-0.00036
-6.312e-02,0.00028
-6.304e-02,0.00016
-6.296e-02,0.00028
-6.288e-02,0.00052
-6.280e-02,-8e-05
-6.272e-02,0.00032
-6.264e-02,0.0006
-6.256e-02,-0.00072
-6.248e-02,-0.00024
-6.240e-02,-0.00028
-6.232e-02,-8e-05
-6.224e-02,0.00052
-6.216e-02,0
-6.208e-02,-0.00024
-6.200e-02,-0.00036
-6.192e-02,-0.0002
-6.184e-02,0.00072
-6.176e-02,0.00028
-6.168e-02,0.0002
-6.160e-02,-0.00016
-6.152e-02,-0.00056
-6.144e-02,-0.00044
-6.136e-02,0.0008
-6.128e-02,8e-05
-6.120e-02,-0.00024
-6.112e-02,-8e-05
-6.104e-02,8e-05
-6.096e-02,-0.00076
-6.088e-02,-0.00048
-6.080e-02,-0.0002
-6.072e-02,-0.0002
-6.064e-02,0.0006
-6.056e-02,-0.00028
-6.048e-02,0.00084
-6.040e-02,0.00032
-6.032e-02,0.00072
-6.024e-02,-0.00032
-6.016e-02,-0.00016
-6.008e-02,0.00044
-6.000e-02,-0.0004
-5.992e-02,0.00036
-5.984e-02,-0.00024
-5.976e-02,0.00084
-5.968e-02,0.00056
-5.960e-02,0.00028
-5.952e-02,0.0002
-5.944e-02,0.00024
-5.936e-02,0.00044
-5.928e-02,0.00044
-5.920e-02,0.00056
-5.912e-02,-0.0004
-5.904e-02,0
-5.896e-02,0.00036
-5.888e-02,4e-05
-5.880e-02,0.00072
-5.872e-02,-0.00016
-5.864e-02,0.00024
-5.856e-02,-0.00028
-5.848e-02,-0.00088
-5.840e-02,0.00076
-5.832e-02,-0.00016
-5.824e-02,0.00052
-5.816e-02,0.00052
-5.808e-02,-0.001
-5.800e-02,-0.00032
-5.792e-02,0.00012
-5.784e-02,-0.00012
-5.776e-02,-0.00024
-5.768e-02,-8e-05
-5.760e-02,-0.00072
-5.752e-02,0
-5.744e-02,0.00048
-5.736e-02,0
-5.728e-02,8e-05
-5.720e-02,-0.00032
-5.712e-02,0.0006
-5.704e-02,0.00048
-5.696e-02,-0.00044
-5.688e-02,0.00064
-5.680e-02,-0.00024
-5.672e-02,0
-5.664e-02,-0.00028
-5.656e-02,0.00044
-5.648e-02,-0.00068
-5.640e-02,4e-05
-5.632e-02,0.001
-5.624e-02,0.00072
-5.616e-02,-0.00052
-5.608e-02,0.00044
-5.600e-02,-0.0004
-5.592e-02,0.00064
-5.584e-02,-0.00028
-5.576e-02,-0.0002
-5.568e-02,-0.0002
-5.560e-02,0.00108
-5.552e-02,0.00052
-5.544e-02,-0.00036
-5.536e-02,0.00064
-5.528e-02,0.00076
-5.520e-02,0.00028
-5.512e-02,0.00072
-5.504e-02,-0.00032
-5.496e-02,0.0006
-5.488e-02,0.00052
-5.480e-02,-8e-05
-5.472e-02,-0.00024
-5.464e-02,0.00068
-5.456e-02,0.00028
-5.448e-02,-0.00016
-5.440e-02,8e-05
-5.432e-02,-0.00028
-5.424e-02,0.00012
-5.416e-02,0.00012
-5.408e-02,0.00072
-5.400e-02,4e-05
-5.392e-02,0.00044
-5.384e-02,-0.00024
-5.376e-02,-0.00036
-5.368e-02,-0.0002
-5.360e-02,0.0004
-5.352e-02,0.00068
-5.344e-02,0.00076
-5.336e-02,-0.0006
-5.328e-02,0.00096
-5.320e-02,-0.00028
-5.312e-02,-0.00024
-5.304e-02,0.00056
-5.296e-02,0.00088
-5.288e-02,0.00056
-5.280e-02,0.00072
-5.272e-02,8e-05
-5.264e-02,-0.00056
-5.256e-02,0.00084
-5.248e-02,0.00032
-5.240e-02,0.00024
-5.232e-02,-0.00056
-5.224e-02,0.00032
-5.216e-02,0.00036
-5.208e-02,-4e-05
-5.200e-02,-0.00032
-5.192e-02,0.00044
-5.184e-02,-8e-05
-5.176e-02,-0.00012
-5.168e-02,-0.00092
-5.160e-02,0.00052
-5.152e-02,-0.00068
-5.144e-02,-8e-05
-5.136e-02,0.00016
-5.128e-02,-0.00012
-5.120e-02,0.00032
-5.112e-02,-0.00088
-5.104e-02,0.00072
-5.096e-02,0.00024
-5.088e-02,-0.00084
-5.080e-02,-0.00056
-5.072e-02,-8e-05
-5.064e-02,0.00048
-5.056e-02,-8e-05
-5.048e-02,-0.00028
-5.040e-02,0.00048
-5.032e-02,0.0002
-5.024e-02,0.00048
-5.016e-02,0.00012
-5.008e-02,0.00036
-5.000e-02,0.00024
-4.992e-02,0.00096
-4.984e-02,0.00056
-4.976e-02,4e-05
-4.968e-02,-0.00052
-4.960e-02,0.00028
-4.952e-02,0.00068
-4.944e-02,0.00016
-4.936e-02,0.0008
-4.928e-02,0.00068
-4.920e-02,-0.0002
-4.912e-02,-0.00036
-4.904e-02,0.00044
-4.896e-02,-0.00028
-4.888e-02,-0.00024
-4.880e-02,0.0004
-4.872e-02,-0.00012
-4.864e-02,-0.0004
-4.856e-02,-0.00024
-4.848e-02,0.00052
-4.840e-02,0.00024
-4.832e-02,4e-05
-4.824e-02,0.00072
-4.816e-02,0.00032
-4.808e-02,-0.00032
-4.800e-02,-0.00036
-4.792e-02,-0.00036
-4.784e-02,-0.0006
-4.776e-02,0.00024
-4.768e-02,-0.00036
-4.760e-02,0.00048
-4.752e-02,8e-05
-4.744e-02,-8e-05
-4.736e-02,0.0002
-4.728e-02,0.0002
-4.720e-02,0.00032
-4.712e-02,-0.00012
-4.704e-02,-0.0006
-4.696e-02,-0.00032
-4.688e-02,0.0002
-4.680e-02,0.00096
-4.672e-02,0.00064
-4.664e-02,0.0006
-4.656e-02,0.00012
-4.648e-02,0.00048
-4.640e-02,-0.0006
-4.632e-02,0.00052
-4.624e-02,0
-4.616e-02,-4e-05
-4.608e-02,0.00064
-4.600e-02,-0.00064
-4.592e-02,0.00084
-4.584e-02,0.0002
-4.576e-02,-4e-05
-4.568e-02,-0.00012
-4.560e-02,-0.00048
-4.552e-02,0.00012
-4.544e-02,0.00024
-4.536e-02,0.00024
-4.528e-02,-0.0002
-4.520e-02,0.00012
-4.512e-02,-0.00028
-4.504e-02,0.00076
-4.496e-02,-0.00048
-4.488e-02,0.00052
-4.480e-02,-0.00028
-4.472e-02,0.00048
-4.464e-02,0.0008
-4.456e-02,-0.0004
-4.448e-02,-0.00036
-4.440e-02,-0.0002
-4.432e-02,8e-05
-4.424e-02,0.00028
-4.416e-02,-0.00048
-4.408e-02,0.00064
-4.400e-02,0.00072
-4.392e-02,-0.00076
-4.384e-02,-0.00028
-4.376e-02,0.00016
-4.368e-02,0.00016
-4.360e-02,0.00044
-4.352e-02,0.00032
-4.344e-02,0.00028
-4.336e-02,-0.00024
-4.328e-02,-0.00012
-4.320e-02,0.00084
-4.312e-02,0.00012
-4.304e-02,-0.00032
-4.296e-02,-0.00032
-4.288e-02,0.00016
-4.280e-02,4e-05
-4.272e-02,-0.0002
-4.264e-02,0.00024
-4.256e-02,0.0006
-4.248e-02,0.00076
-4.240e-02,-0.0002
-4.232e-02,0.00052
-4.224e-02,0.00068
-4.216e-02,-0.00028
-4.208e-02,0.0004
-4.200e-02,-0.00068
-4.192e-02,0.00044
-4.184e-02,0.00044
-4.176e-02,-0.00048
-4.168e-02,-0.00048
-4.160e-02,-0.00016
-4.152e-02,0.00056
-4.144e-02,-0.0002
-4.136e-02,-0.00024
-4.128e-02,0.00032
-4.120e-02,-0.00028
-4.112e-02,0.00092
-4.104e-02,-0.00028
-4.096e-02,-0.00032
-4.088e-02,0.00036
-4.080e-02,-0.00028
-4.072e-02,-0.00024
-4.064e-02,0.00076
-4.056e-02,0.00048
-4.048e-02,-0.00024
-4.040e-02,-0.00012
-4.032e-02,-0.00036
-4.024e-02,4e-05
-4.016e-02,-0.00016
-4.008e-02,-0.00024
-4.000e-02,0.00012
-3.992e-02,0.00036
-3.984e-02,0.00072
-3.976e-02,-0.00028
-3.968e-02,-0.00016
-3.960e-02,0.00024
-3.952e-02,0.00044
-3.944e-02,0.00096
-3.936e-02,0.00072
-3.928e-02,0
-3.920e-02,0.0006
-3.912e-02,0.00064
-3.904e-02,0.00032
-3.896e-02,0.00064
-3.888e-02,0
-3.880e-02,0.00076
-3.872e-02,0.00068
-3.864e-02,0.00048
-3.856e-02,-8e-05
-3.848e-02,0
-3.840e-02,0.00044
-3.832e-02,-0.00032
-3.824e-02,-8e-05
-3.816e-02,0.00064
-3.808e-02,0.00044
-3.800e-02,-0.00036
-3.792e-02,0.00048
-3.784e-02,0.00076
-3.776e-02,-8e-05
-3.768e-02,0.00072
-3.760e-02,-0.00016
-3.752e-02,0.00052
-3.744e-02,4e-05
-3.736e-02,-0.00088
-3.728e-02,0.00064
-3.720e-02,0.00024
-3.712e-02,0.00036
-3.704e-02,-0.00064
-3.696e-02,0.00052
-3.688e-02,0.00032
-3.680e-02,-0.00028
-3.672e-02,0.00052
-3.664e-02,-0.00036
-3.656e-02,0.00024
-3.648e-02,0.00052
-3.640e-02,0.0006
-3.632e-02,4e-05
-3.624e-02,0.0002
-3.616e-02,0.00076
-3.608e-02,0.00088
-3.600e-02,0.00056
-3.592e-02,0.00044
-3.584e-02,0.00056
-3.576e-02,0.0002
-3.568e-02,-8e-05
-3.560e-02,-0.00028
-3.552e-02,-4e-05
-3.544e-02,0.00028
-3.536e-02,0.0002
-3.528e-02,4e-05
-3.520e-02,-0.00032
-3.512e-02,0.00028
-3.504e-02,-0.00076
-3.496e-02,-8e-05
-3.488e-02,-0.00064
-3.480e-02,0.0004
-3.472e-02,0.00036
-3.464e-02,0.0004
-3.456e-02,-8e-05
-3.448e-02,0.0006
-3.440e-02,0.00076
-3.432e-02,-8e-05
-3.424e-02,-0.00076
-3.416e-02,-4e-05
-3.408e-02,0.00068
-3.400e-02,-0.00036
-3.392e-02,-0.00012
-3.384e-02,0.0004
-3.376e-02,0.00012
-3.368e-02,-0.00028
-3.360e-02,-0.0002
-3.352e-02,0.0002
-3.344e-02,0.00056
-3.336e-02,0.00068
-3.328e-02,-0.00028
-3.320e-02,0.00076
-3.312e-02,0.0008
-3.304e-02,-0.00048
-3.296e-02,-0.00048
-3.288e-02,0.00052
-3.280e-02,0.0004
-3.272e-02,0.00064
-3.264e-02,0.00048
-3.256e-02,0.00064
-3.248e-02,0.00036
-3.240e-02,-4e-05
-3.232e-02,0.00032
-3.224e-02,0.00068
-3.216e-02,-0.00072
-3.208e-02,-0.00012
-3.200e-02,0.00036
-3.192e-02,0.00072
-3.184e-02,-0.00028
-3.176e-02,-0.0006
-3.168e-02,0.0002
-3.160e-02,-0.00072
-3.152e-02,-0.0004
-3.144e-02,0.00016
-3.136e-02,-0.00024
-3.128e-02,-0.00028
-3.120e-02,0.00024
-3.112e-02,0.00052
-3.104e-02,0.00044
-3.096e-02,0.00048
-3.088e-02,-0.00016
-3.080e-02,-0.00012
-3.072e-02,0.00088
-3.064e-02,-0.00044
-3.056e-02,-0.00016
-3.048e-02,-0.0004
-3.040e-02,-0.00064
-3.032e-02,-0.0004
-3.024e-02,0.0004
-3.016e-02,0.00072
-3.008e-02,0.0008
-3.000e-02,0.0002
-2.992e-02,-8e-05
-2.984e-02,0.00028
-2.976e-02,-0.0008
-2.968e-02,-4e-05
-2.960e-02,-0.00024
-2.952e-02,0.00064
-2.944e-02,-0.00036
-2.936e-02,0.00016
-2.928e-02,-0.00056
-2.920e-02,-0.00028
-2.912e-02,0.0008
-2.904e-02,0.00056
-2.896e-02,8e-05
-2.888e-02,0.00024
-2.880e-02,0.00028
-2.872e-02,-0.00036
-2.864e-02,-0.00028
-2.856e-02,-0.00032
-2.848e-02,-0.00036
-2.840e-02,-0.00032
-2.832e-02,-0.00028
-2.824e-02,0.00072
-2.816e-02,-0.00036
-2.808e-02,-0.00036
-2.800e-02,0.00084
-2.792e-02,-0.00024
-2.784e-02,-0.00048
-2.776e-02,0.00068
-2.768e-02,0.00088
-2.760e-02,8e-05
-2.752e-02,-0.00032
-2.744e-02,0.00044
-2.736e-02,0.00032
-2.728e-02,0.00032
-2.720e-02,0.00076
-2.712e-02,-0.00024
-2.704e-02,-0.00052
-2.696e-02,0.0002
-2.688e-02,0.00052
-2.680e-02,-0.00032
-2.672e-02,0.0004
-2.664e-02,0.00076
-2.656e-02,-4e-05
-2.648e-02,0.0008
-2.640e-02,-0.00036
-2.632e-02,0.0006
-2.624e-02,0.00052
-2.616e-02,0.00056
-2.608e-02,-0.00016
-2.600e-02,-0.00044
-2.592e-02,0.00028
-2.584e-02,-0.00032
-2.576e-02,-0.00028
-2.568e-02,-0.00032
-2.560e-02,0
-2.552e-02,0.00056
-2.544e-02,-0.00076
-2.536e-02,-0.00024
-2.528e-02,-0.0002
-2.520e-02,-0.0006
-2.512e-02,0.0004
-2.504e-02,-0.0004
-2.496e-02,8e-05
-2.488e-02,-8e-05
-2.480e-02,-0.0002
-2.472e-02,0.00032
-2.464e-02,-0.00016
-2.456e-02,0.00032
-2.448e-02,-0.00044
-2.440e-02,-0.0004
-2.432e-02,-0.0006
-2.424e-02,-0.0002
-2.416e-02,0.00032
-2.408e-02,0.00068
-2.400e-02,-0.00012
-2.392e-02,0.00048
-2.384e-02,0.0004
-2.376e-02,0.0002
-2.368e-02,-0.0002
-2.360e-02,-0.00032
-2.352e-02,-0.00016
-2.344e-02,8e-05
-2.336e-02,0.00036
-2.328e-02,0
-2.320e-02,-0.00068
-2.312e-02,-0.00052
-2.304e-02,0.00076
-2.296e-02,-0.0004
-2.288e-02,0.0004
-2.280e-02,-4e-05
-2.272e-02,0.00052
-2.264e-02,8e-05
-2.256e-02,0.00064
-2.248e-02,-0.00076
-2.240e-02,0.00072
-2.232e-02,0.00028
-2.224e-02,0.00092
-2.216e-02,0.00072
-2.208e-02,0.00072
-2.200e-02,0.0004
-2.192e-02,-0.0006
-2.184e-02,0.0002
-2.176e-02,0.00036
-2.168e-02,0.0004
-2.160e-02,4e-05
-2.152e-02,0.00048
-2.144e-02,0.00048
-2.136e-02,-0.00072
-2.128e-02,0.00072
-2.120e-02,-0.00016
-2.112e-02,-0.00032
-2.104e-02,0.00048
-2.096e-02,0.00064
-2.088e-02,0.00016
-2.080e-02,0.0008
-2.072e-02,0.0004
-2.064e-02,0.00096
-2.056e-02,-0.0002
-2.048e-02,-0.0012
-2.040e-02,0.00052
-2.032e-02,0.00072
-2.024e-02,0.00012
-2.016e-02,-0.00036
-2.008e-02,-4e-05
-2.000e-02,0.00072
-1.992e-02,0.00044
-1.984e-02,0.0008
-1.976e-02,0.0002
-1.968e-02,0
-1.960e-02,-0.00044
-1.952e-02,0.00052
-1.944e-02,4e-05
-1.936e-02,0.00048
-1.928e-02,-4e-05
-1.920e-02,0.00032
-1.912e-02,0.00048
-1.904e-02,0.00092
-1.896e-02,8e-05
-1.888e-02,-0.00032
-1.880e-02,-0.00012
-1.872e-02,-0.00024
-1.864e-02,0.00028
-1.856e-02,0
-1.848e-02,0.00084
-1.840e-02,0.00088
-1.832e-02,-0.0006
-1.824e-02,0.00016
-1.816e-02,-0.00012
-1.808e-02,-0.00048
-1.800e-02,0.00032
-1.792e-02,-0.00052
-1.784e-02,0.0004
-1.776e-02,0.00024
-1.768e-02,0.00068
-1.760e-02,-0.00016
-1.752e-02,0.00044
-1.744e-02,-0.00056
-1.736e-02,-8e-05
-1.728e-02,-0.00012
-1.720e-02,0.00072
-1.712e-02,0.0006
-1.704e-02,0.00072
-1.696e-02,0.00052
-1.688e-02,0.00044
-1.680e-02,0.00012
-1.672e-02,-0.00036
-1.664e-02,0.00032
-1.656e-02,0.00032
-1.648e-02,0.00052
-1.640e-02,0.00036
-1.632e-02,0.0004
-1.624e-02,4e-05
-1.616e-02,0.00012
-1.608e-02,-0.0006
-1.600e-02,0.00024
-1.592e-02,-4e-05
-1.584e-02,8e-05
-1.576e-02,0.00052
-1.568e-02,0
-1.560e-02,0.00076
-1.552e-02,4e-05
-1.544e-02,0.00056
-1.536e-02,0.00084
-1.528e-02,0.00016
-1.520e-02,0.00068
-1.512e-02,0.00024
-1.504e-02,-0.0004
-1.496e-02,0.00028
-1.488e-02,0.00064
-1.480e-02,4e-05
-1.472e-02,0.00056
-1.464e-02,-0.00036
-1.456e-02,-0.00028
-1.448e-02,0.00068
-1.440e-02,0.00024
-1.432e-02,-0.00072
-1.424e-02,0.0002
-1.416e-02,-0.0004
-1.408e-02,0.00076
-1.400e-02,0.0008
-1.392e-02,-8e-05
-1.384e-02,0.00048
-1.376e-02,0.00084
-1.368e-02,-8e-05
-1.360e-02,-0.00044
-1.352e-02,0.00056
-1.344e-02,0.00068
-1.336e-02,0.00088
-1.328e-02,0.00076
-1.320e-02,-0.00012
-1.312e-02,0.00064
-1.304e-02,-0.00012
-1.296e-02,0.00036
-1.288e-02,-0.0006
-1.280e-02,-0.00048
-1.272e-02,-0.00036
-1.264e-02,0.00052
-1.256e-02,0.00052
-1.248e-02,0.0006
-1.240e-02,-0.00032
-1.232e-02,-0.00064
-1.224e-02,-0.0006
-1.216e-02,-0.00048
-1.208e-02,-0.00048
-1.200e-02,0.00032
-1.192e-02,0.0006
-1.184e-02,0.00068
-1.176e-02,-0.00024
-1.168e-02,0.00044
-1.160e-02,-8e-05
-1.152e-02,0
-1.144e-02,-0.0004
-1.136e-02,0.00084
-1.128e-02,0.00044
-1.120e-02,0.00068
-1.112e-02,8e-05
-1.104e-02,-0.00056
-1.096e-02,0.00052
-1.088e-02,0.00048
-1.080e-02,0.0004
-1.072e-02,4e-05
-1.064e-02,0.00076
-1.056e-02,0.00044
-1.048e-02,-0.00028
-1.040e-02,4e-05
-1.032e-02,0.00072
-1.024e-02,0.00068
-1.016e-02,0.0004
-1.008e-02,-0.00076
-1.000e-02,-0.00048
-9.920e-03,-0.00028
-9.840e-03,0.00096
-9.760e-03,-8e-05
-9.680e-03,-8e-05
-9.600e-03,-0.0006
-9.520e-03,-0.0004
-9.440e-03,-0.00028
-9.360e-03,0.00028
-9.280e-03,-0.0006
-9.200e-03,-0.0004
-9.120e-03,-0.00032
-9.040e-03,4e-05
-8.960e-03,-0.00028
-8.880e-03,-0.00044
-8.800e-03,-0.0002
-8.720e-03,0.00024
-8.640e-03,0.00076
-8.560e-03,-8e-05
-8.480e-03,-0.0006
-8.400e-03,0.00084
-8.320e-03,0.00052
-8.240e-03,0.00012
-8.160e-03,0.00016
-8.080e-03,-0.00028
-8.000e-03,0.00056
-7.920e-03,-0.00016
-7.840e-03,4e-05
-7.760e-03,0.00064
-7.680e-03,-0.0006
-7.600e-03,0.00036
-7.520e-03,0.00044
-7.440e-03,0.00012
-7.360e-03,0.00088
-7.280e-03,0.0006
-7.200e-03,-0.00028
-7.120e-03,0.00076
-7.040e-03,0.00036
-6.960e-03,-0.00028
-6.880e-03,0.0006
-6.800e-03,0.00064
-6.720e-03,0.00072
-6.640e-03,0.00052
-6.560e-03,0.00044
-6.480e-03,-0.00048
-6.400e-03,8e-05
-6.320e-03,0.0006
-6.240e-03,0.00076
-6.160e-03,0.00084
-6.080e-03,-0.00012
-6.000e-03,0.00072
-5.920e-03,0.0002
-5.840e-03,0.00036
-5.760e-03,4e-05
-5.680e-03,-0.0002
-5.600e-03,0.00056
-5.520e-03,-0.0002
-5.440e-03,4e-05
-5.360e-03,0.00032
-5.280e-03,0.00048
-5.200e-03,-0.0002
-5.120e-03,-0.0002
-5.040e-03,0.00056
-4.960e-03,0.0004
-4.880e-03,0.00012
-4.800e-03,-0.00016
-4.720e-03,-0.00044
-4.640e-03,0.00084
-4.560e-03,-0.00048
-4.480e-03,0.0002
-4.400e-03,-0.00028
-4.320e-03,-0.0002
-4.240e-03,4e-05
-4.160e-03,0
-4.080e-03,-0.0006
-4.000e-03,0.00076
-3.920e-03,-0.0002
-3.840e-03,0.0006
-3.760e-03,0.0006
-3.680e-03,0.00072
-3.600e-03,-0.00028
-3.520e-03,0.0002
-3.440e-03,-0.0002
-3.360e-03,0.00032
-3.280e-03,0.00036
-3.200e-03,0.00044
-3.120e-03,0.00084
-3.040e-03,-0.00036
-2.960e-03,-0.00032
-2.880e-03,0.00056
-2.800e-03,0.00032
-2.720e-03,-0.00032
-2.640e-03,-0.0002
-2.560e-03,0.00072
-2.480e-03,0.00032
-2.400e-03,0.00012
-2.320e-03,0.0008
-2.240e-03,-0.00024
-2.160e-03,0.00044
-2.080e-03,-0.0006
-2.000e-03,0.0006
-1.920e-03,0.00048
-1.840e-03,-0.00016
-1.760e-03,0.00048
-1.680e-03,-0.00036
-1.600e-03,0.00044
-1.520e-03,0.00092
-1.440e-03,-0.00036
-1.360e-03,0.00052
-1.280e-03,0.00052
-1.200e-03,-0.00028
-1.120e-03,0
-1.040e-03,-0.00052
-9.600e-04,0
-8.800e-04,-0.00056
-8.000e-04,0
-7.200e-04,0.00032
-6.400e-04,-0.0002
-5.600e-04,-4e-05
-4.800e-04,0.00044
-4.000e-04,0.00016
-3.200e-04,-0.0008
-2.400e-04,0.0006
-1.600e-04,-0.00052
-8.000e-05,0.00052
-1.508e-15,0.00076
8.000e-05,0.0008
1.600e-04,0.00052
2.400e-04,0.00036
3.200e-04,0
4.000e-04,0.00048
4.800e-04,0.00088
5.600e-04,0.00028
6.400e-04,-0.00016
7.200e-04,-0.00032
8.000e-04,0.00028
8.800e-04,0.00072
9.600e-04,0.00072
1.040e-03,4e-05
1.120e-03,0.0006
1.200e-03,0
1.280e-03,-0.00076
1.360e-03,0.0008
1.440e-03,-0.00032
1.520e-03,0.00028
1.600e-03,-4e-05
1.680e-03,-4e-05
1.760e-03,0.00056
1.840e-03,0.00088
1.920e-03,0.0004
2.000e-03,0
2.080e-03,-0.00048
2.160e-03,-0.00032
2.240e-03,0.00096
2.320e-03,-0.00052
2.400e-03,0.00036
2.480e-03,0.00012
2.560e-03,-0.0002
2.640e-03,-0.00052
2.720e-03,0.00068
2.800e-03,0.00036
2.880e-03,-0.00032
2.960e-03,0.00072
3.040e-03,-0.00044
3.120e-03,0.00048
3.200e-03,0.00068
3.280e-03,-0.00044
3.360e-03,0.00016
3.440e-03,0.0002
3.520e-03,4e-05
3.600e-03,8e-05
3.680e-03,0.0002
3.760e-03,-0.0002
3.840e-03,0.00072
3.920e-03,0.00044
4.000e-03,-0.0002
4.080e-03,0.00028
4.160e-03,0.00032
4.240e-03,-0.00032
4.320e-03,-4e-05
4.400e-03,-0.00044
4.480e-03,0.00016
4.560e-03,0.00064
4.640e-03,-4e-05
4.720e-03,-0.00032
4.800e-03,0.00064
4.880e-03,0.00084
4.960e-03,-0.00036
5.040e-03,0.0006
5.120e-03,-0.00016
5.200e-03,0.00036
5.280e-03,0.00024
5.360e-03,0.00064
5.440e-03,0.0004
5.520e-03,-0.0006
5.600e-03,0.00036
5.680e-03,0.00036
5.760e-03,4e-05
5.840e-03,-0.00044
5.920e-03,-0.00044
6.000e-03,-0.00052
6.080e-03,-0.0002
6.160e-03,-0.0002
6.240e-03,-0.00048
6.320e-03,-0.00012
6.400e-03,-4e-05
6.480e-03,-0.00028
6.560e-03,0.00092
6.640e-03,0.00032
6.720e-03,0.00016
6.800e-03,0.00104
6.880e-03,0.00084
6.960e-03,0.00088
7.040e-03,-0.00068
7.120e-03,-0.00056
7.200e-03,4e-05
7.280e-03,-0.0002
7.360e-03,0.0008
7.440e-03,-0.0002
7.520e-03,0.00064
7.600e-03,-0.00012
7.680e-03,0.00032
7.760e-03,0.00048
7.840e-03,0.00076
7.920e-03,0.00036
8.000e-03,0.00044
8.080e-03,0.00064
8.160e-03,0.0004
8.240e-03,-0.00016
8.320e-03,-4e-05
8.400e-03,0.00032
8.480e-03,-0.00064
8.560e-03,0.00064
8.640e-03,-0.00024
8.720e-03,0.0008
8.800e-03,0
8.880e-03,-8e-05
8.960e-03,0.00076
9.040e-03,8e-05
9.120e-03,0.00064
9.200e-03,-0.00052
9.280e-03,-0.0004
9.360e-03,0.00048
9.440e-03,-0.00048
9.520e-03,0.00068
9.600e-03,0.00028
9.680e-03,0.00068
9.760e-03,-0.0002
9.840e-03,0.00064
9.920e-03,-0.00036
1.000e-02,0.00028
1.008e-02,-0.0004
1.016e-02,0.0002
1.024e-02,0.00044
1.032e-02,0.00044
1.040e-02,0.00052
1.048e-02,-0.00036
1.056e-02,-0.00036
1.064e-02,-0.00036
1.072e-02,-8e-05
1.080e-02,0.00104
1.088e-02,0.00068
1.096e-02,-0.00036
1.104e-02,0.00068
1.112e-02,-0.00036
1.120e-02,0.00032
1.128e-02,0.00016
1.136e-02,-0.00012
1.144e-02,-0.00044
1.152e-02,0.0008
1.160e-02,-0.00036
1.168e-02,-0.00072
1.176e-02,-8e-05
1.184e-02,-0.00036
1.192e-02,0.00064
1.200e-02,0.00076
1.208e-02,0.00012
1.216e-02,-0.00048
1.224e-02,0.00048
1.232e-02,0.00048
1.240e-02,-4e-05
1.248e-02,0
1.256e-02,0.0002
1.264e-02,0.00072
1.272e-02,0.00072
1.280e-02,-0.0002
1.288e-02,-0.00024
1.296e-02,0.00012
1.304e-02,0.0006
1.312e-02,0.00036
1.320e-02,0.00036
1.328e-02,0.00064
1.336e-02,-0.00012
1.344e-02,-0.0004
1.352e-02,0.00088
1.360e-02,0.00112
