data/PSU_noise/PSU1_CC2_100A_10ms.CSV

Model,TBS1102C
Firmware Version,v2015-08-04-prequal4ch70_v1.3

Point Format,Y
Horizontal Units,S
Horizontal Scale,0.01
Sample Interval,8e-05
Filter Frequency,2e+08
Record Length,2000
Gating,0.0% to 100.0%
Probe Attenuation,1
Vertical Units,V
Vertical Offset,0
Vertical Scale,0.002
Label,
TIME,CH1
-8.000e-02,0.0036
-7.992e-02,-0.00408
-7.984e-02,0.00208
-7.976e-02,-0.00128
-7.968e-02,0.0016
-7.960e-02,0.00136
-7.952e-02,-0.0032
-7.944e-02,0.00192
-7.936e-02,0.0012
-7.928e-02,0.00472
-7.920e-02,-0.0016
-7.912e-02,0.0048
-7.904e-02,0.0012
-7.896e-02,0.00816
-7.888e-02,0.00584
-7.880e-02,-0.00296
-7.872e-02,0
-7.864e-02,-0.0032
-7.856e-02,0.0012
-7.848e-02,0.00528
-7.840e-02,-0.00296
-7.832e-02,-0.00072
-7.824e-02,0.0024
-7.816e-02,-0.00432
-7.808e-02,0.00456
-7.800e-02,0.002
-7.792e-02,0.0096
-7.784e-02,-0.0028
-7.776e-02,0.00048
-7.768e-02,-0.00168
-7.760e-02,-0.00384
-7.752e-02,0.00112
-7.744e-02,-0.00144
-7.736e-02,0.00976
-7.728e-02,-0.00336
-7.720e-02,-0.002
-7.712e-02,-0.00144
-7.704e-02,-0.0016
-7.696e-02,0.0088
-7.688e-02,0.00416
-7.680e-02,0.0052
-7.672e-02,0.00376
-7.664e-02,-0.00072
-7.656e-02,0.002
-7.648e-02,-0.00368
-7.640e-02,0.00016
-7.632e-02,-0.00472
-7.624e-02,0.0008
-7.616e-02,0.00344
-7.608e-02,-0.004
-7.600e-02,-0.00112
-7.592e-02,-0.00216
-7.584e-02,0.0092
-7.576e-02,0.00064
-7.568e-02,0.00552
-7.560e-02,0.00496
-7.552e-02,-0.00136
-7.544e-02,0.0028
-7.536e-02,0.00448
-7.528e-02,0.00112
-7.520e-02,0.00832
-7.512e-02,0.00864
-7.504e-02,-0.00568
-7.496e-02,0.00968
-7.488e-02,-0.006
-7.480e-02,0.00296
-7.472e-02,0.0064
-7.464e-02,-0.00312
-7.456e-02,0.00424
-7.448e-02,-0.0088
-7.440e-02,0.00216
-7.432e-02,-0.00632
-7.424e-02,0.00032
-7.416e-02,-0.00064
-7.408e-02,-0.00072
-7.400e-02,-0.0004
-7.392e-02,-0.00376
-7.384e-02,0.00288
-7.376e-02,-0.002
-7.368e-02,-0.00136
-7.360e-02,0.00192
-7.352e-02,0.00368
-7.344e-02,0.00504
-7.336e-02,-0.00488
-7.328e-02,0.00064
-7.320e-02,-0.00576
-7.312e-02,0.00176
-7.304e-02,-0.00208
-7.296e-02,0.00224
-7.288e-02,0.00256
-7.280e-02,-0.0044
-7.272e-02,-0.00208
-7.264e-02,-0.00896
-7.256e-02,-8e-05
-7.248e-02,0.0068
-7.240e-02,0.00376
-7.232e-02,0.01008
-7.224e-02,0.0012
-7.216e-02,0.00104
-7.208e-02,0.00376
-7.200e-02,-0.00352
-7.192e-02,0.00384
-7.184e-02,0.0004
-7.176e-02,-0.00216
-7.168e-02,0.00016
-7.160e-02,-0.00424
-7.152e-02,0.00368
-7.144e-02,-0.00336
-7.136e-02,0.00224
-7.128e-02,-0.00496
-7.120e-02,0.00048
-7.112e-02,0.00736
-7.104e-02,-0.00152
-7.096e-02,0.00304
-7.088e-02,-0.00984
-7.080e-02,0.00576
-7.072e-02,0.00184
-7.064e-02,0.0004
-7.056e-02,-0.00016
-7.048e-02,-0.00024
-7.040e-02,-0.00392
-7.032e-02,0.0088
-7.024e-02,0.00096
-7.016e-02,0.0032
-7.008e-02,0.00064
-7.000e-02,-0.0084
-6.992e-02,0.00056
-6.984e-02,-0.00864
-6.976e-02,0.00272
-6.968e-02,-0.00072
-6.960e-02,-0.00568
-6.952e-02,-0.0036
-6.944e-02,-0.00856
-6.936e-02,0.00592
-6.928e-02,0.00128
-6.920e-02,0.00432
-6.912e-02,0.00216
-6.904e-02,0.00304
-6.896e-02,-0.00096
-6.888e-02,-0.00496
-6.880e-02,0.0024
-6.872e-02,-0.00096
-6.864e-02,-0.00192
-6.856e-02,0.00128
-6.848e-02,-0.0008
-6.840e-02,0.00056
-6.832e-02,-0.0012
-6.824e-02,0.00056
-6.816e-02,0.00104
-6.808e-02,-0.00904
-6.800e-02,0.00088
-6.792e-02,-0.00184
-6.784e-02,0.00696
-6.776e-02,-0.00152
-6.768e-02,-0.00176
-6.760e-02,-0.00248
-6.752e-02,-0.00256
-6.744e-02,0.00192
-6.736e-02,-0.00152
-6.728e-02,-0.00016
-6.720e-02,-0.00712
-6.712e-02,-0.00312
-6.704e-02,0.00368
-6.696e-02,-0.00128
-6.688e-02,0.00952
-6.680e-02,0.0016
-6.672e-02,0.0008
-6.664e-02,0.00296
-6.656e-02,-0.00416
-6.648e-02,-0.00024
-6.640e-02,-0.004
-6.632e-02,-0.00496
-6.624e-02,-0.00472
-6.616e-02,-0.0044
-6.608e-02,-0.00264
-6.600e-02,0.00328
-6.592e-02,-0.00216
-6.584e-02,-0.01008
-6.576e-02,-0.00272
-6.568e-02,0.00056
-6.560e-02,-0.00256
-6.552e-02,0.00336
-6.544e-02,-0.00592
-6.536e-02,-0.00032
-6.528e-02,-8e-05
-6.520e-02,-0.00248
-6.512e-02,-0.0016
-6.504e-02,-0.0024
-6.496e-02,-0.00944
-6.488e-02,0.00192
-6.480e-02,-0.00488
-6.472e-02,0.00616
-6.464e-02,0.00248
-6.456e-02,0.00408
-6.448e-02,-0.00056
-6.440e-02,-0.00168
-6.432e-02,0.00176
-6.424e-02,0.00104
-6.416e-02,0.00848
-6.408e-02,-0.00048
-6.400e-02,-0.00184
-6.392e-02,-0.0036
-6.384e-02,-0.00216
-6.376e-02,0.01
-6.368e-02,0.0036
-6.360e-02,0.00632
-6.352e-02,0.00552
-6.344e-02,-0.00264
-6.336e-02,0.00232
-6.328e-02,-0.00344
-6.320e-02,-8e-05
-6.312e-02,-0.00096
-6.304e-02,-0.00736
-6.296e-02,-0.00168
-6.288e-02,-0.00824
-6.280e-02,-0.00464
-6.272e-02,-0.0008
-6.264e-02,0.00264
-6.256e-02,-0.00256
-6.248e-02,-0.0084
-6.240e-02,0.00416
-6.232e-02,-0.00144
-6.224e-02,0.004
-6.216e-02,-0.00704
-6.208e-02,0.00304
-6.200e-02,0.00456
-6.192e-02,0.00144
-6.184e-02,0.00552
-6.176e-02,0.00232
-6.168e-02,-0.00336
-6.160e-02,0.0048
-6.152e-02,-0.00256
-6.144e-02,-0.00176
-6.136e-02,0.00152
-6.128e-02,-0.00432
-6.120e-02,0.00488
-6.112e-02,-0.00488
-6.104e-02,0.00256
-6.096e-02,0.00144
-6.088e-02,0.004
-6.080e-02,-0.00064
-6.072e-02,-0.00408
-6.064e-02,8e-05
-6.056e-02,0.00296
-6.048e-02,0.00496
-6.040e-02,-0.002
-6.032e-02,0.0072
-6.024e-02,0.0048
-6.016e-02,0.00488
-6.008e-02,0.00648
-6.000e-02,-0.00528
-5.992e-02,0.0024
-5.984e-02,-0.0048
-5.976e-02,0.0016
-5.968e-02,0.00248
-5.960e-02,-0.00224
-5.952e-02,-0.00016
-5.944e-02,0.00312
-5.936e-02,-0.0048
-5.928e-02,0.00632
-5.920e-02,0.0064
-5.912e-02,0.00952
-5.904e-02,0.0004
-5.896e-02,0
-5.888e-02,-0.00536
-5.880e-02,-0.00384
-5.872e-02,0.00192
-5.864e-02,-0.00272
-5.856e-02,0.00112
-5.848e-02,0.00304
-5.840e-02,-0.00176
-5.832e-02,0.00424
-5.824e-02,0.00144
-5.816e-02,-0.0008
-5.808e-02,0.00736
-5.800e-02,-0.00784
-5.792e-02,0.00336
-5.784e-02,-0.00264
-5.776e-02,0.0052
-5.768e-02,0.00272
-5.760e-02,-0.00568
-5.752e-02,-0.00152
-5.744e-02,-0.00672
-5.736e-02,-0.00032
-5.728e-02,-0.00144
-5.720e-02,-0.0008
-5.712e-02,0.00312
-5.704e-02,-0.00392
-5.696e-02,0.00664
-5.688e-02,0.00088
-5.680e-02,0.00304
-5.672e-02,0.00488
-5.664e-02,-0.00064
-5.656e-02,0.00944
-5.648e-02,0.00264
-5.640e-02,0.00328
-5.632e-02,0.0076
-5.624e-02,-0.0052
-5.616e-02,0.0068
-5.608e-02,0.00088
-5.600e-02,0.00224
-5.592e-02,0.00776
-5.584e-02,0.00384
-5.576e-02,0.00688
-5.568e-02,-0.00416
-5.560e-02,0.00016
-5.552e-02,-0.00352
-5.544e-02,0.00208
-5.536e-02,0.00816
-5.528e-02,0.00288
-5.520e-02,0.00032
-5.512e-02,-0.00256
-5.504e-02,0.00048
-5.496e-02,0.00064
-5.488e-02,-0.00112
-5.480e-02,0.00152
-5.472e-02,-0.00016
-5.464e-02,0.00472
-5.456e-02,-0.0024
-5.448e-02,0.0004
-5.440e-02,-0.00848
-5.432e-02,0.00168
-5.424e-02,0.0008
-5.416e-02,0.00288
-5.408e-02,0.0056
-5.400e-02,0.00168
-5.392e-02,-0.00136
-5.384e-02,0.00304
-5.376e-02,0.00184
-5.368e-02,0.00896
-5.360e-02,0.00304
-5.352e-02,-0.00016
-5.344e-02,0.00392
-5.336e-02,-0.00352
-5.328e-02,0.00528
-5.320e-02,0.00056
-5.312e-02,0.00232
-5.304e-02,-0.00224
-5.296e-02,-0.00288
-5.288e-02,0.00568
-5.280e-02,-0.00128
-5.272e-02,0.0008
-5.264e-02,0.00192
-5.256e-02,0.00488
-5.248e-02,0.0092
-5.240e-02,-0.00152
-5.232e-02,0.00424
-5.224e-02,0.00456
-5.216e-02,0.00528
-5.208e-02,0.0052
-5.200e-02,-0.00752
-5.192e-02,0.0004
-5.184e-02,0.0056
-5.176e-02,-0.00424
-5.168e-02,0.00688
-5.160e-02,-0.0052
-5.152e-02,0.00624
-5.144e-02,-0.00144
-5.136e-02,-0.00168
-5.128e-02,0.00256
-5.120e-02,-0.00856
-5.112e-02,0.00304
-5.104e-02,-0.00712
-5.096e-02,0.00088
-5.088e-02,-0.00096
-5.080e-02,-0.00288
-5.072e-02,0.00408
-5.064e-02,-0.00704
-5.056e-02,0.00568
-5.048e-02,0.00312
-5.040e-02,0.00064
-5.032e-02,0.00488
-5.024e-02,-0.00872
-5.016e-02,0.00208
-5.008e-02,-0.00568
-5.000e-02,0
-4.992e-02,0.00304
-4.984e-02,-0.01016
-4.976e-02,-0.00368
-4.968e-02,-0.00736
-4.960e-02,-0.00184
-4.952e-02,-0.0008
-4.944e-02,-0.00504
-4.936e-02,0.00352
-4.928e-02,-0.00944
-4.920e-02,0.00256
-4.912e-02,-0.00416
-4.904e-02,0.00448
-4.896e-02,-0.00064
-4.888e-02,-0.00056
-4.880e-02,0
-4.872e-02,-0.00616
-4.864e-02,0.00112
-4.856e-02,0.00528
-4.848e-02,-0.00672
-4.840e-02,0.01008
-4.832e-02,-0.00208
-4.824e-02,0.00088
-4.816e-02,0.0016
-4.808e-02,-0.0084
-4.800e-02,0.00352
-4.792e-02,-0.00928
-4.784e-02,-0.00448
-4.776e-02,-0.00616
-4.768e-02,-0.00024
-4.760e-02,0.00208
-4.752e-02,-0.00568
-4.744e-02,0.00568
-4.736e-02,-0.0036
-4.728e-02,-0.00192
-4.720e-02,0.0008
-4.712e-02,0.0008
-4.704e-02,0.0048
-4.696e-02,-0.0084
-4.688e-02,0.00416
-4.680e-02,-0.00416
-4.672e-02,-0.004
-4.664e-02,0.00288
-4.656e-02,-0.00632
-4.648e-02,0.0024
-4.640e-02,-0.00432
-4.632e-02,-0.0048
-4.624e-02,0.00096
-4.616e-02,-0.00984
-4.608e-02,0.00248
-4.600e-02,-0.00096
-4.592e-02,0.006
-4.584e-02,-0.00152
-4.576e-02,-0.00592
-4.568e-02,-0.00168
-4.560e-02,-0.00768
-4.552e-02,0.00456
-4.544e-02,-0.00112
-4.536e-02,-0.0032
-4.528e-02,-0.00512
-4.520e-02,-0.01016
-4.512e-02,0.00288
-4.504e-02,0.00088
-4.496e-02,0.00336
-4.488e-02,0.00072
-4.480e-02,0.00144
-4.472e-02,0.00136
-4.464e-02,0.0012
-4.456e-02,0.00312
-4.448e-02,0.00024
-4.440e-02,0.00568
-4.432e-02,0.00112
-4.424e-02,-0.00344
-4.416e-02,0.0048
-4.408e-02,-0.0024
-4.400e-02,-0.00248
-4.392e-02,0.00216
-4.384e-02,-0.00952
-4.376e-02,0.00416
-4.368e-02,-0.0076
-4.360e-02,0.00456
-4.352e-02,-0.00176
-4.344e-02,-8e-05
-4.336e-02,-0.00624
-4.328e-02,-0.00544
-4.320e-02,0.00208
-4.312e-02,-0.00304
-4.304e-02,0.00112
-4.296e-02,0.00272
-4.288e-02,-0.00808
-4.280e-02,0.00616
-4.272e-02,0.00216
-4.264e-02,0.002
-4.256e-02,0.00032
-4.248e-02,-0.01016
-4.240e-02,0.00192
-4.232e-02,-0.00704
-4.224e-02,-0.00312
-4.216e-02,-0.00152
-4.208e-02,-0.00136
-4.200e-02,0.00304
-4.192e-02,-0.00584
-4.184e-02,-0.00176
-4.176e-02,-0.00416
-4.168e-02,-0.00048
-4.160e-02,-0.00112
-4.152e-02,-0.00024
-4.144e-02,0.00192
-4.136e-02,0.0012
-4.128e-02,0.00608
-4.120e-02,-0.002
-4.112e-02,0.0028
-4.104e-02,-0.0024
-4.096e-02,0.00336
-4.088e-02,0.0016
-4.080e-02,-0.0032
-4.072e-02,0.00104
-4.064e-02,0.00064
-4.056e-02,-0.00384
-4.048e-02,0.0048
-4.040e-02,-0.00088
-4.032e-02,0.00272
-4.024e-02,0.00128
-4.016e-02,-0.00416
-4.008e-02,0
-4.000e-02,-0.00552
-3.992e-02,0.00064
-3.984e-02,0.00112
-3.976e-02,-0.0004
-3.968e-02,-0.00312
-3.960e-02,-0.00368
-3.952e-02,0.00816
-3.944e-02,0.00648
-3.936e-02,0.00576
-3.928e-02,0.006
-3.920e-02,-0.00064
-3.912e-02,0.0012
-3.904e-02,-0.0044
-3.896e-02,0.00368
-3.888e-02,-0.0008
-3.880e-02,-0.00496
-3.872e-02,-0.00048
-3.864e-02,-0.00432
-3.856e-02,-0.0008
-3.848e-02,-0.00264
-3.840e-02,-0.0032
-3.832e-02,0.00208
-3.824e-02,-0.00624
-3.816e-02,0.00416
-3.808e-02,-0.0004
-3.800e-02,0.00488
-3.792e-02,-0.0056
-3.784e-02,0.00288
-3.776e-02,0.00296
-3.768e-02,0.004
-3.760e-02,0.00752
-3.752e-02,-0.00152
-3.744e-02,-0.00496
-3.736e-02,0.00576
-3.728e-02,0.00072
-3.720e-02,0.00704
-3.712e-02,0.0052
-3.704e-02,-0.00424
-3.696e-02,0.00648
-3.688e-02,-0.00352
-3.680e-02,0.00416
-3.672e-02,0.0008
-3.664e-02,0.00168
-3.656e-02,0.00128
-3.648e-02,0.00016
-3.640e-02,0.00704
-3.632e-02,-0.00048
-3.624e-02,0.00248
-3.616e-02,0.002
-3.608e-02,0.00144
-3.600e-02,-0.00328
-3.592e-02,0.00432
-3.584e-02,0.01016
-3.576e-02,-0.0008
-3.568e-02,0.00496
-3.560e-02,-0.00344
-3.552e-02,-0.00272
-3.544e-02,0.00536
-3.536e-02,-8e-05
-3.528e-02,-0.00048
-3.520e-02,0.00152
-3.512e-02,-0.0068
-3.504e-02,0.00392
-3.496e-02,0.00104
-3.488e-02,0.00976
-3.480e-02,0.00296
-3.472e-02,-0.00136
-3.464e-02,-0.00248
-3.456e-02,0
-3.448e-02,0.0024
-3.440e-02,-0.00688
-3.432e-02,0.0008
-3.424e-02,-0.00136
-3.416e-02,-0.00496
-3.408e-02,-0.00344
-3.400e-02,-0.00456
-3.392e-02,0.00632
-3.384e-02,0.0036
-3.376e-02,0.00416
-3.368e-02,0.00608
-3.360e-02,-0.00664
-3.352e-02,0.00624
-3.344e-02,0.00176
-3.336e-02,0.00312
-3.328e-02,0.00152
-3.320e-02,-0.0084
-3.312e-02,-0.00016
-3.304e-02,-0.00648
-3.296e-02,-0.00104
-3.288e-02,-0.00208
-3.280e-02,-0.0004
-3.272e-02,0.00408
-3.264e-02,-0.0036
-3.256e-02,0.0068
-3.248e-02,0.00304
-3.240e-02,0.00424
-3.232e-02,-0.00456
-3.224e-02,0.00024
-3.216e-02,0.0064
-3.208e-02,8e-05
-3.200e-02,0.00328
-3.192e-02,0.00448
-3.184e-02,0
-3.176e-02,0.0096
-3.168e-02,0.00752
-3.160e-02,0.00448
-3.152e-02,0.0036
-3.144e-02,-0.00816
-3.136e-02,-0.00024
-3.128e-02,-0.006
-3.120e-02,-0.00272
-3.112e-02,-0.00312
-3.104e-02,0.0012
-3.096e-02,-0.00296
-3.088e-02,-0.00296
-3.080e-02,0.00456
-3.072e-02,0.00072
-3.064e-02,0.00272
-3.056e-02,-0.00056
-3.048e-02,-0.00216
-3.040e-02,0.00048
-3.032e-02,-0.00816
-3.024e-02,-0.00144
-3.016e-02,-0.00752
-3.008e-02,-0.0012
-3.000e-02,-0.00336
-2.992e-02,-0.00416
-2.984e-02,-0.00104
-2.976e-02,-0.0056
-2.968e-02,-0.00112
-2.960e-02,-0.00528
-2.952e-02,-0.00232
-2.944e-02,0.00464
-2.936e-02,0.00352
-2.928e-02,0.01016
-2.920e-02,0.0016
-2.912e-02,-0.00184
-2.904e-02,0.00376
-2.896e-02,-0.00112
-2.888e-02,0.00376
-2.880e-02,0.00624
-2.872e-02,-0.00456
-2.864e-02,0.00432
-2.856e-02,-0.00232
-2.848e-02,0.00184
-2.840e-02,0.0036
-2.832e-02,-0.0012
-2.824e-02,0.00128
-2.816e-02,-0.00608
-2.808e-02,0.00016
-2.800e-02,-0.0052
-2.792e-02,0.00296
-2.784e-02,-0.00256
-2.776e-02,-0.00144
-2.768e-02,-0.0024
-2.760e-02,0.00272
-2.752e-02,0.00208
-2.744e-02,-0.00672
-2.736e-02,0.0008
-2.728e-02,-0.00352
-2.720e-02,0.00128
-2.712e-02,0.00096
-2.704e-02,-0.00296
-2.696e-02,0.00384
-2.688e-02,-0.00776
-2.680e-02,0.00032
-2.672e-02,-0.00128
-2.664e-02,-0.0052
-2.656e-02,-0.00312
-2.648e-02,-0.00544
-2.640e-02,-0.00816
-2.632e-02,8e-05
-2.624e-02,-0.00456
-2.616e-02,0.00088
-2.608e-02,0.0028
-2.600e-02,0.0008
-2.592e-02,-0.00432
-2.584e-02,-0.00944
-2.576e-02,0.0012
-2.568e-02,-0.0072
-2.560e-02,0.00176
-2.552e-02,-0.00688
-2.544e-02,-0.00168
-2.536e-02,0.00296
-2.528e-02,-0.00192
-2.520e-02,-8e-05
-2.512e-02,-0.00432
-2.504e-02,0.00424
-2.496e-02,-0.00312
-2.488e-02,0.00448
-2.480e-02,0.00512
-2.472e-02,0.00112
-2.464e-02,0.00976
-2.456e-02,-0.00888
-2.448e-02,0.00384
-2.440e-02,-0.00056
-2.432e-02,0.00544
-2.424e-02,0.00256
-2.416e-02,-0.00376
-2.408e-02,0.0024
-2.400e-02,0.0016
-2.392e-02,-0.00048
-2.384e-02,0.00992
-2.376e-02,-0.0032
-2.368e-02,-0.00144
-2.360e-02,-0.00496
-2.352e-02,-0.00632
-2.344e-02,0.00016
-2.336e-02,-0.0052
-2.328e-02,0.00352
-2.320e-02,-0.00464
-2.312e-02,-0.00576
-2.304e-02,-0.00096
-2.296e-02,-0.00664
-2.288e-02,0.00672
-2.280e-02,-0.00728
-2.272e-02,0.00904
-2.264e-02,0.00176
-2.256e-02,0.00152
-2.248e-02,-0.00016
-2.240e-02,-0.00584
-2.232e-02,8e-05
-2.224e-02,-0.0036
-2.216e-02,-0.00016
-2.208e-02,0.00096
-2.200e-02,-0.0028
-2.192e-02,-0.00784
-2.184e-02,-0.00784
-2.176e-02,0.00064
-2.168e-02,0.00096
-2.160e-02,-0.00216
-2.152e-02,0.00424
-2.144e-02,-0.00464
-2.136e-02,0.0072
-2.128e-02,-0.00448
-2.120e-02,0.00576
-2.112e-02,0.004
-2.104e-02,-0.00064
-2.096e-02,0.00608
-2.088e-02,-0.0068
-2.080e-02,0.0068
-2.072e-02,0.002
-2.064e-02,-0.00024
-2.056e-02,0.00928
-2.048e-02,-0.00072
-2.040e-02,0.00984
-2.032e-02,-0.0008
-2.024e-02,-0.00032
-2.016e-02,0.0084
-2.008e-02,-0.00736
-2.000e-02,0.00056
-1.992e-02,-0.002
-1.984e-02,-0.00352
-1.976e-02,0.00384
-1.968e-02,0.00192
-1.960e-02,0.00208
-1.952e-02,-0.00616
-1.944e-02,0.00472
-1.936e-02,0.0028
-1.928e-02,0.00416
-1.920e-02,0.008
-1.912e-02,-0.00704
-1.904e-02,0.00544
-1.896e-02,-0.00184
-1.888e-02,-0.00024
-1.880e-02,0.00432
-1.872e-02,-0.00528
-1.864e-02,-0.00216
-1.856e-02,0.00024
-1.848e-02,0.00064
-1.840e-02,0.00632
-1.832e-02,0.00072
-1.824e-02,0.00936
-1.816e-02,-0.0032
-1.808e-02,0.00192
-1.800e-02,-0.00344
-1.792e-02,0.00192
-1.784e-02,0.01008
-1.776e-02,-0.00496
-1.768e-02,0.00592
-1.760e-02,-0.00384
-1.752e-02,0.00288
-1.744e-02,0.00736
-1.736e-02,0.00176
-1.728e-02,0.00528
-1.720e-02,-0.00096
-1.712e-02,0.00368
-1.704e-02,-0.0012
-1.696e-02,-0.00624
-1.688e-02,0.0004
-1.680e-02,-0.00688
-1.672e-02,0.00168
-1.664e-02,0.0016
-1.656e-02,-0.00192
-1.648e-02,0.00168
-1.640e-02,-0.00168
-1.632e-02,0.0036
-1.624e-02,-0.00208
-1.616e-02,0.00272
-1.608e-02,0.006
-1.600e-02,-0.0036
-1.592e-02,0.01
-1.584e-02,-0.00136
-1.576e-02,0.00616
-1.568e-02,0.00464
-1.560e-02,-0.00104
-1.552e-02,0.00856
-1.544e-02,-0.00032
-1.536e-02,-8e-05
-1.528e-02,0.00368
-1.520e-02,-0.002
-1.512e-02,0.00592
-1.504e-02,0.00208
-1.496e-02,0.00304
-1.488e-02,-0.00096
-1.480e-02,0.0008
-1.472e-02,0.00312
-1.464e-02,0.00024
-1.456e-02,0.0048
-1.448e-02,-0.00728
-1.440e-02,0.00312
-1.432e-02,0.00184
-1.424e-02,0.00136
-1.416e-02,0.00312
-1.408e-02,-0.00408
-1.400e-02,0.00448
-1.392e-02,0.00256
-1.384e-02,-0.00088
-1.376e-02,0.00072
-1.368e-02,-0.00544
-1.360e-02,0.00264
-1.352e-02,-0.00952
-1.344e-02,0.0012
-1.336e-02,-0.00184
-1.328e-02,-0.00064
-1.320e-02,0.0044
-1.312e-02,-0.0092
-1.304e-02,0.00152
-1.296e-02,-0.00384
-1.288e-02,-0.002
-1.280e-02,0.00704
-1.272e-02,-0.00336
-1.264e-02,0.0072
-1.256e-02,0.0024
-1.248e-02,0.00648
-1.240e-02,0.0024
-1.232e-02,-0.00376
-1.224e-02,0.00696
-1.216e-02,-0.00392
-1.208e-02,0.00104
-1.200e-02,0.0004
-1.192e-02,0.00064
-1.184e-02,0.00792
-1.176e-02,-0.00096
-1.168e-02,0.00704
-1.160e-02,0.00728
-1.152e-02,0.00312
-1.144e-02,0.004
-1.136e-02,-0.00752
-1.128e-02,0
-1.120e-02,-0.0056
-1.112e-02,-0.00104
-1.104e-02,-0.0032
-1.096e-02,-0.00376
-1.088e-02,-0.00272
-1.080e-02,-0.01
-1.072e-02,-0.00104
-1.064e-02,-0.0028
-1.056e-02,-0.00144
-1.048e-02,0.00368
-1.040e-02,-0.00792
-1.032e-02,0.00312
-1.024e-02,-0.008
-1.016e-02,0.00344
-1.008e-02,0.002
-1.000e-02,-0.0052
-9.920e-03,0.00488
-9.840e-03,-0.00216
-9.760e-03,-0.0044
-9.680e-03,0.006
-9.600e-03,0.0008
-9.520e-03,8e-05
-9.440e-03,-0.0052
-9.360e-03,0.00064
-9.280e-03,0.00344
-9.200e-03,-0.00744
-9.120e-03,-0.00192
-9.040e-03,-0.00952
-8.960e-03,0.00264
-8.880e-03,-0.00304
-8.800e-03,0.0024
-8.720e-03,0.00464
-8.640e-03,-0.00112
-8.560e-03,0.00104
-8.480e-03,-0.00776
-8.400e-03,0.00328
-8.320e-03,-0.00064
-8.240e-03,8e-05
-8.160e-03,0.00832
-8.080e-03,-0.0052
-8.000e-03,0.0032
-7.920e-03,-0.00912
-7.840e-03,0.0024
-7.760e-03,-0.00064
-7.680e-03,-8e-05
-7.600e-03,0.00144
-7.520e-03,-0.004
-7.440e-03,0.00032
-7.360e-03,0.00048
-7.280e-03,-0.0032
-7.200e-03,0.00576
-7.120e-03,-0.00392
-7.040e-03,0.00816
-6.960e-03,-0.004
-6.880e-03,-0.00152
-6.800e-03,-0.00088
-6.720e-03,-0.01016
-6.640e-03,0.00048
-6.560e-03,-0.0052
-6.480e-03,-0.00176
-6.400e-03,-0.00272
-6.320e-03,-0.0092
-6.240e-03,0.0024
-6.160e-03,-0.00976
-6.080e-03,0.0072
-6.000e-03,0.00832
-5.920e-03,0.00192
-5.840e-03,0.00136
-5.760e-03,-0.0092
-5.680e-03,-0.00192
-5.600e-03,-0.00488
-5.520e-03,0.00328
-5.440e-03,-0.00256
-5.360e-03,-0.00912
-5.280e-03,-0.00096
-5.200e-03,-0.00936
-5.120e-03,-0.00504
-5.040e-03,-0.00232
-4.960e-03,-0.00184
-4.880e-03,0.0024
-4.800e-03,-0.00112
-4.720e-03,0.00672
-4.640e-03,-0.00136
-4.560e-03,0.00272
-4.480e-03,-0.00048
-4.400e-03,0.00456
-4.320e-03,0.00512
-4.240e-03,-0.00016
-4.160e-03,0.00408
-4.080e-03,-8e-05
-4.000e-03,-0.0036
-3.920e-03,0.00792
-3.840e-03,-0.00048
-3.760e-03,0.00136
-3.680e-03,0.00048
-3.600e-03,-0.00712
-3.520e-03,0.00144
-3.440e-03,-0.01016
-3.360e-03,-0.0008
-3.280e-03,-0.00144
-3.200e-03,0.00192
-3.120e-03,0.00112
-3.040e-03,-0.00384
-2.960e-03,0.0084
-2.880e-03,-0.00264
-2.800e-03,0.00168
-2.720e-03,0.00112
-2.640e-03,-0.00224
-2.560e-03,-0.00112
-2.480e-03,-0.01008
-2.400e-03,0.00608
-2.320e-03,-0.0024
-2.240e-03,-0.00536
-2.160e-03,8e-05
-2.080e-03,-0.006
-2.000e-03,-0.00072
-1.920e-03,-0.0044
-1.840e-03,-0.00472
-1.760e-03,-0.00072
-1.680e-03,-0.00496
-1.600e-03,0.00944
-1.520e-03,-0.00184
-1.440e-03,0.00864
-1.360e-03,0.00424
-1.280e-03,-0.00296
-1.200e-03,0.0028
-1.120e-03,-0.00144
-1.040e-03,0.0064
-9.600e-04,0.00392
-8.800e-04,0.00088
-8.000e-04,0.00656
-7.200e-04,-0.00776
-6.400e-04,0.00536
-5.600e-04,-0.00016
-4.800e-04,0.00032
-4.000e-04,0.00496
-3.200e-04,-0.00616
-2.400e-04,0.00096
-1.600e-04,-0.01008
-8.000e-05,0.00064
-1.896e-15,0.00248
8.000e-05,0.00096
1.600e-04,0.00184
2.400e-04,-0.00192
3.200e-04,0.00136
4.000e-04,-0.00432
4.800e-04,0.0016
5.600e-04,0.00256
6.400e-04,-0.0004
7.200e-04,0.006
8.000e-04,0
8.800e-04,0.00464
9.600e-04,-0.00464
1.040e-03,0.00768
1.120e-03,-0.00112
1.200e-03,-0.00208
1.280e-03,0.00384
1.360e-03,-0.00216
1.440e-03,0.00528
1.520e-03,-0.00136
1.600e-03,0.00048
1.680e-03,0.00328
1.760e-03,-0.00056
1.840e-03,0.00952
1.920e-03,0.00016
2.000e-03,0.00728
2.080e-03,-0.00224
2.160e-03,0.00024
2.240e-03,0.00328
2.320e-03,-0.00368
