data/PSU_noise/PSU1_CV2_20A_100us.CSV

Model,TBS1102C
Firmware Version,v2015-08-04-prequal4ch70_v1.3

Point Format,Y
Horizontal Units,S
Horizontal Scale,0.0001
Sample Interval,8e-07
Filter Frequency,2e+08
Record Length,2000
Gating,0.0% to 100.0%
Probe Attenuation,1
Vertical Units,V
Vertical Offset,0
Vertical Scale,0.002
Label,
TIME,CH1
-8.000e-04,0.0028
-7.992e-04,0.00568
-7.984e-04,0.00504
-7.976e-04,0.00216
-7.968e-04,0.00336
-7.960e-04,0.00624
-7.952e-04,0.0028
-7.944e-04,0.00224
-7.936e-04,0.00552
-7.928e-04,0.00456
-7.920e-04,0.00232
-7.912e-04,0.00432
-7.904e-04,0.00632
-7.896e-04,0.00368
-7.888e-04,0.00416
-7.880e-04,0.0072
-7.872e-04,0.00552
-7.864e-04,0.00272
-7.856e-04,0.00528
-7.848e-04,0.00632
-7.840e-04,0.00328
-7.832e-04,0.00328
-7.824e-04,0.0056
-7.816e-04,0.00272
-7.808e-04,0.00168
-7.800e-04,0.0052
-7.792e-04,0.0052
-7.784e-04,0.00224
-7.776e-04,0.00224
-7.768e-04,0.0048
-7.760e-04,0.00128
-7.752e-04,0.00096
-7.744e-04,0.0048
-7.736e-04,0.0024
-7.728e-04,-0.00144
-7.720e-04,0.00192
-7.712e-04,0.0024
-7.704e-04,-0.00096
-7.696e-04,0.00016
-7.688e-04,0.0028
-7.680e-04,-0.0004
-7.672e-04,-0.00192
-7.664e-04,0.00136
-7.656e-04,0.00112
-7.648e-04,-0.00232
-7.640e-04,-0.00128
-7.632e-04,0.0008
-7.624e-04,-0.00176
-7.616e-04,-0.0032
-7.608e-04,-0.00104
-7.600e-04,-0.00144
-7.592e-04,-0.00424
-7.584e-04,-0.00256
-7.576e-04,0.00072
-7.568e-04,-0.00232
-7.560e-04,-0.00448
-7.552e-04,-0.00144
-7.544e-04,-0.00088
-7.536e-04,-0.00368
-7.528e-04,-0.00344
-7.520e-04,-0.00152
-7.512e-04,-0.0032
-7.504e-04,-0.00536
-7.496e-04,-0.002
-7.488e-04,-0.00112
-7.480e-04,-0.00544
-7.472e-04,-0.0048
-7.464e-04,-0.00064
-7.456e-04,-0.002
-7.448e-04,-0.00496
-7.440e-04,-0.0016
-7.432e-04,-0.0008
-7.424e-04,-0.00448
-7.416e-04,-0.00272
-7.408e-04,-0.00032
-7.400e-04,-0.00288
-7.392e-04,-0.00544
-7.384e-04,-0.00208
-7.376e-04,-0.0008
-7.368e-04,-0.0028
-7.360e-04,-0.00368
-7.352e-04,-0.00096
-7.344e-04,-0.00248
-7.336e-04,-0.0044
-7.328e-04,-0.00104
-7.320e-04,-0.00024
-7.312e-04,-0.0036
-7.304e-04,-0.0024
-7.296e-04,0.00088
-7.288e-04,-0.00128
-7.280e-04,-0.00256
-7.272e-04,-8e-05
-7.264e-04,-0.00032
-7.256e-04,-0.00248
-7.248e-04,-0.0012
-7.240e-04,0.00168
-7.232e-04,-0.00152
-7.224e-04,-0.00328
-7.216e-04,0.0012
-7.208e-04,0.00064
-7.200e-04,-0.00168
-7.192e-04,0.00032
-7.184e-04,0.0016
-7.176e-04,-0.00168
-7.168e-04,-0.00208
-7.160e-04,0.00168
-7.152e-04,0.00144
-7.144e-04,-0.00144
-7.136e-04,8e-05
-7.128e-04,0.00176
-7.120e-04,-0.00088
-7.112e-04,-0.00056
-7.104e-04,0.00232
-7.096e-04,0.00096
-7.088e-04,-0.00136
-7.080e-04,-8e-05
-7.072e-04,0.00192
-7.064e-04,-0.00104
-7.056e-04,-0.002
-7.048e-04,0.00096
-7.040e-04,0.00112
-7.032e-04,-0.00184
-7.024e-04,-0.00128
-7.016e-04,0.00064
-7.008e-04,-0.00128
-7.000e-04,-0.00216
-6.992e-04,0.00184
-6.984e-04,0.00152
-6.976e-04,-0.00288
-6.968e-04,-0.00064
-6.960e-04,0.00216
-6.952e-04,-0.00056
-6.944e-04,-0.00112
-6.936e-04,0.00176
-6.928e-04,-8e-05
-6.920e-04,-0.00256
-6.912e-04,0.00104
-6.904e-04,0.0024
-6.896e-04,-0.00112
-6.888e-04,-0.00112
-6.880e-04,0.00168
-6.872e-04,0.00136
-6.864e-04,-0.0004
-6.856e-04,0.00072
-6.848e-04,0.0028
-6.840e-04,0.0004
-6.832e-04,-0.00064
-6.824e-04,0.00272
-6.816e-04,0.00184
-6.808e-04,-0.00208
-6.800e-04,0.00064
-6.792e-04,0.00272
-6.784e-04,-0.00072
-6.776e-04,-0.00056
-6.768e-04,0.00312
-6.760e-04,0.0004
-6.752e-04,-0.00136
-6.744e-04,0.00264
-6.736e-04,0.00256
-6.728e-04,-0.00064
-6.720e-04,-0.0004
-6.712e-04,0.00208
-6.704e-04,0.00088
-6.696e-04,-0.0012
-6.688e-04,0.0012
-6.680e-04,0.0016
-6.672e-04,-0.00208
-6.664e-04,-0.00112
-6.656e-04,0.00296
-6.648e-04,0.00096
-6.640e-04,-0.00192
-6.632e-04,0.00024
-6.624e-04,0.00208
-6.616e-04,-0.00128
-6.608e-04,-0.00112
-6.600e-04,0.0016
-6.592e-04,-0.00056
-6.584e-04,-0.0036
-6.576e-04,-0.00128
-6.568e-04,0.00056
-6.560e-04,-0.0016
-6.552e-04,-0.00328
-6.544e-04,-0.00088
-6.536e-04,0.00032
-6.528e-04,-0.00224
-6.520e-04,-0.00192
-6.512e-04,0.00064
-6.504e-04,-0.0012
-6.496e-04,-0.00368
-6.488e-04,-0.00136
-6.480e-04,0.00056
-6.472e-04,-0.0024
-6.464e-04,-0.00416
-6.456e-04,-0.00072
-6.448e-04,-0.00064
-6.440e-04,-0.00352
-6.432e-04,-0.0024
-6.424e-04,0.00048
-6.416e-04,-0.00112
-6.408e-04,-0.00232
-6.400e-04,-0.00064
-6.392e-04,-0.00032
-6.384e-04,-0.00288
-6.376e-04,-0.0028
-6.368e-04,0.00032
-6.360e-04,-0.0004
-6.352e-04,-0.0032
-6.344e-04,-0.00224
-6.336e-04,-0.00024
-6.328e-04,-0.00184
-6.320e-04,-0.00256
-6.312e-04,0.0012
-6.304e-04,-0.00064
-6.296e-04,-0.00328
-6.288e-04,-0.00032
-6.280e-04,0.00064
-6.272e-04,-0.00232
-6.264e-04,-0.00208
-6.256e-04,0.00016
-6.248e-04,-0.00184
-6.240e-04,-0.0028
-6.232e-04,-8e-05
-6.224e-04,0.00016
-6.216e-04,-0.00328
-6.208e-04,-0.00152
-6.200e-04,0.00144
-6.192e-04,-0.00144
-6.184e-04,-0.00216
-6.176e-04,0.00056
-6.168e-04,0.00056
-6.160e-04,-0.00184
-6.152e-04,-8e-05
-6.144e-04,0.00184
-6.136e-04,-0.00136
-6.128e-04,-0.00216
-6.120e-04,0.00128
-6.112e-04,0.0008
-6.104e-04,-0.00216
-6.096e-04,-0.00016
-6.088e-04,0.00104
-6.080e-04,-0.0028
-6.072e-04,-0.00184
-6.064e-04,0.00232
-6.056e-04,0.00072
-6.048e-04,-0.00272
-6.040e-04,-0.00016
-6.032e-04,0.00104
-6.024e-04,-0.00184
-6.016e-04,-0.00056
-6.008e-04,0.0012
-6.000e-04,-0.00104
-5.992e-04,-0.00344
-5.984e-04,0.00024
-5.976e-04,0.0012
-5.968e-04,-0.00208
-5.960e-04,-0.00152
-5.952e-04,0.00168
-5.944e-04,0
-5.936e-04,-0.00176
-5.928e-04,8e-05
-5.920e-04,0.00096
-5.912e-04,-0.00168
-5.904e-04,-0.00144
-5.896e-04,0.00152
-5.888e-04,-0.0012
-5.880e-04,-0.00424
-5.872e-04,-0.00032
-5.864e-04,0.00104
-5.856e-04,-0.00288
-5.848e-04,-0.00072
-5.840e-04,0.00088
-5.832e-04,-0.00248
-5.824e-04,-0.00224
-5.816e-04,0.00176
-5.808e-04,0.00048
-5.800e-04,-0.00312
-5.792e-04,-0.00112
-5.784e-04,0.00064
-5.776e-04,-0.00192
-5.768e-04,-0.00192
-5.760e-04,0.00032
-5.752e-04,-0.00072
-5.744e-04,-0.00344
-5.736e-04,-0.00088
-5.728e-04,0.00136
-5.720e-04,-0.00088
-5.712e-04,-0.00088
-5.704e-04,0.00144
-5.696e-04,-0.00112
-5.688e-04,-0.00136
-5.680e-04,0.00136
-5.672e-04,0.00128
-5.664e-04,-0.00168
-5.656e-04,-0.0016
-5.648e-04,0.00168
-5.640e-04,-0.00112
-5.632e-04,-0.00264
-5.624e-04,0.0004
-5.616e-04,0.00056
-5.608e-04,-0.00184
-5.600e-04,-0.00056
-5.592e-04,0.00144
-5.584e-04,-0.00112
-5.576e-04,-0.0032
-5.568e-04,0.00064
-5.560e-04,0.00152
-5.552e-04,-0.00256
-5.544e-04,-0.00152
-5.536e-04,0.00064
-5.528e-04,-0.00232
-5.520e-04,-0.00288
-5.512e-04,0.00048
-5.504e-04,-0.0004
-5.496e-04,-0.00408
-5.488e-04,-0.00248
-5.480e-04,0.00032
-5.472e-04,-0.00144
-5.464e-04,-0.00272
-5.456e-04,8e-05
-5.448e-04,0.00112
-5.440e-04,-0.00224
-5.432e-04,-0.002
-5.424e-04,0.00064
-5.416e-04,-0.00048
-5.408e-04,-0.0036
-5.400e-04,-0.00128
-5.392e-04,0.00024
-5.384e-04,-0.00288
-5.376e-04,-0.00408
-5.368e-04,-0.00056
-5.360e-04,-0.00064
-5.352e-04,-0.00368
-5.344e-04,-0.00072
-5.336e-04,0.00056
-5.328e-04,-0.0032
-5.320e-04,-0.0024
-5.312e-04,0.00144
-5.304e-04,0.00048
-5.296e-04,-0.00288
-5.288e-04,-0.00176
-5.280e-04,0.00032
-5.272e-04,-0.00176
-5.264e-04,-0.0024
-5.256e-04,0.00024
-5.248e-04,-0.0012
-5.240e-04,-0.00384
-5.232e-04,-0.00144
-5.224e-04,0.00152
-5.216e-04,-0.00192
-5.208e-04,-0.00248
-5.200e-04,0.00016
-5.192e-04,-0.0008
-5.184e-04,-0.00248
-5.176e-04,0.00016
-5.168e-04,0.0012
-5.160e-04,-0.00256
-5.152e-04,-0.00128
-5.144e-04,0.0024
-5.136e-04,-0.0008
-5.128e-04,-0.0028
-5.120e-04,0.00168
-5.112e-04,0.00016
-5.104e-04,-0.00304
-5.096e-04,0.00024
-5.088e-04,0.00176
-5.080e-04,-0.00216
-5.072e-04,-0.00224
-5.064e-04,0.00112
-5.056e-04,0.00024
-5.048e-04,-0.00264
-5.040e-04,0.00016
-5.032e-04,0.00152
-5.024e-04,-0.00208
-5.016e-04,-0.00144
-5.008e-04,0.00208
-5.000e-04,0.00016
-4.992e-04,-0.00272
-4.984e-04,-0.00056
-4.976e-04,0.00088
-4.968e-04,-0.00208
-4.960e-04,-0.00192
-4.952e-04,0.00088
-4.944e-04,-0.0004
-4.936e-04,-0.00312
-4.928e-04,-0.00048
-4.920e-04,0.0016
-4.912e-04,-0.002
-4.904e-04,-0.00256
-4.896e-04,0.00048
-4.888e-04,-0.00024
-4.880e-04,-0.00288
-4.872e-04,-0.00072
-4.864e-04,0.00048
-4.856e-04,-0.0028
-4.848e-04,-0.00224
-4.840e-04,0.00048
-4.832e-04,-0.00048
-4.824e-04,-0.00392
-4.816e-04,-0.00144
-4.808e-04,0.00072
-4.800e-04,-0.00344
-4.792e-04,-0.00272
-4.784e-04,0.00064
-4.776e-04,-0.00216
-4.768e-04,-0.00416
-4.760e-04,-0.00024
-4.752e-04,0.00088
-4.744e-04,-0.00272
-4.736e-04,-0.0028
-4.728e-04,0.00128
-4.720e-04,-0.00144
-4.712e-04,-0.00336
-4.704e-04,0.0004
-4.696e-04,-0.00088
-4.688e-04,-0.0044
-4.680e-04,-0.002
-4.672e-04,-8e-05
-4.664e-04,-0.00264
-4.656e-04,-0.00432
-4.648e-04,-0.00064
-4.640e-04,-0.00072
-4.632e-04,-0.0032
-4.624e-04,-0.00104
-4.616e-04,0.00048
-4.608e-04,-0.00256
-4.600e-04,-0.00376
-4.592e-04,-0.00024
-4.584e-04,-0.0004
-4.576e-04,-0.00408
-4.568e-04,-0.00288
-4.560e-04,-8e-05
-4.552e-04,-0.0044
-4.544e-04,-0.00416
-4.536e-04,-0.00024
-4.528e-04,-0.00144
-4.520e-04,-0.00536
-4.512e-04,-0.00264
-4.504e-04,-8e-05
-4.496e-04,-0.00344
-4.488e-04,-0.00456
-4.480e-04,-0.00088
-4.472e-04,-0.00256
-4.464e-04,-0.00472
-4.456e-04,-0.0032
-4.448e-04,-0.00096
-4.440e-04,-0.0036
-4.432e-04,-0.00568
-4.424e-04,-0.00192
-4.416e-04,-0.00064
-4.408e-04,-0.00488
-4.400e-04,-0.00416
-4.392e-04,-0.00088
-4.384e-04,-0.00256
-4.376e-04,-0.004
-4.368e-04,-0.00112
-4.360e-04,-0.00064
-4.352e-04,-0.00392
-4.344e-04,-0.0032
-4.336e-04,0.00064
-4.328e-04,-0.00088
-4.320e-04,-0.00384
-4.312e-04,-0.00136
-4.304e-04,-0.00016
-4.296e-04,-0.00256
-4.288e-04,-0.00216
-4.280e-04,0.00016
-4.272e-04,-0.00128
-4.264e-04,-0.00384
-4.256e-04,-0.00056
-4.248e-04,0.00144
-4.240e-04,-0.0016
-4.232e-04,-0.00128
-4.224e-04,0.002
-4.216e-04,0.0004
-4.208e-04,-0.00112
-4.200e-04,0.00112
-4.192e-04,0.00064
-4.184e-04,-0.00216
-4.176e-04,-8e-05
-4.168e-04,0.00232
-4.160e-04,-0.00088
-4.152e-04,-0.0016
-4.144e-04,0.00144
-4.136e-04,0.00048
-4.128e-04,-0.00096
-4.120e-04,0.00192
-4.112e-04,0.00232
-4.104e-04,-0.00112
-4.096e-04,0
-4.088e-04,0.00312
-4.080e-04,8e-05
-4.072e-04,-0.00096
-4.064e-04,0.00168
-4.056e-04,-0.00016
-4.048e-04,-0.00216
-4.040e-04,0.0012
-4.032e-04,0.00208
-4.024e-04,-0.00128
-4.016e-04,-0.00024
-4.008e-04,0.00176
-4.000e-04,0.00032
-3.992e-04,-0.00056
-3.984e-04,0.00248
-3.976e-04,0.00152
-3.968e-04,-0.00176
-3.960e-04,0.00024
-3.952e-04,0.00248
-3.944e-04,-0.00072
-3.936e-04,-0.00136
-3.928e-04,0.00144
-3.920e-04,0.0008
-3.912e-04,-0.0012
-3.904e-04,-8e-05
-3.896e-04,0.00232
-3.888e-04,8e-05
-3.880e-04,-0.00088
-3.872e-04,0.00272
-3.864e-04,0.00256
-3.856e-04,-0.00184
-3.848e-04,0.00064
-3.840e-04,0.00296
-3.832e-04,0.00048
-3.824e-04,-0.0008
-3.816e-04,0.00208
-3.808e-04,0.0012
-3.800e-04,-0.00208
-3.792e-04,0.00112
-3.784e-04,0.00376
-3.776e-04,0.00016
-3.768e-04,-0.00064
-3.760e-04,0.0028
-3.752e-04,0.00216
-3.744e-04,0.0004
-3.736e-04,0.00288
-3.728e-04,0.00408
-3.720e-04,0.00136
-3.712e-04,0.00104
-3.704e-04,0.00472
-3.696e-04,0.0032
-3.688e-04,-8e-05
-3.680e-04,0.00256
-3.672e-04,0.00352
-3.664e-04,0.00048
-3.656e-04,0.00128
-3.648e-04,0.00368
-3.640e-04,0.00184
-3.632e-04,0.0004
-3.624e-04,0.00376
-3.616e-04,0.0048
-3.608e-04,0.00128
-3.600e-04,0.00168
-3.592e-04,0.00464
-3.584e-04,0.00248
-3.576e-04,0.00048
-3.568e-04,0.00376
-3.560e-04,0.0032
-3.552e-04,-0.00048
-3.544e-04,0.00176
-3.536e-04,0.00472
-3.528e-04,0.00176
-3.520e-04,0.00056
-3.512e-04,0.00352
-3.504e-04,0.00248
-3.496e-04,0.0008
-3.488e-04,0.00304
-3.480e-04,0.00344
-3.472e-04,0.0004
-3.464e-04,-0.00032
-3.456e-04,0.00328
-3.448e-04,0.00176
-3.440e-04,-0.00056
-3.432e-04,0.00024
-3.424e-04,0.00176
-3.416e-04,-0.00024
-3.408e-04,-0.0012
-3.400e-04,0.00232
-3.392e-04,0.0016
-3.384e-04,-0.00152
-3.376e-04,-0.0004
-3.368e-04,0.00304
-3.360e-04,0.00144
-3.352e-04,-0.002
-3.344e-04,0.00072
-3.336e-04,0.00176
-3.328e-04,-0.00144
-3.320e-04,-0.00096
-3.312e-04,0.00192
-3.304e-04,-0.00024
-3.296e-04,-0.00216
-3.288e-04,0.00032
-3.280e-04,0.00208
-3.272e-04,-0.00112
-3.264e-04,-0.00192
-3.256e-04,0.00224
-3.248e-04,0.00152
-3.240e-04,-0.00152
-3.232e-04,0.00104
-3.224e-04,0.0028
-3.216e-04,-0.00104
-3.208e-04,-0.00128
-3.200e-04,0.00304
-3.192e-04,0.00136
-3.184e-04,-0.00216
-3.176e-04,-8e-05
-3.168e-04,0.00208
-3.160e-04,-0.00048
-3.152e-04,-0.00072
-3.144e-04,0.00216
-3.136e-04,0.00024
-3.128e-04,-0.00184
-3.120e-04,0.0004
-3.112e-04,0.002
-3.104e-04,-0.00112
-3.096e-04,-0.00184
-3.088e-04,0.00144
-3.080e-04,-0.00032
-3.072e-04,-0.00272
-3.064e-04,0.00024
-3.056e-04,0.00088
-3.048e-04,-0.00392
-3.040e-04,-0.00208
-3.032e-04,0.0012
-3.024e-04,-0.0012
-3.016e-04,-0.004
-3.008e-04,-0.00016
-3.000e-04,-8e-05
-2.992e-04,-0.00344
-2.984e-04,-0.00072
-2.976e-04,0.00112
-2.968e-04,-0.00256
-2.960e-04,-0.0028
-2.952e-04,0.00056
-2.944e-04,-0.0004
-2.936e-04,-0.0032
-2.928e-04,-0.00168
-2.920e-04,-0.00048
-2.912e-04,-0.00296
-2.904e-04,-0.0032
-2.896e-04,0
-2.888e-04,-0.00096
-2.880e-04,-0.00424
-2.872e-04,-0.00264
-2.864e-04,0.00032
-2.856e-04,-0.00264
-2.848e-04,-0.00328
-2.840e-04,8e-05
-2.832e-04,-0.00088
-2.824e-04,-0.00448
-2.816e-04,-8e-05
-2.808e-04,0.00056
-2.800e-04,-0.00432
-2.792e-04,-0.00232
-2.784e-04,0.00048
-2.776e-04,-0.00136
-2.768e-04,-0.00344
-2.760e-04,-0.00176
-2.752e-04,-0.00016
-2.744e-04,-0.00336
-2.736e-04,-0.0028
-2.728e-04,0.0008
-2.720e-04,-0.00112
-2.712e-04,-0.00384
-2.704e-04,-0.00048
-2.696e-04,0.00144
-2.688e-04,-0.0024
-2.680e-04,-0.0024
-2.672e-04,0
-2.664e-04,-0.00128
-2.656e-04,-0.00384
-2.648e-04,-0.00032
-2.640e-04,-0.00064
-2.632e-04,-0.00472
-2.624e-04,-0.00264
-2.616e-04,-0.00016
-2.608e-04,-0.00312
-2.600e-04,-0.004
-2.592e-04,-0.00104
-2.584e-04,-0.00176
-2.576e-04,-0.00376
-2.568e-04,-0.00088
-2.560e-04,-8e-05
-2.552e-04,-0.00344
-2.544e-04,-0.00288
-2.536e-04,0.00024
-2.528e-04,-0.00112
-2.520e-04,-0.00336
-2.512e-04,-0.00112
-2.504e-04,-0.00048
-2.496e-04,-0.00448
-2.488e-04,-0.0024
-2.480e-04,0.00072
-2.472e-04,-0.0024
-2.464e-04,-0.004
-2.456e-04,-0.00064
-2.448e-04,-0.00024
-2.440e-04,-0.00288
-2.432e-04,-0.00128
-2.424e-04,0.00168
-2.416e-04,-0.00208
-2.408e-04,-0.00304
-2.400e-04,0.00152
-2.392e-04,0.00048
-2.384e-04,-0.00288
-2.376e-04,-0.0008
-2.368e-04,0.00136
-2.360e-04,-0.00056
-2.352e-04,-0.00208
-2.344e-04,0.00072
-2.336e-04,0.00136
-2.328e-04,-0.00184
-2.320e-04,-0.00064
-2.312e-04,0.00288
-2.304e-04,0.00096
-2.296e-04,-0.00152
-2.288e-04,0.00144
-2.280e-04,0.00344
-2.272e-04,0.00016
-2.264e-04,-0.00064
-2.256e-04,0.0024
-2.248e-04,0.00144
-2.240e-04,-0.0004
-2.232e-04,0.0012
-2.224e-04,0.00336
-2.216e-04,0.00056
-2.208e-04,-0.00072
-2.200e-04,0.00296
-2.192e-04,0.00344
-2.184e-04,0.00096
-2.176e-04,0.00096
-2.168e-04,0.00272
-2.160e-04,0.00264
-2.152e-04,-8e-05
-2.144e-04,0.00184
-2.136e-04,0.00392
-2.128e-04,0.00024
-2.120e-04,-0.00056
-2.112e-04,0.0028
-2.104e-04,0.00208
-2.096e-04,-0.002
-2.088e-04,0.00096
-2.080e-04,0.00272
-2.072e-04,-0.0012
-2.064e-04,-0.00088
-2.056e-04,0.00232
-2.048e-04,0.0004
-2.040e-04,-0.00184
-2.032e-04,0.00112
-2.024e-04,0.00272
-2.016e-04,-0.00144
-2.008e-04,-0.00136
-2.000e-04,0.00184
-1.992e-04,-0.0012
-1.984e-04,-0.00112
-1.976e-04,0.00016
-1.968e-04,0.0004
-1.960e-04,-0.00304
-1.952e-04,-0.0024
-1.944e-04,0.00112
-1.936e-04,-0.00088
-1.928e-04,-0.00264
-1.920e-04,-0.00064
-1.912e-04,-0.00032
-1.904e-04,-0.00368
-1.896e-04,-0.00192
-1.888e-04,0.00088
-1.880e-04,-0.00184
-1.872e-04,-0.00456
-1.864e-04,-0.00144
-1.856e-04,-0.00048
-1.848e-04,-0.00376
-1.840e-04,-0.00352
-1.832e-04,-0.0004
-1.824e-04,-0.00208
-1.816e-04,-0.00416
-1.808e-04,-0.00096
-1.800e-04,-0.0008
-1.792e-04,-0.00288
-1.784e-04,-0.00224
-1.776e-04,-8e-05
-1.768e-04,-0.0004
-1.760e-04,-0.00336
-1.752e-04,-0.00168
-1.744e-04,0.00072
-1.736e-04,-0.00168
-1.728e-04,-0.00176
-1.720e-04,0.00096
-1.712e-04,-8e-05
-1.704e-04,-0.002
-1.696e-04,0.00088
-1.688e-04,0.00344
-1.680e-04,0.0004
-1.672e-04,-0.00088
-1.664e-04,0.0028
-1.656e-04,0.00304
-1.648e-04,8e-05
-1.640e-04,0.002
-1.632e-04,0.00496
-1.624e-04,0.0012
-1.616e-04,-8e-05
-1.608e-04,0.00464
-1.600e-04,0.00376
-1.592e-04,0.00024
-1.584e-04,0.0024
-1.576e-04,0.00528
-1.568e-04,0.00336
-1.560e-04,0.00168
-1.552e-04,0.00504
-1.544e-04,0.00432
-1.536e-04,0.00136
-1.528e-04,0.00312
-1.520e-04,0.00488
-1.512e-04,0.00216
-1.504e-04,8e-05
-1.496e-04,0.00456
-1.488e-04,0.0044
-1.480e-04,0.00152
-1.472e-04,0.00248
-1.464e-04,0.00416
-1.456e-04,0.00264
-1.448e-04,0.00168
-1.440e-04,0.00504
-1.432e-04,0.0052
-1.424e-04,0.00088
-1.416e-04,0.00216
-1.408e-04,0.0048
-1.400e-04,0.0024
-1.392e-04,0.0012
-1.384e-04,0.00344
-1.376e-04,0.0032
-1.368e-04,0
-1.360e-04,0.002
-1.352e-04,0.00504
-1.344e-04,0.002
-1.336e-04,0.00016
-1.328e-04,0.00336
-1.320e-04,0.00368
-1.312e-04,8e-05
-1.304e-04,0.00112
-1.296e-04,0.00328
-1.288e-04,0.00112
-1.280e-04,-0.0004
-1.272e-04,0.00168
-1.264e-04,0.00248
-1.256e-04,-0.00056
-1.248e-04,-0.00088
-1.240e-04,0.00296
-1.232e-04,0.00248
-1.224e-04,-0.00176
-1.216e-04,0.00072
-1.208e-04,0.00256
-1.200e-04,-0.00048
-1.192e-04,-0.0008
-1.184e-04,0.00224
-1.176e-04,0.00136
-1.168e-04,-0.00256
-1.160e-04,0.0004
-1.152e-04,0.00272
-1.144e-04,-0.00024
-1.136e-04,-0.00152
-1.128e-04,0.00128
-1.120e-04,0.00168
-1.112e-04,-0.0008
-1.104e-04,0.00072
-1.096e-04,0.00248
-1.088e-04,-0.00032
-1.080e-04,-0.00072
-1.072e-04,0.00224
-1.064e-04,0.0016
-1.056e-04,-0.00128
-1.048e-04,0.00096
-1.040e-04,0.00304
-1.032e-04,-0.00048
-1.024e-04,0.00072
-1.016e-04,0.0032
-1.008e-04,0.00096
-1.000e-04,8e-05
-9.920e-05,0.00432
-9.840e-05,0.00304
-9.760e-05,0
-9.680e-05,0.00232
-9.600e-05,0.00352
-9.520e-05,0.00104
-9.440e-05,0.00136
-9.360e-05,0.00336
-9.280e-05,0.00112
-9.200e-05,-0.00056
-9.120e-05,0.0024
-9.040e-05,0.00312
-8.960e-05,0.00024
-8.880e-05,0.0016
-8.800e-05,0.00296
-8.720e-05,-0.00016
-8.640e-05,0.00016
-8.560e-05,0.00344
-8.480e-05,0.00184
-8.400e-05,-0.00152
-8.320e-05,-8e-05
-8.240e-05,0.00208
-8.160e-05,-0.00072
-8.080e-05,-0.0008
-8.000e-05,0.0024
-7.920e-05,0.00056
-7.840e-05,-0.0016
-7.760e-05,0.00192
-7.680e-05,0.00224
-7.600e-05,0.00016
-7.520e-05,-0.00064
-7.440e-05,0.00272
-7.360e-05,0.0004
-7.280e-05,-0.00208
-7.200e-05,0.00024
-7.120e-05,0.00112
-7.040e-05,-0.00144
-6.960e-05,-0.0004
-6.880e-05,0.00264
-6.800e-05,0.00032
-6.720e-05,-0.00256
-6.640e-05,0.00096
-6.560e-05,0.00288
-6.480e-05,-0.00048
-6.400e-05,-0.00104
-6.320e-05,0.00128
-6.240e-05,-0.0004
-6.160e-05,-0.00224
-6.080e-05,0.00072
-6.000e-05,0.00168
-5.920e-05,-0.00184
-5.840e-05,-0.00096
-5.760e-05,0.00312
-5.680e-05,0.0008
-5.600e-05,-0.00072
-5.520e-05,0.00112
-5.440e-05,0.0024
-5.360e-05,-8e-05
-5.280e-05,-0.00016
-5.200e-05,0.00192
-5.120e-05,0.0008
-5.040e-05,-0.00128
-4.960e-05,0.0012
-4.880e-05,0.00264
-4.800e-05,-0.00184
-4.720e-05,-0.00128
-4.640e-05,0.00304
-4.560e-05,0.00136
-4.480e-05,-0.00096
-4.400e-05,0.00144
-4.320e-05,0.00136
-4.240e-05,-0.00168
-4.160e-05,-0.00104
-4.080e-05,0.00248
-4.000e-05,-0.00064
-3.920e-05,-0.00256
-3.840e-05,0.00032
-3.760e-05,0.00064
-3.680e-05,-0.00208
-3.600e-05,-0.00032
-3.520e-05,0.002
-3.440e-05,-0.00192
-3.360e-05,-0.0028
-3.280e-05,0.00104
-3.200e-05,-0.00024
-3.120e-05,-0.00352
-3.040e-05,-0.00168
-2.960e-05,0
-2.880e-05,-0.00256
-2.800e-05,-0.00384
-2.720e-05,-0.00032
-2.640e-05,-0.00056
-2.560e-05,-0.00328
-2.480e-05,-0.002
-2.400e-05,0.00104
-2.320e-05,-0.00176
-2.240e-05,-0.00416
-2.160e-05,-0.00152
-2.080e-05,0.0008
-2.000e-05,-0.00304
-1.920e-05,-0.00392
-1.840e-05,-0.00024
-1.760e-05,-0.00128
-1.680e-05,-0.00368
-1.600e-05,-0.0004
-1.520e-05,0.00088
-1.440e-05,-0.00304
-1.360e-05,-0.00288
-1.280e-05,0.00048
-1.200e-05,-0.00016
-1.120e-05,-0.00336
-1.040e-05,-0.00184
-9.600e-06,0.00072
-8.800e-06,-0.00256
-8.000e-06,-0.00328
-7.200e-06,0.0004
-6.400e-06,-0.0008
-5.600e-06,-0.0028
-4.800e-06,0.00032
-4.000e-06,0.002
-3.200e-06,-0.00152
-2.400e-06,-0.002
-1.600e-06,0.0028
-8.000e-07,0.00128
1.278e-17,-0.00152
8.000e-07,0.00112
1.600e-06,0.00216
2.400e-06,-0.00128
3.200e-06,0.00064
4.000e-06,0.00416
4.800e-06,0.0016
5.600e-06,-0.00096
6.400e-06,0.00288
7.200e-06,0.00344
8.000e-06,0.00056
8.800e-06,0.0028
9.600e-06,0.00456
1.040e-05,0.00176
1.120e-05,0.0012
1.200e-05,0.00504
1.280e-05,0.00472
1.360e-05,0.00024
1.440e-05,0.0024
1.520e-05,0.0044
1.600e-05,0.00032
1.680e-05,0.0012
1.760e-05,0.00496
1.840e-05,0.00216
1.920e-05,0.00024
