data/PSU_noise/PSU1_CC2_20A_10us.CSV

Model,TBS1102C
Firmware Version,v2015-08-04-prequal4ch70_v1.3

Point Format,Y
Horizontal Units,S
Horizontal Scale,1e-05
Sample Interval,8e-08
Filter Frequency,2e+08
Record Length,2000
Gating,0.0% to 100.0%
Probe Attenuation,1
Vertical Units,V
Vertical Offset,0
Vertical Scale,0.002
Label,
TIME,CH1
-8.000e-05,0.00264
-7.992e-05,0.00256
-7.984e-05,0.00272
-7.976e-05,0.00192
-7.968e-05,0.00208
-7.960e-05,0.00128
-7.952e-05,0.00024
-7.944e-05,0.00016
-7.936e-05,-0.00104
-7.928e-05,-0.00064
-7.920e-05,-0.00064
-7.912e-05,0.00032
-7.904e-05,0.00056
-7.896e-05,0.0012
-7.888e-05,0.00136
-7.880e-05,0.002
-7.872e-05,0.00152
-7.864e-05,0.00184
-7.856e-05,0.00048
-7.848e-05,0.00048
-7.840e-05,-0.0008
-7.832e-05,-0.00064
-7.824e-05,-0.00176
-7.816e-05,-0.0012
-7.808e-05,-0.0016
-7.800e-05,-0.0008
-7.792e-05,-0.00048
-7.784e-05,8e-05
-7.776e-05,0.00024
-7.768e-05,0.00112
-7.760e-05,0.00072
-7.752e-05,0.00072
-7.744e-05,-0.00064
-7.736e-05,-0.0012
-7.728e-05,-0.00152
-7.720e-05,-0.00224
-7.712e-05,-0.00272
-7.704e-05,-0.00272
-7.696e-05,-0.00288
-7.688e-05,-0.00208
-7.680e-05,-0.00136
-7.672e-05,-0.00104
-7.664e-05,-0.00048
-7.656e-05,-0.00072
-7.648e-05,-8e-05
-7.640e-05,-0.00096
-7.632e-05,-0.00144
-7.624e-05,-0.00288
-7.616e-05,-0.0024
-7.608e-05,-0.004
-7.600e-05,-0.004
-7.592e-05,-0.00424
-7.584e-05,-0.004
-7.576e-05,-0.00272
-7.568e-05,-0.00224
-7.560e-05,-0.00152
-7.552e-05,-0.00152
-7.544e-05,-0.00176
-7.536e-05,-0.0008
-7.528e-05,-0.0016
-7.520e-05,-0.0024
-7.512e-05,-0.00248
-7.504e-05,-0.00416
-7.496e-05,-0.00424
-7.488e-05,-0.00456
-7.480e-05,-0.00424
-7.472e-05,-0.0044
-7.464e-05,-0.00352
-7.456e-05,-0.0032
-7.448e-05,-0.00192
-7.440e-05,-0.00176
-7.432e-05,-0.00224
-7.424e-05,-0.002
-7.416e-05,-0.00248
-7.408e-05,-0.00328
-7.400e-05,-0.00344
-7.392e-05,-0.0052
-7.384e-05,-0.0044
-7.376e-05,-0.00568
-7.368e-05,-0.00536
-7.360e-05,-0.00416
-7.352e-05,-0.00416
-7.344e-05,-0.00384
-7.336e-05,-0.00296
-7.328e-05,-0.00272
-7.320e-05,-0.00232
-7.312e-05,-0.00264
-7.304e-05,-0.00304
-7.296e-05,-0.00392
-7.288e-05,-0.004
-7.280e-05,-0.00536
-7.272e-05,-0.00528
-7.264e-05,-0.0056
-7.256e-05,-0.0064
-7.248e-05,-0.00488
-7.240e-05,-0.00488
-7.232e-05,-0.0036
-7.224e-05,-0.00384
-7.216e-05,-0.00336
-7.208e-05,-0.00304
-7.200e-05,-0.0028
-7.192e-05,-0.0036
-7.184e-05,-0.00352
-7.176e-05,-0.00552
-7.168e-05,-0.00488
-7.160e-05,-0.0064
-7.152e-05,-0.00568
-7.144e-05,-0.00616
-7.136e-05,-0.0052
-7.128e-05,-0.00488
-7.120e-05,-0.00352
-7.112e-05,-0.00296
-7.104e-05,-0.00288
-7.096e-05,-0.00272
-7.088e-05,-0.00264
-7.080e-05,-0.0028
-7.072e-05,-0.00344
-7.064e-05,-0.00448
-7.056e-05,-0.0048
-7.048e-05,-0.00504
-7.040e-05,-0.00464
-7.032e-05,-0.00432
-7.024e-05,-0.00432
-7.016e-05,-0.00288
-7.008e-05,-0.00224
-7.000e-05,-0.00104
-6.992e-05,-0.0008
-6.984e-05,-0.00072
-6.976e-05,-0.00128
-6.968e-05,-0.00128
-6.960e-05,-0.00224
-6.952e-05,-0.00216
-6.944e-05,-0.0028
-6.936e-05,-0.00288
-6.928e-05,-0.00248
-6.920e-05,-0.00192
-6.912e-05,-0.00144
-6.904e-05,-0.00024
-6.896e-05,-0.00024
-6.888e-05,0.0012
-6.880e-05,0.0012
-6.872e-05,0.0012
-6.864e-05,0.00144
-6.856e-05,0.00072
-6.848e-05,0.00032
-6.840e-05,8e-05
-6.832e-05,-0.00056
-6.824e-05,-0.00064
-6.816e-05,-0.00056
-6.808e-05,-0.00056
-6.800e-05,0.00144
-6.792e-05,0.0016
-6.784e-05,0.00264
-6.776e-05,0.00216
-6.768e-05,0.004
-6.760e-05,0.00248
-6.752e-05,0.0044
-6.744e-05,0.00232
-6.736e-05,0.00208
-6.728e-05,0.00136
-6.720e-05,0.00088
-6.712e-05,0.00136
-6.704e-05,0.00136
-6.696e-05,0.00192
-6.688e-05,0.0028
-6.680e-05,0.00216
-6.672e-05,0.00448
-6.664e-05,0.00496
-6.656e-05,0.00448
-6.648e-05,0.00392
-6.640e-05,0.004
-6.632e-05,0.00336
-6.624e-05,0.0028
-6.616e-05,0.00256
-6.608e-05,0.0016
-6.600e-05,0.0024
-6.592e-05,0.00152
-6.584e-05,0.00216
-6.576e-05,0.00304
-6.568e-05,0.00344
-6.560e-05,0.00464
-6.552e-05,0.00472
-6.544e-05,0.0044
-6.536e-05,0.00472
-6.528e-05,0.00368
-6.520e-05,0.00392
-6.512e-05,0.00232
-6.504e-05,0.002
-6.496e-05,0.00104
-6.488e-05,0.00224
-6.480e-05,0.00144
-6.472e-05,0.00232
-6.464e-05,0.0028
-6.456e-05,0.00312
-6.448e-05,0.00416
-6.440e-05,0.00448
-6.432e-05,0.00384
-6.424e-05,0.0044
-6.416e-05,0.00256
-6.408e-05,0.00272
-6.400e-05,0.00192
-6.392e-05,0.00088
-6.384e-05,0.00072
-6.376e-05,0.0004
-6.368e-05,0.00104
-6.360e-05,0.00152
-6.352e-05,0.00232
-6.344e-05,0.00232
-6.336e-05,0.0032
-6.328e-05,0.00288
-6.320e-05,0.00312
-6.312e-05,0.00224
-6.304e-05,0.002
-6.296e-05,0.00056
-6.288e-05,0.00104
-6.280e-05,-0.00072
-6.272e-05,0.00024
-6.264e-05,-0.00104
-6.256e-05,-0.00048
-6.248e-05,0.0004
-6.240e-05,0.00056
-6.232e-05,0.00168
-6.224e-05,0.00168
-6.216e-05,0.00128
-6.208e-05,0.0016
-6.200e-05,0.00128
-6.192e-05,0.00088
-6.184e-05,-0.0004
-6.176e-05,-0.0012
-6.168e-05,-0.00216
-6.160e-05,-0.00208
-6.152e-05,-0.00152
-6.144e-05,-0.00128
-6.136e-05,-0.00136
-6.128e-05,-0.00016
-6.120e-05,-0.00032
-6.112e-05,0.00104
-6.104e-05,0.00024
-6.096e-05,-0.00016
-6.088e-05,-8e-05
-6.080e-05,-0.0012
-6.072e-05,-0.00056
-6.064e-05,-0.00312
-6.056e-05,-0.00264
-6.048e-05,-0.00272
-6.040e-05,-0.00232
-6.032e-05,-0.0016
-6.024e-05,-0.00208
-6.016e-05,-0.00112
-6.008e-05,-0.00032
-6.000e-05,-0.00056
-5.992e-05,0.0008
-5.984e-05,-0.00144
-5.976e-05,-0.0008
-5.968e-05,-0.00248
-5.960e-05,-0.0024
-5.952e-05,-0.00336
-5.944e-05,-0.0032
-5.936e-05,-0.0036
-5.928e-05,-0.00344
-5.920e-05,-0.00192
-5.912e-05,-0.00272
-5.904e-05,-0.00032
-5.896e-05,-0.00216
-5.888e-05,-0.0004
-5.880e-05,-0.00056
-5.872e-05,-0.00168
-5.864e-05,-0.00224
-5.856e-05,-0.00264
-5.848e-05,-0.004
-5.840e-05,-0.00312
-5.832e-05,-0.00472
-5.824e-05,-0.0032
-5.816e-05,-0.0044
-5.808e-05,-0.00288
-5.800e-05,-0.00264
-5.792e-05,-0.0016
-5.784e-05,-0.00176
-5.776e-05,-0.00184
-5.768e-05,-0.00168
-5.760e-05,-0.0024
-5.752e-05,-0.00264
-5.744e-05,-0.00392
-5.736e-05,-0.00432
-5.728e-05,-0.00464
-5.720e-05,-0.00496
-5.712e-05,-0.00416
-5.704e-05,-0.00432
-5.696e-05,-0.00344
-5.688e-05,-0.00264
-5.680e-05,-0.00272
-5.672e-05,-0.00184
-5.664e-05,-0.0024
-5.656e-05,-0.00208
-5.648e-05,-0.00312
-5.640e-05,-0.00256
-5.632e-05,-0.00456
-5.624e-05,-0.00392
-5.616e-05,-0.00512
-5.608e-05,-0.00544
-5.600e-05,-0.00448
-5.592e-05,-0.00392
-5.584e-05,-0.00352
-5.576e-05,-0.00248
-5.568e-05,-0.0028
-5.560e-05,-0.00112
-5.552e-05,-0.00224
-5.544e-05,-0.00208
-5.536e-05,-0.00296
-5.528e-05,-0.00336
-5.520e-05,-0.0044
-5.512e-05,-0.004
-5.504e-05,-0.00432
-5.496e-05,-0.00472
-5.488e-05,-0.00392
-5.480e-05,-0.00328
-5.472e-05,-0.00232
-5.464e-05,-0.00176
-5.456e-05,-0.00144
-5.448e-05,-0.00104
-5.440e-05,-0.00088
-5.432e-05,-0.00192
-5.424e-05,-0.00192
-5.416e-05,-0.00336
-5.408e-05,-0.00312
-5.400e-05,-0.00368
-5.392e-05,-0.00336
-5.384e-05,-0.00392
-5.376e-05,-0.00264
-5.368e-05,-0.00232
-5.360e-05,-0.00128
-5.352e-05,-0.00048
-5.344e-05,-0.00072
-5.336e-05,-0.00048
-5.328e-05,-0.00072
-5.320e-05,-0.0012
-5.312e-05,-0.00144
-5.304e-05,-0.00272
-5.296e-05,-0.00328
-5.288e-05,-0.00288
-5.280e-05,-0.00312
-5.272e-05,-0.00208
-5.264e-05,-0.00264
-5.256e-05,-0.00152
-5.248e-05,-0.00056
-5.240e-05,-0.00024
-5.232e-05,-8e-05
-5.224e-05,-0.00024
-5.216e-05,-0.00088
-5.208e-05,-0.0008
-5.200e-05,-0.00192
-5.192e-05,-0.00224
-5.184e-05,-0.00248
-5.176e-05,-0.00328
-5.168e-05,-0.00312
-5.160e-05,-0.00224
-5.152e-05,-0.00232
-5.144e-05,-0.0012
-5.136e-05,-0.00024
-5.128e-05,-0.00032
-5.120e-05,0.00032
-5.112e-05,0.00024
-5.104e-05,-0.0008
-5.096e-05,-0.0012
-5.088e-05,-0.002
-5.080e-05,-0.00168
-5.072e-05,-0.00256
-5.064e-05,-0.0024
-5.056e-05,-0.00264
-5.048e-05,-0.00208
-5.040e-05,-0.00104
-5.032e-05,-0.0004
-5.024e-05,0.00032
-5.016e-05,-8e-05
-5.008e-05,0.0012
-5.000e-05,8e-05
-4.992e-05,0.00064
-4.984e-05,-0.0008
-4.976e-05,-0.00112
-4.968e-05,-0.00208
-4.960e-05,-0.00184
-4.952e-05,-0.00192
-4.944e-05,-0.00128
-4.936e-05,-0.0016
-4.928e-05,-8e-05
-4.920e-05,0.00064
-4.912e-05,0.00136
-4.904e-05,0.00168
-4.896e-05,0.00104
-4.888e-05,0.0008
-4.880e-05,0.00112
-4.872e-05,0.0004
-4.864e-05,-0.0004
-4.856e-05,-0.0012
-4.848e-05,-0.00176
-4.840e-05,-0.00072
-4.832e-05,-0.00104
-4.824e-05,0.00024
-4.816e-05,-8e-05
-4.808e-05,0.00128
-4.800e-05,0.0016
-4.792e-05,0.00256
-4.784e-05,0.0016
-4.776e-05,0.002
-4.768e-05,0.00112
-4.760e-05,0.00056
-4.752e-05,0.00024
-4.744e-05,-0.00056
-4.736e-05,-0.00056
-4.728e-05,-0.00048
-4.720e-05,-8e-05
-4.712e-05,0.00064
-4.704e-05,0.00096
-4.696e-05,0.00152
-4.688e-05,0.00248
-4.680e-05,0.00248
-4.672e-05,0.0024
-4.664e-05,0.00208
-4.656e-05,0.00112
-4.648e-05,0.0008
-4.640e-05,0.00064
-4.632e-05,-0.00056
-4.624e-05,8e-05
-4.616e-05,-0.00024
-4.608e-05,8e-05
-4.600e-05,0.00072
-4.592e-05,0.00128
-4.584e-05,0.00176
-4.576e-05,0.00288
-4.568e-05,0.00208
-4.560e-05,0.00296
-4.552e-05,0.0024
-4.544e-05,0.00128
-4.536e-05,0.00072
-4.528e-05,0.00032
-4.520e-05,-0.00088
-4.512e-05,0.00016
-4.504e-05,-0.00096
-4.496e-05,0.00024
-4.488e-05,0.00056
-4.480e-05,0.00088
-4.472e-05,0.00192
-4.464e-05,0.00224
-4.456e-05,0.00232
-4.448e-05,0.00176
-4.440e-05,0.0016
-4.432e-05,0.00072
-4.424e-05,0.00024
-4.416e-05,-0.00056
-4.408e-05,-0.00112
-4.400e-05,-0.00112
-4.392e-05,-0.00096
-4.384e-05,-0.00104
-4.376e-05,0.00048
-4.368e-05,0.00032
-4.360e-05,0.00184
-4.352e-05,0.00112
-4.344e-05,0.00184
-4.336e-05,0.00064
-4.328e-05,0.00064
-4.320e-05,-0.00032
-4.312e-05,-0.00064
-4.304e-05,-0.00176
-4.296e-05,-0.00192
-4.288e-05,-0.00232
-4.280e-05,-0.00168
-4.272e-05,-0.00144
-4.264e-05,-0.00088
-4.256e-05,-0.00072
-4.248e-05,0.00016
-4.240e-05,0.00032
-4.232e-05,0.00072
-4.224e-05,-0.00016
-4.216e-05,-0.00032
-4.208e-05,-0.00176
-4.200e-05,-0.00192
-4.192e-05,-0.00216
-4.184e-05,-0.00392
-4.176e-05,-0.00352
-4.168e-05,-0.00392
-4.160e-05,-0.00232
-4.152e-05,-0.00256
-4.144e-05,-0.00136
-4.136e-05,-0.0016
-4.128e-05,-0.0008
-4.120e-05,-0.00112
-4.112e-05,-0.00128
-4.104e-05,-0.00208
-4.096e-05,-0.00296
-4.088e-05,-0.0036
-4.080e-05,-0.00344
-4.072e-05,-0.00472
-4.064e-05,-0.00424
-4.056e-05,-0.00472
-4.048e-05,-0.00368
-4.040e-05,-0.0032
-4.032e-05,-0.00224
-4.024e-05,-0.002
-4.016e-05,-0.00192
-4.008e-05,-0.002
-4.000e-05,-0.00232
-3.992e-05,-0.00288
-3.984e-05,-0.00392
-3.976e-05,-0.00448
-3.968e-05,-0.00528
-3.960e-05,-0.00552
-3.952e-05,-0.00536
-3.944e-05,-0.00448
-3.936e-05,-0.00504
-3.928e-05,-0.0036
-3.920e-05,-0.00376
-3.912e-05,-0.00216
-3.904e-05,-0.00256
-3.896e-05,-0.00304
-3.888e-05,-0.00384
-3.880e-05,-0.00368
-3.872e-05,-0.00488
-3.864e-05,-0.0052
-3.856e-05,-0.00632
-3.848e-05,-0.00632
-3.840e-05,-0.00624
-3.832e-05,-0.0052
-3.824e-05,-0.00464
-3.816e-05,-0.00496
-3.808e-05,-0.00368
-3.800e-05,-0.00392
-3.792e-05,-0.00264
-3.784e-05,-0.0036
-3.776e-05,-0.00384
-3.768e-05,-0.00536
-3.760e-05,-0.00552
-3.752e-05,-0.00592
-3.744e-05,-0.00704
-3.736e-05,-0.00656
-3.728e-05,-0.00624
-3.720e-05,-0.00664
-3.712e-05,-0.00448
-3.704e-05,-0.0052
-3.696e-05,-0.0036
-3.688e-05,-0.00384
-3.680e-05,-0.00344
-3.672e-05,-0.00376
-3.664e-05,-0.00384
-3.656e-05,-0.00536
-3.648e-05,-0.00544
-3.640e-05,-0.00592
-3.632e-05,-0.00632
-3.624e-05,-0.00576
-3.616e-05,-0.00608
-3.608e-05,-0.00528
-3.600e-05,-0.0048
-3.592e-05,-0.0036
-3.584e-05,-0.00352
-3.576e-05,-0.00224
-3.568e-05,-0.00304
-3.560e-05,-0.00256
-3.552e-05,-0.00328
-3.544e-05,-0.00352
-3.536e-05,-0.00432
-3.528e-05,-0.00464
-3.520e-05,-0.00472
-3.512e-05,-0.0044
-3.504e-05,-0.00472
-3.496e-05,-0.0028
-3.488e-05,-0.00288
-3.480e-05,-0.00184
-3.472e-05,-0.00128
-3.464e-05,-0.0008
-3.456e-05,-0.00072
-3.448e-05,-0.00064
-3.440e-05,-0.00152
-3.432e-05,-0.00152
-3.424e-05,-0.00208
-3.416e-05,-0.00272
-3.408e-05,-0.00264
-3.400e-05,-0.00248
-3.392e-05,-0.00184
-3.384e-05,-0.00152
-3.376e-05,-0.0004
-3.368e-05,0.0004
-3.360e-05,0.00136
-3.352e-05,0.00104
-3.344e-05,0.00192
-3.336e-05,0.00072
-3.328e-05,0.00064
-3.320e-05,-0.00016
-3.312e-05,0
-3.304e-05,-0.0008
-3.296e-05,-0.0008
-3.288e-05,-0.00088
-3.280e-05,-0.00016
-3.272e-05,0.00072
-3.264e-05,0.00128
-3.256e-05,0.0024
-3.248e-05,0.0024
-3.240e-05,0.00272
-3.232e-05,0.0028
-3.224e-05,0.00256
-3.216e-05,0.00192
-3.208e-05,0.00112
-3.200e-05,0.00024
-3.192e-05,0.00048
-3.184e-05,8e-05
-3.176e-05,0.00032
-3.168e-05,0.0004
-3.160e-05,0.00168
-3.152e-05,0.00208
-3.144e-05,0.00312
-3.136e-05,0.0028
-3.128e-05,0.0036
-3.120e-05,0.00336
-3.112e-05,0.00312
-3.104e-05,0.00288
-3.096e-05,0.00144
-3.088e-05,0.00112
-3.080e-05,0.00112
-3.072e-05,0.00032
-3.064e-05,0.00112
-3.056e-05,0.0008
-3.048e-05,0.0016
-3.040e-05,0.00248
-3.032e-05,0.00344
-3.024e-05,0.00368
-3.016e-05,0.00416
-3.008e-05,0.00296
-3.000e-05,0.0032
-2.992e-05,0.00272
-2.984e-05,0.00176
-2.976e-05,0.00144
-2.968e-05,0.00072
-2.960e-05,0.00064
-2.952e-05,0.00088
-2.944e-05,0.00152
-2.936e-05,0.00152
-2.928e-05,0.00272
-2.920e-05,0.00256
-2.912e-05,0.00416
-2.904e-05,0.00344
-2.896e-05,0.00376
-2.888e-05,0.00272
-2.880e-05,0.00232
-2.872e-05,0.00128
-2.864e-05,0.00144
-2.856e-05,-8e-05
-2.848e-05,0.00032
-2.840e-05,0.0004
-2.832e-05,0.00104
-2.824e-05,0.00176
-2.816e-05,0.00232
-2.808e-05,0.00248
-2.800e-05,0.00296
-2.792e-05,0.00344
-2.784e-05,0.00296
-2.776e-05,0.00296
-2.768e-05,0.00144
-2.760e-05,0.00136
-2.752e-05,0.00064
-2.744e-05,0
-2.736e-05,0.00024
-2.728e-05,8e-05
-2.720e-05,0
-2.712e-05,0.00152
-2.704e-05,0.00136
-2.696e-05,0.00296
-2.688e-05,0.00216
-2.680e-05,0.00272
-2.672e-05,0.00248
-2.664e-05,0.00192
-2.656e-05,0.00144
-2.648e-05,0.0008
-2.640e-05,-0.00032
-2.632e-05,-0.00032
-2.624e-05,-0.00032
-2.616e-05,-0.00024
-2.608e-05,-0.00032
-2.600e-05,0.00064
-2.592e-05,0.00072
-2.584e-05,0.00232
-2.576e-05,0.0024
-2.568e-05,0.00208
-2.560e-05,0.00248
-2.552e-05,0.00168
-2.544e-05,0.00136
-2.536e-05,0.00024
-2.528e-05,0
-2.520e-05,-0.00112
-2.512e-05,-0.00072
-2.504e-05,-0.00112
-2.496e-05,0.00032
-2.488e-05,8e-05
-2.480e-05,0.00072
-2.472e-05,0.00104
-2.464e-05,0.0024
-2.456e-05,0.00152
-2.448e-05,0.00232
-2.440e-05,0.0008
-2.432e-05,0.0008
-2.424e-05,-0.00032
-2.416e-05,-0.0008
-2.408e-05,-0.0012
-2.400e-05,-0.00136
-2.392e-05,-0.00176
-2.384e-05,-0.00088
-2.376e-05,-0.0004
-2.368e-05,0.00016
-2.360e-05,0.00064
-2.352e-05,0.00088
-2.344e-05,0.00176
-2.336e-05,0.0008
-2.328e-05,0.00096
-2.320e-05,-0.00064
-2.312e-05,-0.0008
-2.304e-05,-0.00192
-2.296e-05,-0.00184
-2.288e-05,-0.00256
-2.280e-05,-0.002
-2.272e-05,-0.00224
-2.264e-05,-0.0012
-2.256e-05,-0.00048
-2.248e-05,8e-05
-2.240e-05,0
-2.232e-05,0.00024
-2.224e-05,-0.00024
-2.216e-05,0
-2.208e-05,-0.00136
-2.200e-05,-0.00176
-2.192e-05,-0.00272
-2.184e-05,-0.00272
-2.176e-05,-0.0032
-2.168e-05,-0.0028
-2.160e-05,-0.00264
-2.152e-05,-0.00216
-2.144e-05,-0.00112
-2.136e-05,-0.00112
-2.128e-05,-8e-05
-2.120e-05,-0.00048
-2.112e-05,-0.00032
-2.104e-05,-0.00056
-2.096e-05,-0.00136
-2.088e-05,-0.00256
-2.080e-05,-0.0024
-2.072e-05,-0.00368
-2.064e-05,-0.00248
-2.056e-05,-0.00336
-2.048e-05,-0.00272
-2.040e-05,-0.00208
-2.032e-05,-0.00136
-2.024e-05,-0.00048
-2.016e-05,0.00024
-2.008e-05,-0.00032
-2.000e-05,0
-1.992e-05,-0.00056
-1.984e-05,-0.00144
-1.976e-05,-0.00168
-1.968e-05,-0.0024
-1.960e-05,-0.00296
-1.952e-05,-0.00312
-1.944e-05,-0.00256
-1.936e-05,-0.00208
-1.928e-05,-0.00128
-1.920e-05,-0.00104
-1.912e-05,-0.00016
-1.904e-05,8e-05
-1.896e-05,0.00056
-1.888e-05,8e-05
-1.880e-05,0
-1.872e-05,-0.00144
-1.864e-05,-0.00104
-1.856e-05,-0.00248
-1.848e-05,-0.00256
-1.840e-05,-0.00272
-1.832e-05,-0.00232
-1.824e-05,-0.00184
-1.816e-05,-0.00104
-1.808e-05,-0.00056
-1.800e-05,8e-05
-1.792e-05,0.00024
-1.784e-05,0.0004
-1.776e-05,0.00088
-1.768e-05,-0.00056
-1.760e-05,-0.00104
-1.752e-05,-0.00112
-1.744e-05,-0.0028
-1.736e-05,-0.00184
-1.728e-05,-0.00216
-1.720e-05,-0.00224
-1.712e-05,-0.00136
-1.704e-05,-0.00152
-1.696e-05,0.00024
-1.688e-05,0.00024
-1.680e-05,0.00088
-1.672e-05,0.00032
-1.664e-05,0.00104
-1.656e-05,-0.00032
-1.648e-05,-8e-05
-1.640e-05,-0.00152
-1.632e-05,-0.00184
-1.624e-05,-0.00176
-1.616e-05,-0.00176
-1.608e-05,-0.0016
-1.600e-05,-0.00056
-1.592e-05,-0.00128
-1.584e-05,0.0008
-1.576e-05,0.00072
-1.568e-05,0.00176
-1.560e-05,0.00136
-1.552e-05,0.00128
-1.544e-05,0.00104
-1.536e-05,-0.00016
-1.528e-05,0.00016
-1.520e-05,-0.0016
-1.512e-05,-0.00072
-1.504e-05,-0.00128
-1.496e-05,-0.00048
-1.488e-05,0.00032
-1.480e-05,0.0008
-1.472e-05,0.00144
-1.464e-05,0.00208
-1.456e-05,0.00224
-1.448e-05,0.00304
-1.440e-05,0.00192
-1.432e-05,0.00192
-1.424e-05,0.00064
-1.416e-05,0.00056
-1.408e-05,0.00016
-1.400e-05,-0.00032
-1.392e-05,0.00032
-1.384e-05,0.0004
-1.376e-05,0.00104
-1.368e-05,0.00192
-1.360e-05,0.0028
-1.352e-05,0.00296
-1.344e-05,0.00336
-1.336e-05,0.00328
-1.328e-05,0.00256
-1.320e-05,0.0024
-1.312e-05,0.00168
-1.304e-05,0.00072
-1.296e-05,0.00048
-1.288e-05,0.00032
-1.280e-05,0.0012
-1.272e-05,0.00072
-1.264e-05,0.00184
-1.256e-05,0.00248
-1.248e-05,0.00336
-1.240e-05,0.00336
-1.232e-05,0.00424
-1.224e-05,0.0028
-1.216e-05,0.00296
-1.208e-05,0.00216
-1.200e-05,0.00176
-1.192e-05,0.00104
-1.184e-05,0.00056
-1.176e-05,0
-1.168e-05,0.0008
-1.160e-05,0.00096
-1.152e-05,0.00184
-1.144e-05,0.00216
-1.136e-05,0.00256
-1.128e-05,0.00312
-1.120e-05,0.00376
-1.112e-05,0.00232
-1.104e-05,0.00288
-1.096e-05,0.00144
-1.088e-05,0.00128
-1.080e-05,0.0004
-1.072e-05,-0.00024
-1.064e-05,0.00064
-1.056e-05,0
-1.048e-05,0.0012
-1.040e-05,0.00128
-1.032e-05,0.00256
-1.024e-05,0.00184
-1.016e-05,0.00336
-1.008e-05,0.00256
-1.000e-05,0.00272
-9.920e-06,0.00168
-9.840e-06,0.00096
-9.760e-06,0.00032
-9.680e-06,0
-9.600e-06,-0.00128
-9.520e-06,-0.00016
-9.440e-06,-0.00088
-9.360e-06,-0.00016
-9.280e-06,0.00056
-9.200e-06,0.0012
-9.120e-06,0.00176
-9.040e-06,0.00208
-8.960e-06,0.00128
-8.880e-06,0.0012
-8.800e-06,0.0008
-8.720e-06,-0.00064
-8.640e-06,-0.0004
-8.560e-06,-0.002
-8.480e-06,-0.0016
-8.400e-06,-0.00184
-8.320e-06,-0.00144
-8.240e-06,-0.00112
-8.160e-06,-0.00016
-8.080e-06,0
-8.000e-06,0.00104
-7.920e-06,0.00056
-7.840e-06,0.00064
-7.760e-06,8e-05
-7.680e-06,-0.00056
-7.600e-06,-0.0016
-7.520e-06,-0.0016
-7.440e-06,-0.00352
-7.360e-06,-0.00288
-7.280e-06,-0.00272
-7.200e-06,-0.00192
-7.120e-06,-0.00152
-7.040e-06,-0.0012
-6.960e-06,-0.0012
-6.880e-06,8e-05
-6.800e-06,-0.0004
-6.720e-06,-0.00048
-6.640e-06,-0.00096
-6.560e-06,-0.00216
-6.480e-06,-0.00216
-6.400e-06,-0.00304
-6.320e-06,-0.00384
-6.240e-06,-0.00384
-6.160e-06,-0.00328
-6.080e-06,-0.0032
-6.000e-06,-0.00128
-5.920e-06,-0.00232
-5.840e-06,-0.00104
-5.760e-06,-0.00104
-5.680e-06,-0.00072
-5.600e-06,-0.0012
-5.520e-06,-0.00192
-5.440e-06,-0.00272
-5.360e-06,-0.0028
-5.280e-06,-0.00392
-5.200e-06,-0.00336
-5.120e-06,-0.00424
-5.040e-06,-0.00384
-4.960e-06,-0.00288
-4.880e-06,-0.00272
-4.800e-06,-0.00144
-4.720e-06,-0.00128
-4.640e-06,-0.00176
-4.560e-06,-0.00168
-4.480e-06,-0.00104
-4.400e-06,-0.00248
-4.320e-06,-0.00304
-4.240e-06,-0.004
-4.160e-06,-0.00464
-4.080e-06,-0.00472
-4.000e-06,-0.00376
-3.920e-06,-0.00464
-3.840e-06,-0.00296
-3.760e-06,-0.00336
-3.680e-06,-0.00216
-3.600e-06,-0.00192
-3.520e-06,-0.0016
-3.440e-06,-0.00208
-3.360e-06,-0.00224
-3.280e-06,-0.00304
-3.200e-06,-0.004
-3.120e-06,-0.00448
-3.040e-06,-0.00504
-2.960e-06,-0.00544
-2.880e-06,-0.00472
-2.800e-06,-0.00456
-2.720e-06,-0.00328
-2.640e-06,-0.00336
-2.560e-06,-0.00264
-2.480e-06,-0.0024
-2.400e-06,-0.00224
-2.320e-06,-0.00184
-2.240e-06,-0.00352
-2.160e-06,-0.00368
-2.080e-06,-0.00472
-2.000e-06,-0.00464
-1.920e-06,-0.00512
-1.840e-06,-0.0052
-1.760e-06,-0.0052
-1.680e-06,-0.00448
-1.600e-06,-0.00344
-1.520e-06,-0.00256
-1.440e-06,-0.0024
-1.360e-06,-0.00208
-1.280e-06,-0.00256
-1.200e-06,-0.0016
-1.120e-06,-0.00328
-1.040e-06,-0.00312
-9.600e-07,-0.00424
-8.800e-07,-0.00464
-8.000e-07,-0.00392
-7.200e-07,-0.00448
-6.400e-07,-0.0032
-5.600e-07,-0.00392
-4.800e-07,-0.00224
-4.000e-07,-0.00136
-3.200e-07,-0.00088
-2.400e-07,-0.00096
-1.600e-07,-0.00088
-8.000e-08,-0.00152
-6.924e-19,-0.0012
8.000e-08,-0.0024
1.600e-07,-0.00256
2.400e-07,-0.00368
3.200e-07,-0.00288
4.000e-07,-0.0032
4.800e-07,-0.00144
5.600e-07,-0.00176
6.400e-07,-0.00064
7.200e-07,0.00032
8.000e-07,0.00072
8.800e-07,0.0012
9.600e-07,0.0008
1.040e-06,0.00032
1.120e-06,-0.00032
1.200e-06,-0.00024
1.280e-06,-0.00184
1.360e-06,-0.00136
1.440e-06,-0.00128
1.520e-06,-0.00088
1.600e-06,-0.00088
