data/PSU_noise/PSU1_CC1_0A_100us.CSV

Model,TBS1102C
Firmware Version,v2015-08-04-prequal4ch70_v1.3

Point Format,Y
Horizontal Units,S
Horizontal Scale,0.0001
Sample Interval,8e-07
Filter Frequency,2e+08
Record Length,2000
Gating,0.0% to 100.0%
Probe Attenuation,1
Vertical Units,V
Vertical Offset,0
Vertical Scale,0.001
Label,
TIME,CH1
-8.000e-04,0.00044
-7.992e-04,-0.00224
-7.984e-04,-0.0002
-7.976e-04,0.00228
-7.968e-04,-0.00036
-7.960e-04,-0.00268
-7.952e-04,0.00028
-7.944e-04,0.00128
-7.936e-04,-0.00164
-7.928e-04,-0.00216
-7.920e-04,0.00192
-7.912e-04,0.00084
-7.904e-04,-0.00188
-7.896e-04,0.0002
-7.888e-04,0.00276
-7.880e-04,-0.00024
-7.872e-04,-0.0012
-7.864e-04,0.00236
-7.856e-04,0.00228
-7.848e-04,-0.00228
-7.840e-04,-0.001
-7.832e-04,0.00328
-7.824e-04,0.00024
-7.816e-04,-0.00184
-7.808e-04,0.00104
-7.800e-04,0.0016
-7.792e-04,-0.001
-7.784e-04,0.00036
-7.776e-04,0.00296
-7.768e-04,0.00036
-7.760e-04,-0.00124
-7.752e-04,0.00168
-7.744e-04,0.0024
-7.736e-04,4e-05
-7.728e-04,-0.0006
-7.720e-04,0.00176
-7.712e-04,0.00088
-7.704e-04,-0.0016
-7.696e-04,4e-05
-7.688e-04,0.00176
-7.680e-04,-0.0012
-7.672e-04,-0.00104
-7.664e-04,0.00204
-7.656e-04,0.00164
-7.648e-04,-0.00152
-7.640e-04,8e-05
-7.632e-04,0.00292
-7.624e-04,4e-05
-7.616e-04,-0.00132
-7.608e-04,0.00156
-7.600e-04,0.00044
-7.592e-04,-0.00264
-7.584e-04,4e-05
-7.576e-04,0.00224
-7.568e-04,-0.00208
-7.560e-04,-0.00252
-7.552e-04,0.0012
-7.544e-04,0.00048
-7.536e-04,-0.00196
-7.528e-04,0.00052
-7.520e-04,0.00212
-7.512e-04,-0.00096
-7.504e-04,-0.00128
-7.496e-04,0.002
-7.488e-04,0.00056
-7.480e-04,-0.00276
-7.472e-04,-0.00056
-7.464e-04,0.00196
-7.456e-04,-0.002
-7.448e-04,-0.0024
-7.440e-04,0.00164
-7.432e-04,0.00136
-7.424e-04,-0.002
-7.416e-04,4e-05
-7.408e-04,0.00236
-7.400e-04,0.00044
-7.392e-04,-0.0012
-7.384e-04,0.0012
-7.376e-04,0.0016
-7.368e-04,-0.00184
-7.360e-04,-0.00112
-7.352e-04,0.00204
-7.344e-04,0.00096
-7.336e-04,-0.00148
-7.328e-04,0.00036
-7.320e-04,0.00276
-7.312e-04,0.00048
-7.304e-04,-0.0012
-7.296e-04,0.0014
-7.288e-04,0.00184
-7.280e-04,-0.0008
-7.272e-04,-0.0004
-7.264e-04,0.0022
-7.256e-04,-0.00024
-7.248e-04,-0.00248
-7.240e-04,0.0014
-7.232e-04,0.0026
-7.224e-04,-0.00068
-7.216e-04,-0.00076
-7.208e-04,0.00276
-7.200e-04,0.00184
-7.192e-04,-0.00164
-7.184e-04,0.00084
-7.176e-04,0.00228
-7.168e-04,-0.00152
-7.160e-04,-0.0016
-7.152e-04,0.0018
-7.144e-04,0.00084
-7.136e-04,-0.0024
-7.128e-04,0.00036
-7.120e-04,0.0022
-7.112e-04,-0.00064
-7.104e-04,-0.00084
-7.096e-04,0.00196
-7.088e-04,0.0012
-7.080e-04,-0.0014
-7.072e-04,0.00044
-7.064e-04,0.00148
-7.056e-04,-0.00124
-7.048e-04,-0.00276
-7.040e-04,0.00172
-7.032e-04,0.00044
-7.024e-04,-0.00328
-7.016e-04,-0.0012
-7.008e-04,0.00156
-7.000e-04,-0.00072
-6.992e-04,-0.00112
-6.984e-04,0.0018
-6.976e-04,0.00096
-6.968e-04,-0.0022
-6.960e-04,0.00032
-6.952e-04,0.00172
-6.944e-04,-0.00112
-6.936e-04,-0.00252
-6.928e-04,0.0016
-6.920e-04,0.00128
-6.912e-04,-0.0022
-6.904e-04,-0.00064
-6.896e-04,0.00256
-6.888e-04,0.00092
-6.880e-04,-0.00056
-6.872e-04,0.00104
-6.864e-04,0.00156
-6.856e-04,-0.00072
-6.848e-04,-0.00088
-6.840e-04,0.00272
-6.832e-04,0.00092
-6.824e-04,-0.00208
-6.816e-04,0
-6.808e-04,0.00288
-6.800e-04,0.00044
-6.792e-04,-0.00112
-6.784e-04,0.00164
-6.776e-04,0.00204
-6.768e-04,-0.00076
-6.760e-04,0
-6.752e-04,0.00256
-6.744e-04,0.00044
-6.736e-04,-0.0014
-6.728e-04,0.00088
-6.720e-04,0.0024
-6.712e-04,-0.00188
-6.704e-04,-0.00156
-6.696e-04,0.00288
-6.688e-04,0.00084
-6.680e-04,-0.00196
-6.672e-04,0.0008
-6.664e-04,0.00232
-6.656e-04,-0.00092
-6.648e-04,-8e-05
-6.640e-04,0.00308
-6.632e-04,0.00056
-6.624e-04,-0.00236
-6.616e-04,0.00068
-6.608e-04,0.00224
-6.600e-04,-0.00184
-6.592e-04,-0.0016
-6.584e-04,0.0016
-6.576e-04,8e-05
-6.568e-04,-0.0022
-6.560e-04,0.00092
-6.552e-04,0.0016
-6.544e-04,-0.0012
-6.536e-04,-0.00024
-6.528e-04,0.00232
-6.520e-04,0.00088
-6.512e-04,-0.00188
-6.504e-04,0.00088
-6.496e-04,0.0018
-6.488e-04,-0.00076
-6.480e-04,-0.00104
-6.472e-04,0.00088
-6.464e-04,0.0002
-6.456e-04,-0.00164
-6.448e-04,0.00048
-6.440e-04,0.00184
-6.432e-04,-0.00176
-6.424e-04,-0.00164
-6.416e-04,0.00232
-6.408e-04,0.00084
-6.400e-04,-0.00228
-6.392e-04,0.0006
-6.384e-04,0.00288
-6.376e-04,0.00024
-6.368e-04,-0.00172
-6.360e-04,0.00144
-6.352e-04,0.00176
-6.344e-04,-0.00144
-6.336e-04,-0.00036
-6.328e-04,0.00208
-6.320e-04,-0.00084
-6.312e-04,-0.0022
-6.304e-04,0.00136
-6.296e-04,0.00224
-6.288e-04,-0.0016
-6.280e-04,-0.00116
-6.272e-04,0.00244
-6.264e-04,0.00112
-6.256e-04,-0.00104
-6.248e-04,0.00104
-6.240e-04,0.0028
-6.232e-04,-8e-05
-6.224e-04,-0.00084
-6.216e-04,0.00248
-6.208e-04,0.00144
-6.200e-04,-0.00196
-6.192e-04,-0.00016
-6.184e-04,0.00232
-6.176e-04,-0.00116
-6.168e-04,-0.00256
-6.160e-04,0.00068
-6.152e-04,0.00164
-6.144e-04,-0.0018
-6.136e-04,-0.0004
-6.128e-04,0.00192
-6.120e-04,8e-05
-6.112e-04,-0.00096
-6.104e-04,0.0022
-6.096e-04,0.00184
-6.088e-04,-0.00168
-6.080e-04,-0.00112
-6.072e-04,0.00188
-6.064e-04,-0.00024
-6.056e-04,-0.00256
-6.048e-04,0.0004
-6.040e-04,0.00148
-6.032e-04,-0.00196
-6.024e-04,-0.0008
-6.016e-04,0.00184
-6.008e-04,-0.0002
-6.000e-04,-0.00176
-5.992e-04,0.00168
-5.984e-04,0.00272
-5.976e-04,-0.00192
-5.968e-04,-0.00064
-5.960e-04,0.00308
-5.952e-04,0.00032
-5.944e-04,-0.002
-5.936e-04,0.00132
-5.928e-04,0.0016
-5.920e-04,-0.00236
-5.912e-04,-0.00056
-5.904e-04,0.00208
-5.896e-04,-0.00084
-5.888e-04,-0.00184
-5.880e-04,0.00172
-5.872e-04,0.00164
-5.864e-04,-0.00068
-5.856e-04,-0.00068
-5.848e-04,0.00232
-5.840e-04,0.002
-5.832e-04,-0.00076
-5.824e-04,-0.00016
-5.816e-04,0.00224
-5.808e-04,0.0002
-5.800e-04,-0.0018
-5.792e-04,0.00092
-5.784e-04,0.00148
-5.776e-04,-0.00196
-5.768e-04,-0.0016
-5.760e-04,0.00288
-5.752e-04,0.0002
-5.744e-04,-0.00236
-5.736e-04,0.00164
-5.728e-04,0.00268
-5.720e-04,-0.00104
-5.712e-04,-0.00076
-5.704e-04,0.00176
-5.696e-04,0.00024
-5.688e-04,-0.00248
-5.680e-04,0.00028
-5.672e-04,0.00112
-5.664e-04,-0.00172
-5.656e-04,-0.00128
-5.648e-04,0.00184
-5.640e-04,0.00112
-5.632e-04,-0.00108
-5.624e-04,0.00036
-5.616e-04,0.003
-5.608e-04,0.00104
-5.600e-04,-0.00088
-5.592e-04,0.00168
-5.584e-04,0.00152
-5.576e-04,-0.00184
-5.568e-04,4e-05
-5.560e-04,0.00288
-5.552e-04,-0.00096
-5.544e-04,-0.00292
-5.536e-04,0.0018
-5.528e-04,0.0018
-5.520e-04,-0.00224
-5.512e-04,0.00016
-5.504e-04,0.00248
-5.496e-04,-0.00092
-5.488e-04,-0.00152
-5.480e-04,0.00268
-5.472e-04,0.00096
-5.464e-04,-0.00228
-5.456e-04,0.0006
-5.448e-04,0.00256
-5.440e-04,-0.00164
-5.432e-04,-0.00168
-5.424e-04,0.0012
-5.416e-04,0.00064
-5.408e-04,-0.00156
-5.400e-04,0.00032
-5.392e-04,0.00156
-5.384e-04,-0.00136
-5.376e-04,-0.00076
-5.368e-04,0.00296
-5.360e-04,0.00136
-5.352e-04,-0.00208
-5.344e-04,0.00048
-5.336e-04,0.00292
-5.328e-04,-0.0008
-5.320e-04,-0.00204
-5.312e-04,0.00132
-5.304e-04,0.00076
-5.296e-04,-0.00192
-5.288e-04,-0.00112
-5.280e-04,0.00088
-5.272e-04,-0.0006
-5.264e-04,-0.00232
-5.256e-04,0.00112
-5.248e-04,0.00144
-5.240e-04,-0.00208
-5.232e-04,-0.0008
-5.224e-04,0.0024
-5.216e-04,0.00052
-5.208e-04,-0.0016
-5.200e-04,-0.00036
-5.192e-04,0.00112
-5.184e-04,-0.001
-5.176e-04,-0.00168
-5.168e-04,0.00104
-5.160e-04,0.00052
-5.152e-04,-0.00172
-5.144e-04,-0.00016
-5.136e-04,0.00264
-5.128e-04,-0.00016
-5.120e-04,-0.002
-5.112e-04,0.00248
-5.104e-04,0.00212
-5.096e-04,-0.0016
-5.088e-04,-0.0008
-5.080e-04,0.0022
-5.072e-04,-0.00012
-5.064e-04,-0.00184
-5.056e-04,0.00136
-5.048e-04,0.0012
-5.040e-04,-0.00232
-5.032e-04,-0.00016
-5.024e-04,0.00328
-5.016e-04,-0.00028
-5.008e-04,-0.00136
-5.000e-04,0.002
-4.992e-04,0.00232
-4.984e-04,-0.00044
-4.976e-04,0
-4.968e-04,0.00236
-4.960e-04,-0.0002
-4.952e-04,-0.00192
-4.944e-04,0.00188
-4.936e-04,0.00072
-4.928e-04,-0.0026
-4.920e-04,-0.00056
-4.912e-04,0.00252
-4.904e-04,-0.00092
-4.896e-04,-0.002
-4.888e-04,0.00228
-4.880e-04,0.00196
-4.872e-04,-0.00116
-4.864e-04,0.00092
-4.856e-04,0.0022
-4.848e-04,-0.00116
-4.840e-04,-0.00208
-4.832e-04,0.00096
-4.824e-04,0.00116
-4.816e-04,-0.00216
-4.808e-04,-0.00112
-4.800e-04,0.00228
-4.792e-04,0.0006
-4.784e-04,-0.0014
-4.776e-04,0.00044
-4.768e-04,0.0032
-4.760e-04,0.00056
-4.752e-04,-0.00148
-4.744e-04,0.00152
-4.736e-04,0.00176
-4.728e-04,-0.00232
-4.720e-04,-0.00016
-4.712e-04,0.00244
-4.704e-04,-0.0008
-4.696e-04,-0.0026
-4.688e-04,0.002
-4.680e-04,0.00272
-4.672e-04,-0.00084
-4.664e-04,-8e-05
-4.656e-04,0.0032
-4.648e-04,0.00092
-4.640e-04,-0.0008
-4.632e-04,0.001
-4.624e-04,0.002
-4.616e-04,-0.00068
-4.608e-04,-0.0008
-4.600e-04,0.0022
-4.592e-04,0.0008
-4.584e-04,-0.00168
-4.576e-04,0.00056
-4.568e-04,0.0028
-4.560e-04,0
-4.552e-04,-0.00108
-4.544e-04,0.00176
-4.536e-04,0.00208
-4.528e-04,-0.00108
-4.520e-04,0.00096
-4.512e-04,0.00236
-4.504e-04,-0.00144
-4.496e-04,-0.00152
-4.488e-04,0.00228
-4.480e-04,0.00044
-4.472e-04,-0.00292
-4.464e-04,-8e-05
-4.456e-04,0.00204
-4.448e-04,-0.00176
-4.440e-04,-0.0006
-4.432e-04,0.00272
-4.424e-04,0.00084
-4.416e-04,-0.00128
-4.408e-04,0.0016
-4.400e-04,0.00188
-4.392e-04,-0.0022
-4.384e-04,-0.00068
-4.376e-04,0.00244
-4.368e-04,-0.0002
-4.360e-04,-0.002
-4.352e-04,0.00044
-4.344e-04,4e-05
-4.336e-04,-0.00124
-4.328e-04,-0.0002
-4.320e-04,0.0018
-4.312e-04,0.00052
-4.304e-04,-0.0018
-4.296e-04,0.00088
-4.288e-04,0.00272
-4.280e-04,-0.00076
-4.272e-04,-0.00132
-4.264e-04,0.00212
-4.256e-04,0.00172
-4.248e-04,-0.00156
-4.240e-04,-0.00072
-4.232e-04,0.0024
-4.224e-04,-8e-05
-4.216e-04,-0.00156
-4.208e-04,0.00164
-4.200e-04,0.00172
-4.192e-04,-0.00156
-4.184e-04,0.00028
-4.176e-04,0.00364
-4.168e-04,0.00036
-4.160e-04,-0.00216
-4.152e-04,0.0012
-4.144e-04,0.00228
-4.136e-04,-0.0012
-4.128e-04,-0.00096
-4.120e-04,0.00188
-4.112e-04,0.0006
-4.104e-04,-0.0012
-4.096e-04,0.00124
-4.088e-04,0.00256
-4.080e-04,-0.0006
-4.072e-04,-0.00072
-4.064e-04,0.0024
-4.056e-04,0.00104
-4.048e-04,-0.00244
-4.040e-04,4e-05
-4.032e-04,0.00176
-4.024e-04,-0.0006
-4.016e-04,-0.00184
-4.008e-04,0.00132
-4.000e-04,0.00084
-3.992e-04,-0.00136
-3.984e-04,0.00024
-3.976e-04,0.00272
-3.968e-04,-0.00036
-3.960e-04,-0.0018
-3.952e-04,0.00164
-3.944e-04,0.00084
-3.936e-04,-0.00256
-3.928e-04,-8e-05
-3.920e-04,0.00064
-3.912e-04,-0.0018
-3.904e-04,-0.00156
-3.896e-04,0.00148
-3.888e-04,0.00024
-3.880e-04,-0.00192
-3.872e-04,0.00128
-3.864e-04,0.00252
-3.856e-04,-0.00092
-3.848e-04,-0.00136
-3.840e-04,0.0018
-3.832e-04,0.00068
-3.824e-04,-0.00164
-3.816e-04,0.00016
-3.808e-04,0.00196
-3.800e-04,-0.002
-3.792e-04,-0.001
-3.784e-04,0.00348
-3.776e-04,0.00132
-3.768e-04,-0.00104
-3.760e-04,0.00116
-3.752e-04,0.00304
-3.744e-04,-4e-05
-3.736e-04,-0.00184
-3.728e-04,0.00144
-3.720e-04,0.00208
-3.712e-04,-0.00136
-3.704e-04,-0.00084
-3.696e-04,0.00152
-3.688e-04,0.0006
-3.680e-04,-0.00116
-3.672e-04,0.00164
-3.664e-04,0.00312
-3.656e-04,-0.00092
-3.648e-04,-0.00068
-3.640e-04,0.00332
-3.632e-04,0.00108
-3.624e-04,-0.00192
-3.616e-04,8e-05
-3.608e-04,0.00232
-3.600e-04,-0.00104
-3.592e-04,-0.0018
-3.584e-04,0.00228
-3.576e-04,0.00104
-3.568e-04,-0.00176
-3.560e-04,0.00112
-3.552e-04,0.00236
-3.544e-04,-0.00108
-3.536e-04,-0.00124
-3.528e-04,0.00256
-3.520e-04,0.00176
-3.512e-04,-0.0024
-3.504e-04,-0.00124
-3.496e-04,0.00148
-3.488e-04,-0.00124
-3.480e-04,-0.00248
-3.472e-04,0.00048
-3.464e-04,0.00028
-3.456e-04,-0.00228
-3.448e-04,-0.0006
-3.440e-04,0.00272
-3.432e-04,-0.00068
-3.424e-04,-0.00168
-3.416e-04,0.00132
-3.408e-04,0.00184
-3.400e-04,-0.0018
-3.392e-04,-0.00056
-3.384e-04,0.00208
-3.376e-04,-0.0016
-3.368e-04,-0.00248
-3.360e-04,0.00208
-3.352e-04,0
-3.344e-04,-0.00388
-3.336e-04,0.0006
-3.328e-04,0.00172
-3.320e-04,-0.00124
-3.312e-04,-0.00044
-3.304e-04,0.00212
-3.296e-04,0.00012
-3.288e-04,-0.00112
-3.280e-04,0.00204
-3.272e-04,0.00208
-3.264e-04,-0.00092
-3.256e-04,-0.0006
-3.248e-04,0.0024
-3.240e-04,0.00104
-3.232e-04,-0.00184
-3.224e-04,0.0004
-3.216e-04,0.0024
-3.208e-04,0.00052
-3.200e-04,-0.00116
-3.192e-04,0.00144
-3.184e-04,0.00196
-3.176e-04,-0.00024
-3.168e-04,0.00028
-3.160e-04,0.00336
-3.152e-04,-0.00024
-3.144e-04,-0.00216
-3.136e-04,0.0012
-3.128e-04,0.0026
-3.120e-04,-0.00156
-3.112e-04,-0.00168
-3.104e-04,0.00196
-3.096e-04,0.0006
-3.088e-04,-0.0018
-3.080e-04,0.001
-3.072e-04,0.00212
-3.064e-04,-0.0008
-3.056e-04,-0.00132
-3.048e-04,0.00256
-3.040e-04,8e-05
-3.032e-04,-0.00252
-3.024e-04,0.0004
-3.016e-04,0.00212
-3.008e-04,-0.0012
-3.000e-04,-0.00212
-2.992e-04,0.00144
-2.984e-04,0.00076
-2.976e-04,-0.00148
-2.968e-04,0.0002
-2.960e-04,0.00192
-2.952e-04,-0.00168
-2.944e-04,-0.00216
-2.936e-04,0.00124
-2.928e-04,0.0006
-2.920e-04,-0.003
-2.912e-04,-0.00112
-2.904e-04,0.00144
-2.896e-04,-0.00172
-2.888e-04,-0.0016
-2.880e-04,0.00144
-2.872e-04,0.0008
-2.864e-04,-0.0016
-2.856e-04,0.00084
-2.848e-04,0.00268
-2.840e-04,-0.00096
-2.832e-04,-0.0014
-2.824e-04,0.00228
-2.816e-04,0.00068
-2.808e-04,-0.00188
-2.800e-04,0
-2.792e-04,0.0016
-2.784e-04,-0.0012
-2.776e-04,-0.00044
-2.768e-04,0.00276
-2.760e-04,0.00064
-2.752e-04,-0.00192
-2.744e-04,0.00124
-2.736e-04,0.00352
-2.728e-04,-0.00068
-2.720e-04,-0.00068
-2.712e-04,0.00276
-2.704e-04,0.00136
-2.696e-04,-0.00168
-2.688e-04,0.00016
-2.680e-04,0.00268
-2.672e-04,-0.0002
-2.664e-04,-0.0014
-2.656e-04,0.00272
-2.648e-04,0.00188
-2.640e-04,-0.00168
-2.632e-04,0.00064
-2.624e-04,0.00336
-2.616e-04,0.0006
-2.608e-04,-0.00244
-2.600e-04,4e-05
-2.592e-04,0.00204
-2.584e-04,-0.00108
-2.576e-04,-0.00156
-2.568e-04,0.0018
-2.560e-04,-0.00032
-2.552e-04,-0.0016
-2.544e-04,0.00088
-2.536e-04,0.0022
-2.528e-04,-0.00064
-2.520e-04,-0.00184
-2.512e-04,0.0018
-2.504e-04,0.00088
-2.496e-04,-0.00232
-2.488e-04,-0.00044
-2.480e-04,0.00176
-2.472e-04,-0.00128
-2.464e-04,-0.00144
-2.456e-04,0.00112
-2.448e-04,0.00036
-2.440e-04,-0.00236
-2.432e-04,-8e-05
-2.424e-04,0.00264
-2.416e-04,-0.00072
-2.408e-04,-0.00236
-2.400e-04,0.00136
-2.392e-04,0.00072
-2.384e-04,-0.00296
-2.376e-04,0
-2.368e-04,0.00104
-2.360e-04,-0.00248
-2.352e-04,-0.002
-2.344e-04,0.00184
-2.336e-04,0.0006
-2.328e-04,-0.00172
-2.320e-04,0.00044
-2.312e-04,0.00208
-2.304e-04,-0.00064
-2.296e-04,-8e-05
-2.288e-04,0.00248
-2.280e-04,-0.0004
-2.272e-04,-0.0014
-2.264e-04,0.0014
-2.256e-04,0.00176
-2.248e-04,-0.00136
-2.240e-04,-0.00112
-2.232e-04,0.0022
-2.224e-04,0.0006
-2.216e-04,-0.0012
-2.208e-04,0.00104
-2.200e-04,0.00172
-2.192e-04,-0.00084
-2.184e-04,8e-05
-2.176e-04,0.00264
-2.168e-04,0.00072
-2.160e-04,-0.00176
-2.152e-04,0.00052
-2.144e-04,0.00252
-2.136e-04,-0.0006
-2.128e-04,-0.00208
-2.120e-04,0.00172
-2.112e-04,0.00148
-2.104e-04,-0.00152
-2.096e-04,0
-2.088e-04,0.00228
-2.080e-04,-0.0002
-2.072e-04,-0.00132
-2.064e-04,0.00204
-2.056e-04,0.00164
-2.048e-04,-0.00176
-2.040e-04,-0.00056
-2.032e-04,0.00272
-2.024e-04,-0.00012
-2.016e-04,-0.00284
-2.008e-04,0.0002
-2.000e-04,0.00104
-1.992e-04,-0.00172
-1.984e-04,-0.00124
-1.976e-04,0.00268
-1.968e-04,0.00036
-1.960e-04,-0.00224
-1.952e-04,0.00172
-1.944e-04,0.00252
-1.936e-04,-0.00108
-1.928e-04,-0.00112
-1.920e-04,0.00256
-1.912e-04,8e-05
-1.904e-04,-0.00212
-1.896e-04,0.00052
-1.888e-04,0.00052
-1.880e-04,-0.00216
-1.872e-04,-0.00124
-1.864e-04,0.00148
-1.856e-04,-0.0008
-1.848e-04,-0.00264
-1.840e-04,0.00064
-1.832e-04,0.00192
-1.824e-04,-0.00112
-1.816e-04,-0.00056
-1.808e-04,0.0016
-1.800e-04,-0.00024
-1.792e-04,-0.00208
-1.784e-04,0.00104
-1.776e-04,0.00152
-1.768e-04,-0.00248
-1.760e-04,-0.00092
-1.752e-04,0.00188
-1.744e-04,-0.00064
-1.736e-04,-0.00236
-1.728e-04,0.00136
-1.720e-04,0.00136
-1.712e-04,-0.0018
-1.704e-04,0.00056
-1.696e-04,0.00256
-1.688e-04,-0.00068
-1.680e-04,-0.00152
-1.672e-04,0.002
-1.664e-04,0.00108
-1.656e-04,-0.00228
-1.648e-04,-0.00148
-1.640e-04,0.00196
-1.632e-04,0.00076
-1.624e-04,-0.00156
-1.616e-04,0.0016
-1.608e-04,0.00196
-1.600e-04,-0.0016
-1.592e-04,-0.0006
-1.584e-04,0.00292
-1.576e-04,0.00064
-1.568e-04,-0.00228
-1.560e-04,-0.00024
-1.552e-04,0.00156
-1.544e-04,-0.00072
-1.536e-04,-0.00108
-1.528e-04,0.0016
-1.520e-04,0.00116
-1.512e-04,-0.00096
-1.504e-04,8e-05
-1.496e-04,0.00248
-1.488e-04,-0.00032
-1.480e-04,-0.00208
-1.472e-04,0.00192
-1.464e-04,0.00136
-1.456e-04,-0.00212
-1.448e-04,-0.00084
-1.440e-04,0.00176
-1.432e-04,-0.00068
-1.424e-04,-0.00172
-1.416e-04,0.00232
-1.408e-04,0.00184
-1.400e-04,-0.00208
-1.392e-04,-0.00076
-1.384e-04,0.00188
-1.376e-04,-0.00012
-1.368e-04,-0.00188
-1.360e-04,0
-1.352e-04,0.00096
-1.344e-04,-0.00224
-1.336e-04,-0.00052
-1.328e-04,0.00256
-1.320e-04,-0.00024
-1.312e-04,-0.0018
-1.304e-04,0.00108
-1.296e-04,0.00184
-1.288e-04,-0.00212
-1.280e-04,-0.00024
-1.272e-04,0.002
-1.264e-04,-0.00148
-1.256e-04,-0.00244
-1.248e-04,0.00124
-1.240e-04,0.0002
-1.232e-04,-0.00244
-1.224e-04,-0.00064
-1.216e-04,0.00124
-1.208e-04,-0.00124
-1.200e-04,-0.00076
-1.192e-04,0.00248
-1.184e-04,0.0004
-1.176e-04,-0.00192
-1.168e-04,0.00092
-1.160e-04,0.00224
-1.152e-04,-0.0012
-1.144e-04,-0.00196
-1.136e-04,0.00088
-1.128e-04,0.00104
-1.120e-04,-0.0018
-1.112e-04,-0.00032
-1.104e-04,0.00252
-1.096e-04,-0.00016
-1.088e-04,-0.0016
-1.080e-04,0.00228
-1.072e-04,0.0032
-1.064e-04,-0.00088
-1.056e-04,-0.00144
-1.048e-04,0.00204
-1.040e-04,0.0008
-1.032e-04,-0.0018
-1.024e-04,0.001
-1.016e-04,0.0022
-1.008e-04,-0.00124
-1.000e-04,-0.00036
-9.920e-05,0.00312
-9.840e-05,0.00148
-9.760e-05,-0.0006
-9.680e-05,0.00112
-9.600e-05,0.00244
-9.520e-05,-0.00064
-9.440e-05,-0.0004
-9.360e-05,0.00076
-9.280e-05,0.00096
-9.200e-05,-0.00108
-9.120e-05,0
-9.040e-05,0.00228
-8.960e-05,-0.0006
-8.880e-05,-0.002
-8.800e-05,0.0016
-8.720e-05,0.00192
-8.640e-05,-0.0018
-8.560e-05,-0.00128
-8.480e-05,0.00124
-8.400e-05,-0.00112
-8.320e-05,-0.00264
-8.240e-05,0.00108
-8.160e-05,0.00136
-8.080e-05,-0.00284
-8.000e-05,-0.00068
-7.920e-05,0.0026
-7.840e-05,-0.00012
-7.760e-05,-0.00204
-7.680e-05,0.00164
-7.600e-05,0.00048
-7.520e-05,-0.0032
-7.440e-05,0.00012
-7.360e-05,0.00156
-7.280e-05,-0.00156
-7.200e-05,-0.00164
-7.120e-05,0.00192
-7.040e-05,0.00108
-6.960e-05,-0.00216
-6.880e-05,0.00028
-6.800e-05,0.00156
-6.720e-05,-0.00212
-6.640e-05,-0.00112
-6.560e-05,0.00164
-6.480e-05,0
-6.400e-05,-0.00256
-6.320e-05,-0.00032
-6.240e-05,0.00228
-6.160e-05,-0.00044
-6.080e-05,-0.00116
-6.000e-05,0.002
-5.920e-05,0.00088
-5.840e-05,-0.00196
-5.760e-05,-0.00016
-5.680e-05,0.00224
-5.600e-05,-0.0004
-5.520e-05,-0.00212
-5.440e-05,0.00192
-5.360e-05,0.00276
-5.280e-05,-0.00128
-5.200e-05,0.00056
-5.120e-05,0.00216
-5.040e-05,0.00076
-4.960e-05,-0.0008
-4.880e-05,0.00028
-4.800e-05,0.00092
-4.720e-05,-0.00088
-4.640e-05,-0.00188
-4.560e-05,0.0018
-4.480e-05,0.0012
-4.400e-05,-0.00136
-4.320e-05,-0.00036
-4.240e-05,0.00256
-4.160e-05,0.00072
-4.080e-05,-0.00184
-4.000e-05,0.0008
-3.920e-05,0.00092
-3.840e-05,-0.00268
-3.760e-05,-0.00064
-3.680e-05,0.00252
-3.600e-05,-0.00044
-3.520e-05,-0.00288
-3.440e-05,0.00156
-3.360e-05,0.00196
-3.280e-05,-0.00144
-3.200e-05,-0.00032
-3.120e-05,0.00228
-3.040e-05,-0.00084
-2.960e-05,-0.00296
-2.880e-05,0.00076
-2.800e-05,0.00124
-2.720e-05,-0.00264
-2.640e-05,-0.00072
-2.560e-05,0.00192
-2.480e-05,-0.00056
-2.400e-05,-0.0016
-2.320e-05,0.00128
-2.240e-05,0.00136
-2.160e-05,-0.00172
-2.080e-05,-0.0002
-2.000e-05,0.00232
-1.920e-05,-0.00068
-1.840e-05,-0.00232
-1.760e-05,0.00168
-1.680e-05,0.00188
-1.600e-05,-0.00148
-1.520e-05,0.00044
-1.440e-05,0.00256
-1.360e-05,-0.00128
-1.280e-05,-0.00028
-1.200e-05,0.003
-1.120e-05,0.0012
-1.040e-05,-0.00164
-9.600e-06,-0.00016
-8.800e-06,0.00252
-8.000e-06,-0.00036
-7.200e-06,-0.00184
-6.400e-06,0.0016
-5.600e-06,0.00156
-4.800e-06,-0.00116
-4.000e-06,0.00016
-3.200e-06,0.00276
-2.400e-06,0.0006
-1.600e-06,-0.00116
-8.000e-07,0.00148
1.278e-17,0.00292
8.000e-07,-4e-05
1.600e-06,-0.00128
2.400e-06,0.00176
3.200e-06,0.00144
4.000e-06,-0.00148
4.800e-06,0.00076
5.600e-06,0.00204
6.400e-06,-0.00148
7.200e-06,-0.00152
8.000e-06,0.00276
8.800e-06,0.00216
9.600e-06,-0.00164
1.040e-05,-0.00016
1.120e-05,0.00264
1.200e-05,-0.00044
1.280e-05,-0.0018
1.360e-05,0.00196
1.440e-05,0.001
1.520e-05,-0.00184
1.600e-05,-0.0014
1.680e-05,0.00256
1.760e-05,-0.00108
1.840e-05,-0.002
1.920e-05,0.00152
2.000e-05,0.00048
2.080e-05,-0.00236
2.160e-05,0.00036
2.240e-05,0.00244
2.320e-05,-0.00096
2.400e-05,-0.00148
2.480e-05,0.0022
