data/PSU_noise/PSU1_CV2_40A_100us.CSV

Model,TBS1102C
Firmware Version,v2015-08-04-prequal4ch70_v1.3

Point Format,Y
Horizontal Units,S
Horizontal Scale,0.0001
Sample Interval,8e-07
Filter Frequency,2e+08
Record Length,2000
Gating,0.0% to 100.0%
Probe Attenuation,1
Vertical Units,V
Vertical Offset,0
Vertical Scale,0.002
Label,
TIME,CH1
-8.000e-04,0.00208
-7.992e-04,0.00064
-7.984e-04,-0.00104
-7.976e-04,0.0012
-7.968e-04,0.00304
-7.960e-04,0.00024
-7.952e-04,-8e-05
-7.944e-04,0.00208
-7.936e-04,0.00208
-7.928e-04,0
-7.920e-04,0.0008
-7.912e-04,0.00376
-7.904e-04,0.00176
-7.896e-04,-0.00176
-7.888e-04,0.00064
-7.880e-04,0.0036
-7.872e-04,0.00104
-7.864e-04,0
-7.856e-04,0.00216
-7.848e-04,0.002
-7.840e-04,-0.00088
-7.832e-04,0.00096
-7.824e-04,0.0036
-7.816e-04,-0.00024
-7.808e-04,-0.0012
-7.800e-04,0.00256
-7.792e-04,0.00128
-7.784e-04,-0.00128
-7.776e-04,0.00136
-7.768e-04,0.00176
-7.760e-04,-0.00088
-7.752e-04,0.00064
-7.744e-04,0.00344
-7.736e-04,0.00048
-7.728e-04,-0.0004
-7.720e-04,0.0024
-7.712e-04,0.00264
-7.704e-04,-0.00048
-7.696e-04,-0.00032
-7.688e-04,0.00232
-7.680e-04,0.0012
-7.672e-04,-0.00032
-7.664e-04,0.00128
-7.656e-04,0.00216
-7.648e-04,-0.00112
-7.640e-04,-0.00016
-7.632e-04,0.00336
-7.624e-04,0.00248
-7.616e-04,-0.00136
-7.608e-04,0.0012
-7.600e-04,0.00232
-7.592e-04,-0.00056
-7.584e-04,-0.00064
-7.576e-04,0.00224
-7.568e-04,-8e-05
-7.560e-04,-0.00192
-7.552e-04,0.00152
-7.544e-04,0.00048
-7.536e-04,-0.00232
-7.528e-04,0.00128
-7.520e-04,0.0028
-7.512e-04,-0.00168
-7.504e-04,-0.00064
-7.496e-04,0.00136
-7.488e-04,-0.00016
-7.480e-04,-0.00136
-7.472e-04,0.00136
-7.464e-04,0.00168
-7.456e-04,-0.00216
-7.448e-04,-0.00072
-7.440e-04,0.00296
-7.432e-04,0
-7.424e-04,-0.0016
-7.416e-04,0.00136
-7.408e-04,0.00216
-7.400e-04,-0.00104
-7.392e-04,-0.00056
-7.384e-04,0.00208
-7.376e-04,0.00032
-7.368e-04,-0.00112
-7.360e-04,0.00176
-7.352e-04,0.002
-7.344e-04,-0.00112
-7.336e-04,-0.00048
-7.328e-04,0.0032
-7.320e-04,0.00264
-7.312e-04,-0.00016
-7.304e-04,0.00048
-7.296e-04,0.00272
-7.288e-04,0.00152
-7.280e-04,-0.00048
-7.272e-04,0.0016
-7.264e-04,0.0028
-7.256e-04,-0.00064
-7.248e-04,-0.0012
-7.240e-04,0.00296
-7.232e-04,0.00352
-7.224e-04,0.0004
-7.216e-04,0.0008
-7.208e-04,0.00368
-7.200e-04,0.00304
-7.192e-04,0.00064
-7.184e-04,0.00256
-7.176e-04,0.00392
-7.168e-04,0.00064
-7.160e-04,0.00048
-7.152e-04,0.00352
-7.144e-04,0.0024
-7.136e-04,0.00072
-7.128e-04,0.00256
-7.120e-04,0.00536
-7.112e-04,0.00216
-7.104e-04,0.00128
-7.096e-04,0.00392
-7.088e-04,0.004
-7.080e-04,0.00184
-7.072e-04,0.00296
-7.064e-04,0.00464
-7.056e-04,0.00136
-7.048e-04,0.00144
-7.040e-04,0.00568
-7.032e-04,0.00504
-7.024e-04,0.002
-7.016e-04,0.00256
-7.008e-04,0.00592
-7.000e-04,0.00424
-6.992e-04,0.00176
-6.984e-04,0.00472
-6.976e-04,0.00544
-6.968e-04,0.00208
-6.960e-04,0.00264
-6.952e-04,0.00576
-6.944e-04,0.00408
-6.936e-04,0.00184
-6.928e-04,0.00528
-6.920e-04,0.00672
-6.912e-04,0.00224
-6.904e-04,0.00192
-6.896e-04,0.00536
-6.888e-04,0.00496
-6.880e-04,0.002
-6.872e-04,0.00312
-6.864e-04,0.00504
-6.856e-04,0.00184
-6.848e-04,0.00152
-6.840e-04,0.0048
-6.832e-04,0.00472
-6.824e-04,0.00216
-6.816e-04,0.00128
-6.808e-04,0.00432
-6.800e-04,0.0036
-6.792e-04,0.00088
-6.784e-04,0.00248
-6.776e-04,0.00416
-6.768e-04,0.00088
-6.760e-04,0.0008
-6.752e-04,0.0032
-6.744e-04,0.00128
-6.736e-04,-0.00032
-6.728e-04,0.00344
-6.720e-04,0.0044
-6.712e-04,-0.00024
-6.704e-04,0.00104
-6.696e-04,0.0024
-6.688e-04,0.0008
-6.680e-04,0.00024
-6.672e-04,0.0036
-6.664e-04,0.0012
-6.656e-04,-0.00232
-6.648e-04,0.00096
-6.640e-04,0.00344
-6.632e-04,0.0012
-6.624e-04,-0.00064
-6.616e-04,0.00248
-6.608e-04,0.00216
-6.600e-04,-8e-05
-6.592e-04,0.00144
-6.584e-04,0.00264
-6.576e-04,0.00056
-6.568e-04,-0.00104
-6.560e-04,0.00248
-6.552e-04,0.00208
-6.544e-04,-0.00104
-6.536e-04,0.0008
-6.528e-04,0.004
-6.520e-04,0.00104
-6.512e-04,0.00016
-6.504e-04,0.00248
-6.496e-04,0.0028
-6.488e-04,-0.0004
-6.480e-04,0.00136
-6.472e-04,0.00256
-6.464e-04,-0.00088
-6.456e-04,-0.00136
-6.448e-04,0.00176
-6.440e-04,0.002
-6.432e-04,-0.00072
-6.424e-04,0
-6.416e-04,0.00184
-6.408e-04,-0.00016
-6.400e-04,-0.00088
-6.392e-04,0.0008
-6.384e-04,0.0016
-6.376e-04,-0.0016
-6.368e-04,-0.00192
-6.360e-04,0.0016
-6.352e-04,0.00024
-6.344e-04,-0.00248
-6.336e-04,-0.00032
-6.328e-04,0.00248
-6.320e-04,8e-05
-6.312e-04,-0.00192
-6.304e-04,0.00072
-6.296e-04,0.0016
-6.288e-04,-0.00232
-6.280e-04,-0.00064
-6.272e-04,0.00232
-6.264e-04,-0.00064
-6.256e-04,-0.00296
-6.248e-04,-0.00064
-6.240e-04,0.00272
-6.232e-04,0.00064
-6.224e-04,-0.00184
-6.216e-04,0.00072
-6.208e-04,0.00184
-6.200e-04,0.00016
-6.192e-04,-0.00016
-6.184e-04,0.00112
-6.176e-04,0.0012
-6.168e-04,-0.00192
-6.160e-04,-0.00088
-6.152e-04,0.00296
-6.144e-04,0.00072
-6.136e-04,-0.00144
-6.128e-04,0.0016
-6.120e-04,0.00344
-6.112e-04,8e-05
-6.104e-04,-0.00048
-6.096e-04,0.00256
-6.088e-04,0.00136
-6.080e-04,-0.0004
-6.072e-04,0.00168
-6.064e-04,0.00248
-6.056e-04,-8e-05
-6.048e-04,-0.00024
-6.040e-04,0.00344
-6.032e-04,0.00312
-6.024e-04,0.0008
-6.016e-04,0.00096
-6.008e-04,0.00344
-6.000e-04,0.0008
-5.992e-04,0
-5.984e-04,0.0024
-5.976e-04,0.00096
-5.968e-04,-0.00072
-5.960e-04,0.00136
-5.952e-04,0.0036
-5.944e-04,0.00032
-5.936e-04,0.00032
-5.928e-04,0.00416
-5.920e-04,0.00264
-5.912e-04,-0.00152
-5.904e-04,0.00152
-5.896e-04,0.00336
-5.888e-04,0.00072
-5.880e-04,0.0008
-5.872e-04,0.00344
-5.864e-04,0.0008
-5.856e-04,-0.0008
-5.848e-04,0.00232
-5.840e-04,0.00472
-5.832e-04,0.00168
-5.824e-04,-8e-05
-5.816e-04,0.00216
-5.808e-04,0.00208
-5.800e-04,0
-5.792e-04,0.00168
-5.784e-04,0.00288
-5.776e-04,0.00088
-5.768e-04,-0.00048
-5.760e-04,0.00264
-5.752e-04,0.00272
-5.744e-04,-0.00096
-5.736e-04,0.00072
-5.728e-04,0.00336
-5.720e-04,0.00152
-5.712e-04,-0.00192
-5.704e-04,0.00096
-5.696e-04,0.00216
-5.688e-04,-0.00024
-5.680e-04,-0.00056
-5.672e-04,0.00208
-5.664e-04,0.00072
-5.656e-04,-0.00224
-5.648e-04,0.00024
-5.640e-04,0.0028
-5.632e-04,0.00048
-5.624e-04,-0.00224
-5.616e-04,0
-5.608e-04,0.00056
-5.600e-04,-0.00144
-5.592e-04,-0.00024
-5.584e-04,0.00096
-5.576e-04,-0.0016
-5.568e-04,-0.00256
-5.560e-04,0.0008
-5.552e-04,0.00024
-5.544e-04,-0.00232
-5.536e-04,-0.00032
-5.528e-04,0.00064
-5.520e-04,-0.00312
-5.512e-04,-0.00272
-5.504e-04,-0.00048
-5.496e-04,-0.00304
-5.488e-04,-0.00384
-5.480e-04,-0.00096
-5.472e-04,-0.00152
-5.464e-04,-0.00536
-5.456e-04,-0.00296
-5.448e-04,8e-05
-5.440e-04,-0.00304
-5.432e-04,-0.00344
-5.424e-04,-0.0016
-5.416e-04,-0.00328
-5.408e-04,-0.00512
-5.400e-04,-0.00256
-5.392e-04,-0.00104
-5.384e-04,-0.00496
-5.376e-04,-0.00552
-5.368e-04,-0.00168
-5.360e-04,-0.00248
-5.352e-04,-0.00504
-5.344e-04,-0.00344
-5.336e-04,-0.00136
-5.328e-04,-0.00424
-5.320e-04,-0.00536
-5.312e-04,-0.00168
-5.304e-04,-0.00272
-5.296e-04,-0.0056
-5.288e-04,-0.00304
-5.280e-04,-0.00064
-5.272e-04,-0.0032
-5.264e-04,-0.00544
-5.256e-04,-0.0012
-5.248e-04,-0.00056
-5.240e-04,-0.00336
-5.232e-04,-0.00248
-5.224e-04,-0.00088
-5.216e-04,-0.0024
-5.208e-04,-0.004
-5.200e-04,-0.00104
-5.192e-04,-8e-05
-5.184e-04,-0.00384
-5.176e-04,-0.00368
-5.168e-04,0.00024
-5.160e-04,-0.0004
-5.152e-04,-0.00192
-5.144e-04,0.00016
-5.136e-04,0.00048
-5.128e-04,-0.00224
-5.120e-04,-0.0008
-5.112e-04,0.00184
-5.104e-04,-0.00136
-5.096e-04,-0.00256
-5.088e-04,0.00048
-5.080e-04,0.00128
-5.072e-04,-0.00184
-5.064e-04,-0.0012
-5.056e-04,0.00184
-5.048e-04,-0.00032
-5.040e-04,-0.0012
-5.032e-04,0.00256
-5.024e-04,0.00112
-5.016e-04,-0.00264
-5.008e-04,-0.00048
-5.000e-04,0.0028
-4.992e-04,-0.00064
-4.984e-04,-0.00208
-4.976e-04,0.00072
-4.968e-04,0.00024
-4.960e-04,-0.00176
-4.952e-04,0.00104
-4.944e-04,0.00224
-4.936e-04,-0.00168
-4.928e-04,-0.00064
-4.920e-04,0.00232
-4.912e-04,-0.00048
-4.904e-04,-0.00264
-4.896e-04,0.00032
-4.888e-04,0.00056
-4.880e-04,-0.0028
-4.872e-04,-0.00128
-4.864e-04,0.00096
-4.856e-04,-0.00152
-4.848e-04,-0.00112
-4.840e-04,0.00152
-4.832e-04,0
-4.824e-04,-0.00352
-4.816e-04,-0.00072
-4.808e-04,0.00136
-4.800e-04,-0.00224
-4.792e-04,-0.00144
-4.784e-04,0.00056
-4.776e-04,-0.00256
-4.768e-04,-0.00224
-4.760e-04,0.0012
-4.752e-04,0.00072
-4.744e-04,-0.00232
-4.736e-04,-0.0004
-4.728e-04,0.0012
-4.720e-04,-0.00168
-4.712e-04,-0.0016
-4.704e-04,0.00152
-4.696e-04,-0.00056
-4.688e-04,-0.002
-4.680e-04,0.00072
-4.672e-04,0.00168
-4.664e-04,-0.00096
-4.656e-04,-0.00056
-4.648e-04,0.00328
-4.640e-04,0.00272
-4.632e-04,-0.00144
-4.624e-04,0.0004
-4.616e-04,0.00256
-4.608e-04,0.00048
-4.600e-04,8e-05
-4.592e-04,0.00248
-4.584e-04,0.0016
-4.576e-04,-0.0024
-4.568e-04,8e-05
-4.560e-04,0.00376
-4.552e-04,0.00112
-4.544e-04,-0.00064
-4.536e-04,0.00192
-4.528e-04,0.00144
-4.520e-04,-0.00088
-4.512e-04,8e-05
-4.504e-04,0.00216
-4.496e-04,-0.00104
-4.488e-04,-0.0016
-4.480e-04,0.002
-4.472e-04,0.00176
-4.464e-04,-0.00184
-4.456e-04,-0.0004
-4.448e-04,0.00208
-4.440e-04,0.00064
-4.432e-04,-0.00136
-4.424e-04,-0.00128
-4.416e-04,0
-4.408e-04,-0.00112
-4.400e-04,-0.00232
-4.392e-04,-8e-05
-4.384e-04,-0.00016
-4.376e-04,-0.00392
-4.368e-04,-0.00216
-4.360e-04,0.0008
-4.352e-04,-8e-05
-4.344e-04,-0.00304
-4.336e-04,-0.00256
-4.328e-04,0.00056
-4.320e-04,-0.00064
-4.312e-04,-0.00424
-4.304e-04,-0.0024
-4.296e-04,0.00032
-4.288e-04,-0.0016
-4.280e-04,-0.00336
-4.272e-04,-0.00168
-4.264e-04,-8e-05
-4.256e-04,-0.00248
-4.248e-04,-0.0028
-4.240e-04,-0.00064
-4.232e-04,-0.00088
-4.224e-04,-0.00312
-4.216e-04,-0.00328
-4.208e-04,0
-4.200e-04,0.00136
-4.192e-04,-0.00264
-4.184e-04,-0.0032
-4.176e-04,0
-4.168e-04,0.00016
-4.160e-04,-0.00256
-4.152e-04,-0.0016
-4.144e-04,0.0012
-4.136e-04,-0.00216
-4.128e-04,-0.00368
-4.120e-04,0.00024
-4.112e-04,0.00032
-4.104e-04,-0.00304
-4.096e-04,-0.0024
-4.088e-04,0.00104
-4.080e-04,-0.00032
-4.072e-04,-0.00256
-4.064e-04,-0.00032
-4.056e-04,0.00016
-4.048e-04,-0.00296
-4.040e-04,-0.00112
-4.032e-04,-8e-05
-4.024e-04,-0.00176
-4.016e-04,-0.00336
-4.008e-04,-0.00096
-4.000e-04,0.00104
-3.992e-04,-0.00192
-3.984e-04,-0.00328
-3.976e-04,0.0004
-3.968e-04,-0.00096
-3.960e-04,-0.0024
-3.952e-04,-0.00024
-3.944e-04,0.00088
-3.936e-04,-0.0028
-3.928e-04,-0.00288
-3.920e-04,0.0012
-3.912e-04,-0.00032
-3.904e-04,-0.00312
-3.896e-04,0.00056
-3.888e-04,0.00064
-3.880e-04,-0.00264
-3.872e-04,-0.00024
-3.864e-04,0.00096
-3.856e-04,-0.00152
-3.848e-04,-0.00104
-3.840e-04,0.00208
-3.832e-04,-0.00096
-3.824e-04,-0.00304
-3.816e-04,0.00104
-3.808e-04,0.00176
-3.800e-04,-0.00072
-3.792e-04,0
-3.784e-04,0.00168
-3.776e-04,-0.0004
-3.768e-04,-0.00128
-3.760e-04,0.002
-3.752e-04,0.00248
-3.744e-04,-0.00312
-3.736e-04,-0.00056
-3.728e-04,0.00264
-3.720e-04,0.00136
-3.712e-04,-0.0008
-3.704e-04,0.00176
-3.696e-04,0.0024
-3.688e-04,-8e-05
-3.680e-04,-0.00024
-3.672e-04,0.00288
-3.664e-04,0.00216
-3.656e-04,-0.00016
-3.648e-04,0.00112
-3.640e-04,0.00304
-3.632e-04,0.00096
-3.624e-04,-0.00088
-3.616e-04,0.00112
-3.608e-04,0.00376
-3.600e-04,0.0028
-3.592e-04,-0.00048
-3.584e-04,0.0004
-3.576e-04,0.00336
-3.568e-04,0.00224
-3.560e-04,-8e-05
-3.552e-04,0.002
-3.544e-04,0.00272
-3.536e-04,0.00056
-3.528e-04,-0.00056
-3.520e-04,0.0016
-3.512e-04,0.00304
-3.504e-04,0.00032
-3.496e-04,-0.00144
-3.488e-04,0.00168
-3.480e-04,0.00256
-3.472e-04,0.00032
-3.464e-04,0
-3.456e-04,0.00256
-3.448e-04,0.00248
-3.440e-04,-0.00072
-3.432e-04,0.0004
-3.424e-04,0.0028
-3.416e-04,0.00056
-3.408e-04,-0.00112
-3.400e-04,0.0028
-3.392e-04,0.00216
-3.384e-04,-0.00152
-3.376e-04,-0.00016
-3.368e-04,0.00336
-3.360e-04,0.00104
-3.352e-04,-0.00128
-3.344e-04,0.00136
-3.336e-04,0.0012
-3.328e-04,-0.00072
-3.320e-04,0
-3.312e-04,0.002
-3.304e-04,0.00048
-3.296e-04,-0.00184
-3.288e-04,0.00072
-3.280e-04,0.00216
-3.272e-04,-0.00152
-3.264e-04,-0.00168
-3.256e-04,0.00104
-3.248e-04,0.0004
-3.240e-04,-0.00224
-3.232e-04,-0.00048
-3.224e-04,0.00096
-3.216e-04,-0.00144
-3.208e-04,-0.0012
-3.200e-04,0.00232
-3.192e-04,0.00032
-3.184e-04,-0.00288
-3.176e-04,0.00024
-3.168e-04,0.00232
-3.160e-04,-0.00024
-3.152e-04,-0.00152
-3.144e-04,0.00064
-3.136e-04,0
-3.128e-04,-0.0016
-3.120e-04,0.00024
-3.112e-04,0.00216
-3.104e-04,-0.00032
-3.096e-04,-0.00136
-3.088e-04,0.00248
-3.080e-04,0.00184
-3.072e-04,-0.0008
-3.064e-04,0.002
-3.056e-04,0.0032
-3.048e-04,0.00032
-3.040e-04,0.00056
-3.032e-04,0.00312
-3.024e-04,0.00096
-3.016e-04,-0.00024
-3.008e-04,0.00272
-3.000e-04,0.0036
-2.992e-04,0.00024
-2.984e-04,0.00152
-2.976e-04,0.00416
-2.968e-04,0.0024
-2.960e-04,0.00168
-2.952e-04,0.00416
-2.944e-04,0.00352
-2.936e-04,-0.00064
-2.928e-04,0.00152
-2.920e-04,0.00544
-2.912e-04,0.00192
-2.904e-04,-0.0008
-2.896e-04,0.00232
-2.888e-04,0.00328
-2.880e-04,0.00128
-2.872e-04,0.00176
-2.864e-04,0.00424
-2.856e-04,0.00192
-2.848e-04,-8e-05
-2.840e-04,0.00224
-2.832e-04,0.00256
-2.824e-04,-0.00104
-2.816e-04,-0.00056
-2.808e-04,0.00264
-2.800e-04,0.00152
-2.792e-04,-0.0024
-2.784e-04,-0.00016
-2.776e-04,0.00248
-2.768e-04,0.00032
-2.760e-04,-0.0012
-2.752e-04,-0.00032
-2.744e-04,0.0008
-2.736e-04,-0.002
-2.728e-04,-0.00272
-2.720e-04,0.00024
-2.712e-04,-0.00048
-2.704e-04,-0.00408
-2.696e-04,-0.00272
-2.688e-04,0.00048
-2.680e-04,-0.00096
-2.672e-04,-0.00344
-2.664e-04,-0.00128
-2.656e-04,0.00104
-2.648e-04,-0.00144
-2.640e-04,-0.00256
-2.632e-04,-0.00144
-2.624e-04,-0.00032
-2.616e-04,-0.0032
-2.608e-04,-0.00288
-2.600e-04,-0.00016
-2.592e-04,-0.00064
-2.584e-04,-0.004
-2.576e-04,-0.00264
-2.568e-04,0.00152
-2.560e-04,0.0004
-2.552e-04,-0.00344
-2.544e-04,-0.00232
-2.536e-04,0.00032
-2.528e-04,-0.00104
-2.520e-04,-0.00216
-2.512e-04,-0.00056
-2.504e-04,-0.00048
-2.496e-04,-0.0028
-2.488e-04,-0.00248
-2.480e-04,0.0004
-2.472e-04,0.00024
-2.464e-04,-0.00288
-2.456e-04,-0.00136
-2.448e-04,0.00112
-2.440e-04,-0.00136
-2.432e-04,-0.00312
-2.424e-04,-8e-05
-2.416e-04,0.00096
-2.408e-04,-0.00224
-2.400e-04,-0.00248
-2.392e-04,0.00024
-2.384e-04,-0.00152
-2.376e-04,-0.00352
-2.368e-04,0.00056
-2.360e-04,0.0012
-2.352e-04,-0.0028
-2.344e-04,-0.0024
-2.336e-04,0.00152
-2.328e-04,-0.00072
-2.320e-04,-0.00288
-2.312e-04,-0.0004
-2.304e-04,-0.00096
-2.296e-04,-0.00384
-2.288e-04,-0.00136
-2.280e-04,0.00024
-2.272e-04,-0.00232
-2.264e-04,-0.00304
-2.256e-04,0.00024
-2.248e-04,-8e-05
-2.240e-04,-0.0028
-2.232e-04,-0.00136
-2.224e-04,0.00056
-2.216e-04,-0.0016
-2.208e-04,-0.002
-2.200e-04,-0.00024
-2.192e-04,-0.00072
-2.184e-04,-0.00368
-2.176e-04,-0.00112
-2.168e-04,0.00192
-2.160e-04,-0.00056
-2.152e-04,-0.00288
-2.144e-04,0.00064
-2.136e-04,0.00184
-2.128e-04,-0.00152
-2.120e-04,-0.0008
-2.112e-04,0.00136
-2.104e-04,-0.00072
-2.096e-04,-0.00272
-2.088e-04,8e-05
-2.080e-04,0.00168
-2.072e-04,-0.00056
-2.064e-04,-0.0012
-2.056e-04,0.00208
-2.048e-04,0.00288
-2.040e-04,-0.0004
-2.032e-04,-0.00096
-2.024e-04,0.0024
-2.016e-04,0.00224
-2.008e-04,-0.0012
-2.000e-04,8e-05
-1.992e-04,0.00176
-1.984e-04,-0.00016
-1.976e-04,-0.0004
-1.968e-04,0.00248
-1.960e-04,0.00312
-1.952e-04,-0.00016
-1.944e-04,-0.00056
-1.936e-04,0.00328
-1.928e-04,0.00336
-1.920e-04,0.00016
-1.912e-04,0.0004
-1.904e-04,0.00184
-1.896e-04,0.00152
-1.888e-04,-0.0008
-1.880e-04,0.00104
-1.872e-04,0.00296
-1.864e-04,-0.00048
-1.856e-04,-0.0008
-1.848e-04,0.00264
-1.840e-04,0.00192
-1.832e-04,-0.0016
-1.824e-04,0.00024
-1.816e-04,0.00224
-1.808e-04,-0.00032
-1.800e-04,-0.00192
-1.792e-04,0.00064
-1.784e-04,0.00088
-1.776e-04,-0.00112
-1.768e-04,0.00048
-1.760e-04,0.00168
-1.752e-04,-0.00056
-1.744e-04,-0.00096
-1.736e-04,0.00216
-1.728e-04,0.00216
-1.720e-04,-0.00176
-1.712e-04,0
-1.704e-04,0.00184
-1.696e-04,-0.00032
-1.688e-04,-0.00176
-1.680e-04,0.00096
-1.672e-04,0.002
-1.664e-04,-0.00096
-1.656e-04,0.00072
-1.648e-04,0.00328
-1.640e-04,-0.0004
-1.632e-04,-0.00096
-1.624e-04,0.00256
-1.616e-04,0.00272
-1.608e-04,-0.00128
-1.600e-04,-0.0008
-1.592e-04,0.00176
-1.584e-04,0.00168
-1.576e-04,-0.00024
-1.568e-04,0.00168
-1.560e-04,0.0024
-1.552e-04,0.00016
-1.544e-04,-0.00032
-1.536e-04,0.0032
-1.528e-04,0.00296
-1.520e-04,-0.00128
-1.512e-04,0.00072
-1.504e-04,0.00248
-1.496e-04,0.00024
-1.488e-04,0.00016
-1.480e-04,0.00392
-1.472e-04,0.00208
-1.464e-04,-8e-05
-1.456e-04,0.0036
-1.448e-04,0.00368
-1.440e-04,-0.00024
-1.432e-04,0.00232
-1.424e-04,0.00544
-1.416e-04,0.00096
-1.408e-04,0.00056
-1.400e-04,0.00296
-1.392e-04,0.00176
-1.384e-04,0.00024
-1.376e-04,0.0028
-1.368e-04,0.00392
-1.360e-04,-0.00024
-1.352e-04,0.00024
-1.344e-04,0.00416
-1.336e-04,0.00264
-1.328e-04,0.00048
-1.320e-04,0.00216
-1.312e-04,0.00216
-1.304e-04,-0.0004
-1.296e-04,0.00056
-1.288e-04,0.0032
-1.280e-04,0.00024
-1.272e-04,-0.00128
-1.264e-04,0.00136
-1.256e-04,0.0024
-1.248e-04,-0.00072
-1.240e-04,-0.00064
-1.232e-04,0.00296
-1.224e-04,0.00144
-1.216e-04,-0.00144
-1.208e-04,0.00096
-1.200e-04,0.00136
-1.192e-04,-0.00224
-1.184e-04,-0.00144
-1.176e-04,0.00248
-1.168e-04,0.00024
-1.160e-04,-0.00344
-1.152e-04,-0.00016
-1.144e-04,0.00216
-1.136e-04,-0.00096
-1.128e-04,-0.00064
-1.120e-04,0.00144
-1.112e-04,-8e-05
-1.104e-04,-0.002
-1.096e-04,-0.00096
-1.088e-04,0.00096
-1.080e-04,-0.0012
-1.072e-04,-0.00192
-1.064e-04,0.00088
-1.056e-04,0.00056
-1.048e-04,-0.002
-1.040e-04,-0.00128
-1.032e-04,0.00208
-1.024e-04,0.0012
-1.016e-04,-0.002
-1.008e-04,0.0004
-1.000e-04,0.00096
-9.920e-05,-0.00192
-9.840e-05,-0.0012
-9.760e-05,0.00208
-9.680e-05,0.0012
-9.600e-05,-0.00248
-9.520e-05,-0.00208
-9.440e-05,0.00224
-9.360e-05,0.00104
-9.280e-05,-0.00152
-9.200e-05,-0.0004
-9.120e-05,0.0012
-9.040e-05,-0.0004
-8.960e-05,-0.00184
-8.880e-05,0.00104
-8.800e-05,0.00192
-8.720e-05,-0.00224
-8.640e-05,-0.00208
-8.560e-05,0.00208
-8.480e-05,0.00024
-8.400e-05,-0.00224
-8.320e-05,0.0008
-8.240e-05,0.00264
-8.160e-05,-0.00072
-8.080e-05,-0.00056
-8.000e-05,0.00216
-7.920e-05,-0.00024
-7.840e-05,-0.00104
-7.760e-05,0.00128
-7.680e-05,0.0016
-7.600e-05,-0.00104
-7.520e-05,-0.00152
-7.440e-05,0.00224
-7.360e-05,0.0024
-7.280e-05,-0.0012
-7.200e-05,0.00056
-7.120e-05,0.0024
-7.040e-05,-8e-05
-6.960e-05,0.00024
-6.880e-05,0.0024
-6.800e-05,0.00112
-6.720e-05,-0.00128
-6.640e-05,0.002
-6.560e-05,0.00264
-6.480e-05,-0.0004
-6.400e-05,0.00032
-6.320e-05,0.0036
-6.240e-05,0.00184
-6.160e-05,-0.0008
-6.080e-05,0.00184
-6.000e-05,0.00216
-5.920e-05,-0.0012
-5.840e-05,-8e-05
-5.760e-05,0.00344
-5.680e-05,0.00056
-5.600e-05,-0.00216
-5.520e-05,0.00104
-5.440e-05,0.0032
-5.360e-05,0.0012
-5.280e-05,-0.00096
-5.200e-05,0.00072
-5.120e-05,0.0012
-5.040e-05,-0.00168
-4.960e-05,-0.00056
-4.880e-05,0.00168
-4.800e-05,-0.00024
-4.720e-05,-0.002
-4.640e-05,8e-05
-4.560e-05,0.00176
-4.480e-05,-0.00112
-4.400e-05,-0.002
-4.320e-05,0.0016
-4.240e-05,0.0008
-4.160e-05,-0.0028
-4.080e-05,-0.00064
-4.000e-05,0.0004
-3.920e-05,-0.00312
-3.840e-05,-0.0024
-3.760e-05,0.00128
-3.680e-05,-0.0004
-3.600e-05,-0.004
-3.520e-05,-0.00112
-3.440e-05,0.00072
-3.360e-05,-0.00216
-3.280e-05,-0.00264
-3.200e-05,-0.00072
-3.120e-05,-0.00232
-3.040e-05,-0.00464
-2.960e-05,-0.00208
-2.880e-05,-0.00048
-2.800e-05,-0.00424
-2.720e-05,-0.00504
-2.640e-05,-0.0012
-2.560e-05,-0.002
-2.480e-05,-0.00448
-2.400e-05,-0.00256
-2.320e-05,-0.00088
-2.240e-05,-0.00336
-2.160e-05,-0.00464
-2.080e-05,-0.0016
-2.000e-05,-0.0028
-1.920e-05,-0.00504
-1.840e-05,-0.00248
-1.760e-05,-8e-05
-1.680e-05,-0.00296
-1.600e-05,-0.00424
-1.520e-05,-0.00072
-1.440e-05,0.00096
-1.360e-05,-0.00224
-1.280e-05,-0.00264
-1.200e-05,-0.00048
-1.120e-05,-0.0012
-1.040e-05,-0.00312
-9.600e-06,-8e-05
-8.800e-06,0.00176
-8.000e-06,-0.0016
-7.200e-06,-0.00176
-6.400e-06,0.0024
-5.600e-06,0.00144
-4.800e-06,-0.00104
-4.000e-06,0.00032
-3.200e-06,0.0024
-2.400e-06,0.0012
-1.600e-06,-0.00112
-8.000e-07,0.00128
1.278e-17,0.00288
8.000e-07,0.00048
1.600e-06,0.0012
2.400e-06,0.00456
3.200e-06,0.00272
4.000e-06,-0.00016
4.800e-06,0.00128
5.600e-06,0.00432
6.400e-06,0.00232
7.200e-06,0.00064
8.000e-06,0.0024
8.800e-06,0.004
9.600e-06,0.00144
1.040e-05,0.00192
1.120e-05,0.00536
1.200e-05,0.00232
1.280e-05,0
1.360e-05,0.00416
1.440e-05,0.00424
1.520e-05,0.00112
1.600e-05,0.00144
1.680e-05,0.0036
1.760e-05,0.002
1.840e-05,-0.00048
1.920e-05,0.00264
2.000e-05,0.00416
2.080e-05,0.00064
2.160e-05,0.00144
2.240e-05,0.00408
2.320e-05,0.00256
2.400e-05,-0.00048
2.480e-05,0.00112
2.560e-05,0.00376
2.640e-05,0.00128
