data/PSU_noise/PSU1_CV1_0A_10us.CSV

Model,TBS1102C
Firmware Version,v2015-08-04-prequal4ch70_v1.3

Point Format,Y
Horizontal Units,S
Horizontal Scale,1e-05
Sample Interval,8e-08
Filter Frequency,2e+08
Record Length,2000
Gating,0.0% to 100.0%
Probe Attenuation,1
Vertical Units,V
Vertical Offset,0
Vertical Scale,0.001
Label,
TIME,CH1
-1.5520e-04,0.0026
-1.5512e-04,0.00224
-1.5504e-04,0.00124
-1.5496e-04,4e-05
-1.5488e-04,-0.00136
-1.5480e-04,-0.0012
-1.5472e-04,-0.00184
-1.5464e-04,-0.00128
-1.5456e-04,-0.0014
-1.5448e-04,-0.00048
-1.5440e-04,-8e-05
-1.5432e-04,0.00208
-1.5424e-04,0.00164
-1.5416e-04,0.00264
-1.5408e-04,0.00188
-1.5400e-04,0.0024
-1.5392e-04,0.00076
-1.5384e-04,0.0004
-1.5376e-04,-0.0014
-1.5368e-04,-0.00136
-1.5360e-04,-0.00232
-1.5352e-04,-0.00156
-1.5344e-04,-0.00104
-1.5336e-04,-0.00112
-1.5328e-04,0.00012
-1.5320e-04,0.00112
-1.5312e-04,0.00212
-1.5304e-04,0.00248
-1.5296e-04,0.00192
-1.5288e-04,0.00084
-1.5280e-04,0.00088
-1.5272e-04,-0.00028
-1.5264e-04,-0.00064
-1.5256e-04,-0.0018
-1.5248e-04,-0.00216
-1.5240e-04,-0.00224
-1.5232e-04,-0.00144
-1.5224e-04,-0.0012
-1.5216e-04,0.00024
-1.5208e-04,0.00052
-1.5200e-04,0.00196
-1.5192e-04,0.00176
-1.5184e-04,0.00204
-1.5176e-04,0.0008
-1.5168e-04,0.00084
-1.5160e-04,-0.0008
-1.5152e-04,-0.00112
-1.5144e-04,-0.00224
-1.5136e-04,-0.00252
-1.5128e-04,-0.00244
-1.5120e-04,-0.00232
-1.5112e-04,-0.0008
-1.5104e-04,-0.00016
-1.5096e-04,0.00016
-1.5088e-04,0.00104
-1.5080e-04,0.00136
-1.5072e-04,0.00204
-1.5064e-04,0.00052
-1.5056e-04,-0.00044
-1.5048e-04,-0.00076
-1.5040e-04,-0.00268
-1.5032e-04,-0.00108
-1.5024e-04,-0.00308
-1.5016e-04,-0.00216
-1.5008e-04,-0.00308
-1.5000e-04,-0.00076
-1.4992e-04,-0.00068
-1.4984e-04,0.00028
-1.4976e-04,0.00208
-1.4968e-04,0.00072
-1.4960e-04,0.0024
-1.4952e-04,0.00068
-1.4944e-04,0.00012
-1.4936e-04,-0.00028
-1.4928e-04,-0.0014
-1.4920e-04,-0.00248
-1.4912e-04,-0.00252
-1.4904e-04,-0.00284
-1.4896e-04,-0.00224
-1.4888e-04,-0.00116
-1.4880e-04,0.00012
-1.4872e-04,-0.00056
-1.4864e-04,0.0024
-1.4856e-04,0.00024
-1.4848e-04,0.00264
-1.4840e-04,0.00068
-1.4832e-04,0.00056
-1.4824e-04,-4e-05
-1.4816e-04,-0.00188
-1.4808e-04,-0.00224
-1.4800e-04,-0.00208
-1.4792e-04,-0.00228
-1.4784e-04,-0.002
-1.4776e-04,-0.001
-1.4768e-04,-4e-05
-1.4760e-04,0.0002
-1.4752e-04,0.00176
-1.4744e-04,0.0018
-1.4736e-04,0.0016
-1.4728e-04,0.00148
-1.4720e-04,0.0004
-1.4712e-04,0.00048
-1.4704e-04,-0.00176
-1.4696e-04,-0.00188
-1.4688e-04,-0.00216
-1.4680e-04,-0.00256
-1.4672e-04,-0.00156
-1.4664e-04,-0.0008
-1.4656e-04,-0.00044
-1.4648e-04,0.00104
-1.4640e-04,0.00144
-1.4632e-04,0.00244
-1.4624e-04,0.00136
-1.4616e-04,0.00184
-1.4608e-04,0.00056
-1.4600e-04,0.00048
-1.4592e-04,-0.00116
-1.4584e-04,-0.0012
-1.4576e-04,-0.00244
-1.4568e-04,-0.00232
-1.4560e-04,-0.00136
-1.4552e-04,-0.00084
-1.4544e-04,0.00016
-1.4536e-04,0.00088
-1.4528e-04,0.00128
-1.4520e-04,0.00188
-1.4512e-04,0.0028
-1.4504e-04,0.00148
-1.4496e-04,0.00136
-1.4488e-04,-0.00096
-1.4480e-04,-0.0002
-1.4472e-04,-0.0016
-1.4464e-04,-0.00176
-1.4456e-04,-0.00248
-1.4448e-04,-0.00152
-1.4440e-04,-0.00172
-1.4432e-04,8e-05
-1.4424e-04,0.00056
-1.4416e-04,0.00128
-1.4408e-04,0.0018
-1.4400e-04,0.00216
-1.4392e-04,0.0014
-1.4384e-04,0.00096
-1.4376e-04,-0.00016
-1.4368e-04,-0.0012
-1.4360e-04,-0.00156
-1.4352e-04,-0.00244
-1.4344e-04,-0.00176
-1.4336e-04,-0.00264
-1.4328e-04,-0.00112
-1.4320e-04,-0.00064
-1.4312e-04,0.00036
-1.4304e-04,0.0014
-1.4296e-04,0.0016
-1.4288e-04,0.00124
-1.4280e-04,0.00116
-1.4272e-04,0.00084
-1.4264e-04,0.00012
-1.4256e-04,-0.00168
-1.4248e-04,-0.00172
-1.4240e-04,-0.00284
-1.4232e-04,-0.00224
-1.4224e-04,-0.00244
-1.4216e-04,-0.00136
-1.4208e-04,-0.00112
-1.4200e-04,-0.00012
-1.4192e-04,0.00084
-1.4184e-04,0.0014
-1.4176e-04,0.00144
-1.4168e-04,0.00168
-1.4160e-04,0.00052
-1.4152e-04,-0.00036
-1.4144e-04,-0.00144
-1.4136e-04,-0.002
-1.4128e-04,-0.00184
-1.4120e-04,-0.0034
-1.4112e-04,-0.00212
-1.4104e-04,-0.0022
-1.4096e-04,-0.00112
-1.4088e-04,-0.00036
-1.4080e-04,0.00176
-1.4072e-04,0.0004
-1.4064e-04,0.00132
-1.4056e-04,0.0008
-1.4048e-04,0.00052
-1.4040e-04,4e-05
-1.4032e-04,-0.00064
-1.4024e-04,-0.00244
-1.4016e-04,-0.00236
-1.4008e-04,-0.0028
-1.4000e-04,-0.00256
-1.3992e-04,-0.00156
-1.3984e-04,-0.00172
-1.3976e-04,0.00028
-1.3968e-04,0.0002
-1.3960e-04,0.0018
-1.3952e-04,0.00156
-1.3944e-04,0.00172
-1.3936e-04,0.00052
-1.3928e-04,0.00072
-1.3920e-04,-0.0008
-1.3912e-04,-0.00172
-1.3904e-04,-0.00216
-1.3896e-04,-0.0026
-1.3888e-04,-0.00264
-1.3880e-04,-0.00092
-1.3872e-04,-0.0008
-1.3864e-04,0.00032
-1.3856e-04,0.00056
-1.3848e-04,0.00184
-1.3840e-04,0.00236
-1.3832e-04,0.00168
-1.3824e-04,0.0016
-1.3816e-04,0.00024
-1.3808e-04,-0.0008
-1.3800e-04,-0.00076
-1.3792e-04,-0.00136
-1.3784e-04,-0.00248
-1.3776e-04,-0.00184
-1.3768e-04,-0.00164
-1.3760e-04,-0.00064
-1.3752e-04,0.0006
-1.3744e-04,0.00128
-1.3736e-04,0.00108
-1.3728e-04,0.00224
-1.3720e-04,0.00144
-1.3712e-04,0.00244
-1.3704e-04,0.00036
-1.3696e-04,8e-05
-1.3688e-04,-0.00112
-1.3680e-04,-0.00144
-1.3672e-04,-0.0018
-1.3664e-04,-0.00084
-1.3656e-04,-0.00172
-1.3648e-04,-0.00012
-1.3640e-04,0.00036
-1.3632e-04,0.00148
-1.3624e-04,0.00168
-1.3616e-04,0.00232
-1.3608e-04,0.00224
-1.3600e-04,0.00216
-1.3592e-04,0.0014
-1.3584e-04,-0.00052
-1.3576e-04,-0.00076
-1.3568e-04,-0.00212
-1.3560e-04,-0.001
-1.3552e-04,-0.00192
-1.3544e-04,-0.00128
-1.3536e-04,-0.00092
-1.3528e-04,0.0006
-1.3520e-04,0.00052
-1.3512e-04,0.00304
-1.3504e-04,0.00188
-1.3496e-04,0.0022
-1.3488e-04,0.00124
-1.3480e-04,0.00096
-1.3472e-04,-8e-05
-1.3464e-04,-0.00084
-1.3456e-04,-0.0018
-1.3448e-04,-0.0018
-1.3440e-04,-0.00176
-1.3432e-04,-0.00184
-1.3424e-04,-0.00048
-1.3416e-04,0.0002
-1.3408e-04,0.0008
-1.3400e-04,0.00184
-1.3392e-04,0.0018
-1.3384e-04,0.002
-1.3376e-04,0.0014
-1.3368e-04,0.00048
-1.3360e-04,0.00036
-1.3352e-04,-0.00196
-1.3344e-04,-0.00132
-1.3336e-04,-0.00268
-1.3328e-04,-0.00188
-1.3320e-04,-0.00148
-1.3312e-04,-0.00104
-1.3304e-04,-0.0006
-1.3296e-04,0.00096
-1.3288e-04,0.00116
-1.3280e-04,0.00208
-1.3272e-04,0.0022
-1.3264e-04,0.00164
-1.3256e-04,-0.00032
-1.3248e-04,0.00028
-1.3240e-04,-0.00164
-1.3232e-04,-0.00168
-1.3224e-04,-0.0022
-1.3216e-04,-0.0026
-1.3208e-04,-0.00144
-1.3200e-04,-0.0016
-1.3192e-04,0.00072
-1.3184e-04,-0.00036
-1.3176e-04,0.0016
-1.3168e-04,0.002
-1.3160e-04,0.00232
-1.3152e-04,0.00148
-1.3144e-04,0.0008
-1.3136e-04,-0.0004
-1.3128e-04,-0.00072
-1.3120e-04,-0.0016
-1.3112e-04,-0.00196
-1.3104e-04,-0.00252
-1.3096e-04,-0.00144
-1.3088e-04,-0.00112
-1.3080e-04,0.00104
-1.3072e-04,0.00156
-1.3064e-04,0.00104
-1.3056e-04,0.00228
-1.3048e-04,0.00256
-1.3040e-04,0.00216
-1.3032e-04,0.00088
-1.3024e-04,8e-05
-1.3016e-04,-0.00152
-1.3008e-04,-0.0004
-1.3000e-04,-0.00164
-1.2992e-04,-0.00108
-1.2984e-04,-0.00096
-1.2976e-04,-0.0008
-1.2968e-04,0.00012
-1.2960e-04,0.00204
-1.2952e-04,0.00244
-1.2944e-04,0.0026
-1.2936e-04,0.002
-1.2928e-04,0.00236
-1.2920e-04,0.0014
-1.2912e-04,0.00052
-1.2904e-04,-0.00016
-1.2896e-04,-0.00072
-1.2888e-04,-0.00168
-1.2880e-04,-0.00056
-1.2872e-04,-0.00084
-1.2864e-04,0.00036
-1.2856e-04,0.00032
-1.2848e-04,0.0016
-1.2840e-04,0.00296
-1.2832e-04,0.00332
-1.2824e-04,0.00252
-1.2816e-04,0.00232
-1.2808e-04,0.00152
-1.2800e-04,0.00064
-1.2792e-04,0.00092
-1.2784e-04,-0.00132
-1.2776e-04,-0.001
-1.2768e-04,-0.00144
-1.2760e-04,-0.00048
-1.2752e-04,-8e-05
-1.2744e-04,0.00168
-1.2736e-04,0.00076
-1.2728e-04,0.00304
-1.2720e-04,0.00216
-1.2712e-04,0.00344
-1.2704e-04,0.00192
-1.2696e-04,0.00192
-1.2688e-04,0.00052
-1.2680e-04,-0.00016
-1.2672e-04,-0.001
-1.2664e-04,-0.00136
-1.2656e-04,-0.001
-1.2648e-04,-0.00116
-1.2640e-04,0.00012
-1.2632e-04,0.00088
-1.2624e-04,0.00168
-1.2616e-04,0.00236
-1.2608e-04,0.0026
-1.2600e-04,0.0024
-1.2592e-04,0.00268
-1.2584e-04,0.00096
-1.2576e-04,0.00056
-1.2568e-04,-0.00104
-1.2560e-04,-0.00108
-1.2552e-04,-0.0012
-1.2544e-04,-0.0014
-1.2536e-04,-0.00116
-1.2528e-04,0
-1.2520e-04,-4e-05
-1.2512e-04,0.00156
-1.2504e-04,0.00256
-1.2496e-04,0.00224
-1.2488e-04,0.00236
-1.2480e-04,0.00212
-1.2472e-04,0.00076
-1.2464e-04,0.0004
-1.2456e-04,-0.00048
-1.2448e-04,-0.00136
-1.2440e-04,-0.0016
-1.2432e-04,-0.00176
-1.2424e-04,-0.00084
-1.2416e-04,-0.00048
-1.2408e-04,0.00056
-1.2400e-04,0.00156
-1.2392e-04,0.00208
-1.2384e-04,0.00196
-1.2376e-04,0.0026
-1.2368e-04,0.00176
-1.2360e-04,0.00152
-1.2352e-04,8e-05
-1.2344e-04,-0.00028
-1.2336e-04,-0.00204
-1.2328e-04,-0.00072
-1.2320e-04,-0.00172
-1.2312e-04,-0.00024
-1.2304e-04,-0.00068
-1.2296e-04,0.00064
-1.2288e-04,0.00172
-1.2280e-04,0.00268
-1.2272e-04,0.00296
-1.2264e-04,0.00288
-1.2256e-04,0.00156
-1.2248e-04,0.00152
-1.2240e-04,0.00096
-1.2232e-04,-0.0006
-1.2224e-04,-0.00052
-1.2216e-04,-0.00152
-1.2208e-04,-0.00116
-1.2200e-04,-0.0006
-1.2192e-04,0.00096
-1.2184e-04,0.00116
-1.2176e-04,0.00184
-1.2168e-04,0.00256
-1.2160e-04,0.00376
-1.2152e-04,0.00308
-1.2144e-04,0.00236
-1.2136e-04,0.00072
-1.2128e-04,0.0012
-1.2120e-04,-0.0004
-1.2112e-04,0.00028
-1.2104e-04,-0.00172
-1.2096e-04,-0.0004
-1.2088e-04,-0.00068
-1.2080e-04,0.0014
-1.2072e-04,0.00168
-1.2064e-04,0.00192
-1.2056e-04,0.0034
-1.2048e-04,0.00304
-1.2040e-04,0.00344
-1.2032e-04,0.00372
-1.2024e-04,0.00136
-1.2016e-04,0.0008
-1.2008e-04,-0.00024
-1.2000e-04,-0.0002
-1.1992e-04,-0.00044
-1.1984e-04,-0.00036
-1.1976e-04,8e-05
-1.1968e-04,-0.00064
-1.1960e-04,0.0022
-1.1952e-04,0.00228
-1.1944e-04,0.0038
-1.1936e-04,0.00264
-1.1928e-04,0.0036
-1.1920e-04,0.0026
-1.1912e-04,0.00192
-1.1904e-04,0.00108
-1.1896e-04,8e-05
-1.1888e-04,-0.0012
-1.1880e-04,-0.00052
-1.1872e-04,-0.00088
-1.1864e-04,0.00012
-1.1856e-04,-0.00028
-1.1848e-04,0.00164
-1.1840e-04,0.00252
-1.1832e-04,0.00264
-1.1824e-04,0.00352
-1.1816e-04,0.00272
-1.1808e-04,0.00232
-1.1800e-04,0.00096
-1.1792e-04,0.00116
-1.1784e-04,-0.0006
-1.1776e-04,-0.00108
-1.1768e-04,-0.00184
-1.1760e-04,-0.00088
-1.1752e-04,-0.00152
-1.1744e-04,0.0014
-1.1736e-04,0.00072
-1.1728e-04,0.00188
-1.1720e-04,0.00296
-1.1712e-04,0.00264
-1.1704e-04,0.00268
-1.1696e-04,0.0022
-1.1688e-04,0.00036
-1.1680e-04,0.00048
-1.1672e-04,-0.001
-1.1664e-04,-0.00152
-1.1656e-04,-0.00092
-1.1648e-04,-0.0018
-1.1640e-04,-0.00064
-1.1632e-04,0
-1.1624e-04,0.00076
-1.1616e-04,0.00164
-1.1608e-04,0.00276
-1.1600e-04,0.00212
-1.1592e-04,0.0026
-1.1584e-04,0.00132
-1.1576e-04,0.00052
-1.1568e-04,-8e-05
-1.1560e-04,-0.00096
-1.1552e-04,-0.00156
-1.1544e-04,-0.00176
-1.1536e-04,-0.00192
-1.1528e-04,-0.00052
-1.1520e-04,-8e-05
-1.1512e-04,0.001
-1.1504e-04,0.00156
-1.1496e-04,0.0024
-1.1488e-04,0.0016
-1.1480e-04,0.00292
-1.1472e-04,0.00116
-1.1464e-04,0.00084
-1.1456e-04,-4e-05
-1.1448e-04,-0.00136
-1.1440e-04,-0.00144
-1.1432e-04,-0.00144
-1.1424e-04,-0.0012
-1.1416e-04,-0.00072
-1.1408e-04,0.00028
-1.1400e-04,0.00084
-1.1392e-04,0.0026
-1.1384e-04,0.0022
-1.1376e-04,0.00272
-1.1368e-04,0.00184
-1.1360e-04,0.00212
-1.1352e-04,0.00088
-1.1344e-04,0.00044
-1.1336e-04,-0.00184
-1.1328e-04,-0.00076
-1.1320e-04,-0.00136
-1.1312e-04,-0.00068
-1.1304e-04,-0.00036
-1.1296e-04,8e-05
-1.1288e-04,0.00116
-1.1280e-04,0.00248
-1.1272e-04,0.00288
-1.1264e-04,0.00296
-1.1256e-04,0.00248
-1.1248e-04,0.00128
-1.1240e-04,0.00156
-1.1232e-04,-0.00028
-1.1224e-04,0.00028
-1.1216e-04,-0.00164
-1.1208e-04,-0.0012
-1.1200e-04,-0.0012
-1.1192e-04,0.00048
-1.1184e-04,0.001
-1.1176e-04,0.00152
-1.1168e-04,0.00256
-1.1160e-04,0.003
-1.1152e-04,0.00296
-1.1144e-04,0.00272
-1.1136e-04,0.0016
-1.1128e-04,0.00128
-1.1120e-04,-0.0006
-1.1112e-04,0.00012
-1.1104e-04,-0.00148
-1.1096e-04,-0.00132
-1.1088e-04,-0.00024
-1.1080e-04,-0.0002
-1.1072e-04,0.00104
-1.1064e-04,0.00188
-1.1056e-04,0.00212
-1.1048e-04,0.00272
-1.1040e-04,0.00276
-1.1032e-04,0.00252
-1.1024e-04,0.002
-1.1016e-04,0.00064
-1.1008e-04,-0.00052
-1.1000e-04,-0.0012
-1.0992e-04,-0.0012
-1.0984e-04,-0.0016
-1.0976e-04,-0.00028
-1.0968e-04,-0.00176
-1.0960e-04,0.0016
-1.0952e-04,0.00076
-1.0944e-04,0.0032
-1.0936e-04,0.00236
-1.0928e-04,0.00212
-1.0920e-04,0.00192
-1.0912e-04,0.00132
-1.0904e-04,0.00024
-1.0896e-04,-0.00044
-1.0888e-04,-0.00176
-1.0880e-04,-0.00184
-1.0872e-04,-0.00164
-1.0864e-04,-0.00132
-1.0856e-04,-0.00068
-1.0848e-04,0.00048
-1.0840e-04,0.001
-1.0832e-04,0.00168
-1.0824e-04,0.0026
-1.0816e-04,0.00164
-1.0808e-04,0.00192
-1.0800e-04,0.00076
-1.0792e-04,0
-1.0784e-04,-0.00124
-1.0776e-04,-0.00156
-1.0768e-04,-0.0028
-1.0760e-04,-0.0018
-1.0752e-04,-0.00236
-1.0744e-04,-0.00032
-1.0736e-04,-0.0002
-1.0728e-04,0.00044
-1.0720e-04,0.00172
-1.0712e-04,0.0018
-1.0704e-04,0.00224
-1.0696e-04,0.00144
-1.0688e-04,0.00064
-1.0680e-04,-0.00048
-1.0672e-04,-0.00084
-1.0664e-04,-0.0022
-1.0656e-04,-0.00228
-1.0648e-04,-0.00208
-1.0640e-04,-0.00156
-1.0632e-04,-0.0008
-1.0624e-04,8e-05
-1.0616e-04,0.00072
-1.0608e-04,0.00244
-1.0600e-04,0.00124
-1.0592e-04,0.00276
-1.0584e-04,0.00116
-1.0576e-04,0.00032
-1.0568e-04,-0.00032
-1.0560e-04,-0.00028
-1.0552e-04,-0.00212
-1.0544e-04,-0.00216
-1.0536e-04,-0.00216
-1.0528e-04,-0.0022
-1.0520e-04,-0.00104
-1.0512e-04,0.00132
-1.0504e-04,0.00068
-1.0496e-04,0.00108
-1.0488e-04,0.00228
-1.0480e-04,0.00292
-1.0472e-04,0.0016
-1.0464e-04,0.00064
-1.0456e-04,0.00016
-1.0448e-04,-0.00152
-1.0440e-04,-0.00076
-1.0432e-04,-0.0018
-1.0424e-04,-0.00188
-1.0416e-04,-0.00184
-1.0408e-04,-0.00032
-1.0400e-04,0.00012
-1.0392e-04,0.00168
-1.0384e-04,0.00108
-1.0376e-04,0.00276
-1.0368e-04,0.00212
-1.0360e-04,0.00168
-1.0352e-04,0.00148
-1.0344e-04,0.00072
-1.0336e-04,-0.00184
-1.0328e-04,-0.00084
-1.0320e-04,-0.00188
-1.0312e-04,-0.00152
-1.0304e-04,-0.00144
-1.0296e-04,-0.0004
-1.0288e-04,-0.0004
-1.0280e-04,0.00176
-1.0272e-04,0.0024
-1.0264e-04,0.00248
-1.0256e-04,0.002
-1.0248e-04,0.00164
-1.0240e-04,0.00144
-1.0232e-04,-0.0002
-1.0224e-04,-0.00016
-1.0216e-04,-0.00212
-1.0208e-04,-0.00188
-1.0200e-04,-0.0022
-1.0192e-04,-0.0008
-1.0184e-04,-0.00084
-1.0176e-04,0.00012
-1.0168e-04,0.00092
-1.0160e-04,0.00168
-1.0152e-04,0.00244
-1.0144e-04,0.0024
-1.0136e-04,0.00124
-1.0128e-04,0.001
-1.0120e-04,-0.0008
-1.0112e-04,-0.00048
-1.0104e-04,-0.00184
-1.0096e-04,-0.00184
-1.0088e-04,-0.002
-1.0080e-04,-0.00244
-1.0072e-04,-0.00064
-1.0064e-04,-0.00032
-1.0056e-04,0.00048
-1.0048e-04,0.00112
-1.0040e-04,0.00156
-1.0032e-04,0.0014
-1.0024e-04,0.00132
-1.0016e-04,0.00056
-1.0008e-04,-0.00064
-1.0000e-04,-0.0014
-9.9920e-05,-0.00224
-9.9840e-05,-0.00276
-9.9760e-05,-0.00156
-9.9680e-05,-0.00332
-9.9600e-05,-0.00108
-9.9520e-05,-0.00112
-9.9440e-05,0.00052
-9.9360e-05,0.00056
-9.9280e-05,0.00148
-9.9200e-05,0.00104
-9.9120e-05,0.00152
-9.9040e-05,-0.00012
-9.8960e-05,-0.00056
-9.8880e-05,-0.00156
-9.8800e-05,-0.00244
-9.8720e-05,-0.00276
-9.8640e-05,-0.00252
-9.8560e-05,-0.00316
-9.8480e-05,-0.00176
-9.8400e-05,-0.00148
-9.8320e-05,-0.00036
-9.8240e-05,0.00136
-9.8160e-05,0.0004
-9.8080e-05,0.0012
-9.8000e-05,0.00068
-9.7920e-05,0.00052
-9.7840e-05,-0.00076
-9.7760e-05,-0.0012
-9.7680e-05,-0.003
-9.7600e-05,-0.00228
-9.7520e-05,-0.00356
-9.7440e-05,-0.00168
-9.7360e-05,-0.0022
-9.7280e-05,-0.0008
-9.7200e-05,-0.00016
-9.7120e-05,0.00132
-9.7040e-05,0.00084
-9.6960e-05,0.00148
-9.6880e-05,0.00132
-9.6800e-05,-0.00016
-9.6720e-05,0.00016
-9.6640e-05,-0.00156
-9.6560e-05,-0.00204
-9.6480e-05,-0.00212
-9.6400e-05,-0.00264
-9.6320e-05,-0.00196
-9.6240e-05,-0.00168
-9.6160e-05,-0.0012
-9.6080e-05,0.00072
-9.6000e-05,0.0004
-9.5920e-05,0.00196
-9.5840e-05,0.00152
-9.5760e-05,0.00116
-9.5680e-05,0.0006
-9.5600e-05,0.00076
-9.5520e-05,-0.00076
-9.5440e-05,-0.0014
-9.5360e-05,-0.00208
-9.5280e-05,-0.0026
-9.5200e-05,-0.00176
-9.5120e-05,-0.00096
-9.5040e-05,-0.00124
-9.4960e-05,0.00056
-9.4880e-05,0.0002
-9.4800e-05,0.00248
-9.4720e-05,0.00192
-9.4640e-05,0.00184
-9.4560e-05,0.00144
-9.4480e-05,-8e-05
-9.4400e-05,-0.00036
-9.4320e-05,-0.00096
-9.4240e-05,-0.00156
-9.4160e-05,-0.0026
-9.4080e-05,-0.00156
-9.4000e-05,-0.00112
-9.3920e-05,-0.00052
-9.3840e-05,-0.00016
-9.3760e-05,0.00132
-9.3680e-05,0.001
-9.3600e-05,0.00292
-9.3520e-05,0.00168
-9.3440e-05,0.00228
-9.3360e-05,-0.00064
-9.3280e-05,0.00012
-9.3200e-05,-0.00108
-9.3120e-05,-0.00168
-9.3040e-05,-0.00204
-9.2960e-05,-0.00216
-9.2880e-05,-0.00228
-9.2800e-05,-0.00068
-9.2720e-05,0.00044
-9.2640e-05,0.00068
-9.2560e-05,0.0012
-9.2480e-05,0.00164
-9.2400e-05,0.0018
-9.2320e-05,0.00124
-9.2240e-05,0.0008
-9.2160e-05,-0.00056
-9.2080e-05,-0.00112
-9.2000e-05,-0.00252
-9.1920e-05,-0.00172
-9.1840e-05,-0.0028
-9.1760e-05,-0.00204
-9.1680e-05,-0.00136
-9.1600e-05,-0.00032
-9.1520e-05,0.00016
-9.1440e-05,0.00152
-9.1360e-05,0.0012
-9.1280e-05,0.00188
-9.1200e-05,0.001
-9.1120e-05,0.00128
-9.1040e-05,-0.00076
-9.0960e-05,-0.00116
-9.0880e-05,-0.00244
-9.0800e-05,-0.00268
-9.0720e-05,-0.0026
-9.0640e-05,-0.002
-9.0560e-05,-0.0018
-9.0480e-05,-0.00136
-9.0400e-05,0.00036
-9.0320e-05,0.00144
-9.0240e-05,0.0008
-9.0160e-05,0.00192
-9.0080e-05,0.0008
-9.0000e-05,0.00052
-8.9920e-05,0.00024
-8.9840e-05,-0.00196
-8.9760e-05,-0.0014
-8.9680e-05,-0.00316
-8.9600e-05,-0.0028
-8.9520e-05,-0.00252
-8.9440e-05,-0.00196
-8.9360e-05,-0.0012
-8.9280e-05,0.00072
-8.9200e-05,0.00068
-8.9120e-05,0.00144
-8.9040e-05,0.00144
-8.8960e-05,0.00116
-8.8880e-05,0.00068
-8.8800e-05,0.00032
-8.8720e-05,-0.00104
-8.8640e-05,-0.0018
-8.8560e-05,-0.00256
-8.8480e-05,-0.0026
-8.8400e-05,-0.00228
-8.8320e-05,-0.002
-8.8240e-05,-0.00044
-8.8160e-05,-0.0006
-8.8080e-05,0.00084
-8.8000e-05,0.00168
-8.7920e-05,0.00236
-8.7840e-05,0.00096
-8.7760e-05,0.0016
-8.7680e-05,-0.00024
-8.7600e-05,-0.00012
-8.7520e-05,-0.00136
-8.7440e-05,-0.00172
-8.7360e-05,-0.00228
-8.7280e-05,-0.002
-8.7200e-05,-0.00196
-8.7120e-05,-0.00016
-8.7040e-05,0.00012
-8.6960e-05,0.00104
-8.6880e-05,0.00188
-8.6800e-05,0.00212
-8.6720e-05,0.0022
-8.6640e-05,0.00208
-8.6560e-05,0
-8.6480e-05,0.00028
-8.6400e-05,-0.00036
-8.6320e-05,-0.00132
-8.6240e-05,-0.00152
-8.6160e-05,-0.00264
-8.6080e-05,-0.0012
-8.6000e-05,-0.0006
-8.5920e-05,0.0006
-8.5840e-05,0.00084
-8.5760e-05,0.002
-8.5680e-05,0.00168
-8.5600e-05,0.00308
-8.5520e-05,0.00192
-8.5440e-05,0.00108
-8.5360e-05,0.00032
-8.5280e-05,-0.00068
-8.5200e-05,-0.0018
-8.5120e-05,-0.00032
-8.5040e-05,-0.00272
-8.4960e-05,-0.00088
-8.4880e-05,-0.00176
-8.4800e-05,0.0004
-8.4720e-05,0.00096
-8.4640e-05,0.00188
-8.4560e-05,0.00224
-8.4480e-05,0.00212
-8.4400e-05,0.00208
-8.4320e-05,0.00124
-8.4240e-05,0.00108
-8.4160e-05,-0.00096
-8.4080e-05,-0.00128
-8.4000e-05,-0.00136
-8.3920e-05,-0.00172
-8.3840e-05,-0.00152
-8.3760e-05,-0.00124
-8.3680e-05,-0.001
-8.3600e-05,0.00124
-8.3520e-05,0.0014
-8.3440e-05,0.00256
-8.3360e-05,0.0016
-8.3280e-05,0.002
-8.3200e-05,0.00128
-8.3120e-05,0.00124
-8.3040e-05,-0.00088
-8.2960e-05,-0.00096
-8.2880e-05,-0.00232
-8.2800e-05,-0.0024
-8.2720e-05,-0.00168
-8.2640e-05,-0.00152
-8.2560e-05,-0.00112
-8.2480e-05,8e-05
-8.2400e-05,0.00084
-8.2320e-05,0.00172
-8.2240e-05,0.00224
-8.2160e-05,0.00152
-8.2080e-05,0.00132
-8.2000e-05,0.00064
-8.1920e-05,-0.00036
-8.1840e-05,-0.00124
-8.1760e-05,-0.00212
-8.1680e-05,-0.00228
-8.1600e-05,-0.00184
-8.1520e-05,-0.00208
-8.1440e-05,-0.0006
-8.1360e-05,-0.00052
-8.1280e-05,0.00104
-8.1200e-05,0.0012
-8.1120e-05,0.00184
-8.1040e-05,0.00148
-8.0960e-05,0.00156
-8.0880e-05,0.00052
-8.0800e-05,0.00012
-8.0720e-05,-0.00088
-8.0640e-05,-0.00168
-8.0560e-05,-0.00228
-8.0480e-05,-0.00208
-8.0400e-05,-0.0022
-8.0320e-05,-0.00052
-8.0240e-05,-0.0008
-8.0160e-05,0.00056
-8.0080e-05,0.00172
-8.0000e-05,0.00172
-7.9920e-05,0.00212
-7.9840e-05,0.00172
-7.9760e-05,0.0012
-7.9680e-05,-0.00012
-7.9600e-05,-4e-05
-7.9520e-05,-0.0018
-7.9440e-05,-0.001
-7.9360e-05,-0.0024
-7.9280e-05,-0.00068
-7.9200e-05,-0.00088
-7.9120e-05,0.00012
-7.9040e-05,0.00028
-7.8960e-05,0.00176
-7.8880e-05,0.00216
-7.8800e-05,0.0034
-7.8720e-05,0.00188
-7.8640e-05,0.00144
-7.8560e-05,0.00048
-7.8480e-05,0.0002
-7.8400e-05,-0.0012
-7.8320e-05,-0.00088
-7.8240e-05,-0.002
-7.8160e-05,-0.00136
-7.8080e-05,-0.0012
-7.8000e-05,0.00044
-7.7920e-05,0.0014
-7.7840e-05,0.00148
-7.7760e-05,0.00212
-7.7680e-05,0.003
-7.7600e-05,0.00212
-7.7520e-05,0.00244
-7.7440e-05,0.00108
-7.7360e-05,-0.00044
-7.7280e-05,-0.00056
-7.7200e-05,-0.0014
