data/PSU_noise/PSU1_CV1_100A_100ms.CSV

Model,TBS1102C
Firmware Version,v2015-08-04-prequal4ch70_v1.3

Point Format,Y
Horizontal Units,S
Horizontal Scale,0.1
Sample Interval,0.0008
Filter Frequency,2e+08
Record Length,2000
Gating,0.0% to 100.0%
Probe Attenuation,1
Vertical Units,V
Vertical Offset,0
Vertical Scale,0.002
Label,
TIME,CH1
-8.000e-01,-0.0004
-7.992e-01,-0.00536
-7.984e-01,0.00552
-7.976e-01,0.00136
-7.968e-01,0.0012
-7.960e-01,-0.00288
-7.952e-01,-0.00088
-7.944e-01,0.00056
-7.936e-01,0.00328
-7.928e-01,0.00024
-7.920e-01,-0.00192
-7.912e-01,0.00224
-7.904e-01,0.00056
-7.896e-01,0.00232
-7.888e-01,0.00184
-7.880e-01,0.00224
-7.872e-01,-0.00408
-7.864e-01,-0.00032
-7.856e-01,-0.00048
-7.848e-01,0.00064
-7.840e-01,0.00264
-7.832e-01,0.00016
-7.824e-01,-0.00256
-7.816e-01,-0.00112
-7.808e-01,0.00176
-7.800e-01,8e-05
-7.792e-01,0.00104
-7.784e-01,0.00152
-7.776e-01,-0.00096
-7.768e-01,-0.0004
-7.760e-01,-8e-05
-7.752e-01,-0.0032
-7.744e-01,-0.00088
-7.736e-01,0.00064
-7.728e-01,-0.00432
-7.720e-01,0.00016
-7.712e-01,0.00152
-7.704e-01,-0.0008
-7.696e-01,0.0016
-7.688e-01,-0.00088
-7.680e-01,0.0008
-7.672e-01,-0.00072
-7.664e-01,0.0016
-7.656e-01,0.00232
-7.648e-01,-0.0008
-7.640e-01,0.00392
-7.632e-01,-0.00152
-7.624e-01,-0.00032
-7.616e-01,-0.0048
-7.608e-01,0.00376
-7.600e-01,8e-05
-7.592e-01,-0.0008
-7.584e-01,-0.00184
-7.576e-01,-0.00256
-7.568e-01,-0.0028
-7.560e-01,0.00072
-7.552e-01,-0.00376
-7.544e-01,-0.00088
-7.536e-01,0.0052
-7.528e-01,8e-05
-7.520e-01,-0.00216
-7.512e-01,0.00184
-7.504e-01,-0.002
-7.496e-01,0.00032
-7.488e-01,-0.00032
-7.480e-01,-0.00128
-7.472e-01,0.00176
-7.464e-01,0.00432
-7.456e-01,0.00136
-7.448e-01,-0.0012
-7.440e-01,0.0032
-7.432e-01,-0.00024
-7.424e-01,-0.00112
-7.416e-01,-0.002
-7.408e-01,0.0008
-7.400e-01,0.00096
-7.392e-01,-8e-05
-7.384e-01,-0.00392
-7.376e-01,0.00144
-7.368e-01,0.00032
-7.360e-01,-0.00192
-7.352e-01,0.00344
-7.344e-01,-0.00048
-7.336e-01,0.00216
-7.328e-01,0.00072
-7.320e-01,0.00192
-7.312e-01,0.00264
-7.304e-01,-0.00088
-7.296e-01,-0.0012
-7.288e-01,8e-05
-7.280e-01,-0.0004
-7.272e-01,-0.00152
-7.264e-01,0.002
-7.256e-01,0.0004
-7.248e-01,0.0004
-7.240e-01,0.0028
-7.232e-01,-0.00064
-7.224e-01,-0.00256
-7.216e-01,0.0072
-7.208e-01,0.00248
-7.200e-01,0.0032
-7.192e-01,0.00096
-7.184e-01,-0.0028
-7.176e-01,-0.00216
-7.168e-01,0.00176
-7.160e-01,-0.0032
-7.152e-01,-0.00168
-7.144e-01,0.0052
-7.136e-01,-0.00184
-7.128e-01,-0.00112
-7.120e-01,0.00016
-7.112e-01,0.00488
-7.104e-01,-0.00144
-7.096e-01,-0.0008
-7.088e-01,-0.0028
-7.080e-01,0.00416
-7.072e-01,0.00168
-7.064e-01,-0.00192
-7.056e-01,-0.00064
-7.048e-01,0.00328
-7.040e-01,0.00104
-7.032e-01,0.00208
-7.024e-01,0
-7.016e-01,0.00472
-7.008e-01,-0.00096
-7.000e-01,-0.0012
-6.992e-01,0.00192
-6.984e-01,-0.0032
-6.976e-01,0.00096
-6.968e-01,0.0056
-6.960e-01,0.00192
-6.952e-01,0.00056
-6.944e-01,0.00288
-6.936e-01,-0.0032
-6.928e-01,-0.00048
-6.920e-01,-0.00216
-6.912e-01,0.00216
-6.904e-01,-0.0012
-6.896e-01,-0.00264
-6.888e-01,0.00232
-6.880e-01,-0.00048
-6.872e-01,0.00432
-6.864e-01,-0.0012
-6.856e-01,-0.00176
-6.848e-01,0.0048
-6.840e-01,0
-6.832e-01,0
-6.824e-01,0.00552
-6.816e-01,0.00272
-6.808e-01,0.00512
-6.800e-01,0.00768
-6.792e-01,-0.00136
-6.784e-01,0.00392
-6.776e-01,0.0028
-6.768e-01,-0.0004
-6.760e-01,0.00112
-6.752e-01,-0.0008
-6.744e-01,0.00408
-6.736e-01,-0.00176
-6.728e-01,0.00368
-6.720e-01,-0.00424
-6.712e-01,0.00608
-6.704e-01,-0.004
-6.696e-01,0.00104
-6.688e-01,0.00216
-6.680e-01,-0.00056
-6.672e-01,0.00456
-6.664e-01,0.0012
-6.656e-01,-0.00112
-6.648e-01,0.00376
-6.640e-01,-0.00376
-6.632e-01,0.00336
-6.624e-01,0.00184
-6.616e-01,0.00184
-6.608e-01,-0.00064
-6.600e-01,0.00024
-6.592e-01,8e-05
-6.584e-01,0.00072
-6.576e-01,0.00496
-6.568e-01,0.00192
-6.560e-01,-0.00472
-6.552e-01,0.00072
-6.544e-01,-0.00208
-6.536e-01,-0.0024
-6.528e-01,0.00264
-6.520e-01,-0.00136
-6.512e-01,-0.0004
-6.504e-01,-0.00152
-6.496e-01,0.00128
-6.488e-01,0.00288
-6.480e-01,0.00296
-6.472e-01,0.00464
-6.464e-01,-0.00128
-6.456e-01,0.00216
-6.448e-01,0.00088
-6.440e-01,-0.00056
-6.432e-01,-0.0004
-6.424e-01,-0.00264
-6.416e-01,-0.00096
-6.408e-01,-0.00192
-6.400e-01,-0.00152
-6.392e-01,-0.00128
-6.384e-01,0.00352
-6.376e-01,-0.00096
-6.368e-01,-0.0036
-6.360e-01,0.00016
-6.352e-01,-8e-05
-6.344e-01,0.00136
-6.336e-01,-0.00112
-6.328e-01,0
-6.320e-01,-0.0024
-6.312e-01,0.00136
-6.304e-01,0.00424
-6.296e-01,0.0016
-6.288e-01,0.00056
-6.280e-01,0.00264
-6.272e-01,0.00408
-6.264e-01,-0.00256
-6.256e-01,-0.00072
-6.248e-01,0.00064
-6.240e-01,-0.002
-6.232e-01,0.00024
-6.224e-01,-0.00376
-6.216e-01,-0.0044
-6.208e-01,0.00016
-6.200e-01,-0.00416
-6.192e-01,-0.00216
-6.184e-01,0.0036
-6.176e-01,8e-05
-6.168e-01,-0.00424
-6.160e-01,0.00416
-6.152e-01,0.00096
-6.144e-01,-0.00112
-6.136e-01,0.00192
-6.128e-01,-0.00216
-6.120e-01,-0.0036
-6.112e-01,0.00208
-6.104e-01,-0.00112
-6.096e-01,-0.00184
-6.088e-01,0.00136
-6.080e-01,-0.00488
-6.072e-01,0.0036
-6.064e-01,0.0024
-6.056e-01,-0.00128
-6.048e-01,-0.00136
-6.040e-01,-0.00264
-6.032e-01,0.00152
-6.024e-01,-0.00048
-6.016e-01,-0.004
-6.008e-01,0.0008
-6.000e-01,-0.00072
-5.992e-01,-0.00144
-5.984e-01,-0.00184
-5.976e-01,0.00072
-5.968e-01,-0.00328
-5.960e-01,0.00152
-5.952e-01,0.00456
-5.944e-01,-0.002
-5.936e-01,-0.00392
-5.928e-01,-0.00448
-5.920e-01,0.00032
-5.912e-01,-0.00168
-5.904e-01,0.00024
-5.896e-01,0.00128
-5.888e-01,-0.00096
-5.880e-01,0.0016
-5.872e-01,-0.00096
-5.864e-01,0.00432
-5.856e-01,0.00168
-5.848e-01,-0.00344
-5.840e-01,-0.0004
-5.832e-01,0.00176
-5.824e-01,0.00016
-5.816e-01,0.00056
-5.808e-01,-0.00464
-5.800e-01,0.00176
-5.792e-01,0.00624
-5.784e-01,-0.00392
-5.776e-01,0.00312
-5.768e-01,0.0016
-5.760e-01,0.00104
-5.752e-01,0.0012
-5.744e-01,0.00296
-5.736e-01,-0.00288
-5.728e-01,0.0016
-5.720e-01,-0.00112
-5.712e-01,0.00016
-5.704e-01,0.00312
-5.696e-01,-0.00112
-5.688e-01,0.00176
-5.680e-01,0.00088
-5.672e-01,0
-5.664e-01,-0.0016
-5.656e-01,0.0008
-5.648e-01,0.0008
-5.640e-01,-0.00048
-5.632e-01,0.00096
-5.624e-01,0.004
-5.616e-01,0.00056
-5.608e-01,0.0028
-5.600e-01,0.00648
-5.592e-01,0.00112
-5.584e-01,-0.00184
-5.576e-01,0.00112
-5.568e-01,0.00056
-5.560e-01,0.00344
-5.552e-01,-0.00232
-5.544e-01,0.00072
-5.536e-01,0.00096
-5.528e-01,-0.00056
-5.520e-01,0.00352
-5.512e-01,-0.00216
-5.504e-01,0.0028
-5.496e-01,-0.00128
-5.488e-01,-0.00256
-5.480e-01,-0.00176
-5.472e-01,-0.00104
-5.464e-01,-0.00264
-5.456e-01,0.00184
-5.448e-01,0.00416
-5.440e-01,-0.00368
-5.432e-01,-0.00024
-5.424e-01,-0.00048
-5.416e-01,0.0012
-5.408e-01,0.00304
-5.400e-01,0.0048
-5.392e-01,-0.00016
-5.384e-01,-0.00512
-5.376e-01,0.0032
-5.368e-01,0.00032
-5.360e-01,0.00072
-5.352e-01,0.00288
-5.344e-01,-0.00064
-5.336e-01,0.0036
-5.328e-01,-0.00072
-5.320e-01,-0.0004
-5.312e-01,0.00064
-5.304e-01,0.00296
-5.296e-01,-0.00104
-5.288e-01,-0.00304
-5.280e-01,0.00408
-5.272e-01,-0.00224
-5.264e-01,0.00064
-5.256e-01,0.00208
-5.248e-01,0.00424
-5.240e-01,-0.00096
-5.232e-01,-0.00216
-5.224e-01,0.00096
-5.216e-01,0.00232
-5.208e-01,-0.00072
-5.200e-01,0.00528
-5.192e-01,-0.00184
-5.184e-01,0.00304
-5.176e-01,0.00376
-5.168e-01,0.00152
-5.160e-01,-0.00136
-5.152e-01,-0.00384
-5.144e-01,-0.00256
-5.136e-01,0.00168
-5.128e-01,0.006
-5.120e-01,0.00032
-5.112e-01,0.00176
-5.104e-01,0.00208
-5.096e-01,-0.00472
-5.088e-01,0.00192
-5.080e-01,0.00712
-5.072e-01,-0.00248
-5.064e-01,-0.0012
-5.056e-01,0.002
-5.048e-01,0.00608
-5.040e-01,-0.002
-5.032e-01,0.00144
-5.024e-01,-0.00456
-5.016e-01,0.00408
-5.008e-01,0.00128
-5.000e-01,0.00264
-4.992e-01,0.00016
-4.984e-01,0.00152
-4.976e-01,0.00032
-4.968e-01,0.00488
-4.960e-01,0.00024
-4.952e-01,-0.00064
-4.944e-01,0.00104
-4.936e-01,0.0052
-4.928e-01,0.00056
-4.920e-01,-0.00264
-4.912e-01,0.00424
-4.904e-01,0.00016
-4.896e-01,-0.0016
-4.888e-01,-0.00104
-4.880e-01,0.00312
-4.872e-01,8e-05
-4.864e-01,0.0032
-4.856e-01,0.00056
-4.848e-01,0.0016
-4.840e-01,0.00288
-4.832e-01,0.0024
-4.824e-01,-0.0036
-4.816e-01,0.00048
-4.808e-01,0.0004
-4.800e-01,-0.00144
-4.792e-01,-0.00264
-4.784e-01,0.00264
-4.776e-01,-0.00544
-4.768e-01,0.00392
-4.760e-01,0.00328
-4.752e-01,8e-05
-4.744e-01,-0.00296
-4.736e-01,0.00256
-4.728e-01,-0.0016
-4.720e-01,-0.0036
-4.712e-01,0.00528
-4.704e-01,-0.004
-4.696e-01,-0.00256
-4.688e-01,0.00216
-4.680e-01,8e-05
-4.672e-01,-0.00096
-4.664e-01,0.00464
-4.656e-01,-0.0004
-4.648e-01,0.00184
-4.640e-01,0.00432
-4.632e-01,-0.00256
-4.624e-01,0.00024
-4.616e-01,0.00144
-4.608e-01,-8e-05
-4.600e-01,-0.0052
-4.592e-01,0.0012
-4.584e-01,-0.00208
-4.576e-01,-0.0032
-4.568e-01,0.00408
-4.560e-01,-0.00088
-4.552e-01,-0.00032
-4.544e-01,0.00168
-4.536e-01,0.0008
-4.528e-01,0.0012
-4.520e-01,0.00176
-4.512e-01,0.00048
-4.504e-01,-0.0012
-4.496e-01,-0.002
-4.488e-01,0.00344
-4.480e-01,0.0016
-4.472e-01,-0.00048
-4.464e-01,0.002
-4.456e-01,-0.00224
-4.448e-01,0.0028
-4.440e-01,0.0048
-4.432e-01,-0.00512
-4.424e-01,-0.004
-4.416e-01,0.00136
-4.408e-01,-0.00592
-4.400e-01,-0.00344
-4.392e-01,0.00048
-4.384e-01,-0.00344
-4.376e-01,-0.00224
-4.368e-01,0.0016
-4.360e-01,-0.00208
-4.352e-01,-0.00024
-4.344e-01,0.00168
-4.336e-01,-0.00112
-4.328e-01,-0.00104
-4.320e-01,0.00568
-4.312e-01,0.00128
-4.304e-01,0.0012
-4.296e-01,-0.00024
-4.288e-01,-0.00032
-4.280e-01,0.00264
-4.272e-01,0.00144
-4.264e-01,-0.00264
-4.256e-01,0.00296
-4.248e-01,0.00304
-4.240e-01,0.00024
-4.232e-01,-0.00512
-4.224e-01,0.00208
-4.216e-01,-0.00088
-4.208e-01,-0.00096
-4.200e-01,-0.00568
-4.192e-01,0.00288
-4.184e-01,-0.00144
-4.176e-01,8e-05
-4.168e-01,-0.00288
-4.160e-01,-0.00096
-4.152e-01,-0.00312
-4.144e-01,-0.00088
-4.136e-01,0.00024
-4.128e-01,0
-4.120e-01,0.00288
-4.112e-01,8e-05
-4.104e-01,-0.00048
-4.096e-01,0.00096
-4.088e-01,-0.00184
-4.080e-01,-0.0024
-4.072e-01,0.00176
-4.064e-01,-0.00272
-4.056e-01,-0.00064
-4.048e-01,0.00072
-4.040e-01,0.00096
-4.032e-01,-0.00088
-4.024e-01,0.00264
-4.016e-01,0.00016
-4.008e-01,0.0008
-4.000e-01,0.00344
-3.992e-01,-0.00216
-3.984e-01,-0.00336
-3.976e-01,0.0024
-3.968e-01,-0.00016
-3.960e-01,-0.00328
-3.952e-01,-0.00064
-3.944e-01,-0.00064
-3.936e-01,-0.00056
-3.928e-01,8e-05
-3.920e-01,0.00248
-3.912e-01,0.00024
-3.904e-01,-0.00104
-3.896e-01,-0.00096
-3.888e-01,-0.002
-3.880e-01,0.00344
-3.872e-01,0.00112
-3.864e-01,-0.0032
-3.856e-01,0.0032
-3.848e-01,0.00064
-3.840e-01,0.00224
-3.832e-01,0.00232
-3.824e-01,-0.0016
-3.816e-01,0.00472
-3.808e-01,-0.0036
-3.800e-01,0.00304
-3.792e-01,-0.00112
-3.784e-01,0.00128
-3.776e-01,0.0016
-3.768e-01,-0.00368
-3.760e-01,-0.00216
-3.752e-01,0.00288
-3.744e-01,0.00048
-3.736e-01,-0.00032
-3.728e-01,0.00232
-3.720e-01,-0.0048
-3.712e-01,0
-3.704e-01,0.00464
-3.696e-01,-0.0004
-3.688e-01,-0.00184
-3.680e-01,0.00104
-3.672e-01,-0.00208
-3.664e-01,-8e-05
-3.656e-01,0
-3.648e-01,0.00088
-3.640e-01,8e-05
-3.632e-01,0.0024
-3.624e-01,-0.00272
-3.616e-01,0.00184
-3.608e-01,0.00384
-3.600e-01,0.00608
-3.592e-01,0.00176
-3.584e-01,0.00504
-3.576e-01,-0.00032
-3.568e-01,0.0032
-3.560e-01,0.00352
-3.552e-01,0.00056
-3.544e-01,0.00136
-3.536e-01,0.0024
-3.528e-01,-0.00344
-3.520e-01,-0.00456
-3.512e-01,0.00208
-3.504e-01,0.00504
-3.496e-01,0.00048
-3.488e-01,-0.00192
-3.480e-01,0.0012
-3.472e-01,0.00016
-3.464e-01,0.0024
-3.456e-01,-0.00096
-3.448e-01,0.00176
-3.440e-01,-0.00248
-3.432e-01,-0.00184
-3.424e-01,-0.00112
-3.416e-01,0.00048
-3.408e-01,0.00296
-3.400e-01,0.0016
-3.392e-01,0.00088
-3.384e-01,0.00568
-3.376e-01,0.00424
-3.368e-01,-8e-05
-3.360e-01,0.00304
-3.352e-01,0.00312
-3.344e-01,0.00192
-3.336e-01,0.0048
-3.328e-01,-0.00184
-3.320e-01,-0.00392
-3.312e-01,0.00328
-3.304e-01,0.00352
-3.296e-01,-0.00096
-3.288e-01,0.00304
-3.280e-01,-0.002
-3.272e-01,0.00056
-3.264e-01,0.00328
-3.256e-01,-0.00168
-3.248e-01,0.0044
-3.240e-01,-0.0024
-3.232e-01,-0.00136
-3.224e-01,-0.00168
-3.216e-01,-0.00056
-3.208e-01,-0.00032
-3.200e-01,-0.00096
-3.192e-01,0.00168
-3.184e-01,-0.00056
-3.176e-01,0.00256
-3.168e-01,0.00064
-3.160e-01,0.00056
-3.152e-01,0.00408
-3.144e-01,0.0012
-3.136e-01,0.00304
-3.128e-01,-0.00376
-3.120e-01,-0.00408
-3.112e-01,0.00288
-3.104e-01,-0.0036
-3.096e-01,-0.00104
-3.088e-01,-0.00024
-3.080e-01,-0.00088
-3.072e-01,-0.00096
-3.064e-01,-0.00024
-3.056e-01,-0.00224
-3.048e-01,0.00184
-3.040e-01,-0.0028
-3.032e-01,-0.00192
-3.024e-01,0.00048
-3.016e-01,0.00144
-3.008e-01,0.00192
-3.000e-01,0.00184
-2.992e-01,0.00304
-2.984e-01,-0.00408
-2.976e-01,0.00064
-2.968e-01,0.00376
-2.960e-01,-0.00032
-2.952e-01,0.00136
-2.944e-01,-0.00128
-2.936e-01,0.00176
-2.928e-01,-0.00144
-2.920e-01,0.00024
-2.912e-01,0.0012
-2.904e-01,-0.0008
-2.896e-01,0.00184
-2.888e-01,-0.00144
-2.880e-01,0.00304
-2.872e-01,-0.00512
-2.864e-01,-0.00144
-2.856e-01,-0.00136
-2.848e-01,0.00432
-2.840e-01,-0.00272
-2.832e-01,-0.00344
-2.824e-01,-0.00096
-2.816e-01,-0.0012
-2.808e-01,0.00144
-2.800e-01,-0.00336
-2.792e-01,0.00232
-2.784e-01,-0.00064
-2.776e-01,-0.0012
-2.768e-01,0.0004
-2.760e-01,0.0016
-2.752e-01,-0.00056
-2.744e-01,0
-2.736e-01,-0.00176
-2.728e-01,-0.00128
-2.720e-01,0.0044
-2.712e-01,-0.00064
-2.704e-01,-0.00128
-2.696e-01,0.00432
-2.688e-01,-0.00192
-2.680e-01,-0.00192
-2.672e-01,-0.0012
-2.664e-01,0
-2.656e-01,-0.00112
-2.648e-01,0.00384
-2.640e-01,0.0004
-2.632e-01,0.0036
-2.624e-01,0.00072
-2.616e-01,-0.00024
-2.608e-01,0.00104
-2.600e-01,0.00136
-2.592e-01,-0.00496
-2.584e-01,-0.0032
-2.576e-01,0.00296
-2.568e-01,-0.00096
-2.560e-01,-0.00288
-2.552e-01,-0.00208
-2.544e-01,-0.0032
-2.536e-01,-0.00256
-2.528e-01,-0.00032
-2.520e-01,0.00688
-2.512e-01,0.00136
-2.504e-01,0.00304
-2.496e-01,0.00152
-2.488e-01,-0.00248
-2.480e-01,-0.00168
-2.472e-01,-0.00472
-2.464e-01,-0.00104
-2.456e-01,0.00016
-2.448e-01,0.00664
-2.440e-01,0.00104
-2.432e-01,0.00248
-2.424e-01,0.00352
-2.416e-01,0.0004
-2.408e-01,0.00104
-2.400e-01,0.0032
-2.392e-01,0.00152
-2.384e-01,-0.00352
-2.376e-01,0.00128
-2.368e-01,-0.0044
-2.360e-01,-0.00304
-2.352e-01,0.00112
-2.344e-01,0.00032
-2.336e-01,-0.0032
-2.328e-01,-0.00016
-2.320e-01,0.00528
-2.312e-01,-0.00224
-2.304e-01,-0.00168
-2.296e-01,0.0012
-2.288e-01,0.00264
-2.280e-01,0.0032
-2.272e-01,-0.00568
-2.264e-01,0.00208
-2.256e-01,-0.00072
-2.248e-01,0.00016
-2.240e-01,-8e-05
-2.232e-01,0.00496
-2.224e-01,-0.00016
-2.216e-01,-0.0004
-2.208e-01,0.00176
-2.200e-01,-8e-05
-2.192e-01,-0.00168
-2.184e-01,-0.00144
-2.176e-01,-0.00128
-2.168e-01,-0.00216
-2.160e-01,-0.00408
-2.152e-01,-0.00696
-2.144e-01,-0.00056
-2.136e-01,-0.0028
-2.128e-01,-0.00424
-2.120e-01,0.004
-2.112e-01,-0.00168
-2.104e-01,-0.00312
-2.096e-01,0.0036
-2.088e-01,-0.00064
-2.080e-01,0.00136
-2.072e-01,0.0016
-2.064e-01,-0.00144
-2.056e-01,-0.00256
-2.048e-01,-0.00216
-2.040e-01,-0.00192
-2.032e-01,0.00056
-2.024e-01,-0.00384
-2.016e-01,0.00088
-2.008e-01,0.00056
-2.000e-01,0.00152
-1.992e-01,-0.00336
-1.984e-01,0.00488
-1.976e-01,-0.00288
-1.968e-01,-0.00144
-1.960e-01,0.0004
-1.952e-01,-0.00456
-1.944e-01,-0.0008
-1.936e-01,-0.00112
-1.928e-01,-0.00032
-1.920e-01,-0.00104
-1.912e-01,0.00096
-1.904e-01,-0.00576
-1.896e-01,-0.00056
-1.888e-01,0.0016
-1.880e-01,-0.00208
-1.872e-01,-0.0004
-1.864e-01,0.00384
-1.856e-01,-0.00296
-1.848e-01,-0.00352
-1.840e-01,0.00336
-1.832e-01,0.00144
-1.824e-01,0.00104
-1.816e-01,0.0044
-1.808e-01,-0.00304
-1.800e-01,-0.00048
-1.792e-01,-0.00256
-1.784e-01,0.0008
-1.776e-01,-0.00104
-1.768e-01,0.00264
-1.760e-01,8e-05
-1.752e-01,-0.00128
-1.744e-01,0.00208
-1.736e-01,-0.00168
-1.728e-01,-0.00216
-1.720e-01,-0.0064
-1.712e-01,0.00312
-1.704e-01,-0.0016
-1.696e-01,-0.00152
-1.688e-01,-0.00088
-1.680e-01,-0.00016
-1.672e-01,-0.00056
-1.664e-01,0.00344
-1.656e-01,0
-1.648e-01,-0.0052
-1.640e-01,0.0064
-1.632e-01,-0.00216
-1.624e-01,-0.00168
-1.616e-01,0.00656
-1.608e-01,-0.00384
-1.600e-01,-0.0016
-1.592e-01,0.00408
-1.584e-01,0.00536
-1.576e-01,-0.00192
-1.568e-01,0.00672
-1.560e-01,-0.00288
-1.552e-01,0.00048
-1.544e-01,0.00544
-1.536e-01,0.00184
-1.528e-01,-0.00016
-1.520e-01,-0.0008
-1.512e-01,-0.00488
-1.504e-01,0.00304
-1.496e-01,0.00192
-1.488e-01,-0.00168
-1.480e-01,0.002
-1.472e-01,0.00256
-1.464e-01,-0.00368
-1.456e-01,0.00384
-1.448e-01,-0.00024
-1.440e-01,-0.00096
-1.432e-01,0
-1.424e-01,-0.00056
-1.416e-01,0.0012
-1.408e-01,-0.00072
-1.400e-01,0.00208
-1.392e-01,-0.00168
-1.384e-01,0.0032
-1.376e-01,-0.00072
-1.368e-01,0.00288
-1.360e-01,0
-1.352e-01,0.0004
-1.344e-01,0.00192
-1.336e-01,0.00024
-1.328e-01,-0.00016
-1.320e-01,-0.0024
-1.312e-01,-0.00056
-1.304e-01,0.00144
-1.296e-01,0.00024
-1.288e-01,0.00272
-1.280e-01,0.00072
-1.272e-01,0.00336
-1.264e-01,-8e-05
-1.256e-01,0.00304
-1.248e-01,0.00016
-1.240e-01,-0.0016
-1.232e-01,-0.0032
-1.224e-01,0.004
-1.216e-01,0.00224
-1.208e-01,-0.00136
-1.200e-01,0.00096
-1.192e-01,-0.00352
-1.184e-01,0.00296
-1.176e-01,0.00368
-1.168e-01,-0.00336
-1.160e-01,-0.00064
-1.152e-01,0.0076
-1.144e-01,0.00224
-1.136e-01,0.00352
-1.128e-01,0.00168
-1.120e-01,-0.00256
-1.112e-01,0.00336
-1.104e-01,0.00496
-1.096e-01,0.00088
-1.088e-01,-0.00104
-1.080e-01,0.00184
-1.072e-01,0.00288
-1.064e-01,0.00112
-1.056e-01,0.00024
-1.048e-01,0.00248
-1.040e-01,-8e-05
-1.032e-01,0.00232
-1.024e-01,0.00192
-1.016e-01,-0.00128
-1.008e-01,-0.00016
-1.000e-01,8e-05
-9.920e-02,-0.00088
-9.840e-02,0.00232
-9.760e-02,0.00016
-9.680e-02,0.00088
-9.600e-02,-0.00248
-9.520e-02,0.0036
-9.440e-02,-0.00336
-9.360e-02,0.00096
-9.280e-02,-0.00032
-9.200e-02,0.00376
-9.120e-02,0.00064
-9.040e-02,0.00408
-8.960e-02,-0.00144
-8.880e-02,0.00152
-8.800e-02,0.002
-8.720e-02,-0.00192
-8.640e-02,0.00128
-8.560e-02,0.00056
-8.480e-02,0.00224
-8.400e-02,0
-8.320e-02,-0.00216
-8.240e-02,-0.00552
-8.160e-02,0.00072
-8.080e-02,0.00352
-8.000e-02,0.00048
-7.920e-02,0.00032
-7.840e-02,0.00464
-7.760e-02,-0.00184
-7.680e-02,-0.00216
-7.600e-02,-0.0012
-7.520e-02,-0.00048
-7.440e-02,-0.00232
-7.360e-02,0.00128
-7.280e-02,-0.00224
-7.200e-02,0.0028
-7.120e-02,-0.00048
-7.040e-02,0.00336
-6.960e-02,-0.00096
-6.880e-02,-0.0008
-6.800e-02,0.00256
-6.720e-02,-0.00104
-6.640e-02,0.0012
-6.560e-02,0.00096
-6.480e-02,-0.00216
-6.400e-02,0.0008
-6.320e-02,0.0004
-6.240e-02,-0.0008
-6.160e-02,-0.00392
-6.080e-02,0.00568
-6.000e-02,0.00472
-5.920e-02,0.00208
-5.840e-02,0.00248
-5.760e-02,-0.0012
-5.680e-02,-0.00248
-5.600e-02,0.00128
-5.520e-02,-0.00064
-5.440e-02,0.00024
-5.360e-02,0.0012
-5.280e-02,0.00024
-5.200e-02,-0.00088
-5.120e-02,0.00032
-5.040e-02,0
-4.960e-02,-0.00336
-4.880e-02,0.00432
-4.800e-02,-0.002
-4.720e-02,-0.004
-4.640e-02,0.00552
-4.560e-02,-0.00344
-4.480e-02,0.0024
-4.400e-02,0.0044
-4.320e-02,0.0012
-4.240e-02,-0.00456
-4.160e-02,0
-4.080e-02,0.0008
-4.000e-02,-0.00144
-3.920e-02,0.00424
-3.840e-02,-0.00272
-3.760e-02,0.00248
-3.680e-02,-0.00056
-3.600e-02,0.0004
-3.520e-02,-0.00272
-3.440e-02,0.00088
-3.360e-02,-0.0052
-3.280e-02,0
-3.200e-02,-8e-05
-3.120e-02,-0.0044
-3.040e-02,0.00312
-2.960e-02,-0.00064
-2.880e-02,-0.00296
-2.800e-02,-0.00376
-2.720e-02,0.00032
-2.640e-02,0
-2.560e-02,0
-2.480e-02,-0.00024
-2.400e-02,-0.00032
-2.320e-02,0.00048
-2.240e-02,-0.0024
-2.160e-02,0.00112
-2.080e-02,0.00064
-2.000e-02,-0.00088
-1.920e-02,-0.00048
-1.840e-02,-0.00504
-1.760e-02,0.00208
-1.680e-02,0.00592
-1.600e-02,0.00184
-1.520e-02,-0.00368
-1.440e-02,0.00328
-1.360e-02,-0.00552
-1.280e-02,-0.00272
-1.200e-02,0.0008
-1.120e-02,-0.0012
-1.040e-02,-0.0008
-9.600e-03,0.0024
-8.800e-03,-0.00376
-8.000e-03,0.0016
-7.200e-03,0.00032
-6.400e-03,0.00096
-5.600e-03,0.0004
-4.800e-03,0.0052
-4.000e-03,-0.00072
-3.200e-03,0.0036
-2.400e-03,0.0044
-1.600e-03,0.00216
-8.000e-04,-0.00016
1.463e-14,-0.00016
8.000e-04,-0.00136
1.600e-03,0.00224
2.400e-03,0.00552
3.200e-03,0.00304
4.000e-03,-0.00056
4.800e-03,-0.00056
5.600e-03,0.00176
6.400e-03,0.00128
7.200e-03,8e-05
8.000e-03,0.00304
8.800e-03,-0.00024
9.600e-03,-0.00712
1.040e-02,-0.00136
1.120e-02,-0.00288
1.200e-02,0.00384
1.280e-02,0.00384
1.360e-02,-0.00072
1.440e-02,0.00224
1.520e-02,0.00184
1.600e-02,0.00144
1.680e-02,0.00048
1.760e-02,0.0004
1.840e-02,-0.00288
1.920e-02,8e-05
2.000e-02,-0.00064
2.080e-02,-0.0028
2.160e-02,-0.00392
2.240e-02,0.00248
2.320e-02,-0.00016
2.400e-02,-0.00256
2.480e-02,0.00128
2.560e-02,-0.00168
2.640e-02,-0.00704
