data/PSU_noise/PSU1_CV1_20A_100us.CSV

Model,TBS1102C
Firmware Version,v2015-08-04-prequal4ch70_v1.3

Point Format,Y
Horizontal Units,S
Horizontal Scale,0.0001
Sample Interval,8e-07
Filter Frequency,2e+08
Record Length,2000
Gating,0.0% to 100.0%
Probe Attenuation,1
Vertical Units,V
Vertical Offset,0
Vertical Scale,0.002
Label,
TIME,CH1
-8.000e-04,0.00432
-7.992e-04,0.00336
-7.984e-04,0
-7.976e-04,0.00312
-7.968e-04,0.00448
-7.960e-04,0.00096
-7.952e-04,0.00208
-7.944e-04,0.00456
-7.936e-04,0.00264
-7.928e-04,0.00032
-7.920e-04,0.00304
-7.912e-04,0.00472
-7.904e-04,0.00264
-7.896e-04,0.00112
-7.888e-04,0.004
-7.880e-04,0.00328
-7.872e-04,0.00048
-7.864e-04,0.0028
-7.856e-04,0.00392
-7.848e-04,0.00088
-7.840e-04,-0.00016
-7.832e-04,0.00344
-7.824e-04,0.00344
-7.816e-04,0.00032
-7.808e-04,0.00176
-7.800e-04,0.00464
-7.792e-04,0.00176
-7.784e-04,8e-05
-7.776e-04,0.00296
-7.768e-04,0.00312
-7.760e-04,8e-05
-7.752e-04,0.002
-7.744e-04,0.00488
-7.736e-04,0.00272
-7.728e-04,0.00056
-7.720e-04,0.00264
-7.712e-04,0.00528
-7.704e-04,0.00392
-7.696e-04,0.00096
-7.688e-04,0.00272
-7.680e-04,0.00464
-7.672e-04,0.00176
-7.664e-04,0.00104
-7.656e-04,0.00296
-7.648e-04,0.00264
-7.640e-04,8e-05
-7.632e-04,0.00128
-7.624e-04,0.00456
-7.616e-04,0.00272
-7.608e-04,0.0004
-7.600e-04,0.00384
-7.592e-04,0.00472
-7.584e-04,0.00112
-7.576e-04,0.00088
-7.568e-04,0.00328
-7.560e-04,0.0028
-7.552e-04,0.00016
-7.544e-04,0.00144
-7.536e-04,0.00328
-7.528e-04,0.00128
-7.520e-04,8e-05
-7.512e-04,0.00336
-7.504e-04,0.00288
-7.496e-04,-0.00048
-7.488e-04,0.0004
-7.480e-04,0.00328
-7.472e-04,0.00144
-7.464e-04,-0.00088
-7.456e-04,0.00136
-7.448e-04,0.00256
-7.440e-04,8e-05
-7.432e-04,-8e-05
-7.424e-04,0.00312
-7.416e-04,0.0008
-7.408e-04,-0.0008
-7.400e-04,0.0016
-7.392e-04,0.00296
-7.384e-04,-0.00128
-7.376e-04,-0.00128
-7.368e-04,0.00288
-7.360e-04,0.0016
-7.352e-04,-0.00088
-7.344e-04,0.0012
-7.336e-04,0.00272
-7.328e-04,0
-7.320e-04,0.0008
-7.312e-04,0.00344
-7.304e-04,0.00144
-7.296e-04,-0.00168
-7.288e-04,0.00168
-7.280e-04,0.00288
-7.272e-04,-0.0004
-7.264e-04,0.00048
-7.256e-04,0.00304
-7.248e-04,0.002
-7.240e-04,0.00016
-7.232e-04,0.00184
-7.224e-04,0.00376
-7.216e-04,0.0004
-7.208e-04,0.00048
-7.200e-04,0.00384
-7.192e-04,0.00248
-7.184e-04,-0.00016
-7.176e-04,0.0012
-7.168e-04,0.00432
-7.160e-04,0.00232
-7.152e-04,0.0008
-7.144e-04,0.00376
-7.136e-04,0.00368
-7.128e-04,0.00144
-7.120e-04,0.002
-7.112e-04,0.0036
-7.104e-04,0.00248
-7.096e-04,-0.00048
-7.088e-04,0.00208
-7.080e-04,0.0048
-7.072e-04,0.00072
-7.064e-04,-0.00032
-7.056e-04,0.00296
-7.048e-04,0.00336
-7.040e-04,-0.0004
-7.032e-04,0.00032
-7.024e-04,0.00248
-7.016e-04,-0.0004
-7.008e-04,-0.00056
-7.000e-04,0.00328
-6.992e-04,0.00232
-6.984e-04,-0.00112
-6.976e-04,0.00144
-6.968e-04,0.00352
-6.960e-04,-0.00056
-6.952e-04,-0.00128
-6.944e-04,0.00096
-6.936e-04,0.0008
-6.928e-04,-0.00208
-6.920e-04,-0.00048
-6.912e-04,0.00144
-6.904e-04,-0.00176
-6.896e-04,-0.002
-6.888e-04,0.0012
-6.880e-04,-0.00096
-6.872e-04,-0.00376
-6.864e-04,-0.00184
-6.856e-04,0.00048
-6.848e-04,-0.00312
-6.840e-04,-0.0036
-6.832e-04,-0.0012
-6.824e-04,-0.00176
-6.816e-04,-0.004
-6.808e-04,-0.00112
-6.800e-04,-0.00064
-6.792e-04,-0.00456
-6.784e-04,-0.00296
-6.776e-04,-0.00048
-6.768e-04,-0.00296
-6.760e-04,-0.00488
-6.752e-04,-0.00176
-6.744e-04,-0.00256
-6.736e-04,-0.00464
-6.728e-04,-0.00216
-6.720e-04,-0.00088
-6.712e-04,-0.00368
-6.704e-04,-0.00336
-6.696e-04,0.00048
-6.688e-04,-0.0004
-6.680e-04,-0.0032
-6.672e-04,-0.00192
-6.664e-04,0.00088
-6.656e-04,-0.00208
-6.648e-04,-0.0024
-6.640e-04,0.00032
-6.632e-04,-0.0004
-6.624e-04,-0.00248
-6.616e-04,-0.0012
-6.608e-04,0.00096
-6.600e-04,-0.00072
-6.592e-04,-0.00336
-6.584e-04,0.00032
-6.576e-04,0.00256
-6.568e-04,-0.00104
-6.560e-04,-0.00176
-6.552e-04,0.00136
-6.544e-04,0.00136
-6.536e-04,-0.00152
-6.528e-04,-0.00048
-6.520e-04,0.00176
-6.512e-04,-0.00104
-6.504e-04,-0.0012
-6.496e-04,0.00184
-6.488e-04,0.002
-6.480e-04,-0.00168
-6.472e-04,-0.0016
-6.464e-04,0.00136
-6.456e-04,-0.00032
-6.448e-04,-0.0028
-6.440e-04,-0.00104
-6.432e-04,0.00144
-6.424e-04,-0.00048
-6.416e-04,-0.00112
-6.408e-04,0.0016
-6.400e-04,0.002
-6.392e-04,-0.00096
-6.384e-04,0.00056
-6.376e-04,0.00296
-6.368e-04,0.0004
-6.360e-04,-0.00152
-6.352e-04,0.00048
-6.344e-04,0.00224
-6.336e-04,-0.00104
-6.328e-04,-0.0016
-6.320e-04,0.00232
-6.312e-04,0.0012
-6.304e-04,-0.00152
-6.296e-04,0.00208
-6.288e-04,0.0032
-6.280e-04,-0.00104
-6.272e-04,0.00016
-6.264e-04,0.00336
-6.256e-04,0.00176
-6.248e-04,-0.00104
-6.240e-04,0.00144
-6.232e-04,0.00368
-6.224e-04,0.00064
-6.216e-04,0.00032
-6.208e-04,0.00312
-6.200e-04,0.002
-6.192e-04,8e-05
-6.184e-04,0.00216
-6.176e-04,0.00304
-6.168e-04,0.00048
-6.160e-04,-8e-05
-6.152e-04,0.00256
-6.144e-04,0.00368
-6.136e-04,0.00112
-6.128e-04,0.00144
-6.120e-04,0.004
-6.112e-04,0.00264
-6.104e-04,0.00048
-6.096e-04,0.00312
-6.088e-04,0.00336
-6.080e-04,-0.00032
-6.072e-04,0.00016
-6.064e-04,0.0036
-6.056e-04,0.0012
-6.048e-04,-0.00184
-6.040e-04,0.00176
-6.032e-04,0.004
-6.024e-04,0.00104
-6.016e-04,0.0004
-6.008e-04,0.00288
-6.000e-04,0.00184
-5.992e-04,-0.00048
-5.984e-04,0.0016
-5.976e-04,0.00296
-5.968e-04,0
-5.960e-04,0.00016
-5.952e-04,0.0036
-5.944e-04,0.00192
-5.936e-04,-0.00128
-5.928e-04,0.00096
-5.920e-04,0.00256
-5.912e-04,-0.00064
-5.904e-04,-0.00088
-5.896e-04,0.00184
-5.888e-04,0.00096
-5.880e-04,-0.00088
-5.872e-04,0.00104
-5.864e-04,0.00304
-5.856e-04,0.00032
-5.848e-04,-0.00072
-5.840e-04,0.00224
-5.832e-04,0.00168
-5.824e-04,-0.00176
-5.816e-04,-0.00048
-5.808e-04,0.00192
-5.800e-04,0
-5.792e-04,-0.0012
-5.784e-04,0.00152
-5.776e-04,0.00112
-5.768e-04,-0.00176
-5.760e-04,0.00112
-5.752e-04,0.00312
-5.744e-04,-0.00064
-5.736e-04,-0.00016
-5.728e-04,0.00312
-5.720e-04,0.00088
-5.712e-04,-0.00152
-5.704e-04,0.00176
-5.696e-04,0.00128
-5.688e-04,-0.00128
-5.680e-04,0.00144
-5.672e-04,0.00336
-5.664e-04,-0.00048
-5.656e-04,-0.00048
-5.648e-04,0.00288
-5.640e-04,0.00328
-5.632e-04,0
-5.624e-04,0.00072
-5.616e-04,0.00312
-5.608e-04,0.00136
-5.600e-04,-0.00048
-5.592e-04,0.0024
-5.584e-04,0.00296
-5.576e-04,-0.00024
-5.568e-04,0.00056
-5.560e-04,0.00472
-5.552e-04,0.0028
-5.544e-04,0.00032
-5.536e-04,0.00272
-5.528e-04,0.00416
-5.520e-04,0.00032
-5.512e-04,0.00024
-5.504e-04,0.00288
-5.496e-04,0.00152
-5.488e-04,-0.00064
-5.480e-04,0.00192
-5.472e-04,0.0028
-5.464e-04,-0.00088
-5.456e-04,-0.00016
-5.448e-04,0.00272
-5.440e-04,0.00184
-5.432e-04,-0.00168
-5.424e-04,0.00032
-5.416e-04,0.00176
-5.408e-04,-0.00128
-5.400e-04,-0.00144
-5.392e-04,0.00168
-5.384e-04,0.00024
-5.376e-04,-0.00176
-5.368e-04,0.00048
-5.360e-04,0.00152
-5.352e-04,-0.00128
-5.344e-04,-0.00184
-5.336e-04,0.00112
-5.328e-04,-0.00056
-5.320e-04,-0.0036
-5.312e-04,-0.0004
-5.304e-04,-0.00032
-5.296e-04,-0.00336
-5.288e-04,-0.00128
-5.280e-04,0.00104
-5.272e-04,-0.0024
-5.264e-04,-0.002
-5.256e-04,0.0016
-5.248e-04,-0.0008
-5.240e-04,-0.00328
-5.232e-04,-0.00112
-5.224e-04,0.00016
-5.216e-04,-0.00264
-5.208e-04,-0.00304
-5.200e-04,8e-05
-5.192e-04,-0.00104
-5.184e-04,-0.0032
-5.176e-04,-0.00024
-5.168e-04,0.00136
-5.160e-04,-0.00256
-5.152e-04,-0.002
-5.144e-04,0.00056
-5.136e-04,8e-05
-5.128e-04,-0.00216
-5.120e-04,-0.00128
-5.112e-04,0.00016
-5.104e-04,-0.00184
-5.096e-04,-0.00184
-5.088e-04,0.00136
-5.080e-04,0.00024
-5.072e-04,-0.00272
-5.064e-04,-0.00024
-5.056e-04,0.00232
-5.048e-04,-0.00096
-5.040e-04,-0.00216
-5.032e-04,0.00072
-5.024e-04,0
-5.016e-04,-0.0024
-5.008e-04,-0.00056
-5.000e-04,0.00104
-4.992e-04,-0.00032
-4.984e-04,-0.00176
-4.976e-04,0.00136
-4.968e-04,0.00208
-4.960e-04,-0.00208
-4.952e-04,-0.00136
-4.944e-04,0.00184
-4.936e-04,-0.00056
-4.928e-04,-0.00296
-4.920e-04,-0.0004
-4.912e-04,0.0008
-4.904e-04,-0.00232
-4.896e-04,-0.0008
-4.888e-04,0.00216
-4.880e-04,-0.00176
-4.872e-04,-0.00272
-4.864e-04,0.00048
-4.856e-04,-0.00048
-4.848e-04,-0.00376
-4.840e-04,-0.0024
-4.832e-04,0.00024
-4.824e-04,-0.00096
-4.816e-04,-0.00384
-4.808e-04,-0.00064
-4.800e-04,-0.00016
-4.792e-04,-0.00296
-4.784e-04,-0.0016
-4.776e-04,-0.00032
-4.768e-04,-0.00304
-4.760e-04,-0.00408
-4.752e-04,-0.00056
-4.744e-04,-0.00088
-4.736e-04,-0.00368
-4.728e-04,-0.00248
-4.720e-04,-0.00064
-4.712e-04,-0.00344
-4.704e-04,-0.00344
-4.696e-04,-0.0008
-4.688e-04,-0.00264
-4.680e-04,-0.00464
-4.672e-04,-0.00248
-4.664e-04,-0.0008
-4.656e-04,-0.00456
-4.648e-04,-0.00328
-4.640e-04,-0.00072
-4.632e-04,-0.00344
-4.624e-04,-0.00448
-4.616e-04,-0.002
-4.608e-04,-0.00224
-4.600e-04,-0.0048
-4.592e-04,-0.00304
-4.584e-04,-0.00016
-4.576e-04,-0.00352
-4.568e-04,-0.00544
-4.560e-04,-0.00088
-4.552e-04,-0.00136
-4.544e-04,-0.00424
-4.536e-04,-0.00256
-4.528e-04,-0.00104
-4.520e-04,-0.0036
-4.512e-04,-0.00472
-4.504e-04,-0.00192
-4.496e-04,-0.00152
-4.488e-04,-0.00464
-4.480e-04,-0.00392
-4.472e-04,-0.00104
-4.464e-04,-0.00248
-4.456e-04,-0.00496
-4.448e-04,-0.00232
-4.440e-04,-0.00112
-4.432e-04,-0.00432
-4.424e-04,-0.00384
-4.416e-04,-0.0016
-4.408e-04,-0.00368
-4.400e-04,-0.00424
-4.392e-04,-0.00056
-4.384e-04,-0.00136
-4.376e-04,-0.00544
-4.368e-04,-0.00288
-4.360e-04,0.0004
-4.352e-04,-0.00272
-4.344e-04,-0.00288
-4.336e-04,-8e-05
-4.328e-04,-0.00184
-4.320e-04,-0.00288
-4.312e-04,-0.00032
-4.304e-04,0.00032
-4.296e-04,-0.0028
-4.288e-04,-0.0016
-4.280e-04,0.0016
-4.272e-04,-0.00072
-4.264e-04,-0.0024
-4.256e-04,0.0012
-4.248e-04,0.00192
-4.240e-04,-0.00048
-4.232e-04,0.00016
-4.224e-04,0.00192
-4.216e-04,8e-05
-4.208e-04,-0.00064
-4.200e-04,0.00336
-4.192e-04,0.00232
-4.184e-04,-0.0008
-4.176e-04,0.0024
-4.168e-04,0.00344
-4.160e-04,0.00032
-4.152e-04,0.00192
-4.144e-04,0.0044
-4.136e-04,0.00224
-4.128e-04,0.00096
-4.120e-04,0.004
-4.112e-04,0.00448
-4.104e-04,0.00136
-4.096e-04,0.00216
-4.088e-04,0.006
-4.080e-04,0.00264
-4.072e-04,0.00128
-4.064e-04,0.00432
-4.056e-04,0.00432
-4.048e-04,0.00208
-4.040e-04,0.0036
-4.032e-04,0.00536
-4.024e-04,0.00176
-4.016e-04,0.00096
-4.008e-04,0.00432
-4.000e-04,0.00512
-3.992e-04,0.002
-3.984e-04,0.00232
-3.976e-04,0.00504
-3.968e-04,0.00336
-3.960e-04,0.002
-3.952e-04,0.00568
-3.944e-04,0.0052
-3.936e-04,0.00176
-3.928e-04,0.0024
-3.920e-04,0.00488
-3.912e-04,0.00256
-3.904e-04,0.00112
-3.896e-04,0.00392
-3.888e-04,0.00488
-3.880e-04,0.0008
-3.872e-04,0.00184
-3.864e-04,0.00416
-3.856e-04,0.00192
-3.848e-04,0.00088
-3.840e-04,0.00304
-3.832e-04,0.00272
-3.824e-04,-0.00048
-3.816e-04,0.0012
-3.808e-04,0.004
-3.800e-04,0.00224
-3.792e-04,-0.00032
-3.784e-04,0.00216
-3.776e-04,0.00224
-3.768e-04,8e-05
-3.760e-04,0.0008
-3.752e-04,0.0024
-3.744e-04,0.0008
-3.736e-04,-0.00064
-3.728e-04,0.0028
-3.720e-04,0.00208
-3.712e-04,-0.00096
-3.704e-04,0.00232
-3.696e-04,0.00416
-3.688e-04,0.00064
-3.680e-04,8e-05
-3.672e-04,0.0028
-3.664e-04,0.00056
-3.656e-04,-0.00088
-3.648e-04,0.002
-3.640e-04,0.00272
-3.632e-04,-0.0016
-3.624e-04,-0.00056
-3.616e-04,0.00328
-3.608e-04,0.00104
-3.600e-04,-0.00128
-3.592e-04,0.00224
-3.584e-04,0.00168
-3.576e-04,-0.00144
-3.568e-04,-0.00048
-3.560e-04,0.00176
-3.552e-04,-0.00064
-3.544e-04,-0.00216
-3.536e-04,0.00104
-3.528e-04,0.0016
-3.520e-04,-0.00104
-3.512e-04,-0.00192
-3.504e-04,0.00136
-3.496e-04,0.00104
-3.488e-04,-0.00144
-3.480e-04,-0.00176
-3.472e-04,0.0004
-3.464e-04,-0.0016
-3.456e-04,-0.00368
-3.448e-04,-8e-05
-3.440e-04,0.00104
-3.432e-04,-0.00272
-3.424e-04,-0.00232
-3.416e-04,0.00112
-3.408e-04,0.00112
-3.400e-04,-0.00176
-3.392e-04,-0.00104
-3.384e-04,0.00152
-3.376e-04,-0.00032
-3.368e-04,-0.00208
-3.360e-04,0.00096
-3.352e-04,0.00128
-3.344e-04,-8e-05
-3.336e-04,0.00024
-3.328e-04,0.002
-3.320e-04,0.0012
-3.312e-04,-0.00176
-3.304e-04,0.00128
-3.296e-04,0.00368
-3.288e-04,8e-05
-3.280e-04,-0.00088
-3.272e-04,0.00272
-3.264e-04,0.00288
-3.256e-04,0.00016
-3.248e-04,0.00144
-3.240e-04,0.0036
-3.232e-04,-0.00056
-3.224e-04,-0.00072
-3.216e-04,0.0024
-3.208e-04,0.00144
-3.200e-04,-0.00128
-3.192e-04,0.00176
-3.184e-04,0.00312
-3.176e-04,0.00056
-3.168e-04,0.0004
-3.160e-04,0.00272
-3.152e-04,0.00176
-3.144e-04,-0.00072
-3.136e-04,0.00144
-3.128e-04,0.00176
-3.120e-04,-0.00168
-3.112e-04,-0.00096
-3.104e-04,0.00272
-3.096e-04,0.00064
-3.088e-04,-0.0008
-3.080e-04,0.00088
-3.072e-04,0.00192
-3.064e-04,-0.0008
-3.056e-04,-0.00032
-3.048e-04,0.00272
-3.040e-04,-0.00024
-3.032e-04,-0.00216
-3.024e-04,0.00048
-3.016e-04,0.00056
-3.008e-04,-0.00288
-3.000e-04,-0.00216
-2.992e-04,0
-2.984e-04,-0.00224
-2.976e-04,-0.00336
-2.968e-04,-0.00104
-2.960e-04,-0.0012
-2.952e-04,-0.00368
-2.944e-04,-0.00288
-2.936e-04,-0.00048
-2.928e-04,-0.00336
-2.920e-04,-0.0056
-2.912e-04,-0.00248
-2.904e-04,-0.00096
-2.896e-04,-0.00416
-2.888e-04,-0.00392
-2.880e-04,-0.00112
-2.872e-04,-0.00272
-2.864e-04,-0.00456
-2.856e-04,-0.0016
-2.848e-04,-0.00064
-2.840e-04,-0.00536
-2.832e-04,-0.00376
-2.824e-04,-0.00032
-2.816e-04,-0.00312
-2.808e-04,-0.00448
-2.800e-04,-0.00072
-2.792e-04,0.00024
-2.784e-04,-0.00264
-2.776e-04,-0.0024
-2.768e-04,-0.00048
-2.760e-04,-0.0024
-2.752e-04,-0.00432
-2.744e-04,-0.00144
-2.736e-04,-0.00104
-2.728e-04,-0.00448
-2.720e-04,-0.00352
-2.712e-04,0.00016
-2.704e-04,-0.0012
-2.696e-04,-0.00344
-2.688e-04,-0.00232
-2.680e-04,-0.00048
-2.672e-04,-0.00352
-2.664e-04,-0.00288
-2.656e-04,0
-2.648e-04,-0.0016
-2.640e-04,-0.00328
-2.632e-04,0.0004
-2.624e-04,0.00064
-2.616e-04,-0.00264
-2.608e-04,-0.00144
-2.600e-04,0.00168
-2.592e-04,-0.00112
-2.584e-04,-0.00224
-2.576e-04,0.00056
-2.568e-04,0
-2.560e-04,-0.002
-2.552e-04,0.00032
-2.544e-04,0.00336
-2.536e-04,-0.00072
-2.528e-04,-0.00184
-2.520e-04,0.00168
-2.512e-04,0.00104
-2.504e-04,-0.00192
-2.496e-04,-8e-05
-2.488e-04,0.00176
-2.480e-04,-0.00088
-2.472e-04,-0.00088
-2.464e-04,0.00312
-2.456e-04,0.0016
-2.448e-04,-0.00096
-2.440e-04,0.00192
-2.432e-04,0.00352
-2.424e-04,0.00088
-2.416e-04,0.00032
-2.408e-04,0.00168
-2.400e-04,0.00224
-2.392e-04,-8e-05
-2.384e-04,0.00088
-2.376e-04,0.0036
-2.368e-04,0.0012
-2.360e-04,0.00024
-2.352e-04,0.004
-2.344e-04,0.00432
-2.336e-04,0.00032
-2.328e-04,0.00136
-2.320e-04,0.00536
-2.312e-04,0.00296
-2.304e-04,-8e-05
-2.296e-04,0.00272
-2.288e-04,0.004
-2.280e-04,0.00096
-2.272e-04,0.00136
-2.264e-04,0.00432
-2.256e-04,0.00296
-2.248e-04,0.00072
-2.240e-04,0.00312
-2.232e-04,0.00424
-2.224e-04,0.00112
-2.216e-04,0.00112
-2.208e-04,0.00384
-2.200e-04,0.00304
-2.192e-04,0
-2.184e-04,0.00224
-2.176e-04,0.00408
-2.168e-04,0.00144
-2.160e-04,0.00152
-2.152e-04,0.00416
-2.144e-04,0.00232
-2.136e-04,8e-05
-2.128e-04,0.00264
-2.120e-04,0.00416
-2.112e-04,0.00072
-2.104e-04,-0.00016
-2.096e-04,0.00336
-2.088e-04,0.00152
-2.080e-04,-0.0004
-2.072e-04,0.002
-2.064e-04,0.00272
-2.056e-04,-8e-05
-2.048e-04,-0.00024
-2.040e-04,0.00312
-2.032e-04,0.00208
-2.024e-04,-0.00104
-2.016e-04,0.0016
-2.008e-04,0.00328
-2.000e-04,-0.0004
-1.992e-04,-0.00072
-1.984e-04,0.002
-1.976e-04,0.00168
-1.968e-04,-0.00032
-1.960e-04,0.00136
-1.952e-04,0.00296
-1.944e-04,0.00024
-1.936e-04,-0.0008
-1.928e-04,0.00328
-1.920e-04,0.00272
-1.912e-04,-0.00024
-1.904e-04,0.00144
-1.896e-04,0.004
-1.888e-04,0.0012
-1.880e-04,8e-05
-1.872e-04,0.00352
-1.864e-04,0.00328
-1.856e-04,0
-1.848e-04,0.00232
-1.840e-04,0.00496
-1.832e-04,0.00216
-1.824e-04,0.00064
-1.816e-04,0.00384
-1.808e-04,0.00432
-1.800e-04,0.00104
-1.792e-04,0.00168
-1.784e-04,0.00384
-1.776e-04,0.00176
-1.768e-04,0.00128
-1.760e-04,0.00432
-1.752e-04,0.00432
-1.744e-04,0.00056
-1.736e-04,0.00232
-1.728e-04,0.00544
-1.720e-04,0.00344
-1.712e-04,0.00064
-1.704e-04,0.0032
-1.696e-04,0.004
-1.688e-04,0.00144
-1.680e-04,0.00208
-1.672e-04,0.00472
-1.664e-04,0.00304
-1.656e-04,0.00104
-1.648e-04,0.00384
-1.640e-04,0.00448
-1.632e-04,-0.00016
-1.624e-04,0.00136
-1.616e-04,0.00432
-1.608e-04,0.00176
-1.600e-04,-0.00016
-1.592e-04,0.00248
-1.584e-04,0.00264
-1.576e-04,-0.0004
-1.568e-04,0.00176
-1.560e-04,0.00336
-1.552e-04,-0.0012
-1.544e-04,-0.0012
-1.536e-04,0.002
-1.528e-04,0.00056
-1.520e-04,-0.0024
-1.512e-04,-0.00032
-1.504e-04,0.00048
-1.496e-04,-0.00288
-1.488e-04,-0.00232
-1.480e-04,0.00056
-1.472e-04,-0.00192
-1.464e-04,-0.00392
-1.456e-04,-0.0004
-1.448e-04,-0.00016
-1.440e-04,-0.00352
-1.432e-04,-0.0028
-1.424e-04,8e-05
-1.416e-04,-0.00128
-1.408e-04,-0.00392
-1.400e-04,-0.00248
-1.392e-04,-0.00112
-1.384e-04,-0.00304
-1.376e-04,-0.00312
-1.368e-04,-0.00048
-1.360e-04,-0.00064
-1.352e-04,-0.00392
-1.344e-04,-0.00296
-1.336e-04,0.00024
-1.328e-04,-0.00056
-1.320e-04,-0.00352
-1.312e-04,-0.00128
-1.304e-04,0.00096
-1.296e-04,-0.00232
-1.288e-04,-0.00384
-1.280e-04,0.00024
-1.272e-04,-0.00096
-1.264e-04,-0.00328
-1.256e-04,-0.0012
-1.248e-04,0.00024
-1.240e-04,-0.00224
-1.232e-04,-0.00296
-1.224e-04,0.00072
-1.216e-04,0.00088
-1.208e-04,-0.002
-1.200e-04,-0.00184
-1.192e-04,0.00032
-1.184e-04,-0.0012
-1.176e-04,-0.00216
-1.168e-04,0.00016
-1.160e-04,0.00024
-1.152e-04,-0.0024
-1.144e-04,-0.00088
-1.136e-04,0.00232
-1.128e-04,-0.00128
-1.120e-04,-0.0012
-1.112e-04,0.00288
-1.104e-04,0.002
-1.096e-04,-0.0008
-1.088e-04,0.00128
-1.080e-04,0.00264
-1.072e-04,0.00024
-1.064e-04,0.00048
-1.056e-04,0.00352
-1.048e-04,-0.00016
-1.040e-04,-0.0024
-1.032e-04,0.00128
-1.024e-04,0.00256
-1.016e-04,-0.00136
-1.008e-04,-0.00136
-1.000e-04,0.0008
-9.920e-05,-0.00072
-9.840e-05,-0.00224
-9.760e-05,0.0004
-9.680e-05,0.00152
-9.600e-05,-0.00176
-9.520e-05,-0.00152
-9.440e-05,0.00152
-9.360e-05,-0.00048
-9.280e-05,-0.00304
-9.200e-05,0.0004
-9.120e-05,0.00104
-9.040e-05,-0.002
-8.960e-05,-0.0016
-8.880e-05,0.0004
-8.800e-05,-0.00216
-8.720e-05,-0.0036
-8.640e-05,-0.00024
-8.560e-05,-8e-05
-8.480e-05,-0.00376
-8.400e-05,-0.00304
-8.320e-05,0.00016
-8.240e-05,-0.00112
-8.160e-05,-0.0032
-8.080e-05,-0.00128
-8.000e-05,-0.00024
-7.920e-05,-0.0024
-7.840e-05,-0.00216
-7.760e-05,0.0004
-7.680e-05,-0.00032
-7.600e-05,-0.00256
-7.520e-05,-0.00096
-7.440e-05,0.0012
-7.360e-05,-0.00256
-7.280e-05,-0.00272
-7.200e-05,0.00096
-7.120e-05,0.00032
-7.040e-05,-0.0028
-6.960e-05,0.00024
-6.880e-05,0.00104
-6.800e-05,-0.00152
-6.720e-05,-0.00088
-6.640e-05,0.00264
-6.560e-05,0.00032
-6.480e-05,-0.00272
-6.400e-05,0.00184
-6.320e-05,0.00208
-6.240e-05,-0.00216
-6.160e-05,8e-05
-6.080e-05,0.00216
-6.000e-05,-0.00048
-5.920e-05,-0.00072
-5.840e-05,0.00176
-5.760e-05,0.00192
-5.680e-05,-0.00016
-5.600e-05,0.00176
-5.520e-05,0.00368
-5.440e-05,0.00064
-5.360e-05,-0.00016
-5.280e-05,0.00296
-5.200e-05,0.00288
-5.120e-05,0.00064
-5.040e-05,0.00128
-4.960e-05,0.00336
-4.880e-05,0.00152
-4.800e-05,0.00072
-4.720e-05,0.00424
-4.640e-05,0.00384
-4.560e-05,0.0004
-4.480e-05,0.0024
-4.400e-05,0.0068
-4.320e-05,0.00344
-4.240e-05,0.00088
-4.160e-05,0.00464
-4.080e-05,0.00376
-4.000e-05,0.0012
-3.920e-05,0.00208
-3.840e-05,0.0044
-3.760e-05,0.0016
-3.680e-05,0.0004
-3.600e-05,0.00368
-3.520e-05,0.00448
-3.440e-05,0.00104
-3.360e-05,0.00208
-3.280e-05,0.00408
-3.200e-05,0.00272
-3.120e-05,0.00136
-3.040e-05,0.0028
-2.960e-05,0.00328
-2.880e-05,0.00024
-2.800e-05,0.0008
-2.720e-05,0.00416
-2.640e-05,0.00224
-2.560e-05,-0.00144
-2.480e-05,0.00144
-2.400e-05,0.00376
-2.320e-05,0.0008
-2.240e-05,0.00016
-2.160e-05,0.00352
-2.080e-05,0.00304
-2.000e-05,-0.00016
-1.920e-05,0.0016
-1.840e-05,0.00304
-1.760e-05,0.0004
-1.680e-05,-0.00016
-1.600e-05,0.00272
-1.520e-05,0.00176
-1.440e-05,-0.00128
-1.360e-05,-0.00024
-1.280e-05,0.00184
-1.200e-05,0.00016
-1.120e-05,-0.0016
-1.040e-05,0.00072
-9.600e-06,0.00104
-8.800e-06,-0.002
-8.000e-06,-0.0004
-7.200e-06,0.002
-6.400e-06,-0.00128
-5.600e-06,-0.00224
-4.800e-06,0.00136
-4.000e-06,0.00096
-3.200e-06,-0.0032
-2.400e-06,-0.00088
-1.600e-06,0.00104
-8.000e-07,-0.00312
1.278e-17,-0.00264
8.000e-07,-0.00024
1.600e-06,-0.00336
2.400e-06,-0.00392
3.200e-06,-8e-05
4.000e-06,-0.00144
4.800e-06,-0.00464
5.600e-06,-0.00192
6.400e-06,-8e-05
7.200e-06,-0.0028
8.000e-06,-0.00264
8.800e-06,0.00024
9.600e-06,-0.0024
1.040e-05,-0.00384
1.120e-05,-0.00064
1.200e-05,-0.00064
1.280e-05,-0.00384
1.360e-05,-0.00336
1.440e-05,-0.00072
1.520e-05,-0.00248
1.600e-05,-0.004
1.680e-05,-0.00176
1.760e-05,-0.00136
1.840e-05,-0.00384
1.920e-05,-0.00328
2.000e-05,-0.00032
2.080e-05,-0.00192
2.160e-05,-0.004
2.240e-05,-0.0008
2.320e-05,0.00032
2.400e-05,-0.00304
2.480e-05,-0.00304
2.560e-05,0.00024
