data/PSU_noise/PSU1_CV1_60A_10ms.CSV

Model,TBS1102C
Firmware Version,v2015-08-04-prequal4ch70_v1.3

Point Format,Y
Horizontal Units,S
Horizontal Scale,0.01
Sample Interval,8e-05
Filter Frequency,2e+08
Record Length,2000
Gating,0.0% to 100.0%
Probe Attenuation,1
Vertical Units,V
Vertical Offset,0
Vertical Scale,0.002
Label,
TIME,CH1
-8.000e-02,0.00472
-7.992e-02,-0.00048
-7.984e-02,8e-05
-7.976e-02,-0.00136
-7.968e-02,-0.00312
-7.960e-02,-0.00096
-7.952e-02,0.00032
-7.944e-02,0.0004
-7.936e-02,0
-7.928e-02,-0.00184
-7.920e-02,-0.00672
-7.912e-02,0.00416
-7.904e-02,0.0012
-7.896e-02,0.00024
-7.888e-02,0.00216
-7.880e-02,0.0048
-7.872e-02,0.004
-7.864e-02,-0.0016
-7.856e-02,0.00312
-7.848e-02,0.00016
-7.840e-02,8e-05
-7.832e-02,0.00456
-7.824e-02,0.0028
-7.816e-02,-0.00216
-7.808e-02,0.0012
-7.800e-02,0.00376
-7.792e-02,-0.00848
-7.784e-02,0.0032
-7.776e-02,0.0056
-7.768e-02,-0.00016
-7.760e-02,0.00232
-7.752e-02,-0.0016
-7.744e-02,-0.00152
-7.736e-02,-0.00112
-7.728e-02,0
-7.720e-02,-0.00096
-7.712e-02,0.0012
-7.704e-02,0.00264
-7.696e-02,-0.00168
-7.688e-02,-0.00136
-7.680e-02,-0.00088
-7.672e-02,-0.00016
-7.664e-02,0.00184
-7.656e-02,0.00264
-7.648e-02,0.00512
-7.640e-02,0.00192
-7.632e-02,-0.00176
-7.624e-02,-0.0028
-7.616e-02,0.0028
-7.608e-02,-0.00616
-7.600e-02,0.00624
-7.592e-02,-0.00072
-7.584e-02,-0.00072
-7.576e-02,0.00464
-7.568e-02,-0.00536
-7.560e-02,0.00656
-7.552e-02,-0.00264
-7.544e-02,0.00104
-7.536e-02,-0.00144
-7.528e-02,-0.002
-7.520e-02,-8e-05
-7.512e-02,-0.00384
-7.504e-02,0.00024
-7.496e-02,-0.00136
-7.488e-02,-0.00256
-7.480e-02,-0.00536
-7.472e-02,0.00224
-7.464e-02,-0.00168
-7.456e-02,-0.00112
-7.448e-02,-0.0008
-7.440e-02,0.00152
-7.432e-02,0.00088
-7.424e-02,0.00424
-7.416e-02,-0.00016
-7.408e-02,-0.00048
-7.400e-02,0.00312
-7.392e-02,-0.00304
-7.384e-02,-0.00144
-7.376e-02,0.00104
-7.368e-02,0.00072
-7.360e-02,-0.00336
-7.352e-02,-0.002
-7.344e-02,-0.00328
-7.336e-02,-0.00088
-7.328e-02,-0.00232
-7.320e-02,0.00272
-7.312e-02,0.00272
-7.304e-02,-0.00192
-7.296e-02,-0.0012
-7.288e-02,-0.00272
-7.280e-02,0.00384
-7.272e-02,-0.00536
-7.264e-02,0.00296
-7.256e-02,-0.00728
-7.248e-02,0.002
-7.240e-02,-0.0012
-7.232e-02,0.0036
-7.224e-02,0.00168
-7.216e-02,0.00264
-7.208e-02,0.00152
-7.200e-02,-0.0036
-7.192e-02,-0.0012
-7.184e-02,0.00048
-7.176e-02,-0.00256
-7.168e-02,-0.00232
-7.160e-02,0.00168
-7.152e-02,-0.00328
-7.144e-02,0.00096
-7.136e-02,0.00064
-7.128e-02,-0.00288
-7.120e-02,-0.00448
-7.112e-02,0.00416
-7.104e-02,0.00224
-7.096e-02,0.00144
-7.088e-02,-0.00192
-7.080e-02,-0.00056
-7.072e-02,0.0028
-7.064e-02,0.00328
-7.056e-02,8e-05
-7.048e-02,0.00376
-7.040e-02,-0.004
-7.032e-02,0.00048
-7.024e-02,0.00296
-7.016e-02,-0.00048
-7.008e-02,-0.00304
-7.000e-02,0.00184
-6.992e-02,0.00352
-6.984e-02,-0.00056
-6.976e-02,-0.00128
-6.968e-02,0
-6.960e-02,0.00128
-6.952e-02,0.00416
-6.944e-02,-0.00024
-6.936e-02,-0.00056
-6.928e-02,0.00504
-6.920e-02,-0.00512
-6.912e-02,0.00656
-6.904e-02,-0.00544
-6.896e-02,0.00272
-6.888e-02,-0.00296
-6.880e-02,-0.00088
-6.872e-02,-0.00192
-6.864e-02,0.00648
-6.856e-02,0.00112
-6.848e-02,-0.00088
-6.840e-02,-0.0048
-6.832e-02,0.00576
-6.824e-02,-0.00416
-6.816e-02,-0.00448
-6.808e-02,0.00192
-6.800e-02,0.00088
-6.792e-02,0.00072
-6.784e-02,0.00432
-6.776e-02,0.00032
-6.768e-02,0.0004
-6.760e-02,0.00064
-6.752e-02,0.00168
-6.744e-02,0.00696
-6.736e-02,-0.0024
-6.728e-02,0.00448
-6.720e-02,-0.0004
-6.712e-02,-0.00056
-6.704e-02,-0.00288
-6.696e-02,0.00208
-6.688e-02,0
-6.680e-02,-0.00096
-6.672e-02,-0.00216
-6.664e-02,-0.006
-6.656e-02,0.0004
-6.648e-02,0.00184
-6.640e-02,-0.0016
-6.632e-02,0.00456
-6.624e-02,-0.00288
-6.616e-02,0.00256
-6.608e-02,-0.00272
-6.600e-02,0.00432
-6.592e-02,-0.0068
-6.584e-02,0
-6.576e-02,0.00152
-6.568e-02,-0.00336
-6.560e-02,0.00088
-6.552e-02,-0.00088
-6.544e-02,0.00448
-6.536e-02,0.00296
-6.528e-02,-0.00344
-6.520e-02,0.00048
-6.512e-02,-0.00472
-6.504e-02,0.00272
-6.496e-02,0.00456
-6.488e-02,-0.0044
-6.480e-02,-0.00248
-6.472e-02,0.00496
-6.464e-02,0.00296
-6.456e-02,-0.00392
-6.448e-02,0.00344
-6.440e-02,0.00224
-6.432e-02,0
-6.424e-02,-0.0044
-6.416e-02,8e-05
-6.408e-02,-0.00128
-6.400e-02,0.00016
-6.392e-02,0.00312
-6.384e-02,-0.00256
-6.376e-02,-0.00376
-6.368e-02,0.004
-6.360e-02,0.00384
-6.352e-02,-0.002
-6.344e-02,0.00056
-6.336e-02,0.00024
-6.328e-02,-0.00056
-6.320e-02,-0.00024
-6.312e-02,-0.00056
-6.304e-02,-0.00024
-6.296e-02,-0.00048
-6.288e-02,-0.00248
-6.280e-02,-0.0036
-6.272e-02,-0.00296
-6.264e-02,0.00048
-6.256e-02,-0.006
-6.248e-02,0.00784
-6.240e-02,-0.00056
-6.232e-02,0.00352
-6.224e-02,0.00016
-6.216e-02,0.0036
-6.208e-02,-0.00192
-6.200e-02,0.0024
-6.192e-02,-0.0024
-6.184e-02,0.00016
-6.176e-02,0.00168
-6.168e-02,0.00312
-6.160e-02,0.00264
-6.152e-02,-0.0048
-6.144e-02,0.00088
-6.136e-02,0.00168
-6.128e-02,-0.00088
-6.120e-02,0.00264
-6.112e-02,0.00152
-6.104e-02,-0.00032
-6.096e-02,0.00168
-6.088e-02,-0.00136
-6.080e-02,-0.00176
-6.072e-02,0.00088
-6.064e-02,0.00088
-6.056e-02,-8e-05
-6.048e-02,-0.00072
-6.040e-02,-0.00176
-6.032e-02,0.00288
-6.024e-02,-0.0004
-6.016e-02,0.00224
-6.008e-02,-0.00264
-6.000e-02,0.004
-5.992e-02,-0.00048
-5.984e-02,-0.00424
-5.976e-02,0.002
-5.968e-02,-0.00056
-5.960e-02,-0.00312
-5.952e-02,0.00384
-5.944e-02,-0.00064
-5.936e-02,0
-5.928e-02,0.00064
-5.920e-02,-0.00752
-5.912e-02,0.00808
-5.904e-02,0.00136
-5.896e-02,0.00496
-5.888e-02,0.00112
-5.880e-02,0
-5.872e-02,0.00208
-5.864e-02,0.0028
-5.856e-02,0.00312
-5.848e-02,0.00312
-5.840e-02,-0.00888
-5.832e-02,0.00432
-5.824e-02,0.0036
-5.816e-02,-0.00688
-5.808e-02,0.00352
-5.800e-02,0.00144
-5.792e-02,-0.00424
-5.784e-02,0.00032
-5.776e-02,0.00448
-5.768e-02,-0.00592
-5.760e-02,0.00176
-5.752e-02,0.00056
-5.744e-02,0.00192
-5.736e-02,0.0004
-5.728e-02,-0.00136
-5.720e-02,0.00336
-5.712e-02,-0.00016
-5.704e-02,0.00288
-5.696e-02,-0.00344
-5.688e-02,-0.00416
-5.680e-02,-0.00144
-5.672e-02,0.0024
-5.664e-02,0.00248
-5.656e-02,-0.00072
-5.648e-02,0.00192
-5.640e-02,0.00216
-5.632e-02,0.00264
-5.624e-02,0.00128
-5.616e-02,-0.00192
-5.608e-02,-0.00488
-5.600e-02,0.00552
-5.592e-02,-0.00872
-5.584e-02,0.006
-5.576e-02,0.00304
-5.568e-02,-0.00288
-5.560e-02,0.00544
-5.552e-02,-0.00272
-5.544e-02,-0.002
-5.536e-02,0.0028
-5.528e-02,-0.00272
-5.520e-02,0.00312
-5.512e-02,-0.00216
-5.504e-02,-0.00144
-5.496e-02,0.00224
-5.488e-02,-0.00016
-5.480e-02,-0.00376
-5.472e-02,0.00552
-5.464e-02,0.00192
-5.456e-02,0.00064
-5.448e-02,0.00128
-5.440e-02,0.00048
-5.432e-02,0.00328
-5.424e-02,0.0044
-5.416e-02,-0.00056
-5.408e-02,0.00208
-5.400e-02,0.00448
-5.392e-02,-0.00176
-5.384e-02,0.00032
-5.376e-02,0.00104
-5.368e-02,-0.00072
-5.360e-02,-0.00112
-5.352e-02,0.00336
-5.344e-02,0.0024
-5.336e-02,-0.00096
-5.328e-02,0.00032
-5.320e-02,-0.00016
-5.312e-02,-0.00064
-5.304e-02,0.00336
-5.296e-02,0.00056
-5.288e-02,-0.00184
-5.280e-02,-0.0012
-5.272e-02,0.00464
-5.264e-02,0.00176
-5.256e-02,-0.00576
-5.248e-02,-0.00192
-5.240e-02,0.00208
-5.232e-02,-0.00096
-5.224e-02,0.00376
-5.216e-02,0.00144
-5.208e-02,0.00424
-5.200e-02,0.0008
-5.192e-02,-0.0012
-5.184e-02,0.00304
-5.176e-02,-0.00704
-5.168e-02,-0.00024
-5.160e-02,0.0004
-5.152e-02,-0.00496
-5.144e-02,0.0004
-5.136e-02,0.00216
-5.128e-02,0.0004
-5.120e-02,0.00272
-5.112e-02,0.00656
-5.104e-02,-0.00144
-5.096e-02,0.00192
-5.088e-02,0.00128
-5.080e-02,-0.0036
-5.072e-02,0.00056
-5.064e-02,-0.00064
-5.056e-02,0.0008
-5.048e-02,-0.0012
-5.040e-02,-0.00192
-5.032e-02,-0.00512
-5.024e-02,-0.00464
-5.016e-02,0.00336
-5.008e-02,-0.00024
-5.000e-02,0.00104
-4.992e-02,0.002
-4.984e-02,-0.00432
-4.976e-02,-0.00088
-4.968e-02,0.00136
-4.960e-02,-0.00432
-4.952e-02,0.00416
-4.944e-02,-0.00264
-4.936e-02,0.0052
-4.928e-02,-0.00224
-4.920e-02,-0.00488
-4.912e-02,0.00616
-4.904e-02,-0.0028
-4.896e-02,0.00336
-4.888e-02,0.0036
-4.880e-02,0.00144
-4.872e-02,0.00048
-4.864e-02,-0.00176
-4.856e-02,-0.00184
-4.848e-02,0.00096
-4.840e-02,-0.00048
-4.832e-02,0.0032
-4.824e-02,0.004
-4.816e-02,-0.00312
-4.808e-02,0.00296
-4.800e-02,0.0028
-4.792e-02,0.00048
-4.784e-02,-0.00152
-4.776e-02,0.00256
-4.768e-02,-0.00296
-4.760e-02,-0.00232
-4.752e-02,-0.00288
-4.744e-02,-0.00192
-4.736e-02,0.00144
-4.728e-02,0.0004
-4.720e-02,-0.00304
-4.712e-02,-0.00048
-4.704e-02,0.0028
-4.696e-02,-0.00232
-4.688e-02,0.00136
-4.680e-02,-0.00264
-4.672e-02,-0.00272
-4.664e-02,0.00168
-4.656e-02,-0.0004
-4.648e-02,0.0012
-4.640e-02,-0.00136
-4.632e-02,-0.0044
-4.624e-02,0.00248
-4.616e-02,0.00096
-4.608e-02,-0.00696
-4.600e-02,0.00912
-4.592e-02,-0.00232
-4.584e-02,-0.00192
-4.576e-02,0.00336
-4.568e-02,-0.00152
-4.560e-02,0.00128
-4.552e-02,0.00184
-4.544e-02,0.00184
-4.536e-02,-0.0016
-4.528e-02,-0.00272
-4.520e-02,0.00352
-4.512e-02,-0.00216
-4.504e-02,0.00296
-4.496e-02,-0.00032
-4.488e-02,0.00152
-4.480e-02,-0.0024
-4.472e-02,0.0048
-4.464e-02,0.00192
-4.456e-02,-0.00296
-4.448e-02,0.00032
-4.440e-02,0.00112
-4.432e-02,0.00336
-4.424e-02,-0.0008
-4.416e-02,0.00104
-4.408e-02,0.0004
-4.400e-02,-0.00136
-4.392e-02,-0.00072
-4.384e-02,-0.00176
-4.376e-02,0.00024
-4.368e-02,0.00248
-4.360e-02,8e-05
-4.352e-02,-0.00048
-4.344e-02,-0.00288
-4.336e-02,-0.00376
-4.328e-02,0.00176
-4.320e-02,0.00152
-4.312e-02,-0.00616
-4.304e-02,0.00312
-4.296e-02,0.00112
-4.288e-02,0.00632
-4.280e-02,-0.0052
-4.272e-02,0.00448
-4.264e-02,0.0012
-4.256e-02,-0.00176
-4.248e-02,0.00608
-4.240e-02,-0.0052
-4.232e-02,0.00488
-4.224e-02,-0.00056
-4.216e-02,-0.002
-4.208e-02,0.00208
-4.200e-02,0.00048
-4.192e-02,0.00376
-4.184e-02,0.00184
-4.176e-02,-0.00168
-4.168e-02,0.00352
-4.160e-02,8e-05
-4.152e-02,-0.00248
-4.144e-02,0.00432
-4.136e-02,0.00352
-4.128e-02,0.00048
-4.120e-02,0.00056
-4.112e-02,-0.00264
-4.104e-02,-0.00808
-4.096e-02,0.00136
-4.088e-02,-0.00016
-4.080e-02,0.00248
-4.072e-02,-0.00192
-4.064e-02,0.0016
-4.056e-02,-0.00048
-4.048e-02,0.00088
-4.040e-02,0.00208
-4.032e-02,-0.00088
-4.024e-02,0.00136
-4.016e-02,-0.00352
-4.008e-02,-0.004
-4.000e-02,0.00032
-3.992e-02,-0.0024
-3.984e-02,0.00192
-3.976e-02,-0.00672
-3.968e-02,0.0008
-3.960e-02,0.00016
-3.952e-02,-0.00224
-3.944e-02,-0.00128
-3.936e-02,0.00376
-3.928e-02,0.00208
-3.920e-02,8e-05
-3.912e-02,0.00672
-3.904e-02,-0.00496
-3.896e-02,0
-3.888e-02,-0.00224
-3.880e-02,-0.00136
-3.872e-02,0.00096
-3.864e-02,0.00296
-3.856e-02,0.00056
-3.848e-02,-0.0016
-3.840e-02,0.00072
-3.832e-02,0.00528
-3.824e-02,0.00272
-3.816e-02,-0.0052
-3.808e-02,0.00584
-3.800e-02,0.00328
-3.792e-02,-0.00048
-3.784e-02,0
-3.776e-02,-0.00112
-3.768e-02,-0.00168
-3.760e-02,8e-05
-3.752e-02,0.00088
-3.744e-02,-0.00112
-3.736e-02,-0.00296
-3.728e-02,0.00048
-3.720e-02,-0.00336
-3.712e-02,-0.00232
-3.704e-02,-0.00288
-3.696e-02,-0.00264
-3.688e-02,-8e-05
-3.680e-02,0.00296
-3.672e-02,0.00256
-3.664e-02,0.00136
-3.656e-02,-0.00544
-3.648e-02,0.002
-3.640e-02,-0.00576
-3.632e-02,0.00424
-3.624e-02,0.0024
-3.616e-02,0.00304
-3.608e-02,-0.00216
-3.600e-02,0.00472
-3.592e-02,-0.00704
-3.584e-02,-0.0012
-3.576e-02,0.00392
-3.568e-02,-0.00208
-3.560e-02,0.002
-3.552e-02,0.0032
-3.544e-02,0.00328
-3.536e-02,-0.00224
-3.528e-02,-0.00016
-3.520e-02,0.00088
-3.512e-02,0.00136
-3.504e-02,0.0024
-3.496e-02,0.00248
-3.488e-02,0.00024
-3.480e-02,-0.00048
-3.472e-02,0.00528
-3.464e-02,-0.00264
-3.456e-02,-0.00208
-3.448e-02,0.00112
-3.440e-02,-0.00032
-3.432e-02,-0.00144
-3.424e-02,0.00176
-3.416e-02,-0.00376
-3.408e-02,-0.00344
-3.400e-02,0.00384
-3.392e-02,-0.00048
-3.384e-02,0.00416
-3.376e-02,-0.002
-3.368e-02,-0.00064
-3.360e-02,-0.0004
-3.352e-02,0.002
-3.344e-02,-0.00264
-3.336e-02,-0.00032
-3.328e-02,-0.00168
-3.320e-02,0.00032
-3.312e-02,-0.00248
-3.304e-02,0.00064
-3.296e-02,-0.00352
-3.288e-02,-0.00104
-3.280e-02,-0.00064
-3.272e-02,0.00144
-3.264e-02,0.00368
-3.256e-02,-0.00256
-3.248e-02,0.00448
-3.240e-02,0.00016
-3.232e-02,-0.00048
-3.224e-02,0.00256
-3.216e-02,-0.00176
-3.208e-02,0.00272
-3.200e-02,0.00016
-3.192e-02,-0.00104
-3.184e-02,0.00128
-3.176e-02,-0.00296
-3.168e-02,-0.00048
-3.160e-02,0.00784
-3.152e-02,-0.00392
-3.144e-02,0.00024
-3.136e-02,0.00208
-3.128e-02,-0.00744
-3.120e-02,-0.00088
-3.112e-02,0.00912
-3.104e-02,0.00152
-3.096e-02,-0.00256
-3.088e-02,-0.00168
-3.080e-02,-0.00248
-3.072e-02,0.00048
-3.064e-02,0.0004
-3.056e-02,-0.00016
-3.048e-02,-0.00296
-3.040e-02,-0.00232
-3.032e-02,0.0012
-3.024e-02,0.00152
-3.016e-02,0.00224
-3.008e-02,-0.00176
-3.000e-02,0.00048
-2.992e-02,-0.00384
-2.984e-02,-0.00048
-2.976e-02,-0.00312
-2.968e-02,0.00072
-2.960e-02,0.00224
-2.952e-02,0.00448
-2.944e-02,-0.004
-2.936e-02,0.00616
-2.928e-02,0.00112
-2.920e-02,-0.0028
-2.912e-02,0.00472
-2.904e-02,-0.00576
-2.896e-02,0.00128
-2.888e-02,0.00032
-2.880e-02,0.00488
-2.872e-02,-0.0016
-2.864e-02,0.00264
-2.856e-02,0.00504
-2.848e-02,-0.0008
-2.840e-02,-0.00248
-2.832e-02,0.00432
-2.824e-02,-0.00568
-2.816e-02,-0.00176
-2.808e-02,0.00456
-2.800e-02,0.0052
-2.792e-02,-0.00152
-2.784e-02,-0.0036
-2.776e-02,-0.00088
-2.768e-02,-0.00016
-2.760e-02,0.00152
-2.752e-02,0.00408
-2.744e-02,0.00192
-2.736e-02,0
-2.728e-02,0.00072
-2.720e-02,-0.0008
-2.712e-02,0.00264
-2.704e-02,0.00024
-2.696e-02,-0.00088
-2.688e-02,-0.00208
-2.680e-02,-0.00376
-2.672e-02,-0.0036
-2.664e-02,0.00104
-2.656e-02,-0.00056
-2.648e-02,0.00128
-2.640e-02,-0.00096
-2.632e-02,-0.00112
-2.624e-02,-0.00576
-2.616e-02,0.002
-2.608e-02,-0.00136
-2.600e-02,0.00264
-2.592e-02,-0.00056
-2.584e-02,0.00456
-2.576e-02,0.00456
-2.568e-02,0.00048
-2.560e-02,-0.00224
-2.552e-02,-0.00024
-2.544e-02,0.0044
-2.536e-02,-0.00176
-2.528e-02,0.00344
-2.520e-02,0.00064
-2.512e-02,0.0016
-2.504e-02,0.00288
-2.496e-02,-0.00096
-2.488e-02,-0.00112
-2.480e-02,0.00264
-2.472e-02,0.0056
-2.464e-02,0.0048
-2.456e-02,-0.00152
-2.448e-02,0.00032
-2.440e-02,-0.0012
-2.432e-02,0.00096
-2.424e-02,-0.00064
-2.416e-02,8e-05
-2.408e-02,0.00088
-2.400e-02,0.00448
-2.392e-02,-0.00032
-2.384e-02,0.0004
-2.376e-02,0.0036
-2.368e-02,0.00072
-2.360e-02,-0.00392
-2.352e-02,0.00096
-2.344e-02,0.00216
-2.336e-02,-0.00304
-2.328e-02,0.00264
-2.320e-02,-0.00056
-2.312e-02,0.00112
-2.304e-02,-0.00024
-2.296e-02,-0.00176
-2.288e-02,-0.0012
-2.280e-02,0.00176
-2.272e-02,0.00088
-2.264e-02,-0.00016
-2.256e-02,0.00552
-2.248e-02,0.00248
-2.240e-02,-0.00096
-2.232e-02,0.00504
-2.224e-02,0.0008
-2.216e-02,-0.0012
-2.208e-02,-0.00104
-2.200e-02,-0.00192
-2.192e-02,0.00152
-2.184e-02,0.00416
-2.176e-02,0.00192
-2.168e-02,0.0076
-2.160e-02,-0.00296
-2.152e-02,-0.0048
-2.144e-02,0.00096
-2.136e-02,0.00448
-2.128e-02,-0.00248
-2.120e-02,0.00176
-2.112e-02,0.00144
-2.104e-02,0.00304
-2.096e-02,0.0004
-2.088e-02,0.00016
-2.080e-02,0.00152
-2.072e-02,0.00184
-2.064e-02,0.00112
-2.056e-02,0.00184
-2.048e-02,-0.00264
-2.040e-02,-0.00256
-2.032e-02,0.00128
-2.024e-02,-0.00232
-2.016e-02,0.0032
-2.008e-02,-0.00144
-2.000e-02,-0.00152
-1.992e-02,0.00152
-1.984e-02,-0.0028
-1.976e-02,-0.00192
-1.968e-02,0.0032
-1.960e-02,-0.0004
-1.952e-02,-0.00312
-1.944e-02,-0.00688
-1.936e-02,0.00896
-1.928e-02,-0.00304
-1.920e-02,0.00024
-1.912e-02,0.00344
-1.904e-02,-0.00904
-1.896e-02,0.00256
-1.888e-02,0.00296
-1.880e-02,0.00296
-1.872e-02,0.0012
-1.864e-02,0.00352
-1.856e-02,0.00088
-1.848e-02,-0.00176
-1.840e-02,0.00112
-1.832e-02,0.00432
-1.824e-02,-0.0008
-1.816e-02,-0.00024
-1.808e-02,0.0052
-1.800e-02,-0.00024
-1.792e-02,-0.0036
-1.784e-02,0.00352
-1.776e-02,0.0044
-1.768e-02,-0.00312
-1.760e-02,-0.00184
-1.752e-02,-0.00112
-1.744e-02,-0.00352
-1.736e-02,0.0028
-1.728e-02,-0.00232
-1.720e-02,0.00048
-1.712e-02,0.0008
-1.704e-02,0.00456
-1.696e-02,-0.00208
-1.688e-02,-0.00272
-1.680e-02,0.00016
-1.672e-02,-0.00048
-1.664e-02,-0.00072
-1.656e-02,-0.0016
-1.648e-02,-0.0064
-1.640e-02,-0.00512
-1.632e-02,-0.00368
-1.624e-02,8e-05
-1.616e-02,0.00184
-1.608e-02,-0.00536
-1.600e-02,0.00896
-1.592e-02,-0.00296
-1.584e-02,-0.002
-1.576e-02,0.0016
-1.568e-02,-0.0016
-1.560e-02,-0.00104
-1.552e-02,0.00288
-1.544e-02,0.00296
-1.536e-02,0.00504
-1.528e-02,-0.00184
-1.520e-02,-0.00624
-1.512e-02,-0.00304
-1.504e-02,-0.00472
-1.496e-02,0.00608
-1.488e-02,0.00144
-1.480e-02,0.00384
-1.472e-02,0.0056
-1.464e-02,-0.00056
-1.456e-02,-0.00096
-1.448e-02,0.00248
-1.440e-02,0.00032
-1.432e-02,-8e-05
-1.424e-02,0.0032
-1.416e-02,0.00104
-1.408e-02,-0.00264
-1.400e-02,0
-1.392e-02,0.00464
-1.384e-02,-0.0024
-1.376e-02,0.00088
-1.368e-02,0.00192
-1.360e-02,-0.00416
-1.352e-02,0.00048
-1.344e-02,0.00256
-1.336e-02,-0.00096
-1.328e-02,-0.00128
-1.320e-02,0.00064
-1.312e-02,-0.00072
-1.304e-02,0.00136
-1.296e-02,0.00032
-1.288e-02,-0.00248
-1.280e-02,-0.00056
-1.272e-02,0.00464
-1.264e-02,0.002
-1.256e-02,-0.00248
-1.248e-02,0.00664
-1.240e-02,-0.0016
-1.232e-02,0.00168
-1.224e-02,0.00112
-1.216e-02,0.00032
-1.208e-02,0.0032
-1.200e-02,-0.00048
-1.192e-02,0.00048
-1.184e-02,-0.00096
-1.176e-02,-0.00424
-1.168e-02,0.00168
-1.160e-02,0.00096
-1.152e-02,-0.0076
-1.144e-02,0.00168
-1.136e-02,0.00448
-1.128e-02,-0.00232
-1.120e-02,0.00328
-1.112e-02,-8e-05
-1.104e-02,-0.0056
-1.096e-02,-0.00056
-1.088e-02,0.00104
-1.080e-02,0.00544
-1.072e-02,0.00224
-1.064e-02,-0.00456
-1.056e-02,-0.00072
-1.048e-02,-0.0012
-1.040e-02,-0.00152
-1.032e-02,0.00152
-1.024e-02,0.00096
-1.016e-02,0.00056
-1.008e-02,-0.00128
-1.000e-02,0.00288
-9.920e-03,-0.00352
-9.840e-03,-0.00248
-9.760e-03,-0.00384
-9.680e-03,-0.00128
-9.600e-03,0.00176
-9.520e-03,-0.0004
-9.440e-03,8e-05
-9.360e-03,0.00728
-9.280e-03,-0.00224
-9.200e-03,0.00064
-9.120e-03,-0.00024
-9.040e-03,-0.00192
-8.960e-03,0.00448
-8.880e-03,0.0012
-8.800e-03,0.0004
-8.720e-03,0.00016
-8.640e-03,-0.00208
-8.560e-03,-0.00064
-8.480e-03,-0.00176
-8.400e-03,0.00024
-8.320e-03,0.00064
-8.240e-03,0.00144
-8.160e-03,-0.00416
-8.080e-03,0.00288
-8.000e-03,0.002
-7.920e-03,0.00032
-7.840e-03,-0.00024
-7.760e-03,-0.00264
-7.680e-03,-0.00056
-7.600e-03,0.0012
-7.520e-03,0.00448
-7.440e-03,-0.00096
-7.360e-03,0.00024
-7.280e-03,-0.00096
-7.200e-03,-0.0008
-7.120e-03,-0.00416
-7.040e-03,-0.00248
-6.960e-03,-0.00136
-6.880e-03,-0.0016
-6.800e-03,-0.00256
-6.720e-03,-0.0008
-6.640e-03,0.00152
-6.560e-03,0.00152
-6.480e-03,-0.0008
-6.400e-03,-0.0032
-6.320e-03,-0.00032
-6.240e-03,-0.00296
-6.160e-03,0.00336
-6.080e-03,-0.0028
-6.000e-03,0.0064
-5.920e-03,-0.0048
-5.840e-03,0.00784
-5.760e-03,-0.0008
-5.680e-03,0.004
-5.600e-03,0.00136
-5.520e-03,0.0024
-5.440e-03,-0.00112
-5.360e-03,-0.00048
-5.280e-03,0.00064
-5.200e-03,0.00408
-5.120e-03,-0.00608
-5.040e-03,0.00192
-4.960e-03,0.0016
-4.880e-03,-0.00472
-4.800e-03,0.00376
-4.720e-03,0.00416
-4.640e-03,-0.00256
-4.560e-03,-0.00408
-4.480e-03,0.00256
-4.400e-03,-0.00016
-4.320e-03,-0.00064
-4.240e-03,0.00328
-4.160e-03,0.00152
-4.080e-03,0.00048
-4.000e-03,0.0044
-3.920e-03,0.002
-3.840e-03,0.0008
-3.760e-03,0.00024
-3.680e-03,-0.00096
-3.600e-03,0.00128
-3.520e-03,-0.00216
-3.440e-03,0.00304
-3.360e-03,-0.00472
-3.280e-03,0.00032
-3.200e-03,0.0024
-3.120e-03,-0.0004
-3.040e-03,-0.00104
-2.960e-03,-8e-05
-2.880e-03,0.00192
-2.800e-03,-0.00264
-2.720e-03,0.00424
-2.640e-03,0.00016
-2.560e-03,0.00064
-2.480e-03,0.00328
-2.400e-03,-0.00312
-2.320e-03,0.00352
-2.240e-03,-0.00056
-2.160e-03,0.00096
-2.080e-03,0.00576
-2.000e-03,0.00032
-1.920e-03,0.00216
-1.840e-03,-0.00304
-1.760e-03,-0.00064
-1.680e-03,0.00808
-1.600e-03,0.002
-1.520e-03,-0.00496
-1.440e-03,-0.00048
-1.360e-03,0.00352
-1.280e-03,-0.00272
-1.200e-03,0.00048
-1.120e-03,0.00432
-1.040e-03,0.0012
-9.600e-04,0.00216
-8.800e-04,-0.0016
-8.000e-04,0.00304
-7.200e-04,0.00288
-6.400e-04,0.002
-5.600e-04,0.00128
-4.800e-04,0.00152
-4.000e-04,0.00016
-3.200e-04,-0.0016
-2.400e-04,-0.00368
-1.600e-04,-0.00144
-8.000e-05,0.00248
-1.896e-15,0.00048
8.000e-05,0.00112
1.600e-04,0.002
2.400e-04,-8e-05
3.200e-04,0.0012
4.000e-04,-0.00456
4.800e-04,0.00496
5.600e-04,0.00368
6.400e-04,0.002
7.200e-04,-0.00528
8.000e-04,-0.00864
8.800e-04,0.00232
9.600e-04,-0.00224
1.040e-03,0.00352
1.120e-03,-0.00224
1.200e-03,0.00096
1.280e-03,0.00064
1.360e-03,0.00024
1.440e-03,0.004
1.520e-03,-0.00152
1.600e-03,0.00032
1.680e-03,0.0024
1.760e-03,0.0008
1.840e-03,0.00088
1.920e-03,0.00344
2.000e-03,-0.0008
2.080e-03,-0.0032
2.160e-03,0.00192
2.240e-03,0.00384
2.320e-03,-8e-05
