data/PSU_noise/PSU1_CC1_100A_100us.CSV

Model,TBS1102C
Firmware Version,v2015-08-04-prequal4ch70_v1.3

Point Format,Y
Horizontal Units,S
Horizontal Scale,0.0001
Sample Interval,8e-07
Filter Frequency,2e+08
Record Length,2000
Gating,0.0% to 100.0%
Probe Attenuation,1
Vertical Units,V
Vertical Offset,0
Vertical Scale,0.002
Label,
TIME,CH1
-8.000e-04,-0.00608
-7.992e-04,-0.00312
-7.984e-04,-0.00048
-7.976e-04,-0.00224
-7.968e-04,-0.00328
-7.960e-04,-0.00096
-7.952e-04,-0.00576
-7.944e-04,-0.00856
-7.936e-04,-0.00464
-7.928e-04,-0.00528
-7.920e-04,-0.00928
-7.912e-04,-0.0076
-7.904e-04,-0.00608
-7.896e-04,-0.00888
-7.888e-04,-0.00728
-7.880e-04,-0.00048
-7.872e-04,-0.00088
-7.864e-04,-0.00136
-7.856e-04,0.00216
-7.848e-04,0.00024
-7.840e-04,-0.00296
-7.832e-04,0.0008
-7.824e-04,0.00104
-7.816e-04,-0.00536
-7.808e-04,-0.00624
-7.800e-04,-0.0044
-7.792e-04,-0.00792
-7.784e-04,-0.0068
-7.776e-04,-0.0016
-7.768e-04,-0.00448
-7.760e-04,-0.00888
-7.752e-04,-0.0064
-7.744e-04,-0.00664
-7.736e-04,-0.00928
-7.728e-04,-0.00672
-7.720e-04,-0.00248
-7.712e-04,-0.00568
-7.704e-04,-0.0064
-7.696e-04,-0.00136
-7.688e-04,-0.00032
-7.680e-04,-0.00056
-7.672e-04,0.00312
-7.664e-04,0.00336
-7.656e-04,-0.00104
-7.648e-04,-0.00296
-7.640e-04,0.0004
-7.632e-04,-0.00104
-7.624e-04,-0.00448
-7.616e-04,-0.00368
-7.608e-04,-0.0052
-7.600e-04,-0.00904
-7.592e-04,-0.00728
-7.584e-04,-0.00184
-7.576e-04,-0.00312
-7.568e-04,-0.00544
-7.560e-04,-0.0032
-7.552e-04,-0.00352
-7.544e-04,-0.00608
-7.536e-04,-0.00464
-7.528e-04,0.00016
-7.520e-04,-0.0012
-7.512e-04,-0.00064
-7.504e-04,0.00496
-7.496e-04,0.00496
-7.488e-04,0.0024
-7.480e-04,0.00656
-7.472e-04,0.00704
-7.464e-04,0.00208
-7.456e-04,-0.00064
-7.448e-04,0.00088
-7.440e-04,-0.002
-7.432e-04,-0.00336
-7.424e-04,-0.00088
-7.416e-04,-0.002
-7.408e-04,-0.00664
-7.400e-04,-0.00432
-7.392e-04,-0.0004
-7.384e-04,-0.002
-7.376e-04,-0.00072
-7.368e-04,0.00312
-7.360e-04,0.00048
-7.352e-04,-0.00256
-7.344e-04,0.00104
-7.336e-04,0.00072
-7.328e-04,-0.00248
-7.320e-04,-0.00016
-7.312e-04,0
-7.304e-04,-0.00408
-7.296e-04,-0.00384
-7.288e-04,0
-7.280e-04,-0.00136
-7.272e-04,-0.00456
-7.264e-04,-0.00304
-7.256e-04,-0.0056
-7.248e-04,-0.00928
-7.240e-04,-0.00656
-7.232e-04,-0.00496
-7.224e-04,-0.0088
-7.216e-04,-0.00904
-7.208e-04,-0.00632
-7.200e-04,-0.0068
-7.192e-04,-0.00664
-7.184e-04,-0.00024
-7.176e-04,0.00208
-7.168e-04,0.00168
-7.160e-04,0.00376
-7.152e-04,0.00528
-7.144e-04,0.002
-7.136e-04,0.00072
-7.128e-04,0.00272
-7.120e-04,-0.00192
-7.112e-04,-0.008
-7.104e-04,-0.00712
-7.096e-04,-0.00576
-7.088e-04,-0.00776
-7.080e-04,-0.0072
-7.072e-04,-0.00576
-7.064e-04,-0.0084
-7.056e-04,-0.01016
-7.048e-04,-0.00848
-7.040e-04,-0.0064
-7.032e-04,-0.00792
-7.024e-04,-0.00592
-7.016e-04,-0.00312
-7.008e-04,-0.00432
-7.000e-04,-0.00408
-6.992e-04,0.0008
-6.984e-04,0.00272
-6.976e-04,0.00088
-6.968e-04,0.00152
-6.960e-04,0.00288
-6.952e-04,-0.00136
-6.944e-04,-0.00232
-6.936e-04,0.00032
-6.928e-04,-0.00216
-6.920e-04,-0.00808
-6.912e-04,-0.00808
-6.904e-04,-0.00816
-6.896e-04,-0.01016
-6.888e-04,-0.0072
-6.880e-04,-0.00408
-6.872e-04,-0.00808
-6.864e-04,-0.00872
-6.856e-04,-0.00688
-6.848e-04,-0.00616
-6.840e-04,-0.006
-6.832e-04,-0.00072
-6.824e-04,0.00224
-6.816e-04,0.0004
-6.808e-04,0.00384
-6.800e-04,0.00664
-6.792e-04,0.00296
-6.784e-04,0.00608
-6.776e-04,0.00816
-6.768e-04,0.0028
-6.760e-04,-0.00056
-6.752e-04,0.00096
-6.744e-04,0
-6.736e-04,-0.00208
-6.728e-04,-0.00096
-6.720e-04,-0.00352
-6.712e-04,-0.00904
-6.704e-04,-0.0072
-6.696e-04,-0.00352
-6.688e-04,-0.00424
-6.680e-04,-0.00384
-6.672e-04,-0.00056
-6.664e-04,-0.00224
-6.656e-04,-0.00472
-6.648e-04,-0.0008
-6.640e-04,0.00104
-6.632e-04,-0.00184
-6.624e-04,0
-6.616e-04,0.00136
-6.608e-04,-0.00184
-6.600e-04,-0.0024
-6.592e-04,0.0008
-6.584e-04,0.00112
-6.576e-04,-0.00424
-6.568e-04,-0.00432
-6.560e-04,-0.00512
-6.552e-04,-0.00984
-6.544e-04,-0.00896
-6.536e-04,-0.00504
-6.528e-04,-0.00776
-6.520e-04,-0.01016
-6.512e-04,-0.008
-6.504e-04,-0.00672
-6.496e-04,-0.00672
-6.488e-04,-0.00272
-6.480e-04,0.00296
-6.472e-04,0.00192
-6.464e-04,0.0016
-6.456e-04,0.0056
-6.448e-04,0.00512
-6.440e-04,0.00104
-6.432e-04,0.00144
-6.424e-04,0.00232
-6.416e-04,-0.00288
-6.408e-04,-0.00504
-6.400e-04,-0.00216
-6.392e-04,-0.0028
-6.384e-04,-0.00592
-6.376e-04,-0.00552
-6.368e-04,-0.00656
-6.360e-04,-0.01016
-6.352e-04,-0.01
-6.344e-04,-0.00664
-6.336e-04,-0.00712
-6.328e-04,-0.0084
-6.320e-04,-0.004
-6.312e-04,-0.00272
-6.304e-04,-0.004
-6.296e-04,0.00048
-6.288e-04,0.00416
-6.280e-04,0.00248
-6.272e-04,0.00184
-6.264e-04,0.00504
-6.256e-04,0.0016
-6.248e-04,-0.0016
-6.240e-04,0.00152
-6.232e-04,-0.00048
-6.224e-04,-0.00696
-6.216e-04,-0.008
-6.208e-04,-0.00672
-6.200e-04,-0.00856
-6.192e-04,-0.00808
-6.184e-04,-0.00472
-6.176e-04,-0.00808
-6.168e-04,-0.01016
-6.160e-04,-0.00912
-6.152e-04,-0.00696
-6.144e-04,-0.00872
-6.136e-04,-0.00384
-6.128e-04,0.00144
-6.120e-04,0.00056
-6.112e-04,0.00184
-6.104e-04,0.00704
-6.096e-04,0.00752
-6.088e-04,0.00496
-6.080e-04,0.00728
-6.072e-04,0.00704
-6.064e-04,0.00136
-6.056e-04,-0.0008
-6.048e-04,0.00224
-6.040e-04,-0.0008
-6.032e-04,-0.0056
-6.024e-04,-0.00456
-6.016e-04,-0.0064
-6.008e-04,-0.00976
-6.000e-04,-0.00592
-5.992e-04,-0.00176
-5.984e-04,-0.00512
-5.976e-04,-0.00648
-5.968e-04,-0.00376
-5.960e-04,-0.00456
-5.952e-04,-0.00696
-5.944e-04,-0.00192
-5.936e-04,0.00064
-5.928e-04,-0.00312
-5.920e-04,-0.00104
-5.912e-04,0.00352
-5.904e-04,0.00152
-5.896e-04,0.00048
-5.888e-04,0.00376
-5.880e-04,0.00208
-5.872e-04,-0.00312
-5.864e-04,-0.004
-5.856e-04,-0.00216
-5.848e-04,-0.00632
-5.840e-04,-0.0072
-5.832e-04,-0.0056
-5.824e-04,-0.00936
-5.816e-04,-0.01016
-5.808e-04,-0.0084
-5.800e-04,-0.00432
-5.792e-04,-0.00472
-5.784e-04,-0.00136
-5.776e-04,0.00216
-5.768e-04,0.00048
-5.760e-04,0
-5.752e-04,0.00368
-5.744e-04,0.00232
-5.736e-04,-0.00176
-5.728e-04,-0.00064
-5.720e-04,-0.00032
-5.712e-04,-0.00608
-5.704e-04,-0.00496
-5.696e-04,-0.00112
-5.688e-04,-0.00456
-5.680e-04,-0.00856
-5.672e-04,-0.00712
-5.664e-04,-0.00928
-5.656e-04,-0.01016
-5.648e-04,-0.00792
-5.640e-04,-0.00656
-5.632e-04,-0.00968
-5.624e-04,-0.00968
-5.616e-04,-0.0048
-5.608e-04,-0.00568
-5.600e-04,-0.00512
-5.592e-04,0.00136
-5.584e-04,0.00216
-5.576e-04,-0.00072
-5.568e-04,0.00128
-5.560e-04,0.00344
-5.552e-04,0.00016
-5.544e-04,-0.00184
-5.536e-04,-8e-05
-5.528e-04,-0.0028
-5.520e-04,-0.0084
-5.512e-04,-0.00728
-5.504e-04,-0.00424
-5.496e-04,-0.00624
-5.488e-04,-0.00728
-5.480e-04,-0.00592
-5.472e-04,-0.008
-5.464e-04,-0.01016
-5.456e-04,-0.00768
-5.448e-04,-0.00352
-5.440e-04,-0.0044
-5.432e-04,-0.004
-5.424e-04,-8e-05
-5.416e-04,0.00144
-5.408e-04,0.00104
-5.400e-04,0.00464
-5.392e-04,0.0076
-5.384e-04,0.004
-5.376e-04,0.0032
-5.368e-04,0.00536
-5.360e-04,0.00312
-5.352e-04,-0.00016
-5.344e-04,0.00016
-5.336e-04,-0.00088
-5.328e-04,-0.00696
-5.320e-04,-0.00816
-5.312e-04,-0.00512
-5.304e-04,-0.0068
-5.296e-04,-0.00664
-5.288e-04,-0.00312
-5.280e-04,-0.00544
-5.272e-04,-0.01016
-5.264e-04,-0.0076
-5.256e-04,-0.00376
-5.248e-04,-0.00576
-5.240e-04,-0.00432
-5.232e-04,0.0004
-5.224e-04,-0.00088
-5.216e-04,-0.00136
-5.208e-04,0.00448
-5.200e-04,0.0048
-5.192e-04,0.00064
-5.184e-04,0.00224
-5.176e-04,0.0028
-5.168e-04,-0.00288
-5.160e-04,-0.0044
-5.152e-04,-0.002
-5.144e-04,-0.00488
-5.136e-04,-0.0092
-5.128e-04,-0.00816
-5.120e-04,-0.00944
-5.112e-04,-0.01016
-5.104e-04,-0.0068
-5.096e-04,-0.00144
-5.088e-04,-0.00472
-5.080e-04,-0.00376
-5.072e-04,-0.00024
-5.064e-04,-0.00264
-5.056e-04,-0.0036
-5.048e-04,0.00136
-5.040e-04,0.00112
-5.032e-04,-0.00312
-5.024e-04,-0.0012
-5.016e-04,0.00232
-5.008e-04,-8e-05
-5.000e-04,-0.00088
-4.992e-04,0.0024
-4.984e-04,-0.00072
-4.976e-04,-0.00544
-4.968e-04,-0.00432
-4.960e-04,-0.00392
-4.952e-04,-0.0064
-4.944e-04,-0.00656
-4.936e-04,-0.004
-4.928e-04,-0.00648
-4.920e-04,-0.00872
-4.912e-04,-0.0032
-4.904e-04,0.00064
-4.896e-04,-0.00072
-4.888e-04,0.00112
-4.880e-04,0.00304
-4.872e-04,-0.00032
-4.864e-04,-0.00088
-4.856e-04,0.00208
-4.848e-04,0.00064
-4.840e-04,-0.00392
-4.832e-04,-0.00336
-4.824e-04,-0.00208
-4.816e-04,-0.00424
-4.808e-04,-0.00392
-4.800e-04,-0.00016
-4.792e-04,-0.00352
-4.784e-04,-0.00752
-4.776e-04,-0.00624
-4.768e-04,-0.00784
-4.760e-04,-0.00984
-4.752e-04,-0.00696
-4.744e-04,-0.00352
-4.736e-04,-0.0052
-4.728e-04,-0.0056
-4.720e-04,-0.00056
-4.712e-04,0.0016
-4.704e-04,0.00168
-4.696e-04,0.00408
-4.688e-04,0.00536
-4.680e-04,0.00056
-4.672e-04,0.00128
-4.664e-04,0.00328
-4.656e-04,0.00072
-4.648e-04,-0.00224
-4.640e-04,-0.00072
-4.632e-04,-0.00232
-4.624e-04,-0.00648
-4.616e-04,-0.00352
-4.608e-04,-0.00048
-4.600e-04,-0.00336
-4.592e-04,-0.00344
-4.584e-04,-0.0024
-4.576e-04,-0.00672
-4.568e-04,-0.00872
-4.560e-04,-0.00368
-4.552e-04,-0.00176
-4.544e-04,-0.00312
-4.536e-04,-0.00088
-4.528e-04,0.00312
-4.520e-04,0.00256
-4.512e-04,0.00328
-4.504e-04,0.00824
-4.496e-04,0.00808
-4.488e-04,0.00408
-4.480e-04,0.00496
-4.472e-04,0.00544
-4.464e-04,0.00152
-4.456e-04,-0.00032
-4.448e-04,0.0016
-4.440e-04,-0.00032
-4.432e-04,-0.00552
-4.424e-04,-0.0044
-4.416e-04,-0.00056
-4.408e-04,-0.00088
-4.400e-04,-0.0004
-4.392e-04,0.00352
-4.384e-04,0.00168
-4.376e-04,-0.0024
-4.368e-04,8e-05
-4.360e-04,0.00344
-4.352e-04,0.00032
-4.344e-04,-0.00088
-4.336e-04,0.00264
-4.328e-04,-0.00016
-4.320e-04,-0.00136
-4.312e-04,0.00288
-4.304e-04,0.00424
-4.296e-04,8e-05
-4.288e-04,-0.00112
-4.280e-04,-8e-05
-4.272e-04,-0.00336
-4.264e-04,-0.00584
-4.256e-04,-0.0028
-4.248e-04,-0.00152
-4.240e-04,-0.00672
-4.232e-04,-0.00632
-4.224e-04,-0.00256
-4.216e-04,-0.00248
-4.208e-04,-0.00152
-4.200e-04,0.00264
-4.192e-04,0.0028
-4.184e-04,0.00056
-4.176e-04,0.0016
-4.168e-04,0.00296
-4.160e-04,-0.00016
-4.152e-04,-0.00056
-4.144e-04,0.00208
-4.136e-04,-0.00072
-4.128e-04,-0.00424
-4.120e-04,-0.00016
-4.112e-04,0.00104
-4.104e-04,-0.00128
-4.096e-04,-0.00032
-4.088e-04,0.00048
-4.080e-04,-0.0048
-4.072e-04,-0.00544
-4.064e-04,-0.00064
-4.056e-04,-0.00192
-4.048e-04,-0.00448
-4.040e-04,-0.00104
-4.032e-04,0
-4.024e-04,-0.00224
-4.016e-04,0.00064
-4.008e-04,0.00576
-4.000e-04,0.00328
-3.992e-04,0.002
-3.984e-04,0.0048
-3.976e-04,0.00304
-3.968e-04,-0.00088
-3.960e-04,0.00104
-3.952e-04,0.00288
-3.944e-04,-0.00152
-3.936e-04,-0.00472
-3.928e-04,-0.00136
-3.920e-04,-0.0008
-3.912e-04,-0.00256
-3.904e-04,0.00032
-3.896e-04,0.0008
-3.888e-04,-0.00392
-3.880e-04,-0.00496
-3.872e-04,-0.00136
-3.864e-04,-0.00128
-3.856e-04,-0.00224
-3.848e-04,0.00144
-3.840e-04,0.00424
-3.832e-04,0.00208
-3.824e-04,0.00328
-3.816e-04,0.008
-3.808e-04,0.00712
-3.800e-04,0.00488
-3.792e-04,0.00664
-3.784e-04,0.00528
-3.776e-04,0.00024
-3.768e-04,0.00112
-3.760e-04,0.0036
-3.752e-04,0
-3.744e-04,-0.0044
-3.736e-04,-0.00256
-3.728e-04,-0.00272
-3.720e-04,-0.00424
-3.712e-04,0.00024
-3.704e-04,0.00304
-3.696e-04,-0.0004
-3.688e-04,-0.00072
-3.680e-04,0.00216
-3.672e-04,-0.0004
-3.664e-04,-0.00168
-3.656e-04,0.00128
-3.648e-04,0.0008
-3.640e-04,-0.00296
-3.632e-04,-0.00256
-3.624e-04,0.00024
-3.616e-04,-0.00072
-3.608e-04,0.00072
-3.600e-04,0.00288
-3.592e-04,-0.00088
-3.584e-04,-0.00416
-3.576e-04,-0.00152
-3.568e-04,-0.00104
-3.560e-04,-0.00408
-3.552e-04,-0.004
-3.544e-04,-0.00216
-3.536e-04,-0.00472
-3.528e-04,-0.00344
-3.520e-04,0.00152
-3.512e-04,0.00168
-3.504e-04,0.0028
-3.496e-04,0.00632
-3.488e-04,0.00576
-3.480e-04,0.00184
-3.472e-04,0.00352
-3.464e-04,0.00536
-3.456e-04,0.00096
-3.448e-04,-0.00072
-3.440e-04,0.00016
-3.432e-04,-0.00184
-3.424e-04,-0.00304
-3.416e-04,0.0004
-3.408e-04,0.00312
-3.400e-04,-0.0012
-3.392e-04,-0.0032
-3.384e-04,-0.00056
-3.376e-04,-0.0024
-3.368e-04,-0.00472
-3.360e-04,-0.00016
-3.352e-04,0.00096
-3.344e-04,-0.00216
-3.336e-04,8e-05
-3.328e-04,0.0032
-3.320e-04,0.00272
-3.312e-04,0.00232
-3.304e-04,0.006
-3.296e-04,0.0052
-3.288e-04,0.00056
-3.280e-04,0.00056
-3.272e-04,0.00176
-3.264e-04,-0.00128
-3.256e-04,-0.00256
-3.248e-04,-0.0012
-3.240e-04,-0.00456
-3.232e-04,-0.00704
-3.224e-04,-0.00232
-3.216e-04,0.00032
-3.208e-04,-0.00304
-3.200e-04,-0.00312
-3.192e-04,-0.0012
-3.184e-04,-0.00344
-3.176e-04,-0.00496
-3.168e-04,-0.00056
-3.160e-04,0.00248
-3.152e-04,0.00112
-3.144e-04,0.00456
-3.136e-04,0.00752
-3.128e-04,0.00528
-3.120e-04,0.00728
-3.112e-04,0.01016
-3.104e-04,0.00824
-3.096e-04,0.00384
-3.088e-04,0.0044
-3.080e-04,0.00512
-3.072e-04,0.00168
-3.064e-04,0.00216
-3.056e-04,0.00416
-3.048e-04,-0.00128
-3.040e-04,-0.00328
-3.032e-04,0.00072
-3.024e-04,0.00072
-3.016e-04,-0.00048
-3.008e-04,0.00352
-3.000e-04,0.0052
-2.992e-04,0.00088
-2.984e-04,0.00096
-2.976e-04,0.00472
-2.968e-04,0.00312
-2.960e-04,0.00144
-2.952e-04,0.00472
-2.944e-04,0.00256
-2.936e-04,-0.002
-2.928e-04,0.00048
-2.920e-04,0.00432
-2.912e-04,-0.00016
-2.904e-04,-0.00248
-2.896e-04,-0.00064
-2.888e-04,-0.00352
-2.880e-04,-0.00616
-2.872e-04,-0.00248
-2.864e-04,-0.00024
-2.856e-04,-0.00424
-2.848e-04,-0.00368
-2.840e-04,0.0004
-2.832e-04,-0.00016
-2.824e-04,-0.00168
-2.816e-04,0.0052
-2.808e-04,0.00832
-2.800e-04,0.00608
-2.792e-04,0.0064
-2.784e-04,0.00936
-2.776e-04,0.00672
-2.768e-04,0.00456
-2.760e-04,0.00568
-2.752e-04,0.00344
-2.744e-04,-0.00264
-2.736e-04,-0.00264
-2.728e-04,0.0008
-2.720e-04,0
-2.712e-04,-0.00152
-2.704e-04,0
-2.696e-04,-0.0016
-2.688e-04,-0.00512
-2.680e-04,-0.0028
-2.672e-04,-0.00032
-2.664e-04,-0.00208
-2.656e-04,-0.00176
-2.648e-04,0.00128
-2.640e-04,0.00144
-2.632e-04,-0.00048
-2.624e-04,0.00504
-2.616e-04,0.00824
-2.608e-04,0.00448
-2.600e-04,0.0052
-2.592e-04,0.00656
-2.584e-04,0.00216
-2.576e-04,0.00144
-2.568e-04,0.00352
-2.560e-04,-0.00048
-2.552e-04,-0.006
-2.544e-04,-0.00464
-2.536e-04,-0.00344
-2.528e-04,-0.0052
-2.520e-04,-0.00264
-2.512e-04,-0.00056
-2.504e-04,-0.00392
-2.496e-04,-0.00536
-2.488e-04,-0.00304
-2.480e-04,-0.00256
-2.472e-04,-0.00272
-2.464e-04,0.00232
-2.456e-04,0.00656
-2.448e-04,0.00536
-2.440e-04,0.00736
-2.432e-04,0.01016
-2.424e-04,0.00992
-2.416e-04,0.00968
-2.408e-04,0.0092
-2.400e-04,0.00824
-2.392e-04,0.00312
-2.384e-04,0.00256
-2.376e-04,0.00624
-2.368e-04,0.00328
-2.360e-04,-0.00128
-2.352e-04,-0.0004
-2.344e-04,-0.0004
-2.336e-04,-0.00312
-2.328e-04,-0.00072
-2.320e-04,0.00392
-2.312e-04,0.00216
-2.304e-04,-0.00032
-2.296e-04,0.00328
-2.288e-04,0.004
-2.280e-04,0.00144
-2.272e-04,0.00416
-2.264e-04,0.00784
-2.256e-04,0.00456
-2.248e-04,0.00256
-2.240e-04,0.00592
-2.232e-04,0.0056
-2.224e-04,0.00304
-2.216e-04,0.00464
-2.208e-04,0.0048
-2.200e-04,-0.00088
-2.192e-04,-0.00336
-2.184e-04,-0.00056
-2.176e-04,0.00064
-2.168e-04,-0.00272
-2.160e-04,-0.00184
-2.152e-04,-0.00048
-2.144e-04,-0.00392
-2.136e-04,-0.00208
-2.128e-04,0.00456
-2.120e-04,0.00496
-2.112e-04,0.00432
-2.104e-04,0.00904
-2.096e-04,0.00928
-2.088e-04,0.00528
-2.080e-04,0.00792
-2.072e-04,0.00928
-2.064e-04,0.0032
-2.056e-04,0.00088
-2.048e-04,0.00104
-2.040e-04,-0.00128
-2.032e-04,-0.00272
-2.024e-04,0.00168
-2.016e-04,0.00216
-2.008e-04,-0.00464
-2.000e-04,-0.00576
-1.992e-04,-0.00368
-1.984e-04,-0.00704
-1.976e-04,-0.0052
-1.968e-04,-0.00104
-1.960e-04,-0.00296
-1.952e-04,-0.00464
-1.944e-04,-8e-05
-1.936e-04,0.00288
-1.928e-04,0.00192
-1.920e-04,0.00496
-1.912e-04,0.00808
-1.904e-04,0.00528
-1.896e-04,0.0036
-1.888e-04,0.00528
-1.880e-04,0.00544
-1.872e-04,-8e-05
-1.864e-04,0
-1.856e-04,-0.00032
-1.848e-04,-0.00656
-1.840e-04,-0.00712
-1.832e-04,-0.00256
-1.824e-04,-0.00216
-1.816e-04,-0.00512
-1.808e-04,-0.00472
-1.800e-04,-0.00512
-1.792e-04,-0.00872
-1.784e-04,-0.00752
-1.776e-04,-0.00024
-1.768e-04,0.00096
-1.760e-04,-8e-05
-1.752e-04,0.0048
-1.744e-04,0.00856
-1.736e-04,0.00712
-1.728e-04,0.00888
-1.720e-04,0.01016
-1.712e-04,0.0084
-1.704e-04,0.00376
-1.696e-04,0.00536
-1.688e-04,0.00432
-1.680e-04,-0.0004
-1.672e-04,-0.00064
-1.664e-04,0.00072
-1.656e-04,-0.00504
-1.648e-04,-0.0084
-1.640e-04,-0.00416
-1.632e-04,-0.00416
-1.624e-04,-0.00584
-1.616e-04,-0.00248
-1.608e-04,-0.00224
-1.600e-04,-0.00696
-1.592e-04,-0.0056
-1.584e-04,-0.00016
-1.576e-04,-0.00048
-1.568e-04,-0.00096
-1.560e-04,0.00344
-1.552e-04,0.00296
-1.544e-04,0.00184
-1.536e-04,0.00464
-1.528e-04,0.0056
-1.520e-04,0.0016
-1.512e-04,-0.00048
-1.504e-04,0.00048
-1.496e-04,-0.00264
-1.488e-04,-0.00552
-1.480e-04,-0.00232
-1.472e-04,-0.00232
-1.464e-04,-0.00664
-1.456e-04,-0.00624
-1.448e-04,-0.00496
-1.440e-04,-0.00712
-1.432e-04,-0.00432
-1.424e-04,0.00136
-1.416e-04,0.0016
-1.408e-04,0
-1.400e-04,0.00296
-1.392e-04,0.00424
-1.384e-04,0.00216
-1.376e-04,0.00408
-1.368e-04,0.0048
-1.360e-04,0.00024
-1.352e-04,-0.002
-1.344e-04,0.00208
-1.336e-04,0.0016
-1.328e-04,-0.0024
-1.320e-04,-0.00136
-1.312e-04,-0.0016
-1.304e-04,-0.0076
-1.296e-04,-0.008
-1.288e-04,-0.00384
-1.280e-04,-0.006
-1.272e-04,-0.00816
-1.264e-04,-0.00544
-1.256e-04,-0.00424
-1.248e-04,-0.00808
-1.240e-04,-0.00472
-1.232e-04,0.002
-1.224e-04,0.00112
-1.216e-04,0.00088
-1.208e-04,0.00544
-1.200e-04,0.00376
-1.192e-04,0.00032
-1.184e-04,0.00224
-1.176e-04,0.00304
-1.168e-04,-0.00352
-1.160e-04,-0.006
-1.152e-04,-0.00448
-1.144e-04,-0.00648
-1.136e-04,-0.0068
-1.128e-04,-0.00312
-1.120e-04,-0.00504
-1.112e-04,-0.01008
-1.104e-04,-0.00968
-1.096e-04,-0.00888
-1.088e-04,-0.00968
-1.080e-04,-0.00864
-1.072e-04,-0.00304
-1.064e-04,-0.00264
-1.056e-04,-0.00304
-1.048e-04,0.00208
-1.040e-04,0.00464
-1.032e-04,0.00312
-1.024e-04,0.00544
-1.016e-04,0.0072
-1.008e-04,0.00232
-1.000e-04,-0.00016
-9.920e-05,0.00224
-9.840e-05,-0.00048
-9.760e-05,-0.00392
-9.680e-05,-0.00312
-9.600e-05,-0.006
-9.520e-05,-0.01
-9.440e-05,-0.00832
-9.360e-05,-0.00392
-9.280e-05,-0.00536
-9.200e-05,-0.00736
-9.120e-05,-0.00496
-9.040e-05,-0.00728
-8.960e-05,-0.00872
-8.880e-05,-0.0028
-8.800e-05,-0.00064
-8.720e-05,-0.00272
-8.640e-05,0.00088
-8.560e-05,0.0052
-8.480e-05,0.00288
-8.400e-05,0.00384
-8.320e-05,0.00848
-8.240e-05,0.00648
-8.160e-05,0.00208
-8.080e-05,0.0036
-8.000e-05,0.00288
-7.920e-05,-0.00112
-7.840e-05,-0.00128
-7.760e-05,0.00096
-7.680e-05,-0.00312
-7.600e-05,-0.00712
-7.520e-05,-0.00448
-7.440e-05,-0.00312
-7.360e-05,-0.00384
-7.280e-05,0.00048
-7.200e-05,0.00352
-7.120e-05,-0.00056
-7.040e-05,-0.00184
-6.960e-05,0.00232
-6.880e-05,0.00296
-6.800e-05,0.00072
-6.720e-05,0.00272
-6.640e-05,0.00416
-6.560e-05,0
-6.480e-05,0.00104
-6.400e-05,0.0052
-6.320e-05,0.00224
-6.240e-05,-0.00232
-6.160e-05,-0.00208
-6.080e-05,-0.0028
-6.000e-05,-0.0076
-5.920e-05,-0.00552
-5.840e-05,-0.00296
-5.760e-05,-0.0064
-5.680e-05,-0.00848
-5.600e-05,-0.0056
-5.520e-05,-0.00624
-5.440e-05,-0.00736
-5.360e-05,-0.0024
-5.280e-05,0.00104
-5.200e-05,-0.002
-5.120e-05,-0.0016
-5.040e-05,0.00096
-4.960e-05,-0.00104
-4.880e-05,-0.00096
-4.800e-05,0.00216
-4.720e-05,-0.00048
-4.640e-05,-0.00616
-4.560e-05,-0.00424
-4.480e-05,-0.00224
-4.400e-05,-0.00608
-4.320e-05,-0.0052
-4.240e-05,-0.00512
-4.160e-05,-0.00904
-4.080e-05,-0.01016
-4.000e-05,-0.008
-3.920e-05,-0.0072
-3.840e-05,-0.00744
-3.760e-05,-0.00432
-3.680e-05,-0.00104
-3.600e-05,-0.00352
-3.520e-05,-0.00216
-3.440e-05,0.0028
-3.360e-05,0.00416
-3.280e-05,0.00264
-3.200e-05,0.00576
-3.120e-05,0.00536
-3.040e-05,0.00088
-2.960e-05,0.00168
-2.880e-05,0.00376
-2.800e-05,0.0004
-2.720e-05,-0.00376
-2.640e-05,-0.00368
-2.560e-05,-0.00512
-2.480e-05,-0.00728
-2.400e-05,-0.004
-2.320e-05,-0.00104
-2.240e-05,-0.00544
-2.160e-05,-0.0084
-2.080e-05,-0.00472
-2.000e-05,-0.00528
-1.920e-05,-0.006
-1.840e-05,-0.00144
-1.760e-05,0.00152
-1.680e-05,-0.00088
-1.600e-05,0.00136
-1.520e-05,0.00672
-1.440e-05,0.00568
-1.360e-05,0.00496
-1.280e-05,0.0076
-1.200e-05,0.00656
-1.120e-05,0.0016
-1.040e-05,0.00144
-9.600e-06,0.00296
-8.800e-06,0.00032
-8.000e-06,-0.00272
-7.200e-06,-0.0012
-6.400e-06,-0.00448
-5.600e-06,-0.00728
-4.800e-06,-0.00312
-4.000e-06,0.00056
-3.200e-06,-0.00136
-2.400e-06,-0.00168
-1.600e-06,-0.0004
-8.000e-07,-0.00256
1.278e-17,-0.00264
8.000e-07,0.00184
1.600e-06,0.00208
2.400e-06,-0.00144
3.200e-06,0.00056
4.000e-06,0.00208
4.800e-06,-0.00024
5.600e-06,0.00152
6.400e-06,0.00464
7.200e-06,0.00016
8.000e-06,-0.00272
8.800e-06,-0.00024
9.600e-06,-0.00288
1.040e-05,-0.00528
1.120e-05,-0.00144
1.200e-05,-0.00168
1.280e-05,-0.00656
1.360e-05,-0.00528
1.440e-05,-0.00304
1.520e-05,-0.00344
1.600e-05,-0.00016
