data/PSU_noise/PSU1_CV1_40A_10ms.CSV

Model,TBS1102C
Firmware Version,v2015-08-04-prequal4ch70_v1.3

Point Format,Y
Horizontal Units,S
Horizontal Scale,0.01
Sample Interval,8e-05
Filter Frequency,2e+08
Record Length,2000
Gating,0.0% to 100.0%
Probe Attenuation,1
Vertical Units,V
Vertical Offset,0
Vertical Scale,0.002
Label,
TIME,CH1
-8.000e-02,-0.00136
-7.992e-02,0.00352
-7.984e-02,0.00312
-7.976e-02,-0.0024
-7.968e-02,-0.0024
-7.960e-02,0.00232
-7.952e-02,0.0024
-7.944e-02,0.00552
-7.936e-02,0.00544
-7.928e-02,0.0044
-7.920e-02,-0.00176
-7.912e-02,0.00256
-7.904e-02,0.0036
-7.896e-02,-8e-05
-7.888e-02,0.0004
-7.880e-02,0.00184
-7.872e-02,0.00192
-7.864e-02,8e-05
-7.856e-02,-0.0024
-7.848e-02,0.00128
-7.840e-02,-0.00296
-7.832e-02,-0.00128
-7.824e-02,-0.00272
-7.816e-02,-0.00032
-7.808e-02,0.00048
-7.800e-02,0.00312
-7.792e-02,-0.00168
-7.784e-02,-0.00104
-7.776e-02,0.00312
-7.768e-02,0.00248
-7.760e-02,-0.00384
-7.752e-02,0.00064
-7.744e-02,-0.00128
-7.736e-02,-0.0004
-7.728e-02,-0.00032
-7.720e-02,-0.00328
-7.712e-02,-0.0036
-7.704e-02,0.0032
-7.696e-02,0.00368
-7.688e-02,-0.00256
-7.680e-02,-0.002
-7.672e-02,0.00256
-7.664e-02,0.00096
-7.656e-02,0.00184
-7.648e-02,0.00136
-7.640e-02,0.00232
-7.632e-02,-0.00168
-7.624e-02,-0.00176
-7.616e-02,-0.00016
-7.608e-02,0.00296
-7.600e-02,-0.00144
-7.592e-02,0.00616
-7.584e-02,-0.00352
-7.576e-02,-0.00064
-7.568e-02,-0.00096
-7.560e-02,0.00056
-7.552e-02,-0.002
-7.544e-02,-0.00336
-7.536e-02,0.00432
-7.528e-02,-0.00408
-7.520e-02,0.00136
-7.512e-02,-0.002
-7.504e-02,-0.00128
-7.496e-02,0.00064
-7.488e-02,0.00376
-7.480e-02,-0.00096
-7.472e-02,0.00272
-7.464e-02,0.00136
-7.456e-02,0.00328
-7.448e-02,-0.0048
-7.440e-02,0.00064
-7.432e-02,0.00112
-7.424e-02,0.00112
-7.416e-02,-0.002
-7.408e-02,0.00304
-7.400e-02,-0.0024
-7.392e-02,0.00072
-7.384e-02,-0.00144
-7.376e-02,0.00552
-7.368e-02,-0.00168
-7.360e-02,0
-7.352e-02,-0.00088
-7.344e-02,0.00056
-7.336e-02,0.00192
-7.328e-02,0.00144
-7.320e-02,0.00208
-7.312e-02,-0.00256
-7.304e-02,-0.0032
-7.296e-02,0.00072
-7.288e-02,0.00216
-7.280e-02,0.00016
-7.272e-02,-0.00192
-7.264e-02,0.00176
-7.256e-02,0.00232
-7.248e-02,0.0036
-7.240e-02,0.00016
-7.232e-02,0
-7.224e-02,-0.00104
-7.216e-02,0.00224
-7.208e-02,0.00176
-7.200e-02,0.00192
-7.192e-02,0.00096
-7.184e-02,-0.00488
-7.176e-02,0.00272
-7.168e-02,-0.00136
-7.160e-02,0.0004
-7.152e-02,-0.00288
-7.144e-02,-0.00416
-7.136e-02,0.00392
-7.128e-02,-0.00416
-7.120e-02,-0.00016
-7.112e-02,0.00104
-7.104e-02,0.00328
-7.096e-02,0.00024
-7.088e-02,0.00304
-7.080e-02,0.00256
-7.072e-02,-0.0032
-7.064e-02,-0.002
-7.056e-02,-0.0016
-7.048e-02,0.00616
-7.040e-02,-0.00496
-7.032e-02,-0.00016
-7.024e-02,0.00208
-7.016e-02,-0.00016
-7.008e-02,-0.00256
-7.000e-02,-0.0016
-6.992e-02,-0.0008
-6.984e-02,-0.00416
-6.976e-02,-0.00056
-6.968e-02,0.00072
-6.960e-02,0.00344
-6.952e-02,-0.00192
-6.944e-02,0.00184
-6.936e-02,-0.00112
-6.928e-02,0.002
-6.920e-02,0.00192
-6.912e-02,-0.0008
-6.904e-02,-0.00072
-6.896e-02,0.0004
-6.888e-02,-0.00168
-6.880e-02,0.0024
-6.872e-02,0.00168
-6.864e-02,-0.00384
-6.856e-02,0.0016
-6.848e-02,0.00056
-6.840e-02,-0.00128
-6.832e-02,-0.00072
-6.824e-02,0.00024
-6.816e-02,-0.00128
-6.808e-02,-0.00096
-6.800e-02,0.00264
-6.792e-02,0.00056
-6.784e-02,0.00432
-6.776e-02,-0.00184
-6.768e-02,-0.00384
-6.760e-02,-0.00224
-6.752e-02,-0.00088
-6.744e-02,0.00296
-6.736e-02,0.002
-6.728e-02,0.002
-6.720e-02,0.00128
-6.712e-02,-0.00312
-6.704e-02,-0.0016
-6.696e-02,0.00144
-6.688e-02,-0.00096
-6.680e-02,0.00048
-6.672e-02,0.00048
-6.664e-02,-0.00048
-6.656e-02,-8e-05
-6.648e-02,0.00176
-6.640e-02,-0.00128
-6.632e-02,0.00064
-6.624e-02,-0.00032
-6.616e-02,0.00184
-6.608e-02,0.002
-6.600e-02,0.00208
-6.592e-02,-0.00256
-6.584e-02,0.00272
-6.576e-02,0.00224
-6.568e-02,0.00056
-6.560e-02,0.0004
-6.552e-02,-0.00016
-6.544e-02,0.00264
-6.536e-02,-0.00056
-6.528e-02,-0.00072
-6.520e-02,-0.00216
-6.512e-02,-0.0004
-6.504e-02,-0.00536
-6.496e-02,0.00032
-6.488e-02,0.00128
-6.480e-02,-0.0008
-6.472e-02,0.00128
-6.464e-02,0.00184
-6.456e-02,0.0044
-6.448e-02,0.00016
-6.440e-02,0.00368
-6.432e-02,-0.00024
-6.424e-02,0.00096
-6.416e-02,0.00136
-6.408e-02,0.00128
-6.400e-02,-8e-05
-6.392e-02,-0.0028
-6.384e-02,-0.00376
-6.376e-02,0
-6.368e-02,0.00224
-6.360e-02,-0.00488
-6.352e-02,-0.00168
-6.344e-02,-0.00248
-6.336e-02,0.00144
-6.328e-02,-0.0004
-6.320e-02,0.00208
-6.312e-02,-0.00016
-6.304e-02,0.0016
-6.296e-02,-0.00112
-6.288e-02,-0.00264
-6.280e-02,-0.00576
-6.272e-02,0.00104
-6.264e-02,-0.0008
-6.256e-02,-8e-05
-6.248e-02,0.00192
-6.240e-02,-0.00296
-6.232e-02,8e-05
-6.224e-02,0.00128
-6.216e-02,0.00016
-6.208e-02,0.00288
-6.200e-02,-0.00112
-6.192e-02,-0.00208
-6.184e-02,-0.00088
-6.176e-02,-0.0008
-6.168e-02,0.00168
-6.160e-02,0.00032
-6.152e-02,-0.00184
-6.144e-02,0.00248
-6.136e-02,-0.00184
-6.128e-02,0.00184
-6.120e-02,0.0052
-6.112e-02,-0.00296
-6.104e-02,-0.00104
-6.096e-02,0.00216
-6.088e-02,-0.00136
-6.080e-02,0.0016
-6.072e-02,0.00104
-6.064e-02,-0.00168
-6.056e-02,-0.00048
-6.048e-02,0.00136
-6.040e-02,0.00096
-6.032e-02,-0.00208
-6.024e-02,0.00384
-6.016e-02,-0.00256
-6.008e-02,0.00272
-6.000e-02,0.00168
-5.992e-02,-0.0032
-5.984e-02,0.00296
-5.976e-02,-0.00088
-5.968e-02,-0.00296
-5.960e-02,0.00128
-5.952e-02,0.00248
-5.944e-02,-0.00072
-5.936e-02,-0.00112
-5.928e-02,0.0024
-5.920e-02,-0.0016
-5.912e-02,-0.00136
-5.904e-02,0.00256
-5.896e-02,-0.00048
-5.888e-02,0.0004
-5.880e-02,0
-5.872e-02,0.00024
-5.864e-02,0.0028
-5.856e-02,-0.0012
-5.848e-02,-0.00312
-5.840e-02,0.00368
-5.832e-02,-0.00152
-5.824e-02,0.00184
-5.816e-02,0.0036
-5.808e-02,-0.00144
-5.800e-02,-0.00176
-5.792e-02,0.00168
-5.784e-02,0.00288
-5.776e-02,0.00392
-5.768e-02,-0.00248
-5.760e-02,-0.00424
-5.752e-02,0.00656
-5.744e-02,-0.00232
-5.736e-02,0.00096
-5.728e-02,0.00192
-5.720e-02,-0.00272
-5.712e-02,0.0024
-5.704e-02,-0.00256
-5.696e-02,0.00416
-5.688e-02,0.00112
-5.680e-02,-0.00128
-5.672e-02,-0.00048
-5.664e-02,0.002
-5.656e-02,-0.00016
-5.648e-02,-8e-05
-5.640e-02,-0.0012
-5.632e-02,0.00024
-5.624e-02,-0.00184
-5.616e-02,0.00264
-5.608e-02,-0.0012
-5.600e-02,-0.0012
-5.592e-02,-0.00256
-5.584e-02,0.00064
-5.576e-02,0.00168
-5.568e-02,0.0024
-5.560e-02,0.00136
-5.552e-02,-0.00504
-5.544e-02,-0.00392
-5.536e-02,0.00016
-5.528e-02,-0.00224
-5.520e-02,-0.0012
-5.512e-02,0.00456
-5.504e-02,-0.00016
-5.496e-02,0.00312
-5.488e-02,-0.00128
-5.480e-02,0.00016
-5.472e-02,0.00016
-5.464e-02,-0.00144
-5.456e-02,-0.00016
-5.448e-02,-0.00024
-5.440e-02,0.00144
-5.432e-02,0.0008
-5.424e-02,8e-05
-5.416e-02,0.0008
-5.408e-02,0.0004
-5.400e-02,0.00112
-5.392e-02,-0.00136
-5.384e-02,0.00128
-5.376e-02,-0.00072
-5.368e-02,-0.00376
-5.360e-02,-0.00184
-5.352e-02,0.00208
-5.344e-02,0.0032
-5.336e-02,0.00136
-5.328e-02,0.00128
-5.320e-02,0.0008
-5.312e-02,-0.00352
-5.304e-02,-0.00032
-5.296e-02,0.0016
-5.288e-02,0.00232
-5.280e-02,0.00496
-5.272e-02,-0.00264
-5.264e-02,0
-5.256e-02,0.00184
-5.248e-02,-0.00168
-5.240e-02,0.00024
-5.232e-02,0.00272
-5.224e-02,-0.00032
-5.216e-02,0.0012
-5.208e-02,0.0024
-5.200e-02,-0.00208
-5.192e-02,-0.0032
-5.184e-02,0.00152
-5.176e-02,0.00376
-5.168e-02,0.00064
-5.160e-02,-0.00216
-5.152e-02,0.00136
-5.144e-02,0.00296
-5.136e-02,-0.00176
-5.128e-02,0.00104
-5.120e-02,0.00144
-5.112e-02,0.00096
-5.104e-02,0.00272
-5.096e-02,0.00056
-5.088e-02,-0.00392
-5.080e-02,-0.00048
-5.072e-02,-0.00072
-5.064e-02,0.0004
-5.056e-02,-0.00384
-5.048e-02,0.00272
-5.040e-02,0.0004
-5.032e-02,0.00424
-5.024e-02,0
-5.016e-02,-0.00024
-5.008e-02,0.00144
-5.000e-02,0.0012
-4.992e-02,0.00288
-4.984e-02,-0.00544
-4.976e-02,0
-4.968e-02,0.00152
-4.960e-02,0.0004
-4.952e-02,-0.00024
-4.944e-02,0.0012
-4.936e-02,-0.00192
-4.928e-02,0.00168
-4.920e-02,-0.00064
-4.912e-02,0.00592
-4.904e-02,-0.00032
-4.896e-02,0.0008
-4.888e-02,0.002
-4.880e-02,-0.00256
-4.872e-02,0.00032
-4.864e-02,0.00456
-4.856e-02,-0.00248
-4.848e-02,-0.00408
-4.840e-02,0.00304
-4.832e-02,-0.0028
-4.824e-02,0.00056
-4.816e-02,0.0004
-4.808e-02,0.00408
-4.800e-02,0.00168
-4.792e-02,-0.00128
-4.784e-02,0.0036
-4.776e-02,-0.00272
-4.768e-02,0.00216
-4.760e-02,0.00096
-4.752e-02,0.00512
-4.744e-02,0.00256
-4.736e-02,-0.00416
-4.728e-02,0.00248
-4.720e-02,-0.00344
-4.712e-02,-0.00016
-4.704e-02,0.00232
-4.696e-02,0.00016
-4.688e-02,0.0008
-4.680e-02,0.0052
-4.672e-02,-0.00664
-4.664e-02,0.0024
-4.656e-02,-0.00112
-4.648e-02,0.00256
-4.640e-02,0.002
-4.632e-02,-0.0048
-4.624e-02,0.00048
-4.616e-02,-0.00104
-4.608e-02,0.00216
-4.600e-02,-0.00264
-4.592e-02,-0.00024
-4.584e-02,-0.00136
-4.576e-02,-0.00224
-4.568e-02,0.00104
-4.560e-02,0.0008
-4.552e-02,-0.004
-4.544e-02,0.0004
-4.536e-02,-0.00032
-4.528e-02,0.00016
-4.520e-02,0.00136
-4.512e-02,0.00184
-4.504e-02,-0.00176
-4.496e-02,0.0036
-4.488e-02,-0.00392
-4.480e-02,0.00544
-4.472e-02,-0.00104
-4.464e-02,0.0036
-4.456e-02,0.00336
-4.448e-02,-0.0024
-4.440e-02,0.0032
-4.432e-02,-0.00016
-4.424e-02,0.00248
-4.416e-02,0.0012
-4.408e-02,0.00376
-4.400e-02,-0.00072
-4.392e-02,-0.00368
-4.384e-02,0.0032
-4.376e-02,-0.00232
-4.368e-02,0.00488
-4.360e-02,0.00152
-4.352e-02,-0.00168
-4.344e-02,-0.00024
-4.336e-02,-0.0024
-4.328e-02,-0.0012
-4.320e-02,-0.00072
-4.312e-02,0.00352
-4.304e-02,0.00224
-4.296e-02,-0.00016
-4.288e-02,-0.0004
-4.280e-02,0.00488
-4.272e-02,0.00336
-4.264e-02,-0.00088
-4.256e-02,0.00104
-4.248e-02,-0.00256
-4.240e-02,-0.00072
-4.232e-02,0.00288
-4.224e-02,0.00024
-4.216e-02,0.00296
-4.208e-02,0.00248
-4.200e-02,0.00312
-4.192e-02,0.0016
-4.184e-02,-0.00288
-4.176e-02,-0.004
-4.168e-02,-0.00184
-4.160e-02,0.0008
-4.152e-02,0.004
-4.144e-02,0.00208
-4.136e-02,8e-05
-4.128e-02,0.00176
-4.120e-02,-0.00056
-4.112e-02,-0.00288
-4.104e-02,0.0048
-4.096e-02,0.00288
-4.088e-02,-0.0024
-4.080e-02,-0.00056
-4.072e-02,0.00296
-4.064e-02,-0.00552
-4.056e-02,-0.00376
-4.048e-02,-0.00128
-4.040e-02,-0.00216
-4.032e-02,0.00072
-4.024e-02,0.0012
-4.016e-02,-0.00296
-4.008e-02,-0.00168
-4.000e-02,-0.00032
-3.992e-02,0.002
-3.984e-02,-0.00272
-3.976e-02,0.00104
-3.968e-02,0.00056
-3.960e-02,0.00344
-3.952e-02,-0.00016
-3.944e-02,-0.00232
-3.936e-02,-0.0036
-3.928e-02,-0.0028
-3.920e-02,-0.00048
-3.912e-02,0.006
-3.904e-02,-0.0016
-3.896e-02,0.00152
-3.888e-02,-0.00128
-3.880e-02,8e-05
-3.872e-02,8e-05
-3.864e-02,0.00384
-3.856e-02,0.00024
-3.848e-02,0.00032
-3.840e-02,-0.00024
-3.832e-02,-0.0032
-3.824e-02,8e-05
-3.816e-02,0.00344
-3.808e-02,0.00048
-3.800e-02,0.00296
-3.792e-02,0.00032
-3.784e-02,0.00392
-3.776e-02,0.00024
-3.768e-02,0.00112
-3.760e-02,-0.00088
-3.752e-02,0.00048
-3.744e-02,8e-05
-3.736e-02,0.00248
-3.728e-02,-0.0016
-3.720e-02,0.004
-3.712e-02,0.00512
-3.704e-02,0.00288
-3.696e-02,-0.0052
-3.688e-02,0.00128
-3.680e-02,0.00184
-3.672e-02,-0.0008
-3.664e-02,-0.00016
-3.656e-02,-0.00144
-3.648e-02,-0.00072
-3.640e-02,-0.00016
-3.632e-02,-0.0008
-3.624e-02,-0.00624
-3.616e-02,0.00648
-3.608e-02,0.00136
-3.600e-02,-0.00248
-3.592e-02,0.00392
-3.584e-02,0.00072
-3.576e-02,-0.00104
-3.568e-02,0.00264
-3.560e-02,-0.00024
-3.552e-02,-0.00176
-3.544e-02,-0.0016
-3.536e-02,0.00224
-3.528e-02,-0.00272
-3.520e-02,0.00168
-3.512e-02,0.00336
-3.504e-02,-0.00512
-3.496e-02,8e-05
-3.488e-02,0.00056
-3.480e-02,-0.00216
-3.472e-02,0.00128
-3.464e-02,0.00504
-3.456e-02,0.00128
-3.448e-02,-0.00184
-3.440e-02,-0.00136
-3.432e-02,0.00072
-3.424e-02,-0.00392
-3.416e-02,0.00576
-3.408e-02,0.00392
-3.400e-02,-0.00072
-3.392e-02,0.00184
-3.384e-02,0.00304
-3.376e-02,-0.0012
-3.368e-02,-0.00128
-3.360e-02,0.00152
-3.352e-02,0
-3.344e-02,-0.004
-3.336e-02,-0.00048
-3.328e-02,-0.00128
-3.320e-02,-0.0004
-3.312e-02,0.00184
-3.304e-02,-0.00168
-3.296e-02,-0.00144
-3.288e-02,0.00224
-3.280e-02,0.00088
-3.272e-02,-0.0028
-3.264e-02,-8e-05
-3.256e-02,-0.00072
-3.248e-02,-0.00392
-3.240e-02,0.00528
-3.232e-02,0.00584
-3.224e-02,-0.00032
-3.216e-02,-0.00208
-3.208e-02,0.00064
-3.200e-02,0.00504
-3.192e-02,-0.00072
-3.184e-02,0.00216
-3.176e-02,0.0032
-3.168e-02,-0.00048
-3.160e-02,-0.00016
-3.152e-02,-0.00152
-3.144e-02,0.002
-3.136e-02,0.00096
-3.128e-02,-0.00424
-3.120e-02,0.00256
-3.112e-02,0.00648
-3.104e-02,0.00184
-3.096e-02,0.00264
-3.088e-02,0.00128
-3.080e-02,-0.00024
-3.072e-02,0.00176
-3.064e-02,-0.00072
-3.056e-02,0.0016
-3.048e-02,8e-05
-3.040e-02,-0.00304
-3.032e-02,0.00344
-3.024e-02,-0.00224
-3.016e-02,0.00384
-3.008e-02,-0.00504
-3.000e-02,-0.00216
-2.992e-02,0.0012
-2.984e-02,-0.00176
-2.976e-02,0.00112
-2.968e-02,-0.00024
-2.960e-02,-0.00088
-2.952e-02,-0.0012
-2.944e-02,0.00384
-2.936e-02,-0.00368
-2.928e-02,-0.00016
-2.920e-02,0
-2.912e-02,0.002
-2.904e-02,0.00408
-2.896e-02,0.00384
-2.888e-02,-0.00496
-2.880e-02,-0.002
-2.872e-02,-0.00216
-2.864e-02,-0.00392
-2.856e-02,0.0008
-2.848e-02,0.00536
-2.840e-02,0.00016
-2.832e-02,-0.00152
-2.824e-02,-8e-05
-2.816e-02,0.00544
-2.808e-02,-0.00496
-2.800e-02,0.00136
-2.792e-02,0.004
-2.784e-02,0.00128
-2.776e-02,-0.00256
-2.768e-02,0.00496
-2.760e-02,-0.00192
-2.752e-02,-0.00104
-2.744e-02,0.00192
-2.736e-02,-0.00248
-2.728e-02,-0.00048
-2.720e-02,-0.00424
-2.712e-02,0.00312
-2.704e-02,-0.00184
-2.696e-02,0.0044
-2.688e-02,-0.0048
-2.680e-02,0.00024
-2.672e-02,0.00136
-2.664e-02,-0.00264
-2.656e-02,-0.00296
-2.648e-02,0.00064
-2.640e-02,0.00352
-2.632e-02,-0.00416
-2.624e-02,0.00208
-2.616e-02,0.0044
-2.608e-02,0.00352
-2.600e-02,0.00032
-2.592e-02,0.0016
-2.584e-02,-0.0012
-2.576e-02,-0.00096
-2.568e-02,0.00064
-2.560e-02,-0.00224
-2.552e-02,-0.00152
-2.544e-02,-0.00384
-2.536e-02,-0.00032
-2.528e-02,-0.00072
-2.520e-02,0.00224
-2.512e-02,0.00216
-2.504e-02,-0.00072
-2.496e-02,-0.00112
-2.488e-02,0.00152
-2.480e-02,-0.00152
-2.472e-02,0.00288
-2.464e-02,-0.00064
-2.456e-02,0.00128
-2.448e-02,0.0036
-2.440e-02,0.00056
-2.432e-02,-0.00208
-2.424e-02,0.00304
-2.416e-02,0.0032
-2.408e-02,-0.00024
-2.400e-02,-0.00328
-2.392e-02,0.00152
-2.384e-02,0.002
-2.376e-02,-0.0032
-2.368e-02,0.0004
-2.360e-02,-0.00112
-2.352e-02,-0.00144
-2.344e-02,0.00456
-2.336e-02,-0.00168
-2.328e-02,-0.00232
-2.320e-02,0.00248
-2.312e-02,0.00208
-2.304e-02,-0.00024
-2.296e-02,-0.0004
-2.288e-02,-0.0044
-2.280e-02,-0.00336
-2.272e-02,0.00224
-2.264e-02,-0.00144
-2.256e-02,-0.00024
-2.248e-02,-0.00248
-2.240e-02,0.00512
-2.232e-02,0.00288
-2.224e-02,-0.00032
-2.216e-02,0
-2.208e-02,-0.00176
-2.200e-02,-0.00168
-2.192e-02,-0.00112
-2.184e-02,0.00248
-2.176e-02,0.00272
-2.168e-02,-0.002
-2.160e-02,-0.00336
-2.152e-02,-0.00128
-2.144e-02,-0.00032
-2.136e-02,0.00592
-2.128e-02,-0.00144
-2.120e-02,0.00064
-2.112e-02,0.00096
-2.104e-02,-0.00048
-2.096e-02,0.00312
-2.088e-02,-0.00144
-2.080e-02,0.00144
-2.072e-02,0.00272
-2.064e-02,0.00024
-2.056e-02,-0.00368
-2.048e-02,0.00392
-2.040e-02,0.0004
-2.032e-02,0.00032
-2.024e-02,0.00072
-2.016e-02,-0.0016
-2.008e-02,-0.00136
-2.000e-02,0.00112
-1.992e-02,0.00256
-1.984e-02,-8e-05
-1.976e-02,-0.00488
-1.968e-02,-0.00272
-1.960e-02,-0.00408
-1.952e-02,0.00488
-1.944e-02,-0.00208
-1.936e-02,-0.00328
-1.928e-02,0.00328
-1.920e-02,-0.00016
-1.912e-02,0.00416
-1.904e-02,0.00096
-1.896e-02,-0.0008
-1.888e-02,-0.00024
-1.880e-02,-0.00224
-1.872e-02,0.00112
-1.864e-02,-0.00352
-1.856e-02,0.00312
-1.848e-02,-0.00592
-1.840e-02,0.00184
-1.832e-02,-0.00256
-1.824e-02,0.00192
-1.816e-02,0.00152
-1.808e-02,0.00096
-1.800e-02,0.00224
-1.792e-02,0.00576
-1.784e-02,-0.00272
-1.776e-02,-0.00056
-1.768e-02,0.004
-1.760e-02,-0.00104
-1.752e-02,-0.00088
-1.744e-02,0.00192
-1.736e-02,0.00072
-1.728e-02,-0.00232
-1.720e-02,0.00168
-1.712e-02,0.00064
-1.704e-02,0.00232
-1.696e-02,-0.00208
-1.688e-02,0.00064
-1.680e-02,-0.00024
-1.672e-02,-0.00272
-1.664e-02,0.00208
-1.656e-02,0.002
-1.648e-02,0.0016
-1.640e-02,-0.00352
-1.632e-02,-0.00136
-1.624e-02,0.0044
-1.616e-02,0.00016
-1.608e-02,-0.0004
-1.600e-02,0.0032
-1.592e-02,0.00304
-1.584e-02,0.0008
-1.576e-02,0
-1.568e-02,-0.00136
-1.560e-02,-0.00032
-1.552e-02,-0.00448
-1.544e-02,0.00032
-1.536e-02,0.00168
-1.528e-02,-0.00184
-1.520e-02,-0.00448
-1.512e-02,-0.00224
-1.504e-02,0.0028
-1.496e-02,0.0024
-1.488e-02,0.002
-1.480e-02,0.0004
-1.472e-02,0.0052
-1.464e-02,0.00144
-1.456e-02,0.00264
-1.448e-02,-0.00264
-1.440e-02,-0.00256
-1.432e-02,-0.0004
-1.424e-02,-0.00056
-1.416e-02,0
-1.408e-02,-0.00152
-1.400e-02,0.0016
-1.392e-02,-0.00336
-1.384e-02,-0.00312
-1.376e-02,0.00232
-1.368e-02,8e-05
-1.360e-02,0.00064
-1.352e-02,0.0028
-1.344e-02,-0.0024
-1.336e-02,0.00048
-1.328e-02,-0.0024
-1.320e-02,0.00072
-1.312e-02,-0.0016
-1.304e-02,0.00176
-1.296e-02,0.00264
-1.288e-02,-0.00416
-1.280e-02,0.00072
-1.272e-02,-0.00416
-1.264e-02,0.00304
-1.256e-02,0.00088
-1.248e-02,-0.0012
-1.240e-02,-0.00152
-1.232e-02,-0.00424
-1.224e-02,-0.00192
-1.216e-02,0.00128
-1.208e-02,0.00176
-1.200e-02,0.00096
-1.192e-02,-0.00072
-1.184e-02,0.00304
-1.176e-02,-0.00272
-1.168e-02,-0.00048
-1.160e-02,0.0004
-1.152e-02,0.00088
-1.144e-02,-0.00024
-1.136e-02,0.002
-1.128e-02,-0.00056
-1.120e-02,0.00072
-1.112e-02,-0.00104
-1.104e-02,0.00216
-1.096e-02,0.00024
-1.088e-02,0.00224
-1.080e-02,0.00224
-1.072e-02,0.00184
-1.064e-02,0.00496
-1.056e-02,0.00128
-1.048e-02,-0.00096
-1.040e-02,-0.00456
-1.032e-02,0.002
-1.024e-02,-0.00312
-1.016e-02,-0.00328
-1.008e-02,0.0028
-1.000e-02,-0.00144
-9.920e-03,-0.00048
-9.840e-03,0.00112
-9.760e-03,-0.00152
-9.680e-03,0.00088
-9.600e-03,0.00176
-9.520e-03,-0.00224
-9.440e-03,-0.00176
-9.360e-03,0.00344
-9.280e-03,-0.00248
-9.200e-03,0
-9.120e-03,0.00296
-9.040e-03,0.00088
-8.960e-03,0.00096
-8.880e-03,0.0008
-8.800e-03,-0.00104
-8.720e-03,0.00136
-8.640e-03,0.0012
-8.560e-03,-0.00136
-8.480e-03,-0.00152
-8.400e-03,-0.00136
-8.320e-03,0.00224
-8.240e-03,-0.00232
-8.160e-03,0.0024
-8.080e-03,0.0028
-8.000e-03,-0.0012
-7.920e-03,0.00264
-7.840e-03,0.00056
-7.760e-03,0.00264
-7.680e-03,0.00224
-7.600e-03,0.00168
-7.520e-03,0.00176
-7.440e-03,0.0036
-7.360e-03,0.00208
-7.280e-03,-0.00064
-7.200e-03,0.00176
-7.120e-03,-0.0052
-7.040e-03,-0.00016
-6.960e-03,-0.0008
-6.880e-03,-0.00288
-6.800e-03,-0.00368
-6.720e-03,0.00032
-6.640e-03,8e-05
-6.560e-03,0.00184
-6.480e-03,-0.00288
-6.400e-03,0
-6.320e-03,0.00208
-6.240e-03,0.00144
-6.160e-03,-0.00216
-6.080e-03,0.00344
-6.000e-03,-0.00456
-5.920e-03,-0.00136
-5.840e-03,-0.00208
-5.760e-03,0.002
-5.680e-03,0.00528
-5.600e-03,-0.00104
-5.520e-03,-0.00112
-5.440e-03,0.00352
-5.360e-03,-0.0008
-5.280e-03,0.00144
-5.200e-03,-0.00024
-5.120e-03,0.00168
-5.040e-03,0.00232
-4.960e-03,0.0004
-4.880e-03,0.00312
-4.800e-03,0.0008
-4.720e-03,0.00096
-4.640e-03,0.0004
-4.560e-03,0.00304
-4.480e-03,-0.00104
-4.400e-03,0.0036
-4.320e-03,-0.00056
-4.240e-03,0.00192
-4.160e-03,0.00088
-4.080e-03,0.00312
-4.000e-03,0
-3.920e-03,0.00192
-3.840e-03,0.0016
-3.760e-03,0.00032
-3.680e-03,0.00032
-3.600e-03,0
-3.520e-03,0.00496
-3.440e-03,-0.00664
-3.360e-03,-0.00112
-3.280e-03,0.00128
-3.200e-03,-0.00216
-3.120e-03,-0.00064
-3.040e-03,8e-05
-2.960e-03,-0.00552
-2.880e-03,-0.00048
-2.800e-03,0.00232
-2.720e-03,-0.00112
-2.640e-03,-0.00112
-2.560e-03,-0.00072
-2.480e-03,0.00128
-2.400e-03,0.00048
-2.320e-03,-0.00248
-2.240e-03,0.00464
-2.160e-03,0.0056
-2.080e-03,-0.00696
-2.000e-03,-0.00456
-1.920e-03,-0.0016
-1.840e-03,-0.00232
-1.760e-03,0.00328
-1.680e-03,-0.00248
-1.600e-03,0.00264
-1.520e-03,-0.00288
-1.440e-03,0.00056
-1.360e-03,0.00336
-1.280e-03,0.00064
-1.200e-03,-0.0004
-1.120e-03,0.00304
-1.040e-03,8e-05
-9.600e-04,-0.00248
-8.800e-04,0.00016
-8.000e-04,0
-7.200e-04,0.00048
-6.400e-04,0.00352
-5.600e-04,-0.00424
-4.800e-04,0.00048
-4.000e-04,0.004
-3.200e-04,-0.0028
-2.400e-04,0.00216
-1.600e-04,0
-8.000e-05,-0.00224
-1.896e-15,0.00176
8.000e-05,0
1.600e-04,-0.00448
2.400e-04,0.00504
3.200e-04,-0.00072
4.000e-04,0.00096
4.800e-04,-0.00192
5.600e-04,0.00312
6.400e-04,-0.00288
7.200e-04,0.00208
8.000e-04,0.00136
8.800e-04,0.00312
9.600e-04,-0.00264
1.040e-03,-0.00168
1.120e-03,-0.00296
1.200e-03,-0.00336
1.280e-03,-0.00216
1.360e-03,0.00368
1.440e-03,-0.00088
1.520e-03,-0.00112
1.600e-03,0.00224
1.680e-03,0.00216
1.760e-03,-0.00024
1.840e-03,0.0032
1.920e-03,-0.00176
2.000e-03,-0.00168
2.080e-03,-0.00192
2.160e-03,0.00176
2.240e-03,0.00168
2.320e-03,0.00232
2.400e-03,0.00128
2.480e-03,-0.00248
2.560e-03,-0.00096
