data/PSU_noise/PSU1_CC1_60A_10ms.CSV

Model,TBS1102C
Firmware Version,v2015-08-04-prequal4ch70_v1.3

Point Format,Y
Horizontal Units,S
Horizontal Scale,0.01
Sample Interval,8e-05
Filter Frequency,2e+08
Record Length,2000
Gating,0.0% to 100.0%
Probe Attenuation,1
Vertical Units,V
Vertical Offset,0
Vertical Scale,0.002
Label,
TIME,CH1
-8.000e-02,-0.00416
-7.992e-02,0.00608
-7.984e-02,-0.0024
-7.976e-02,-0.00112
-7.968e-02,0.00952
-7.960e-02,0.00064
-7.952e-02,0.00328
-7.944e-02,-0.00576
-7.936e-02,-0.00472
-7.928e-02,0.00104
-7.920e-02,-0.00256
-7.912e-02,0.0048
-7.904e-02,-0.00272
-7.896e-02,0.00464
-7.888e-02,0.0044
-7.880e-02,-0.006
-7.872e-02,-0.00048
-7.864e-02,-0.00552
-7.856e-02,0.00728
-7.848e-02,0.00224
-7.840e-02,-0.00016
-7.832e-02,0.00824
-7.824e-02,-0.00216
-7.816e-02,0.00192
-7.808e-02,-0.00088
-7.800e-02,-0.00248
-7.792e-02,0.00304
-7.784e-02,-0.00768
-7.776e-02,0.00104
-7.768e-02,-0.008
-7.760e-02,0.00344
-7.752e-02,0.00088
-7.744e-02,-0.00192
-7.736e-02,0.00888
-7.728e-02,-0.00328
-7.720e-02,0.00136
-7.712e-02,8e-05
-7.704e-02,-0.00312
-7.696e-02,0.00872
-7.688e-02,-0.00144
-7.680e-02,0.00208
-7.672e-02,0.00248
-7.664e-02,-0.00256
-7.656e-02,0.004
-7.648e-02,-0.00752
-7.640e-02,0.00352
-7.632e-02,0.00264
-7.624e-02,-0.00184
-7.616e-02,0.00688
-7.608e-02,-0.00592
-7.600e-02,0.00032
-7.592e-02,-0.00056
-7.584e-02,-0.00088
-7.576e-02,0.00224
-7.568e-02,-0.00208
-7.560e-02,0.00728
-7.552e-02,-0.00152
-7.544e-02,0.00384
-7.536e-02,0.00232
-7.528e-02,-0.00288
-7.520e-02,0.00312
-7.512e-02,-0.00216
-7.504e-02,-0.0016
-7.496e-02,0.00064
-7.488e-02,-0.00608
-7.480e-02,-0.00168
-7.472e-02,-0.00056
-7.464e-02,-0.00248
-7.456e-02,0.00136
-7.448e-02,-0.00056
-7.440e-02,0.00392
-7.432e-02,-0.0016
-7.424e-02,-0.0004
-7.416e-02,0.0032
-7.408e-02,-0.00416
-7.400e-02,0.00416
-7.392e-02,0.004
-7.384e-02,0.00264
-7.376e-02,0.00472
-7.368e-02,-0.00448
-7.360e-02,0.00128
-7.352e-02,-0.00288
-7.344e-02,-0.00248
-7.336e-02,0.00448
-7.328e-02,0.00232
-7.320e-02,0.0012
-7.312e-02,-0.00824
-7.304e-02,0.00528
-7.296e-02,0.00224
-7.288e-02,-0.00144
-7.280e-02,0.00152
-7.272e-02,-0.00048
-7.264e-02,0.00176
-7.256e-02,0
-7.248e-02,-0.00232
-7.240e-02,0.00872
-7.232e-02,0.0008
-7.224e-02,0.00392
-7.216e-02,-0.004
-7.208e-02,-0.00336
-7.200e-02,0.00608
-7.192e-02,-0.00712
-7.184e-02,0.00064
-7.176e-02,-0.00208
-7.168e-02,0.00472
-7.160e-02,0.00312
-7.152e-02,-0.00536
-7.144e-02,0.00176
-7.136e-02,-0.00416
-7.128e-02,-0.00136
-7.120e-02,0.00424
-7.112e-02,-0.00352
-7.104e-02,0.00776
-7.096e-02,-0.00544
-7.088e-02,0.00416
-7.080e-02,0.00264
-7.072e-02,-0.00288
-7.064e-02,0.0036
-7.056e-02,-0.0088
-7.048e-02,0.00168
-7.040e-02,0.00144
-7.032e-02,0.00248
-7.024e-02,0.00488
-7.016e-02,-0.00192
-7.008e-02,-0.00456
-7.000e-02,-0.00504
-6.992e-02,-0.00128
-6.984e-02,0.0032
-6.976e-02,-0.00512
-6.968e-02,0.00304
-6.960e-02,-0.00312
-6.952e-02,-0.00192
-6.944e-02,-0.00144
-6.936e-02,-0.00368
-6.928e-02,-0.00112
-6.920e-02,-0.00168
-6.912e-02,-0.00272
-6.904e-02,0.00408
-6.896e-02,-0.00352
-6.888e-02,0.00024
-6.880e-02,0.00096
-6.872e-02,-0.00664
-6.864e-02,-0.00072
-6.856e-02,-0.0008
-6.848e-02,0.0032
-6.840e-02,-0.00296
-6.832e-02,0.00392
-6.824e-02,0.00064
-6.816e-02,-0.00032
-6.808e-02,0.00472
-6.800e-02,0.00168
-6.792e-02,-0.0004
-6.784e-02,0.00488
-6.776e-02,-0.00416
-6.768e-02,0.00232
-6.760e-02,0.0024
-6.752e-02,-0.00184
-6.744e-02,0.00256
-6.736e-02,-0.0088
-6.728e-02,0.00088
-6.720e-02,-0.00144
-6.712e-02,-0.00112
-6.704e-02,-0.00248
-6.696e-02,-0.00544
-6.688e-02,0.00336
-6.680e-02,-0.00368
-6.672e-02,0.00088
-6.664e-02,-0.00152
-6.656e-02,-0.00704
-6.648e-02,0.0052
-6.640e-02,-0.01016
-6.632e-02,-0.00384
-6.624e-02,-0.00304
-6.616e-02,-0.00512
-6.608e-02,0.00768
-6.600e-02,-0.00744
-6.592e-02,0.00352
-6.584e-02,0.0008
-6.576e-02,0.00056
-6.568e-02,0.00328
-6.560e-02,-0.00728
-6.552e-02,0.00056
-6.544e-02,-0.0016
-6.536e-02,0.00248
-6.528e-02,0.0024
-6.520e-02,-0.00216
-6.512e-02,0.00384
-6.504e-02,-0.00648
-6.496e-02,0.00288
-6.488e-02,0.00456
-6.480e-02,-0.00664
-6.472e-02,0.00616
-6.464e-02,-0.00472
-6.456e-02,0.00016
-6.448e-02,0.00368
-6.440e-02,0
-6.432e-02,0.00392
-6.424e-02,-0.0052
-6.416e-02,-0.00128
-6.408e-02,-0.00024
-6.400e-02,-8e-05
-6.392e-02,0.0024
-6.384e-02,-0.00136
-6.376e-02,0.00824
-6.368e-02,-0.00192
-6.360e-02,-0.00016
-6.352e-02,0.00192
-6.344e-02,-0.00392
-6.336e-02,-0.00104
-6.328e-02,0.00096
-6.320e-02,-0.0008
-6.312e-02,0.00704
-6.304e-02,-0.00728
-6.296e-02,-0.00016
-6.288e-02,-0.00056
-6.280e-02,-0.00104
-6.272e-02,-0.002
-6.264e-02,-0.0052
-6.256e-02,0.00424
-6.248e-02,-0.00064
-6.240e-02,0.00112
-6.232e-02,0.00128
-6.224e-02,-0.00048
-6.216e-02,0.00064
-6.208e-02,-0.00248
-6.200e-02,-0.00368
-6.192e-02,0.00144
-6.184e-02,-0.0032
-6.176e-02,0.00656
-6.168e-02,0.0016
-6.160e-02,0.00344
-6.152e-02,0.0064
-6.144e-02,-0.0024
-6.136e-02,0
-6.128e-02,-0.00336
-6.120e-02,-0.00136
-6.112e-02,0.00136
-6.104e-02,0.00176
-6.096e-02,0.00568
-6.088e-02,-0.00304
-6.080e-02,-0.00168
-6.072e-02,0.00336
-6.064e-02,-0.00464
-6.056e-02,0.00488
-6.048e-02,-0.0056
-6.040e-02,0.00568
-6.032e-02,0.00352
-6.024e-02,-0.004
-6.016e-02,0.00744
-6.008e-02,-0.00272
-6.000e-02,0.0024
-5.992e-02,-0.00096
-5.984e-02,-0.00096
-5.976e-02,0.00512
-5.968e-02,0.0004
-5.960e-02,0.00128
-5.952e-02,-0.00248
-5.944e-02,-0.00064
-5.936e-02,0.00736
-5.928e-02,-0.00744
-5.920e-02,0.00296
-5.912e-02,-0.0032
-5.904e-02,0.00104
-5.896e-02,0.00048
-5.888e-02,-0.00608
-5.880e-02,0.00528
-5.872e-02,-0.00288
-5.864e-02,0.00264
-5.856e-02,0.0076
-5.848e-02,-8e-05
-5.840e-02,0.00152
-5.832e-02,-0.00552
-5.824e-02,0.00208
-5.816e-02,0.004
-5.808e-02,0.00048
-5.800e-02,0.00688
-5.792e-02,-0.00608
-5.784e-02,0.00184
-5.776e-02,-0.00056
-5.768e-02,0.00144
-5.760e-02,0.00352
-5.752e-02,-0.00312
-5.744e-02,0.00072
-5.736e-02,-8e-05
-5.728e-02,-0.00168
-5.720e-02,0.00536
-5.712e-02,-0.00208
-5.704e-02,0.00272
-5.696e-02,-0.00096
-5.688e-02,-0.00144
-5.680e-02,0.00232
-5.672e-02,-0.00384
-5.664e-02,0.00136
-5.656e-02,0.00264
-5.648e-02,0.00024
-5.640e-02,0.00784
-5.632e-02,0.00232
-5.624e-02,-0.00056
-5.616e-02,0.00112
-5.608e-02,-0.0056
-5.600e-02,-0.00056
-5.592e-02,-0.00208
-5.584e-02,0.0052
-5.576e-02,0.00616
-5.568e-02,-0.00136
-5.560e-02,0.006
-5.552e-02,-0.00728
-5.544e-02,0.00152
-5.536e-02,-0.00072
-5.528e-02,-0.00352
-5.520e-02,0.00448
-5.512e-02,0.00048
-5.504e-02,0.00056
-5.496e-02,-0.00304
-5.488e-02,-0.00248
-5.480e-02,0.002
-5.472e-02,-0.00344
-5.464e-02,0.00528
-5.456e-02,-0.00216
-5.448e-02,0.004
-5.440e-02,0.00248
-5.432e-02,-0.00368
-5.424e-02,0.0056
-5.416e-02,-0.00144
-5.408e-02,0.00096
-5.400e-02,0.00104
-5.392e-02,-0.00168
-5.384e-02,0.00912
-5.376e-02,-0.00424
-5.368e-02,0.0056
-5.360e-02,0.00056
-5.352e-02,0.00152
-5.344e-02,0.00384
-5.336e-02,-0.01
-5.328e-02,0.00288
-5.320e-02,-0.00832
-5.312e-02,-0.00128
-5.304e-02,0.00856
-5.296e-02,-0.00288
-5.288e-02,0.00432
-5.280e-02,0.00312
-5.272e-02,-0.00136
-5.264e-02,0.0084
-5.256e-02,-8e-05
-5.248e-02,0.00504
-5.240e-02,0.00056
-5.232e-02,0.00552
-5.224e-02,0.00352
-5.216e-02,0.00024
-5.208e-02,0.008
-5.200e-02,-0.0044
-5.192e-02,0.00368
-5.184e-02,0.00072
-5.176e-02,0.00168
-5.168e-02,0.0012
-5.160e-02,-0.00616
-5.152e-02,0.00152
-5.144e-02,-8e-05
-5.136e-02,0.00048
-5.128e-02,0.00904
-5.120e-02,-0.0012
-5.112e-02,-0.00072
-5.104e-02,-0.00112
-5.096e-02,-0.00392
-5.088e-02,-0.002
-5.080e-02,-0.0024
-5.072e-02,0.0044
-5.064e-02,0.00328
-5.056e-02,0.0016
-5.048e-02,0.00152
-5.040e-02,-8e-05
-5.032e-02,0.00152
-5.024e-02,-0.00424
-5.016e-02,-0.0024
-5.008e-02,0.00104
-5.000e-02,-0.0012
-4.992e-02,0.00696
-4.984e-02,0.00144
-4.976e-02,-0.00184
-4.968e-02,-0.00064
-4.960e-02,-0.00232
-4.952e-02,0.00088
-4.944e-02,-0.00064
-4.936e-02,-0.002
-4.928e-02,0.00992
-4.920e-02,-0.00064
-4.912e-02,-0.00136
-4.904e-02,-0.00088
-4.896e-02,-0.00056
-4.888e-02,0
-4.880e-02,-0.00616
-4.872e-02,0.00288
-4.864e-02,-0.00096
-4.856e-02,-0.00328
-4.848e-02,0.0036
-4.840e-02,-0.00144
-4.832e-02,0.00592
-4.824e-02,-0.00048
-4.816e-02,0
-4.808e-02,0.00712
-4.800e-02,-0.00496
-4.792e-02,0.00608
-4.784e-02,-0.00264
-4.776e-02,0.00112
-4.768e-02,0.00768
-4.760e-02,-0.0008
-4.752e-02,0.00272
-4.744e-02,-0.0096
-4.736e-02,0.00056
-4.728e-02,0.0008
-4.720e-02,-0.00048
-4.712e-02,0.00448
-4.704e-02,-0.0056
-4.696e-02,0.00416
-4.688e-02,-0.00072
-4.680e-02,-0.00176
-4.672e-02,0.0028
-4.664e-02,-0.00336
-4.656e-02,0.00208
-4.648e-02,0.00208
-4.640e-02,-0.01016
-4.632e-02,0.00616
-4.624e-02,-0.00608
-4.616e-02,0.00024
-4.608e-02,-0.00024
-4.600e-02,-0.00144
-4.592e-02,8e-05
-4.584e-02,-0.00256
-4.576e-02,0.00208
-4.568e-02,-0.00376
-4.560e-02,0.00304
-4.552e-02,0.00568
-4.544e-02,-0.00368
-4.536e-02,0.00744
-4.528e-02,0.0004
-4.520e-02,-0.00456
-4.512e-02,0.00064
-4.504e-02,-0.00432
-4.496e-02,0.00688
-4.488e-02,0.00088
-4.480e-02,0.00512
-4.472e-02,0.00544
-4.464e-02,0.00128
-4.456e-02,0.00416
-4.448e-02,-0.00096
-4.440e-02,-0.00064
-4.432e-02,-0.0032
-4.424e-02,-0.0048
-4.416e-02,0.00168
-4.408e-02,-0.00328
-4.400e-02,0.00176
-4.392e-02,0.00248
-4.384e-02,-0.00072
-4.376e-02,0.00184
-4.368e-02,-0.00384
-4.360e-02,-0.00368
-4.352e-02,0.00168
-4.344e-02,-0.00608
-4.336e-02,0.00736
-4.328e-02,-0.0008
-4.320e-02,0.00216
-4.312e-02,0.00432
-4.304e-02,-0.008
-4.296e-02,0.0016
-4.288e-02,-0.00928
-4.280e-02,-0.00104
-4.272e-02,-0.0016
-4.264e-02,-0.00208
-4.256e-02,0.00352
-4.248e-02,-0.00432
-4.240e-02,0.00392
-4.232e-02,-0.00312
-4.224e-02,-0.00368
-4.216e-02,0.00488
-4.208e-02,-0.00616
-4.200e-02,0.00664
-4.192e-02,0.00208
-4.184e-02,0.00176
-4.176e-02,0.00776
-4.168e-02,-0.0048
-4.160e-02,0.0036
-4.152e-02,-0.00736
-4.144e-02,-0.00024
-4.136e-02,-0.00184
-4.128e-02,-0.00384
-4.120e-02,0.0044
-4.112e-02,-0.0008
-4.104e-02,0.004
-4.096e-02,0.00336
-4.088e-02,-0.00032
-4.080e-02,0.00352
-4.072e-02,-0.00384
-4.064e-02,0.00312
-4.056e-02,-0.00256
-4.048e-02,-0.00064
-4.040e-02,0.006
-4.032e-02,-0.00096
-4.024e-02,0.00536
-4.016e-02,0.00072
-4.008e-02,0.00064
-4.000e-02,0.00272
-3.992e-02,-0.00864
-3.984e-02,-0.00304
-3.976e-02,-0.00496
-3.968e-02,0.00312
-3.960e-02,0.00376
-3.952e-02,-0.00152
-3.944e-02,0.00424
-3.936e-02,-0.004
-3.928e-02,-0.0012
-3.920e-02,0.00232
-3.912e-02,0.0008
-3.904e-02,0.00456
-3.896e-02,0.00136
-3.888e-02,-8e-05
-3.880e-02,0.00472
-3.872e-02,0.00112
-3.864e-02,0.00088
-3.856e-02,0.00016
-3.848e-02,-0.00464
-3.840e-02,-0.00024
-3.832e-02,-0.00352
-3.824e-02,0.00488
-3.816e-02,-0.0004
-3.808e-02,0.00216
-3.800e-02,-0.0044
-3.792e-02,-0.00312
-3.784e-02,0.00336
-3.776e-02,-0.00112
-3.768e-02,-0.00112
-3.760e-02,0.00192
-3.752e-02,-0.00408
-3.744e-02,0.00576
-3.736e-02,-0.002
-3.728e-02,0.00184
-3.720e-02,0.00488
-3.712e-02,-0.0028
-3.704e-02,0.00432
-3.696e-02,-0.00336
-3.688e-02,-0.0004
-3.680e-02,0.00296
-3.672e-02,0.00144
-3.664e-02,0.00336
-3.656e-02,-0.00424
-3.648e-02,-0.00336
-3.640e-02,0.00312
-3.632e-02,-0.00056
-3.624e-02,0.00384
-3.616e-02,-8e-05
-3.608e-02,0.00512
-3.600e-02,0.00176
-3.592e-02,-0.00472
-3.584e-02,0.0092
-3.576e-02,-0.00248
-3.568e-02,0.00408
-3.560e-02,-0.00056
-3.552e-02,-8e-05
-3.544e-02,0.00216
-3.536e-02,-0.00192
-3.528e-02,0.0068
-3.520e-02,0.00088
-3.512e-02,-0.00056
-3.504e-02,-0.0008
-3.496e-02,-0.00496
-3.488e-02,0.00416
-3.480e-02,-0.00024
-3.472e-02,0.00464
-3.464e-02,0.00544
-3.456e-02,-0.0024
-3.448e-02,0.0092
-3.440e-02,-0.0024
-3.432e-02,-0.00048
-3.424e-02,-0.00056
-3.416e-02,-0.00264
-3.408e-02,0.00248
-3.400e-02,-0.00128
-3.392e-02,0.00352
-3.384e-02,-0.00024
-3.376e-02,0.00048
-3.368e-02,0.00392
-3.360e-02,-0.0032
-3.352e-02,0.00328
-3.344e-02,-0.00176
-3.336e-02,0.00072
-3.328e-02,0.00072
-3.320e-02,-0.00496
-3.312e-02,0.00368
-3.304e-02,0.004
-3.296e-02,-0.00224
-3.288e-02,0.0008
-3.280e-02,-0.00352
-3.272e-02,0.00744
-3.264e-02,0.0028
-3.256e-02,-0.00064
-3.248e-02,0.00504
-3.240e-02,-0.00192
-3.232e-02,0.00088
-3.224e-02,0.00024
-3.216e-02,0.00272
-3.208e-02,0.0024
-3.200e-02,-0.00248
-3.192e-02,-0.00168
-3.184e-02,-0.00024
-3.176e-02,0.00128
-3.168e-02,-8e-05
-3.160e-02,-0.00232
-3.152e-02,0.00656
-3.144e-02,0.00184
-3.136e-02,-0.00264
-3.128e-02,0.00168
-3.120e-02,-0.00424
-3.112e-02,0.0012
-3.104e-02,-0.00024
-3.096e-02,0.00128
-3.088e-02,0.00448
-3.080e-02,-0.00096
-3.072e-02,0.00088
-3.064e-02,-0.0048
-3.056e-02,-0.00096
-3.048e-02,-0.00032
-3.040e-02,-0.00088
-3.032e-02,0.00384
-3.024e-02,-0.00632
-3.016e-02,0.00448
-3.008e-02,0.00272
-3.000e-02,-0.0052
-2.992e-02,0.004
-2.984e-02,-0.00664
-2.976e-02,-0.00248
-2.968e-02,-0.00416
-2.960e-02,0.00064
-2.952e-02,0.002
-2.944e-02,-0.00328
-2.936e-02,0.00696
-2.928e-02,-0.00232
-2.920e-02,-0.00104
-2.912e-02,0.00128
-2.904e-02,-0.00192
-2.896e-02,0.0008
-2.888e-02,-0.00752
-2.880e-02,0.00112
-2.872e-02,0.00368
-2.864e-02,-0.00392
-2.856e-02,0.00784
-2.848e-02,-0.00912
-2.840e-02,-0.00032
-2.832e-02,0.00136
-2.824e-02,-0.00448
-2.816e-02,0.00288
-2.808e-02,-0.00296
-2.800e-02,0.00344
-2.792e-02,0.00472
-2.784e-02,0.00016
-2.776e-02,0.00632
-2.768e-02,-0.00336
-2.760e-02,0.00448
-2.752e-02,-0.00296
-2.744e-02,-0.00144
-2.736e-02,0.00352
-2.728e-02,0.0008
-2.720e-02,0.00456
-2.712e-02,-0.0048
-2.704e-02,-0.00232
-2.696e-02,0.00192
-2.688e-02,-0.00816
-2.680e-02,-0.00136
-2.672e-02,-0.0032
-2.664e-02,0.002
-2.656e-02,0.00192
-2.648e-02,0.0004
-2.640e-02,-0.00304
-2.632e-02,-0.00312
-2.624e-02,0.0024
-2.616e-02,-0.00024
-2.608e-02,-0.00024
-2.600e-02,0.0008
-2.592e-02,-0.00352
-2.584e-02,0.00272
-2.576e-02,0.00064
-2.568e-02,-0.00488
-2.560e-02,0.00616
-2.552e-02,-0.00064
-2.544e-02,0.00296
-2.536e-02,0.00072
-2.528e-02,-8e-05
-2.520e-02,0.00088
-2.512e-02,-0.00232
-2.504e-02,-0.00112
-2.496e-02,0.00344
-2.488e-02,0.00088
-2.480e-02,0.0016
-2.472e-02,-0.00152
-2.464e-02,0.00072
-2.456e-02,0.00088
-2.448e-02,-0.00136
-2.440e-02,0.00592
-2.432e-02,-0.00152
-2.424e-02,0.00368
-2.416e-02,0.00224
-2.408e-02,-0.00664
-2.400e-02,0.00176
-2.392e-02,-0.00264
-2.384e-02,0.0028
-2.376e-02,0.00328
-2.368e-02,-0.0056
-2.360e-02,0.00448
-2.352e-02,-0.00456
-2.344e-02,0.00032
-2.336e-02,-0.00256
-2.328e-02,-0.0052
-2.320e-02,0.00344
-2.312e-02,-0.00816
-2.304e-02,-0.00144
-2.296e-02,-0.00536
-2.288e-02,-0.00048
-2.280e-02,0.00144
-2.272e-02,-0.00176
-2.264e-02,0.00152
-2.256e-02,-0.00056
-2.248e-02,-0.0052
-2.240e-02,0.0036
-2.232e-02,-0.00592
-2.224e-02,0.00544
-2.216e-02,0.0028
-2.208e-02,0.00144
-2.200e-02,0.00384
-2.192e-02,-0.0036
-2.184e-02,0.00584
-2.176e-02,-0.00728
-2.168e-02,0.00392
-2.160e-02,0.00304
-2.152e-02,0.00152
-2.144e-02,0.00192
-2.136e-02,-0.00328
-2.128e-02,0.00296
-2.120e-02,-0.00232
-2.112e-02,-0.00104
-2.104e-02,0.00888
-2.096e-02,0.0004
-2.088e-02,0.00112
-2.080e-02,-0.00168
-2.072e-02,0.00176
-2.064e-02,0.00688
-2.056e-02,-0.00376
-2.048e-02,0.00016
-2.040e-02,0.00304
-2.032e-02,-0.00048
-2.024e-02,0.0008
-2.016e-02,-0.00552
-2.008e-02,-0.0004
-2.000e-02,-8e-05
-1.992e-02,0.00392
-1.984e-02,0.00272
-1.976e-02,0.0004
-1.968e-02,0.0056
-1.960e-02,-0.00128
-1.952e-02,-0.00056
-1.944e-02,-0.00016
-1.936e-02,-0.0028
-1.928e-02,0.00296
-1.920e-02,0.00304
-1.912e-02,0.00336
-1.904e-02,0.0092
-1.896e-02,0.00104
-1.888e-02,0.00432
-1.880e-02,-0.00392
-1.872e-02,-0.0004
-1.864e-02,0.00352
-1.856e-02,-0.0028
-1.848e-02,0.00496
-1.840e-02,-0.00152
-1.832e-02,0.00432
-1.824e-02,0.00112
-1.816e-02,-0.00656
-1.808e-02,0.0004
-1.800e-02,-0.00128
-1.792e-02,0.00248
-1.784e-02,0.00608
-1.776e-02,-0.00216
-1.768e-02,0.00568
-1.760e-02,0
-1.752e-02,0.00152
-1.744e-02,0.00112
-1.736e-02,-0.00464
-1.728e-02,0.0044
-1.720e-02,-0.00408
-1.712e-02,0.00472
-1.704e-02,-0.0004
-1.696e-02,0.00512
-1.688e-02,0.00648
-1.680e-02,-0.00312
-1.672e-02,0.00656
-1.664e-02,0.0004
-1.656e-02,-0.0056
-1.648e-02,0.00224
-1.640e-02,0.00296
-1.632e-02,0.01008
-1.624e-02,0.00016
-1.616e-02,0.0044
-1.608e-02,0.00424
-1.600e-02,-0.0056
-1.592e-02,0.00056
-1.584e-02,-0.00328
-1.576e-02,0.00512
-1.568e-02,0.00328
-1.560e-02,-0.0008
-1.552e-02,0.0004
-1.544e-02,-0.00552
-1.536e-02,-0.00264
-1.528e-02,-0.0024
-1.520e-02,-0.00328
-1.512e-02,0.00512
-1.504e-02,-0.00168
-1.496e-02,0.0028
-1.488e-02,-0.00256
-1.480e-02,-0.00128
-1.472e-02,0.00736
-1.464e-02,0.00128
-1.456e-02,0.00344
-1.448e-02,-0.00272
-1.440e-02,-0.00208
-1.432e-02,-0.00224
-1.424e-02,-0.00408
-1.416e-02,0.00136
-1.408e-02,0.00112
-1.400e-02,0.002
-1.392e-02,0.00296
-1.384e-02,-0.00264
-1.376e-02,-0.0004
-1.368e-02,-0.00432
-1.360e-02,-0.00568
-1.352e-02,-0.00048
-1.344e-02,8e-05
-1.336e-02,0.00536
-1.328e-02,0.0008
-1.320e-02,-0.00488
-1.312e-02,0.00752
-1.304e-02,-0.0008
-1.296e-02,0.00208
-1.288e-02,0.00168
-1.280e-02,-0.00544
-1.272e-02,0.00728
-1.264e-02,-0.00304
-1.256e-02,0.00216
-1.248e-02,-0.00384
-1.240e-02,0.0032
-1.232e-02,0.00104
-1.224e-02,-0.00432
-1.216e-02,0.00392
-1.208e-02,-0.00232
-1.200e-02,0.0008
-1.192e-02,0.0048
-1.184e-02,-0.00608
-1.176e-02,0.00664
-1.168e-02,-0.00192
-1.160e-02,0.00176
-1.152e-02,-0.00016
-1.144e-02,-0.00584
-1.136e-02,0.00448
-1.128e-02,-0.00784
-1.120e-02,0.00176
-1.112e-02,0.00496
-1.104e-02,-0.00032
-1.096e-02,0.00392
-1.088e-02,-0.00752
-1.080e-02,0.00072
-1.072e-02,-0.00528
-1.064e-02,-0.00464
-1.056e-02,0.006
-1.048e-02,-0.00304
-1.040e-02,0.00864
-1.032e-02,-0.00368
-1.024e-02,0.00216
-1.016e-02,0.0032
-1.008e-02,-0.00552
-1.000e-02,0.00144
-9.920e-03,-0.00232
-9.840e-03,-0.00096
-9.760e-03,-0.00136
-9.680e-03,-0.00592
-9.600e-03,0.00416
-9.520e-03,-0.00704
-9.440e-03,-0.00016
-9.360e-03,0.00384
-9.280e-03,-0.00232
-9.200e-03,0.00128
-9.120e-03,-0.00576
-9.040e-03,0.0056
-8.960e-03,0.002
-8.880e-03,0.00264
-8.800e-03,0.00712
-8.720e-03,-0.00112
-8.640e-03,0.00328
-8.560e-03,0.00136
-8.480e-03,-0.00328
-8.400e-03,0.00504
-8.320e-03,-0.002
-8.240e-03,0.00072
-8.160e-03,0.0012
-8.080e-03,-0.00088
-8.000e-03,0.00096
-7.920e-03,-0.00304
-7.840e-03,0.00392
-7.760e-03,-0.00344
-7.680e-03,0.00248
-7.600e-03,0.00432
-7.520e-03,-0.00056
-7.440e-03,0.00304
-7.360e-03,0.00112
-7.280e-03,-0.004
-7.200e-03,0.00192
-7.120e-03,-0.004
-7.040e-03,0.0024
-6.960e-03,-0.00128
-6.880e-03,-0.00376
-6.800e-03,0.0056
-6.720e-03,-0.00752
-6.640e-03,0
-6.560e-03,-0.0008
-6.480e-03,0.0008
-6.400e-03,-0.00408
-6.320e-03,-0.00272
-6.240e-03,0.00136
-6.160e-03,-0.006
-6.080e-03,-0.0024
-6.000e-03,-0.00024
-5.920e-03,-0.00616
-5.840e-03,0.00352
-5.760e-03,-0.00304
-5.680e-03,-0.00136
-5.600e-03,0.0044
-5.520e-03,-0.00696
-5.440e-03,0.00544
-5.360e-03,-0.0028
-5.280e-03,-0.00112
-5.200e-03,0.0028
-5.120e-03,0.00136
-5.040e-03,0.002
-4.960e-03,-0.00136
-4.880e-03,0.00352
-4.800e-03,0.00304
-4.720e-03,0.00216
-4.640e-03,0.006
-4.560e-03,-0.00056
-4.480e-03,0.00888
-4.400e-03,0.00432
-4.320e-03,0.0008
-4.240e-03,0.00576
-4.160e-03,-0.00528
-4.080e-03,0.00448
-4.000e-03,0.00128
-3.920e-03,0.00136
-3.840e-03,0.0072
-3.760e-03,-0.00288
-3.680e-03,0.002
-3.600e-03,-0.00208
-3.520e-03,0.00128
-3.440e-03,0.00184
-3.360e-03,-0.0036
-3.280e-03,0.00368
-3.200e-03,0.00104
-3.120e-03,0.00512
-3.040e-03,-0.0012
-2.960e-03,-0.00224
-2.880e-03,0.00584
-2.800e-03,0.00152
-2.720e-03,-0.00088
-2.640e-03,-0.00032
-2.560e-03,-0.00552
-2.480e-03,0.00592
-2.400e-03,-0.00216
-2.320e-03,0.002
-2.240e-03,-0.00144
-2.160e-03,-0.00344
-2.080e-03,-0.00184
-2.000e-03,-0.00392
-1.920e-03,0.00304
-1.840e-03,-0.00088
-1.760e-03,-0.00072
-1.680e-03,0.00448
-1.600e-03,-0.0016
-1.520e-03,0.006
-1.440e-03,-0.00072
-1.360e-03,-0.00352
-1.280e-03,0.00632
-1.200e-03,-0.00456
-1.120e-03,-0.00032
-1.040e-03,0.00224
-9.600e-04,-0.00424
-8.800e-04,0.00216
-8.000e-04,-0.00224
-7.200e-04,0.00368
-6.400e-04,0.00168
-5.600e-04,-0.00192
-4.800e-04,0.00176
-4.000e-04,-0.00072
-3.200e-04,0.00352
-2.400e-04,0.00032
-1.600e-04,-0.00168
-8.000e-05,0.0024
-1.896e-15,-0.00664
8.000e-05,0.0032
1.600e-04,-0.00096
2.400e-04,0.00408
3.200e-04,0.00584
4.000e-04,-0.00512
4.800e-04,0.004
5.600e-04,-0.00128
6.400e-04,-0.00024
7.200e-04,0.00688
8.000e-04,0.00056
8.800e-04,0.0064
9.600e-04,-0.00464
1.040e-03,8e-05
1.120e-03,0.00624
1.200e-03,0.00016
1.280e-03,0.00736
1.360e-03,-0.00176
1.440e-03,0.00328
1.520e-03,-0.00488
1.600e-03,-0.00512
1.680e-03,0.00136
1.760e-03,-0.00352
1.840e-03,0.00112
1.920e-03,0.0052
2.000e-03,-0.0024
2.080e-03,0.00896
2.160e-03,-0.00832
