data/PSU_noise/PSU1_CC2_100A_100us.CSV

Model,TBS1102C
Firmware Version,v2015-08-04-prequal4ch70_v1.3

Point Format,Y
Horizontal Units,S
Horizontal Scale,0.0001
Sample Interval,8e-07
Filter Frequency,2e+08
Record Length,2000
Gating,0.0% to 100.0%
Probe Attenuation,1
Vertical Units,V
Vertical Offset,0
Vertical Scale,0.002
Label,
TIME,CH1
-8.000e-04,0.00656
-7.992e-04,0.0092
-7.984e-04,0.0068
-7.976e-04,0.00672
-7.968e-04,0.00984
-7.960e-04,0.00952
-7.952e-04,0.00544
-7.944e-04,0.00504
-7.936e-04,0.00248
-7.928e-04,-0.00064
-7.920e-04,-0.0012
-7.912e-04,0.00256
-7.904e-04,0.0016
-7.896e-04,-0.0032
-7.888e-04,-0.00416
-7.880e-04,-0.0036
-7.872e-04,-0.0056
-7.864e-04,-0.00464
-7.856e-04,-0.0004
-7.848e-04,-0.00016
-7.840e-04,-0.0016
-7.832e-04,0.00144
-7.824e-04,0.00344
-7.816e-04,0.002
-7.808e-04,0.00504
-7.800e-04,0.00808
-7.792e-04,0.00568
-7.784e-04,0.00328
-7.776e-04,0.00424
-7.768e-04,0.00408
-7.760e-04,0.00128
-7.752e-04,0.00024
-7.744e-04,0.00016
-7.736e-04,-0.00528
-7.728e-04,-0.00848
-7.720e-04,-0.00448
-7.712e-04,-0.0032
-7.704e-04,-0.00512
-7.696e-04,-0.00648
-7.688e-04,-0.00584
-7.680e-04,-0.00784
-7.672e-04,-0.00808
-7.664e-04,-0.00224
-7.656e-04,0.00128
-7.648e-04,-0.00016
-7.640e-04,0.00216
-7.632e-04,0.006
-7.624e-04,0.00672
-7.616e-04,0.00616
-7.608e-04,0.0084
-7.600e-04,0.00784
-7.592e-04,0.00408
-7.584e-04,0.00136
-7.576e-04,0.00184
-7.568e-04,0.00224
-7.560e-04,-0.00104
-7.552e-04,-0.00192
-7.544e-04,-0.0012
-7.536e-04,-0.00448
-7.528e-04,-0.00808
-7.520e-04,-0.00416
-7.512e-04,-0.00104
-7.504e-04,-0.00168
-7.496e-04,-0.00264
-7.488e-04,-0.00216
-7.480e-04,-0.00208
-7.472e-04,-0.00328
-7.464e-04,-0.00104
-7.456e-04,0.00288
-7.448e-04,0.00152
-7.440e-04,-0.00128
-7.432e-04,0.00096
-7.424e-04,0.00328
-7.416e-04,0.0016
-7.408e-04,0.00056
-7.400e-04,0.00136
-7.392e-04,-0.0016
-7.384e-04,-0.00552
-7.376e-04,-0.00576
-7.368e-04,-0.00376
-7.360e-04,-0.00536
-7.352e-04,-0.00784
-7.344e-04,-0.00688
-7.336e-04,-0.00664
-7.328e-04,-0.00864
-7.320e-04,-0.00576
-7.312e-04,0.00032
-7.304e-04,0.00168
-7.296e-04,0.00056
-7.288e-04,0.00352
-7.280e-04,0.00368
-7.272e-04,0.0016
-7.264e-04,0.00368
-7.256e-04,0.00464
-7.248e-04,0.00032
-7.240e-04,-0.00232
-7.232e-04,0
-7.224e-04,-0.0008
-7.216e-04,-0.00248
-7.208e-04,-0.00112
-7.200e-04,-0.00272
-7.192e-04,-0.00872
-7.184e-04,-0.00912
-7.176e-04,-0.00648
-7.168e-04,-0.00712
-7.160e-04,-0.00768
-7.152e-04,-0.0052
-7.144e-04,-0.00408
-7.136e-04,-0.00632
-7.128e-04,-0.004
-7.120e-04,0.00088
-7.112e-04,0.00152
-7.104e-04,0.00112
-7.096e-04,0.00352
-7.088e-04,0.00408
-7.080e-04,0.0012
-7.072e-04,0.00072
-7.064e-04,0.00288
-7.056e-04,-0.00088
-7.048e-04,-0.00504
-7.040e-04,-0.00504
-7.032e-04,-0.00536
-7.024e-04,-0.00792
-7.016e-04,-0.00656
-7.008e-04,-0.004
-7.000e-04,-0.00752
-6.992e-04,-0.01016
-6.984e-04,-0.00952
-6.976e-04,-0.00696
-6.968e-04,-0.00712
-6.960e-04,-0.00432
-6.952e-04,0.00016
-6.944e-04,0.0012
-6.936e-04,0.00112
-6.928e-04,0.00464
-6.920e-04,0.0084
-6.912e-04,0.00752
-6.904e-04,0.00496
-6.896e-04,0.00496
-6.888e-04,0.00528
-6.880e-04,0.00176
-6.872e-04,-8e-05
-6.864e-04,0.00128
-6.856e-04,-0.00016
-6.848e-04,-0.006
-6.840e-04,-0.0076
-6.832e-04,-0.00544
-6.824e-04,-0.00624
-6.816e-04,-0.00632
-6.808e-04,-0.00384
-6.800e-04,-0.00472
-6.792e-04,-0.00952
-6.784e-04,-0.00896
-6.776e-04,-0.00504
-6.768e-04,-0.00264
-6.760e-04,-0.00168
-6.752e-04,0.00136
-6.744e-04,0.00376
-6.736e-04,0.00296
-6.728e-04,0.00408
-6.720e-04,0.00728
-6.712e-04,0.00528
-6.704e-04,0.0008
-6.696e-04,-8e-05
-6.688e-04,-0.00032
-6.680e-04,-0.00408
-6.672e-04,-0.00504
-6.664e-04,-0.00304
-6.656e-04,-0.00728
-6.648e-04,-0.01016
-6.640e-04,-0.00896
-6.632e-04,-0.00848
-6.624e-04,-0.0096
-6.616e-04,-0.00472
-6.608e-04,-0.00104
-6.600e-04,-0.0032
-6.592e-04,-0.00408
-6.584e-04,-0.00096
-6.576e-04,-0.00096
-6.568e-04,-0.002
-6.560e-04,0.0004
-6.552e-04,0.00048
-6.544e-04,-0.00304
-6.536e-04,-0.00288
-6.528e-04,0.00032
-6.520e-04,-0.00072
-6.512e-04,-0.00392
-6.504e-04,-0.00496
-6.496e-04,-0.00696
-6.488e-04,-0.01016
-6.480e-04,-0.00944
-6.472e-04,-0.0076
-6.464e-04,-0.0088
-6.456e-04,-0.01016
-6.448e-04,-0.00904
-6.440e-04,-0.00776
-6.432e-04,-0.00872
-6.424e-04,-0.00456
-6.416e-04,0.00072
-6.408e-04,0.00112
-6.400e-04,0.00048
-6.392e-04,0.00224
-6.384e-04,0.00304
-6.376e-04,0.00056
-6.368e-04,-0.00024
-6.360e-04,0.00048
-6.352e-04,-0.00328
-6.344e-04,-0.00656
-6.336e-04,-0.00496
-6.328e-04,-0.002
-6.320e-04,-0.00368
-6.312e-04,-0.00672
-6.304e-04,-0.00728
-6.296e-04,-0.00912
-6.288e-04,-0.01016
-6.280e-04,-0.01
-6.272e-04,-0.00648
-6.264e-04,-0.00696
-6.256e-04,-0.00792
-6.248e-04,-0.00424
-6.240e-04,-0.002
-6.232e-04,-0.00288
-6.224e-04,0.00048
-6.216e-04,0.00464
-6.208e-04,0.00336
-6.200e-04,0.00112
-6.192e-04,0.0016
-6.184e-04,0.0016
-6.176e-04,-0.00112
-6.168e-04,-0.00176
-6.160e-04,-0.002
-6.152e-04,-0.00616
-6.144e-04,-0.00952
-6.136e-04,-0.00872
-6.128e-04,-0.00552
-6.120e-04,-0.0064
-6.112e-04,-0.00912
-6.104e-04,-0.00904
-6.096e-04,-0.00968
-6.088e-04,-0.01016
-6.080e-04,-0.00912
-6.072e-04,-0.00336
-6.064e-04,-0.0024
-6.056e-04,-0.0024
-6.048e-04,0.00216
-6.040e-04,0.00488
-6.032e-04,0.00432
-6.024e-04,0.00528
-6.016e-04,0.00728
-6.008e-04,0.0052
-6.000e-04,0.00104
-5.992e-04,0.0008
-5.984e-04,0.00216
-5.976e-04,-0.00176
-5.968e-04,-0.004
-5.960e-04,-0.00304
-5.952e-04,-0.00632
-5.944e-04,-0.01016
-5.936e-04,-0.00904
-5.928e-04,-0.00448
-5.920e-04,-0.00496
-5.912e-04,-0.00632
-5.904e-04,-0.0048
-5.896e-04,-0.0052
-5.888e-04,-0.00712
-5.880e-04,-0.00328
-5.872e-04,0.00072
-5.864e-04,0.0004
-5.856e-04,-0.00144
-5.848e-04,0.00152
-5.840e-04,0.00328
-5.832e-04,0.00144
-5.824e-04,0.00184
-5.816e-04,0.0032
-5.808e-04,-0.00064
-5.800e-04,-0.0044
-5.792e-04,-0.00304
-5.784e-04,-0.00296
-5.776e-04,-0.00616
-5.768e-04,-0.00488
-5.760e-04,-0.00368
-5.752e-04,-0.00728
-5.744e-04,-0.00848
-5.736e-04,-0.00376
-5.728e-04,-0.00144
-5.720e-04,-0.00136
-5.712e-04,0.00224
-5.704e-04,0.00312
-5.696e-04,8e-05
-5.688e-04,0.00152
-5.680e-04,0.00488
-5.672e-04,0.00248
-5.664e-04,-8e-05
-5.656e-04,0.00032
-5.648e-04,-0.0004
-5.640e-04,-0.00184
-5.632e-04,-0.00024
-5.624e-04,0.00192
-5.616e-04,-0.00272
-5.608e-04,-0.00512
-5.600e-04,-0.00424
-5.592e-04,-0.00648
-5.584e-04,-0.00808
-5.576e-04,-0.00536
-5.568e-04,-0.00448
-5.560e-04,-0.00744
-5.552e-04,-0.00768
-5.544e-04,-0.00352
-5.536e-04,-0.00296
-5.528e-04,-0.0024
-5.520e-04,0.00216
-5.512e-04,0.00272
-5.504e-04,-0.00056
-5.496e-04,-0.0008
-5.488e-04,0.00208
-5.480e-04,-0.00024
-5.472e-04,-0.00224
-5.464e-04,-0.0008
-5.456e-04,-0.00392
-5.448e-04,-0.00792
-5.440e-04,-0.00456
-5.432e-04,-0.00256
-5.424e-04,-0.00536
-5.416e-04,-0.00592
-5.408e-04,-0.00568
-5.400e-04,-0.00864
-5.392e-04,-0.00896
-5.384e-04,-0.00432
-5.376e-04,-0.00152
-5.368e-04,-0.00176
-5.360e-04,0.00104
-5.352e-04,0.00456
-5.344e-04,0.0052
-5.336e-04,0.00544
-5.328e-04,0.00912
-5.320e-04,0.00984
-5.312e-04,0.00624
-5.304e-04,0.00528
-5.296e-04,0.00624
-5.288e-04,0.00376
-5.280e-04,0.00216
-5.272e-04,0.00328
-5.264e-04,0
-5.256e-04,-0.006
-5.248e-04,-0.00504
-5.240e-04,-0.0016
-5.232e-04,-0.00328
-5.224e-04,-0.00176
-5.216e-04,0.00016
-5.208e-04,-0.00376
-5.200e-04,-0.00512
-5.192e-04,-0.0012
-5.184e-04,-0.00104
-5.176e-04,-0.00296
-5.168e-04,0.0004
-5.160e-04,0.0008
-5.152e-04,-0.00224
-5.144e-04,0.00032
-5.136e-04,0.0032
-5.128e-04,0.002
-5.120e-04,0.00144
-5.112e-04,0.00152
-5.104e-04,-0.00024
-5.096e-04,-0.0036
-5.088e-04,-0.00248
-5.080e-04,-0.00032
-5.072e-04,-0.00384
-5.064e-04,-0.00608
-5.056e-04,-0.00472
-5.048e-04,-0.00496
-5.040e-04,-0.00512
-5.032e-04,-0.00032
-5.024e-04,0.00384
-5.016e-04,0.00224
-5.008e-04,0
-5.000e-04,0.00264
-4.992e-04,0.00416
-4.984e-04,0.00176
-4.976e-04,0.00184
-4.968e-04,0.00272
-4.960e-04,-8e-05
-4.952e-04,-0.0024
-4.944e-04,0.0004
-4.936e-04,0.0032
-4.928e-04,0.00064
-4.920e-04,-0.0008
-4.912e-04,-0.00056
-4.904e-04,-0.00216
-4.896e-04,-0.00512
-4.888e-04,-0.00456
-4.880e-04,-0.00112
-4.872e-04,-0.00256
-4.864e-04,-0.00528
-4.856e-04,-0.00424
-4.848e-04,-0.00176
-4.840e-04,-0.00176
-4.832e-04,-0.00088
-4.824e-04,0.00288
-4.816e-04,0.00208
-4.808e-04,-0.00224
-4.800e-04,-0.00248
-4.792e-04,0.00048
-4.784e-04,0.0004
-4.776e-04,-0.00224
-4.768e-04,-0.00272
-4.760e-04,-0.00152
-4.752e-04,-0.00344
-4.744e-04,-0.00488
-4.736e-04,-0.00032
-4.728e-04,-0.00016
-4.720e-04,-0.00424
-4.712e-04,-0.00576
-4.704e-04,-0.0044
-4.696e-04,-0.00584
-4.688e-04,-0.00576
-4.680e-04,0.0004
-4.672e-04,0.00152
-4.664e-04,-0.00136
-4.656e-04,0.00224
-4.648e-04,0.00504
-4.640e-04,0.00432
-4.632e-04,0.0056
-4.624e-04,0.0076
-4.616e-04,0.00264
-4.608e-04,8e-05
-4.600e-04,0.00304
-4.592e-04,0.00128
-4.584e-04,-0.00016
-4.576e-04,0.00136
-4.568e-04,-0.0004
-4.560e-04,-0.00408
-4.552e-04,-0.0032
-4.544e-04,-0.00064
-4.536e-04,-0.00136
-4.528e-04,-0.00248
-4.520e-04,-0.00096
-4.512e-04,-0.00136
-4.504e-04,-0.00424
-4.496e-04,-0.00272
-4.488e-04,0.0004
-4.480e-04,0
-4.472e-04,-0.00048
-4.464e-04,0.00216
-4.456e-04,0.00152
-4.448e-04,-0.00096
-4.440e-04,0.00288
-4.432e-04,0.00512
-4.424e-04,0.00088
-4.416e-04,-0.00024
-4.408e-04,0.00064
-4.400e-04,-0.00296
-4.392e-04,-0.00256
-4.384e-04,0.00112
-4.376e-04,-0.00144
-4.368e-04,-0.0048
-4.360e-04,-0.00248
-4.352e-04,-0.00096
-4.344e-04,-0.00144
-4.336e-04,0.00136
-4.328e-04,0.00424
-4.320e-04,0.00248
-4.312e-04,0.00088
-4.304e-04,0.00272
-4.296e-04,0.00344
-4.288e-04,8e-05
-4.280e-04,-0.00064
-4.272e-04,0.00136
-4.264e-04,-0.0008
-4.256e-04,-0.0048
-4.248e-04,-0.00248
-4.240e-04,0.00064
-4.232e-04,-0.00152
-4.224e-04,-0.00304
-4.216e-04,-0.00288
-4.208e-04,-0.00536
-4.200e-04,-0.00648
-4.192e-04,-0.00472
-4.184e-04,-0.00288
-4.176e-04,-0.0056
-4.168e-04,-0.00736
-4.160e-04,-0.00408
-4.152e-04,-0.00312
-4.144e-04,-0.00344
-4.136e-04,-0.00032
-4.128e-04,0.00144
-4.120e-04,-0.00208
-4.112e-04,-0.00304
-4.104e-04,-0.00048
-4.096e-04,-0.00232
-4.088e-04,-0.00464
-4.080e-04,-0.00272
-4.072e-04,-0.00408
-4.064e-04,-0.0088
-4.056e-04,-0.00752
-4.048e-04,-0.00472
-4.040e-04,-0.0056
-4.032e-04,-0.006
-4.024e-04,-0.00456
-4.016e-04,-0.00728
-4.008e-04,-0.01016
-4.000e-04,-0.00664
-3.992e-04,-0.00352
-3.984e-04,-0.00408
-3.976e-04,-0.00248
-3.968e-04,0.00064
-3.960e-04,-0.0004
-3.952e-04,8e-05
-3.944e-04,0.00512
-3.936e-04,0.00544
-3.928e-04,0.00128
-3.920e-04,0.00056
-3.912e-04,0.00144
-3.904e-04,-0.0012
-3.896e-04,-0.00184
-3.888e-04,0.0004
-3.880e-04,-0.00144
-3.872e-04,-0.00632
-3.864e-04,-0.0052
-3.856e-04,-0.00408
-3.848e-04,-0.00584
-3.840e-04,-0.00464
-3.832e-04,-0.00168
-3.824e-04,-0.00216
-3.816e-04,-0.00632
-3.808e-04,-0.00536
-3.800e-04,-0.00128
-3.792e-04,-0.00104
-3.784e-04,-0.00088
-3.776e-04,0.00128
-3.768e-04,0.00192
-3.760e-04,-0.00048
-3.752e-04,0.00096
-3.744e-04,0.00456
-3.736e-04,0.0032
-3.728e-04,-0.00136
-3.720e-04,-0.00184
-3.712e-04,-0.00104
-3.704e-04,-0.00248
-3.696e-04,-0.00328
-3.688e-04,-0.00136
-3.680e-04,-0.00064
-3.672e-04,-0.004
-3.664e-04,-0.00536
-3.656e-04,-0.00176
-3.648e-04,-0.00056
-3.640e-04,-0.00096
-3.632e-04,0.00208
-3.624e-04,0.00384
-3.616e-04,-0.00016
-3.608e-04,-0.00064
-3.600e-04,0.00392
-3.592e-04,0.00336
-3.584e-04,0.00024
-3.576e-04,0
-3.568e-04,-0.0008
-3.560e-04,-0.004
-3.552e-04,-0.00344
-3.544e-04,-0.00016
-3.536e-04,-0.00248
-3.528e-04,-0.00664
-3.520e-04,-0.0076
-3.512e-04,-0.0072
-3.504e-04,-0.00816
-3.496e-04,-0.00808
-3.488e-04,-0.00456
-3.480e-04,-0.0044
-3.472e-04,-0.0076
-3.464e-04,-0.00536
-3.456e-04,-0.00136
-3.448e-04,-0.00088
-3.440e-04,0.00048
-3.432e-04,0.00536
-3.424e-04,0.00512
-3.416e-04,0.00224
-3.408e-04,0.00376
-3.400e-04,0.00528
-3.392e-04,0.00208
-3.384e-04,0.0004
-3.376e-04,-0.00064
-3.368e-04,-0.0044
-3.360e-04,-0.00672
-3.352e-04,-0.0044
-3.344e-04,-0.00248
-3.336e-04,-0.006
-3.328e-04,-0.00776
-3.320e-04,-0.00768
-3.312e-04,-0.00984
-3.304e-04,-0.00864
-3.296e-04,-0.00416
-3.288e-04,-0.0028
-3.280e-04,-0.00368
-3.272e-04,-0.00024
-3.264e-04,0.00176
-3.256e-04,0.00056
-3.248e-04,0.00304
-3.240e-04,0.006
-3.232e-04,0.00216
-3.224e-04,0.00032
-3.216e-04,0.0016
-3.208e-04,-0.0012
-3.200e-04,-0.00376
-3.192e-04,-0.0008
-3.184e-04,-0.0028
-3.176e-04,-0.00888
-3.168e-04,-0.0084
-3.160e-04,-0.00744
-3.152e-04,-0.00904
-3.144e-04,-0.0056
-3.136e-04,-0.00312
-3.128e-04,-0.00736
-3.120e-04,-0.0084
-3.112e-04,-0.0048
-3.104e-04,-0.00312
-3.096e-04,-0.00208
-3.088e-04,0.00288
-3.080e-04,0.00512
-3.072e-04,0.0044
-3.064e-04,0.00632
-3.056e-04,0.00952
-3.048e-04,0.00696
-3.040e-04,0.00616
-3.032e-04,0.0068
-3.024e-04,0.00344
-3.016e-04,-0.00064
-3.008e-04,0.00136
-3.000e-04,0.00176
-2.992e-04,-0.00128
-2.984e-04,-0.00176
-2.976e-04,-0.002
-2.968e-04,-0.00568
-2.960e-04,-0.0064
-2.952e-04,-0.00184
-2.944e-04,0.00064
-2.936e-04,-0.00112
-2.928e-04,-0.0008
-2.920e-04,0.00088
-2.912e-04,-0.0008
-2.904e-04,-8e-05
-2.896e-04,0.00376
-2.888e-04,0.00368
-2.880e-04,-0.00024
-2.872e-04,0.00056
-2.864e-04,0.00272
-2.856e-04,0.0004
-2.848e-04,-0.00128
-2.840e-04,0.00096
-2.832e-04,-0.0024
-2.824e-04,-0.00672
-2.816e-04,-0.00696
-2.808e-04,-0.00504
-2.800e-04,-0.00608
-2.792e-04,-0.00688
-2.784e-04,-0.00456
-2.776e-04,-0.00408
-2.768e-04,-0.00696
-2.760e-04,-0.00424
-2.752e-04,0.00184
-2.744e-04,0.00376
-2.736e-04,0.00376
-2.728e-04,0.00712
-2.720e-04,0.00792
-2.712e-04,0.00568
-2.704e-04,0.006
-2.696e-04,0.00816
-2.688e-04,0.00504
-2.680e-04,-0.00024
-2.672e-04,-0.00152
-2.664e-04,0.00024
-2.656e-04,-0.00136
-2.648e-04,-0.00344
-2.640e-04,-0.00272
-2.632e-04,-0.00496
-2.624e-04,-0.0092
-2.616e-04,-0.00896
-2.608e-04,-0.00528
-2.600e-04,-0.00544
-2.592e-04,-0.00448
-2.584e-04,-0.00016
-2.576e-04,8e-05
-2.568e-04,-0.00272
-2.560e-04,0.002
-2.552e-04,0.00576
-2.544e-04,0.00424
-2.536e-04,0.0056
-2.528e-04,0.00656
-2.520e-04,0.0024
-2.512e-04,0.00152
-2.504e-04,0.00424
-2.496e-04,0.002
-2.488e-04,-0.0036
-2.480e-04,-0.00424
-2.472e-04,-0.00576
-2.464e-04,-0.00784
-2.456e-04,-0.006
-2.448e-04,-0.00336
-2.440e-04,-0.00592
-2.432e-04,-0.00936
-2.424e-04,-0.0076
-2.416e-04,-0.0064
-2.408e-04,-0.00664
-2.400e-04,-0.0032
-2.392e-04,0.00224
-2.384e-04,0.00184
-2.376e-04,0.0032
-2.368e-04,0.00736
-2.360e-04,0.00856
-2.352e-04,0.00696
-2.344e-04,0.00792
-2.336e-04,0.00872
-2.328e-04,0.00288
-2.320e-04,0.00048
-2.312e-04,0.00248
-2.304e-04,0.00112
-2.296e-04,-0.00248
-2.288e-04,-0.00416
-2.280e-04,-0.00512
-2.272e-04,-0.00816
-2.264e-04,-0.00848
-2.256e-04,-0.0048
-2.248e-04,-0.002
-2.240e-04,-0.0048
-2.232e-04,-0.00568
-2.224e-04,-0.00296
-2.216e-04,-0.00264
-2.208e-04,-0.00344
-2.200e-04,8e-05
-2.192e-04,0.00312
-2.184e-04,0.00088
-2.176e-04,0.00072
-2.168e-04,0.00464
-2.160e-04,0.0032
-2.152e-04,0.00088
-2.144e-04,0.0028
-2.136e-04,0.0016
-2.128e-04,-0.00328
-2.120e-04,-0.00488
-2.112e-04,-0.0024
-2.104e-04,-0.00384
-2.096e-04,-0.0068
-2.088e-04,-0.00688
-2.080e-04,-0.00832
-2.072e-04,-0.01
-2.064e-04,-0.008
-2.056e-04,-0.00248
-2.048e-04,-0.00088
-2.040e-04,-0.00176
-2.032e-04,0.00176
-2.024e-04,0.00304
-2.016e-04,0.00096
-2.008e-04,0.00264
-2.000e-04,0.00368
-1.992e-04,0.00032
-1.984e-04,-0.00256
-1.976e-04,-0.00024
-1.968e-04,-0.00128
-1.960e-04,-0.00408
-1.952e-04,-0.002
-1.944e-04,-0.0028
-1.936e-04,-0.0084
-1.928e-04,-0.01008
-1.920e-04,-0.0084
-1.912e-04,-0.00872
-1.904e-04,-0.00928
-1.896e-04,-0.00624
-1.888e-04,-0.00656
-1.880e-04,-0.00904
-1.872e-04,-0.00736
-1.864e-04,-0.00232
-1.856e-04,-0.00048
-1.848e-04,-0.00064
-1.840e-04,0.00184
-1.832e-04,0.00304
-1.824e-04,0.0004
-1.816e-04,0.00088
-1.808e-04,0.00288
-1.800e-04,-8e-05
-1.792e-04,-0.0044
-1.784e-04,-0.00384
-1.776e-04,-0.00472
-1.768e-04,-0.00728
-1.760e-04,-0.00632
-1.752e-04,-0.00416
-1.744e-04,-0.008
-1.736e-04,-0.01016
-1.728e-04,-0.00976
-1.720e-04,-0.00912
-1.712e-04,-0.00984
-1.704e-04,-0.0052
-1.696e-04,-0.00088
-1.688e-04,-0.00176
-1.680e-04,-0.00216
-1.672e-04,0.0028
-1.664e-04,0.00552
-1.656e-04,0.0044
-1.648e-04,0.00496
-1.640e-04,0.00568
-1.632e-04,0.00312
-1.624e-04,0.00104
-1.616e-04,0.00264
-1.608e-04,0.00248
-1.600e-04,-0.00288
-1.592e-04,-0.00536
-1.584e-04,-0.00424
-1.576e-04,-0.00672
-1.568e-04,-0.0088
-1.560e-04,-0.00568
-1.552e-04,-0.00368
-1.544e-04,-0.00768
-1.536e-04,-0.00968
-1.528e-04,-0.00792
-1.520e-04,-0.00768
-1.512e-04,-0.00704
-1.504e-04,-0.00216
-1.496e-04,-0.00056
-1.488e-04,-0.00304
-1.480e-04,-0.00104
-1.472e-04,0.00296
-1.464e-04,0.00344
-1.456e-04,0.00208
-1.448e-04,0.00296
-1.440e-04,0.00128
-1.432e-04,-0.00336
-1.424e-04,-0.00296
-1.416e-04,-0.0012
-1.408e-04,-0.0048
-1.400e-04,-0.008
-1.392e-04,-0.00752
-1.384e-04,-0.00984
-1.376e-04,-0.01016
-1.368e-04,-0.00784
-1.360e-04,-0.00464
-1.352e-04,-0.00496
-1.344e-04,-0.00328
-1.336e-04,-0.00128
-1.328e-04,-0.00416
-1.320e-04,-0.00368
-1.312e-04,0.00136
-1.304e-04,0.00072
-1.296e-04,-0.00192
-1.288e-04,-0.00032
-1.280e-04,0.00016
-1.272e-04,-0.00136
-1.264e-04,-0.00072
-1.256e-04,0.0016
-1.248e-04,-0.0016
-1.240e-04,-0.00648
-1.232e-04,-0.00672
-1.224e-04,-0.00416
-1.216e-04,-0.00608
-1.208e-04,-0.0076
-1.200e-04,-0.00512
-1.192e-04,-0.00616
-1.184e-04,-0.0088
-1.176e-04,-0.00656
-1.168e-04,-0.00192
-1.160e-04,-0.0012
-1.152e-04,0.00032
-1.144e-04,0.00224
-1.136e-04,0.00168
-1.128e-04,-0.00088
-1.120e-04,-0.00024
-1.112e-04,0.00256
-1.104e-04,0.0016
-1.096e-04,-0.00304
-1.088e-04,-0.00312
-1.080e-04,-0.00152
-1.072e-04,-0.0032
-1.064e-04,-0.00328
-1.056e-04,-0.00136
-1.048e-04,-0.00376
-1.040e-04,-0.00936
-1.032e-04,-0.00936
-1.024e-04,-0.00608
-1.016e-04,-0.00728
-1.008e-04,-0.00696
-1.000e-04,-0.0028
-9.920e-05,-0.00248
-9.840e-05,-0.00432
-9.760e-05,-0.00144
-9.680e-05,0.00296
-9.600e-05,0.00256
-9.520e-05,0.00296
-9.440e-05,0.00432
-9.360e-05,0.00232
-9.280e-05,-0.00064
-9.200e-05,0.0016
-9.120e-05,0.00232
-9.040e-05,-0.00176
-8.960e-05,-0.00416
-8.880e-05,-0.00384
-8.800e-05,-0.00544
-8.720e-05,-0.00696
-8.640e-05,-0.00344
-8.560e-05,-0.0028
-8.480e-05,-0.00808
-8.400e-05,-0.0092
-8.320e-05,-0.00712
-8.240e-05,-0.00656
-8.160e-05,-0.00664
-8.080e-05,-0.00112
-8.000e-05,0.00096
-7.920e-05,-0.00104
-7.840e-05,0.00216
-7.760e-05,0.00568
-7.680e-05,0.0048
-7.600e-05,0.00464
-7.520e-05,0.00624
-7.440e-05,0.0044
-7.360e-05,0.0004
-7.280e-05,0.0012
-7.200e-05,0.00176
-7.120e-05,-0.00144
-7.040e-05,-0.0032
-6.960e-05,-0.00264
-6.880e-05,-0.00664
-6.800e-05,-0.0084
-6.720e-05,-0.00344
-6.640e-05,-0.00072
-6.560e-05,-0.00368
-6.480e-05,-0.0028
-6.400e-05,-0.00144
-6.320e-05,-0.0044
-6.240e-05,-0.00328
-6.160e-05,0.00136
-6.080e-05,-0.00064
-6.000e-05,-0.002
-5.920e-05,-0.00016
-5.840e-05,0.00032
-5.760e-05,-0.00088
-5.680e-05,0.0012
-5.600e-05,0.00312
-5.520e-05,-0.0016
-5.440e-05,-0.0028
-5.360e-05,-0.00304
-5.280e-05,-0.00408
-5.200e-05,-0.0052
-5.120e-05,-0.00304
-5.040e-05,-0.00232
-4.960e-05,-0.00608
-4.880e-05,-0.00584
-4.800e-05,-0.00144
-4.720e-05,-0.00056
-4.640e-05,0.00048
-4.560e-05,0.00408
-4.480e-05,0.00312
-4.400e-05,0.00016
-4.320e-05,0.00272
-4.240e-05,0.00504
-4.160e-05,0.0024
-4.080e-05,0.00096
-4.000e-05,0.00328
-3.920e-05,0.00128
-3.840e-05,-0.00112
-3.760e-05,0.00232
-3.680e-05,0.00312
-3.600e-05,0.00016
-3.520e-05,-0.0008
-3.440e-05,-0.00072
-3.360e-05,-0.00384
-3.280e-05,-0.00488
-3.200e-05,-0.00144
-3.120e-05,8e-05
-3.040e-05,-0.00152
-2.960e-05,-0.00176
-2.880e-05,0.00104
-2.800e-05,0.00184
-2.720e-05,0.0012
-2.640e-05,0.00472
-2.560e-05,0.00656
-2.480e-05,0.00152
-2.400e-05,-0.00024
-2.320e-05,0.0028
-2.240e-05,0.0032
-2.160e-05,0.0004
-2.080e-05,0.00032
-2.000e-05,8e-05
-1.920e-05,-0.00256
-1.840e-05,-0.00352
-1.760e-05,-0.00064
-1.680e-05,0.00032
-1.600e-05,-0.00272
-1.520e-05,-0.00496
-1.440e-05,-0.00336
-1.360e-05,-0.00424
-1.280e-05,-0.006
-1.200e-05,-0.0008
-1.120e-05,0.00352
-1.040e-05,0.00304
-9.600e-06,0.00328
-8.800e-06,0.00672
-8.000e-06,0.00856
-7.200e-06,0.00824
-6.400e-06,0.00816
-5.600e-06,0.00928
-4.800e-06,0.00696
-4.000e-06,0.00312
-3.200e-06,0.00448
-2.400e-06,0.00696
-1.600e-06,0.00456
-8.000e-07,0.00128
1.278e-17,0.00064
8.000e-07,0.0008
1.600e-06,-0.00152
2.400e-06,0.00112
3.200e-06,0.00488
4.000e-06,0.00288
4.800e-06,0.0004
5.600e-06,0.00296
6.400e-06,0.00328
7.200e-06,0.00088
8.000e-06,0.00352
8.800e-06,0.0056
9.600e-06,0.00264
1.040e-05,0.00096
1.120e-05,0.0028
1.200e-05,0.00344
1.280e-05,0.00264
1.360e-05,0.00456
1.440e-05,0.00456
