data/PSU_noise/PSU1_CC1_80A_10ms.CSV

Model,TBS1102C
Firmware Version,v2015-08-04-prequal4ch70_v1.3

Point Format,Y
Horizontal Units,S
Horizontal Scale,0.01
Sample Interval,8e-05
Filter Frequency,2e+08
Record Length,2000
Gating,0.0% to 100.0%
Probe Attenuation,1
Vertical Units,V
Vertical Offset,0
Vertical Scale,0.002
Label,
TIME,CH1
-8.000e-02,0.00488
-7.992e-02,-0.0056
-7.984e-02,-0.00184
-7.976e-02,-0.0048
-7.968e-02,0.00056
-7.960e-02,0.00368
-7.952e-02,-0.0064
-7.944e-02,0.00096
-7.936e-02,-0.00664
-7.928e-02,-0.00048
-7.920e-02,0.0036
-7.912e-02,-0.004
-7.904e-02,0.0092
-7.896e-02,-0.00096
-7.888e-02,-0.0064
-7.880e-02,0.00304
-7.872e-02,-0.00528
-7.864e-02,-0.00256
-7.856e-02,-0.00344
-7.848e-02,-0.00176
-7.840e-02,0.0008
-7.832e-02,-0.0044
-7.824e-02,-0.00136
-7.816e-02,0.0008
-7.808e-02,0.00192
-7.800e-02,-0.00104
-7.792e-02,0.0008
-7.784e-02,0.00672
-7.776e-02,0.0004
-7.768e-02,0.00192
-7.760e-02,0.00032
-7.752e-02,0.00144
-7.744e-02,0.00784
-7.736e-02,0.00552
-7.728e-02,-0.00016
-7.720e-02,0.0036
-7.712e-02,-0.00328
-7.704e-02,-0.0016
-7.696e-02,-0.00048
-7.688e-02,-0.0008
-7.680e-02,0.00224
-7.672e-02,-0.0032
-7.664e-02,0.0004
-7.656e-02,-0.00504
-7.648e-02,0.00152
-7.640e-02,-0.00184
-7.632e-02,-0.0016
-7.624e-02,0.00312
-7.616e-02,-0.006
-7.608e-02,0.00456
-7.600e-02,0.00328
-7.592e-02,-0.0056
-7.584e-02,0.00808
-7.576e-02,-0.00216
-7.568e-02,0.00312
-7.560e-02,0.00216
-7.552e-02,-0.00776
-7.544e-02,0.00464
-7.536e-02,-0.006
-7.528e-02,0.0016
-7.520e-02,-0.00024
-7.512e-02,0.00184
-7.504e-02,0.00224
-7.496e-02,-0.00528
-7.488e-02,-0.00152
-7.480e-02,-0.00288
-7.472e-02,-0.00232
-7.464e-02,0.0024
-7.456e-02,-0.00624
-7.448e-02,0.01016
-7.440e-02,-0.00104
-7.432e-02,0.008
-7.424e-02,0.00704
-7.416e-02,-0.00504
-7.408e-02,0.00616
-7.400e-02,-0.00416
-7.392e-02,0.00184
-7.384e-02,0.00184
-7.376e-02,0.00112
-7.368e-02,0.00528
-7.360e-02,-0.00832
-7.352e-02,8e-05
-7.344e-02,-0.00104
-7.336e-02,0.002
-7.328e-02,0.0036
-7.320e-02,-0.00352
-7.312e-02,0.00416
-7.304e-02,-0.00016
-7.296e-02,0.00336
-7.288e-02,0.00512
-7.280e-02,8e-05
-7.272e-02,0.00272
-7.264e-02,-0.0012
-7.256e-02,-0.00304
-7.248e-02,0.00392
-7.240e-02,-0.00144
-7.232e-02,0.00112
-7.224e-02,0.00384
-7.216e-02,0.00608
-7.208e-02,0.0048
-7.200e-02,-0.00152
-7.192e-02,0.00512
-7.184e-02,-0.00296
-7.176e-02,-0.00472
-7.168e-02,0.00304
-7.160e-02,0.00056
-7.152e-02,0.0036
-7.144e-02,0.0052
-7.136e-02,-0.00224
-7.128e-02,0.004
-7.120e-02,0.00072
-7.112e-02,0.00208
-7.104e-02,0.0028
-7.096e-02,0.00064
-7.088e-02,0.0028
-7.080e-02,-0.0044
-7.072e-02,0.0052
-7.064e-02,0.00056
-7.056e-02,0.00632
-7.048e-02,0.00336
-7.040e-02,-0.00376
-7.032e-02,0.00152
-7.024e-02,-0.00512
-7.016e-02,-0.00208
-7.008e-02,-0.00072
-7.000e-02,-0.00624
-6.992e-02,0.0056
-6.984e-02,-0.00288
-6.976e-02,0
-6.968e-02,0.00448
-6.960e-02,-0.00408
-6.952e-02,0.00696
-6.944e-02,-0.0052
-6.936e-02,0.00592
-6.928e-02,0.00632
-6.920e-02,0.00096
-6.912e-02,0.00248
-6.904e-02,-0.006
-6.896e-02,0.00792
-6.888e-02,0.0072
-6.880e-02,0.00144
-6.872e-02,0.00656
-6.864e-02,-0.00328
-6.856e-02,0.0052
-6.848e-02,-0.0008
-6.840e-02,-0.00096
-6.832e-02,0.00872
-6.824e-02,-0.00744
-6.816e-02,0.0012
-6.808e-02,0.00136
-6.800e-02,0.00152
-6.792e-02,0.00144
-6.784e-02,-0.00472
-6.776e-02,0.00424
-6.768e-02,-0.00472
-6.760e-02,0.0024
-6.752e-02,0.00296
-6.744e-02,-0.00216
-6.736e-02,0.00568
-6.728e-02,-0.00152
-6.720e-02,0.002
-6.712e-02,0.00104
-6.704e-02,-0.00312
-6.696e-02,0.00248
-6.688e-02,-0.00176
-6.680e-02,-8e-05
-6.672e-02,0.0016
-6.664e-02,0.00128
-6.656e-02,0.0032
-6.648e-02,-0.0048
-6.640e-02,-0.0016
-6.632e-02,0.00496
-6.624e-02,-0.00112
-6.616e-02,0.00352
-6.608e-02,0.0004
-6.600e-02,0.00664
-6.592e-02,0.00192
-6.584e-02,-0.00032
-6.576e-02,0.00048
-6.568e-02,-0.00616
-6.560e-02,-0.00336
-6.552e-02,0.00368
-6.544e-02,-0.00664
-6.536e-02,0.00184
-6.528e-02,0.00448
-6.520e-02,0.00416
-6.512e-02,0.0068
-6.504e-02,-0.00536
-6.496e-02,-0.00064
-6.488e-02,-0.00592
-6.480e-02,-0.00208
-6.472e-02,0.00024
-6.464e-02,-0.0032
-6.456e-02,0.0028
-6.448e-02,-0.00672
-6.440e-02,-0.00096
-6.432e-02,0.00184
-6.424e-02,-0.00648
-6.416e-02,-0.00016
-6.408e-02,-0.00408
-6.400e-02,0.0016
-6.392e-02,-0.0004
-6.384e-02,-0.00544
-6.376e-02,0.00744
-6.368e-02,-0.00848
-6.360e-02,0.00344
-6.352e-02,0.00208
-6.344e-02,-0.00248
-6.336e-02,0.00312
-6.328e-02,-0.00288
-6.320e-02,-0.00064
-6.312e-02,0.00072
-6.304e-02,0.0016
-6.296e-02,0.00096
-6.288e-02,-0.00624
-6.280e-02,0.002
-6.272e-02,-0.00832
-6.264e-02,0.00136
-6.256e-02,0.00064
-6.248e-02,-0.00664
-6.240e-02,0.00544
-6.232e-02,-0.00064
-6.224e-02,-0.00296
-6.216e-02,0.0048
-6.208e-02,-0.00056
-6.200e-02,0.00176
-6.192e-02,-0.0024
-6.184e-02,-0.00152
-6.176e-02,8e-05
-6.168e-02,-0.0016
-6.160e-02,0.00264
-6.152e-02,-0.00176
-6.144e-02,0.00024
-6.136e-02,-0.00464
-6.128e-02,-0.00216
-6.120e-02,0.00512
-6.112e-02,-0.00464
-6.104e-02,-0.00176
-6.096e-02,-0.00064
-6.088e-02,-0.00072
-6.080e-02,0.0072
-6.072e-02,0.00344
-6.064e-02,0.00712
-6.056e-02,0.00296
-6.048e-02,-0.00472
-6.040e-02,-0.00088
-6.032e-02,-0.00336
-6.024e-02,0.00168
-6.016e-02,0
-6.008e-02,0.00112
-6.000e-02,0.00088
-5.992e-02,-0.00448
-5.984e-02,0
-5.976e-02,-0.00256
-5.968e-02,-0.00464
-5.960e-02,-0.00096
-5.952e-02,-0.0008
-5.944e-02,0.00336
-5.936e-02,0.00432
-5.928e-02,-0.0012
-5.920e-02,0.00488
-5.912e-02,-0.00768
-5.904e-02,0.00304
-5.896e-02,-0.00248
-5.888e-02,-0.0084
-5.880e-02,0.00312
-5.872e-02,-0.00944
-5.864e-02,0.0004
-5.856e-02,-0.00128
-5.848e-02,-0.00128
-5.840e-02,0.00136
-5.832e-02,-0.0088
-5.824e-02,0.00152
-5.816e-02,-0.00072
-5.808e-02,-0.0028
-5.800e-02,0.00544
-5.792e-02,-0.00352
-5.784e-02,0.00688
-5.776e-02,0.0004
-5.768e-02,0.00424
-5.760e-02,0.0084
-5.752e-02,0.00016
-5.744e-02,0.00264
-5.736e-02,-0.00552
-5.728e-02,-0.00064
-5.720e-02,0.00136
-5.712e-02,-0.00272
-5.704e-02,0.00344
-5.696e-02,-0.00352
-5.688e-02,0.00432
-5.680e-02,-0.00176
-5.672e-02,-0.00152
-5.664e-02,0.00408
-5.656e-02,-0.00184
-5.648e-02,0.00288
-5.640e-02,-0.00168
-5.632e-02,0.00368
-5.624e-02,0.0052
-5.616e-02,-0.00312
-5.608e-02,0.00552
-5.600e-02,-0.0004
-5.592e-02,0.00352
-5.584e-02,0.00504
-5.576e-02,-0.0056
-5.568e-02,0.0048
-5.560e-02,-0.00896
-5.552e-02,-0.00192
-5.544e-02,0.00152
-5.536e-02,-0.00392
-5.528e-02,-0.0004
-5.520e-02,0.0004
-5.512e-02,-0.0036
-5.504e-02,-0.00056
-5.496e-02,-0.00288
-5.488e-02,0.00432
-5.480e-02,0.00128
-5.472e-02,0.0012
-5.464e-02,0.00576
-5.456e-02,-0.00024
-5.448e-02,0.00656
-5.440e-02,-0.00448
-5.432e-02,0.004
-5.424e-02,0.00128
-5.416e-02,-0.00096
-5.408e-02,0.002
-5.400e-02,0
-5.392e-02,0.00032
-5.384e-02,0.00144
-5.376e-02,-0.00568
-5.368e-02,0.00656
-5.360e-02,0.00416
-5.352e-02,0.00096
-5.344e-02,0.00272
-5.336e-02,-0.00528
-5.328e-02,0.00536
-5.320e-02,0.00192
-5.312e-02,0.00024
-5.304e-02,0.00232
-5.296e-02,-0.004
-5.288e-02,0.00144
-5.280e-02,-0.00184
-5.272e-02,0.00072
-5.264e-02,0.00488
-5.256e-02,-0.00208
-5.248e-02,0.00688
-5.240e-02,-0.00904
-5.232e-02,0.00808
-5.224e-02,0.00736
-5.216e-02,-0.00264
-5.208e-02,0.00376
-5.200e-02,-0.00056
-5.192e-02,0.00176
-5.184e-02,0.00032
-5.176e-02,-0.00112
-5.168e-02,0.00728
-5.160e-02,-0.00336
-5.152e-02,0.00792
-5.144e-02,0.00056
-5.136e-02,0.00288
-5.128e-02,-0.00152
-5.120e-02,-0.00568
-5.112e-02,0.00256
-5.104e-02,-0.00232
-5.096e-02,0.00832
-5.088e-02,0.00288
-5.080e-02,-0.0004
-5.072e-02,0.00808
-5.064e-02,-0.00504
-5.056e-02,-0.00016
-5.048e-02,0.00024
-5.040e-02,-0.00272
-5.032e-02,0.00664
-5.024e-02,0.00232
-5.016e-02,0.00416
-5.008e-02,0.00448
-5.000e-02,-0.0008
-4.992e-02,0.00256
-4.984e-02,-0.00672
-4.976e-02,0.00064
-4.968e-02,-0.00424
-4.960e-02,0.00312
-4.952e-02,0.00496
-4.944e-02,-0.00088
-4.936e-02,-0.00144
-4.928e-02,-0.00088
-4.920e-02,-0.0004
-4.912e-02,0.0076
-4.904e-02,-0.00216
-4.896e-02,-0.00088
-4.888e-02,0.00272
-4.880e-02,0.00016
-4.872e-02,0.00584
-4.864e-02,-0.0028
-4.856e-02,0.00488
-4.848e-02,0.00056
-4.840e-02,-0.00272
-4.832e-02,0.00096
-4.824e-02,-0.00592
-4.816e-02,-0.00192
-4.808e-02,-0.00152
-4.800e-02,-0.00344
-4.792e-02,0.00512
-4.784e-02,-0.00144
-4.776e-02,0.00856
-4.768e-02,0.00248
-4.760e-02,-0.0032
-4.752e-02,-0.00048
-4.744e-02,-0.00216
-4.736e-02,0.00104
-4.728e-02,0.00072
-4.720e-02,0.00192
-4.712e-02,0.00424
-4.704e-02,-0.0056
-4.696e-02,0.00192
-4.688e-02,-0.0052
-4.680e-02,0.00072
-4.672e-02,0.00144
-4.664e-02,-0.00512
-4.656e-02,0.00536
-4.648e-02,-0.0028
-4.640e-02,0.00616
-4.632e-02,0.0044
-4.624e-02,-0.00528
-4.616e-02,0.00248
-4.608e-02,-0.00632
-4.600e-02,-0.002
-4.592e-02,0.00192
-4.584e-02,-0.00472
-4.576e-02,0.0044
-4.568e-02,-0.00552
-4.560e-02,0.00392
-4.552e-02,0.00608
-4.544e-02,-0.00424
-4.536e-02,0.00432
-4.528e-02,-0.00648
-4.520e-02,0.00304
-4.512e-02,0.00144
-4.504e-02,-8e-05
-4.496e-02,0.00648
-4.488e-02,-0.00168
-4.480e-02,0.0024
-4.472e-02,0
-4.464e-02,-0.00032
-4.456e-02,0.00576
-4.448e-02,-0.00064
-4.440e-02,0.00496
-4.432e-02,-0.0044
-4.424e-02,-0.00032
-4.416e-02,0.00512
-4.408e-02,-0.00616
-4.400e-02,-0.00064
-4.392e-02,-0.00424
-4.384e-02,0.00136
-4.376e-02,0.00048
-4.368e-02,-0.00432
-4.360e-02,-0.00208
-4.352e-02,-0.00296
-4.344e-02,0.00216
-4.336e-02,-8e-05
-4.328e-02,-0.00464
-4.320e-02,0.00632
-4.312e-02,-0.0028
-4.304e-02,-0.00152
-4.296e-02,-0.00248
-4.288e-02,-0.00264
-4.280e-02,0.00144
-4.272e-02,0.00088
-4.264e-02,-0.0024
-4.256e-02,0.00056
-4.248e-02,-0.00264
-4.240e-02,-0.002
-4.232e-02,-0.0028
-4.224e-02,-0.0036
-4.216e-02,-0.00136
-4.208e-02,-0.00552
-4.200e-02,-0.00032
-4.192e-02,0.00128
-4.184e-02,0.0032
-4.176e-02,0.00264
-4.168e-02,-0.00104
-4.160e-02,0.00272
-4.152e-02,0.00096
-4.144e-02,-0.002
-4.136e-02,0.00056
-4.128e-02,-0.00704
-4.120e-02,0.00952
-4.112e-02,-0.00064
-4.104e-02,-8e-05
-4.096e-02,0.00416
-4.088e-02,-0.00336
-4.080e-02,0.00504
-4.072e-02,-0.00608
-4.064e-02,0.00408
-4.056e-02,0.00128
-4.048e-02,0.00128
-4.040e-02,0.00272
-4.032e-02,-0.00088
-4.024e-02,0.00208
-4.016e-02,-0.00064
-4.008e-02,-0.00624
-4.000e-02,0.00192
-3.992e-02,-0.00624
-3.984e-02,0.00616
-3.976e-02,-0.00088
-3.968e-02,0.0012
-3.960e-02,0.00504
-3.952e-02,-0.00984
-3.944e-02,0.0024
-3.936e-02,-0.00728
-3.928e-02,0.00216
-3.920e-02,0.00184
-3.912e-02,-0.00256
-3.904e-02,0.00528
-3.896e-02,-0.0056
-3.888e-02,-0.00536
-3.880e-02,0.00296
-3.872e-02,-0.00264
-3.864e-02,0.00648
-3.856e-02,-0.00072
-3.848e-02,0.0008
-3.840e-02,-0.00168
-3.832e-02,-0.00376
-3.824e-02,0.00312
-3.816e-02,-0.00144
-3.808e-02,-0.00152
-3.800e-02,0.00256
-3.792e-02,-0.00104
-3.784e-02,0.00192
-3.776e-02,-0.0044
-3.768e-02,-0.00264
-3.760e-02,-0.00128
-3.752e-02,0.00088
-3.744e-02,0.00448
-3.736e-02,-0.0028
-3.728e-02,0.00168
-3.720e-02,-0.00448
-3.712e-02,-0.00184
-3.704e-02,0.00232
-3.696e-02,-0.00288
-3.688e-02,-0.0028
-3.680e-02,-8e-05
-3.672e-02,-0.00304
-3.664e-02,0.00704
-3.656e-02,0.0016
-3.648e-02,0.00416
-3.640e-02,0.00152
-3.632e-02,-0.00528
-3.624e-02,-0.00088
-3.616e-02,-0.00712
-3.608e-02,-0.00072
-3.600e-02,-0.00408
-3.592e-02,0.002
-3.584e-02,-0.00096
-3.576e-02,-0.00336
-3.568e-02,0.00544
-3.560e-02,-0.00048
-3.552e-02,-0.00704
-3.544e-02,0.00248
-3.536e-02,-0.0064
-3.528e-02,0.004
-3.520e-02,0
-3.512e-02,-0.00464
-3.504e-02,0.00464
-3.496e-02,-0.00456
-3.488e-02,0.00576
-3.480e-02,-0.00208
-3.472e-02,0.00688
-3.464e-02,0.002
-3.456e-02,-0.00352
-3.448e-02,0.0044
-3.440e-02,-0.00464
-3.432e-02,0.00808
-3.424e-02,0.00568
-3.416e-02,0.00016
-3.408e-02,0.0068
-3.400e-02,-0.0048
-3.392e-02,0.0048
-3.384e-02,0.0044
-3.376e-02,-0.00648
-3.368e-02,0.00712
-3.360e-02,-0.00528
-3.352e-02,0.00128
-3.344e-02,0.0028
-3.336e-02,0.00568
-3.328e-02,0.00136
-3.320e-02,-0.00472
-3.312e-02,-0.00104
-3.304e-02,-0.00096
-3.296e-02,0.00352
-3.288e-02,0.00328
-3.280e-02,-0.00144
-3.272e-02,0.00384
-3.264e-02,-0.00192
-3.256e-02,0.0004
-3.248e-02,0.004
-3.240e-02,-0.00576
-3.232e-02,0.00192
-3.224e-02,0.00072
-3.216e-02,-0.00144
-3.208e-02,0.00592
-3.200e-02,0.0032
-3.192e-02,0.0016
-3.184e-02,0.00184
-3.176e-02,0.00024
-3.168e-02,0.00464
-3.160e-02,0.00104
-3.152e-02,0.00144
-3.144e-02,-0.00224
-3.136e-02,0.00136
-3.128e-02,-0.00048
-3.120e-02,-0.00024
-3.112e-02,0.00648
-3.104e-02,-0.00072
-3.096e-02,-0.0052
-3.088e-02,-0.00064
-3.080e-02,-0.004
-3.072e-02,0.00704
-3.064e-02,0.00184
-3.056e-02,0.00136
-3.048e-02,0.0052
-3.040e-02,-0.00304
-3.032e-02,0.00376
-3.024e-02,0.00192
-3.016e-02,0.00408
-3.008e-02,-0.00336
-3.000e-02,-0.00264
-2.992e-02,0.00168
-2.984e-02,-0.00064
-2.976e-02,0.00344
-2.968e-02,0.00392
-2.960e-02,-0.00576
-2.952e-02,0.00728
-2.944e-02,-0.00312
-2.936e-02,0.00256
-2.928e-02,0.00216
-2.920e-02,-0.00528
-2.912e-02,0.00776
-2.904e-02,-0.00888
-2.896e-02,0.00568
-2.888e-02,0.00976
-2.880e-02,0.00336
-2.872e-02,0.00192
-2.864e-02,-0.00744
-2.856e-02,-0.0012
-2.848e-02,-0.00272
-2.840e-02,0.00248
-2.832e-02,0.00448
-2.824e-02,-0.0004
-2.816e-02,0.0068
-2.808e-02,-0.00024
-2.800e-02,-0.00024
-2.792e-02,0.00704
-2.784e-02,-0.00408
-2.776e-02,0.00512
-2.768e-02,-0.00016
-2.760e-02,0.00296
-2.752e-02,0.00992
-2.744e-02,0.00192
-2.736e-02,0.00464
-2.728e-02,-0.00232
-2.720e-02,0.00336
-2.712e-02,0.00136
-2.704e-02,-0.00192
-2.696e-02,0.00568
-2.688e-02,-0.00608
-2.680e-02,0.0016
-2.672e-02,0.00032
-2.664e-02,-0.00328
-2.656e-02,0.00552
-2.648e-02,-0.00072
-2.640e-02,0.0004
-2.632e-02,-0.00056
-2.624e-02,-0.00232
-2.616e-02,0.00552
-2.608e-02,0.00048
-2.600e-02,0.00088
-2.592e-02,-0.00064
-2.584e-02,0.00152
-2.576e-02,-0.00024
-2.568e-02,-0.00576
-2.560e-02,0.00136
-2.552e-02,-0.00304
-2.544e-02,0.00056
-2.536e-02,0.00336
-2.528e-02,-0.0028
-2.520e-02,0.0024
-2.512e-02,0.00152
-2.504e-02,-0.0052
-2.496e-02,0.00488
-2.488e-02,-0.00056
-2.480e-02,0.00392
-2.472e-02,0.00504
-2.464e-02,-0.00472
-2.456e-02,0.0048
-2.448e-02,0.00032
-2.440e-02,0.00592
-2.432e-02,0.00304
-2.424e-02,-0.0012
-2.416e-02,0.00424
-2.408e-02,-0.00704
-2.400e-02,-0.00368
-2.392e-02,-0.00288
-2.384e-02,-0.00464
-2.376e-02,0.00408
-2.368e-02,-0.00616
-2.360e-02,0.00568
-2.352e-02,-0.0036
-2.344e-02,-0.00056
-2.336e-02,0.00672
-2.328e-02,-0.00872
-2.320e-02,0.0012
-2.312e-02,-0.00024
-2.304e-02,0.00368
-2.296e-02,0.006
-2.288e-02,-0.00344
-2.280e-02,0.00192
-2.272e-02,-0.0076
-2.264e-02,0.00136
-2.256e-02,0.00248
-2.248e-02,-0.00624
-2.240e-02,0.00272
-2.232e-02,-0.00496
-2.224e-02,0.00424
-2.216e-02,0.00208
-2.208e-02,-0.00128
-2.200e-02,0.00168
-2.192e-02,-0.00704
-2.184e-02,0.00176
-2.176e-02,0.00448
-2.168e-02,-0.0008
-2.160e-02,0.006
-2.152e-02,-0.00552
-2.144e-02,0.00264
-2.136e-02,0.00152
-2.128e-02,0.00184
-2.120e-02,0.0052
-2.112e-02,-0.00728
-2.104e-02,0.0016
-2.096e-02,-0.00248
-2.088e-02,0.00368
-2.080e-02,0.00248
-2.072e-02,-0.002
-2.064e-02,0.00648
-2.056e-02,-0.00664
-2.048e-02,-0.00536
-2.040e-02,0.00088
-2.032e-02,-0.00288
-2.024e-02,0.00544
-2.016e-02,0.0036
-2.008e-02,0.00088
-2.000e-02,0.0012
-1.992e-02,-0.00344
-1.984e-02,0.004
-1.976e-02,-0.00328
-1.968e-02,8e-05
-1.960e-02,-0.00224
-1.952e-02,0.00096
-1.944e-02,0.00208
-1.936e-02,-0.00168
-1.928e-02,0.00024
-1.920e-02,-0.00224
-1.912e-02,-0.00432
-1.904e-02,0.00984
-1.896e-02,-0.00104
-1.888e-02,-0.00848
-1.880e-02,0.00216
-1.872e-02,-0.0068
-1.864e-02,-0.00104
-1.856e-02,0.0004
-1.848e-02,0.00312
-1.840e-02,0.00176
-1.832e-02,-0.00072
-1.824e-02,-0.00544
-1.816e-02,-0.00736
-1.808e-02,-0.0028
-1.800e-02,-0.00032
-1.792e-02,-0.00432
-1.784e-02,0.00056
-1.776e-02,-0.00176
-1.768e-02,0.00488
-1.760e-02,0.00536
-1.752e-02,0.0004
-1.744e-02,0.00712
-1.736e-02,-0.00152
-1.728e-02,-0.00072
-1.720e-02,0.00168
-1.712e-02,-0.0004
-1.704e-02,0.00864
-1.696e-02,-0.00216
-1.688e-02,-0.00112
-1.680e-02,-0.00152
-1.672e-02,-0.00272
-1.664e-02,0.00352
-1.656e-02,-0.00552
-1.648e-02,0.00544
-1.640e-02,-0.0016
-1.632e-02,0.00184
-1.624e-02,0.00208
-1.616e-02,0.00088
-1.608e-02,0.00616
-1.600e-02,-0.004
-1.592e-02,0.00048
-1.584e-02,0.00016
-1.576e-02,-0.00344
-1.568e-02,0.0048
-1.560e-02,-0.0024
-1.552e-02,0.00216
-1.544e-02,0.00232
-1.536e-02,-0.0048
-1.528e-02,0.00016
-1.520e-02,-0.00848
-1.512e-02,0.00176
-1.504e-02,0.00208
-1.496e-02,0.00248
-1.488e-02,0.00128
-1.480e-02,-0.00824
-1.472e-02,0.00056
-1.464e-02,-0.0012
-1.456e-02,0.00064
-1.448e-02,0.00256
-1.440e-02,-0.00144
-1.432e-02,0.00712
-1.424e-02,-0.00096
-1.416e-02,0.00464
-1.408e-02,0.00536
-1.400e-02,-0.00096
-1.392e-02,0.00504
-1.384e-02,-0.00152
-1.376e-02,0.00032
-1.368e-02,0.00312
-1.360e-02,0.00072
-1.352e-02,0.00024
-1.344e-02,-0.00072
-1.336e-02,0.00192
-1.328e-02,0.0048
-1.320e-02,0.00264
-1.312e-02,0.00864
-1.304e-02,0.0028
-1.296e-02,-0.00072
-1.288e-02,0.00104
-1.280e-02,-0.00032
-1.272e-02,0.00448
-1.264e-02,0.00464
-1.256e-02,-0.004
-1.248e-02,0.00368
-1.240e-02,-0.00648
-1.232e-02,0.00424
-1.224e-02,0.00232
-1.216e-02,0.00072
-1.208e-02,0.002
-1.200e-02,-0.002
-1.192e-02,0.00152
-1.184e-02,-0.00176
-1.176e-02,0.00336
-1.168e-02,0.00752
-1.160e-02,-0.00016
-1.152e-02,0.0076
-1.144e-02,8e-05
-1.136e-02,-0.00232
-1.128e-02,0.0044
-1.120e-02,-0.00424
-1.112e-02,0.00752
-1.104e-02,0.00128
-1.096e-02,0.00536
-1.088e-02,0.0044
-1.080e-02,-0.00256
-1.072e-02,0.00392
-1.064e-02,-0.01
-1.056e-02,0.0032
-1.048e-02,0.00112
-1.040e-02,0.00144
-1.032e-02,0.00528
-1.024e-02,-0.008
-1.016e-02,0.00336
-1.008e-02,-0.00272
-1.000e-02,-0.004
-9.920e-03,0.0052
-9.840e-03,-0.00736
-9.760e-03,0.006
-9.680e-03,-0.0004
-9.600e-03,0.00296
-9.520e-03,0.0068
-9.440e-03,-0.00456
-9.360e-03,0.0044
-9.280e-03,-0.00368
-9.200e-03,0.00248
-9.120e-03,-0.00064
-9.040e-03,-0.0056
-8.960e-03,0.0052
-8.880e-03,0.00272
-8.800e-03,0.00048
-8.720e-03,0.00512
-8.640e-03,-0.00168
-8.560e-03,0.00672
-8.480e-03,0.00128
-8.400e-03,-0.00088
-8.320e-03,0.0008
-8.240e-03,-0.00272
-8.160e-03,0.00096
-8.080e-03,0.00088
-8.000e-03,-0.00248
-7.920e-03,0.00192
-7.840e-03,0.00024
-7.760e-03,0.00096
-7.680e-03,0.00072
-7.600e-03,-0.00616
-7.520e-03,-0.00016
-7.440e-03,-0.00048
-7.360e-03,0.0028
-7.280e-03,-0.00312
-7.200e-03,0.0068
-7.120e-03,-0.00208
-7.040e-03,-0.00112
-6.960e-03,0.00304
-6.880e-03,-0.00344
-6.800e-03,-0.00192
-6.720e-03,0.00168
-6.640e-03,-0.0032
-6.560e-03,0.00704
-6.480e-03,-0.00112
-6.400e-03,0.00496
-6.320e-03,0.00176
-6.240e-03,-0.00384
-6.160e-03,0.00184
-6.080e-03,-0.00432
-6.000e-03,0.00104
-5.920e-03,-0.002
-5.840e-03,8e-05
-5.760e-03,-0.00064
-5.680e-03,-0.00608
-5.600e-03,0.00704
-5.520e-03,0.00272
-5.440e-03,-0.00816
-5.360e-03,0.00144
-5.280e-03,-0.00536
-5.200e-03,0.0044
-5.120e-03,0.00448
-5.040e-03,0.00048
-4.960e-03,0.00584
-4.880e-03,-0.00376
-4.800e-03,0.00408
-4.720e-03,-0.0036
-4.640e-03,0.00192
-4.560e-03,-0.00048
-4.480e-03,-0.0008
-4.400e-03,0.00392
-4.320e-03,-0.00752
-4.240e-03,-0.00088
-4.160e-03,0.00368
-4.080e-03,-0.00704
-4.000e-03,0.0072
-3.920e-03,-0.0088
-3.840e-03,0.00384
-3.760e-03,0.00088
-3.680e-03,-0.00032
-3.600e-03,0.0044
-3.520e-03,-0.00136
-3.440e-03,0.00064
-3.360e-03,0.0008
-3.280e-03,0.00208
-3.200e-03,0.00304
-3.120e-03,-0.0084
-3.040e-03,-0.00136
-2.960e-03,0.00072
-2.880e-03,0.00248
-2.800e-03,0.0056
-2.720e-03,-0.00184
-2.640e-03,0.00336
-2.560e-03,-0.00528
-2.480e-03,-0.00072
-2.400e-03,0.0072
-2.320e-03,-0.00336
-2.240e-03,-0.00688
-2.160e-03,-0.00416
-2.080e-03,-0.00552
-2.000e-03,0.00128
-1.920e-03,-0.00152
-1.840e-03,0.00456
-1.760e-03,0.00152
-1.680e-03,0.00128
-1.600e-03,0.00256
-1.520e-03,-0.00024
-1.440e-03,0.006
-1.360e-03,-0.00056
-1.280e-03,0.0008
-1.200e-03,0.00416
-1.120e-03,-0.00192
-1.040e-03,-0.00104
-9.600e-04,0.00336
-8.800e-04,-0.00616
-8.000e-04,0.004
-7.200e-04,-0.0044
-6.400e-04,0.00536
-5.600e-04,0.0024
-4.800e-04,-0.00072
-4.000e-04,0.0052
-3.200e-04,-0.00416
-2.400e-04,0.0024
-1.600e-04,0.00192
-8.000e-05,0.002
-1.896e-15,0.00368
8.000e-05,-0.00832
1.600e-04,0.00016
2.400e-04,8e-05
3.200e-04,0.0012
4.000e-04,-0.00184
4.800e-04,-0.00712
5.600e-04,0.006
6.400e-04,-0.0056
7.200e-04,0.00224
8.000e-04,0.00016
8.800e-04,-0.00448
9.600e-04,0.0064
1.040e-03,-0.01
1.120e-03,-0.00208
1.200e-03,0.00656
1.280e-03,-0.00512
1.360e-03,0.00216
1.440e-03,-0.01016
1.520e-03,0.0004
1.600e-03,-0.0024
1.680e-03,-0.00152
1.760e-03,0.0048
1.840e-03,-0.00456
1.920e-03,0.0088
2.000e-03,-0.00144
2.080e-03,-0.00208
2.160e-03,0.00256
2.240e-03,-0.00672
2.320e-03,-0.00032
