data/PSU_noise/PSU1_CC2_80A_1ms.CSV

Model,TBS1102C
Firmware Version,v2015-08-04-prequal4ch70_v1.3

Point Format,Y
Horizontal Units,S
Horizontal Scale,0.001
Sample Interval,8e-06
Filter Frequency,2e+08
Record Length,2000
Gating,0.0% to 100.0%
Probe Attenuation,1
Vertical Units,V
Vertical Offset,0
Vertical Scale,0.002
Label,
TIME,CH1
-8.000e-03,0.00072
-7.992e-03,0.00344
-7.984e-03,-0.00248
-7.976e-03,0.00136
-7.968e-03,0.00024
-7.960e-03,0.00112
-7.952e-03,0.002
-7.944e-03,-0.00208
-7.936e-03,0.00336
-7.928e-03,-0.00016
-7.920e-03,0.00104
-7.912e-03,-0.00016
-7.904e-03,0.0072
-7.896e-03,-0.00112
-7.888e-03,0.00336
-7.880e-03,-0.00504
-7.872e-03,0.00552
-7.864e-03,0.00472
-7.856e-03,0.0048
-7.848e-03,0.00208
-7.840e-03,-0.00264
-7.832e-03,0.00464
-7.824e-03,-0.00152
-7.816e-03,0.00552
-7.808e-03,-0.00336
-7.800e-03,0.00912
-7.792e-03,-0.00376
-7.784e-03,-0.00096
-7.776e-03,-0.0028
-7.768e-03,0.0036
-7.760e-03,0.00136
-7.752e-03,-0.0032
-7.744e-03,0.0004
-7.736e-03,-0.01016
-7.728e-03,0.00392
-7.720e-03,-0.00664
-7.712e-03,0.00384
-7.704e-03,-0.00208
-7.696e-03,0.00136
-7.688e-03,-0.00224
-7.680e-03,-0.0032
-7.672e-03,-0.00376
-7.664e-03,-0.00248
-7.656e-03,0.00376
-7.648e-03,-0.00432
-7.640e-03,0.0056
-7.632e-03,-0.00496
-7.624e-03,0.00048
-7.616e-03,-0.00376
-7.608e-03,0.00088
-7.600e-03,8e-05
-7.592e-03,0.00256
-7.584e-03,0.0004
-7.576e-03,-0.00288
-7.568e-03,0.00272
-7.560e-03,0.0008
-7.552e-03,0.0024
-7.544e-03,-0.00104
-7.536e-03,0.00744
-7.528e-03,-0.00056
-7.520e-03,0.00432
-7.512e-03,-0.00024
-7.504e-03,0.00608
-7.496e-03,0.00384
-7.488e-03,0.00248
-7.480e-03,0.00248
-7.472e-03,0.00384
-7.464e-03,0.00176
-7.456e-03,0.0008
-7.448e-03,0.00192
-7.440e-03,-0.00256
-7.432e-03,0.00608
-7.424e-03,-0.00272
-7.416e-03,0.0036
-7.408e-03,-0.00256
-7.400e-03,0.00456
-7.392e-03,-0.00264
-7.384e-03,0.00024
-7.376e-03,-0.00192
-7.368e-03,-0.00336
-7.360e-03,0.00416
-7.352e-03,-0.00224
-7.344e-03,0.00296
-7.336e-03,-0.00488
-7.328e-03,0.0064
-7.320e-03,-0.00512
-7.312e-03,0.0032
-7.304e-03,-0.00616
-7.296e-03,-0.00136
-7.288e-03,8e-05
-7.280e-03,-0.00424
-7.272e-03,0.00648
-7.264e-03,-0.004
-7.256e-03,-0.00064
-7.248e-03,-0.00696
-7.240e-03,0.00232
-7.232e-03,-0.0052
-7.224e-03,0.00336
-7.216e-03,-0.0032
-7.208e-03,0.0004
-7.200e-03,0.00048
-7.192e-03,-0.00264
-7.184e-03,0.00296
-7.176e-03,-0.00528
-7.168e-03,0.00288
-7.160e-03,-0.00344
-7.152e-03,0.00624
-7.144e-03,-0.00024
-7.136e-03,0.00584
-7.128e-03,0.00136
-7.120e-03,0.00064
-7.112e-03,0.00056
-7.104e-03,0.00328
-7.096e-03,0.0044
-7.088e-03,0.00168
-7.080e-03,0.00424
-7.072e-03,-0.00048
-7.064e-03,0.01016
-7.056e-03,0.00648
-7.048e-03,0.00624
-7.040e-03,0.00192
-7.032e-03,0.00624
-7.024e-03,-0.00144
-7.016e-03,0.00096
-7.008e-03,-0.002
-7.000e-03,0.00512
-6.992e-03,0.00432
-6.984e-03,0.00296
-6.976e-03,0.00544
-6.968e-03,0.00016
-6.960e-03,0.00528
-6.952e-03,-0.00376
-6.944e-03,0.00216
-6.936e-03,-0.00288
-6.928e-03,0.0068
-6.920e-03,-0.00128
-6.912e-03,-0.00016
-6.904e-03,-0.002
-6.896e-03,-0.00016
-6.888e-03,-0.00104
-6.880e-03,-0.00416
-6.872e-03,0.00416
-6.864e-03,-0.00848
-6.856e-03,0.00656
-6.848e-03,-0.00464
-6.840e-03,0.0036
-6.832e-03,-0.00296
-6.824e-03,-0.00216
-6.816e-03,-0.00224
-6.808e-03,-0.00432
-6.800e-03,-0.00032
-6.792e-03,-0.00344
-6.784e-03,0.0048
-6.776e-03,-0.00536
-6.768e-03,0.00792
-6.760e-03,-0.00416
-6.752e-03,0.00048
-6.744e-03,-0.00472
-6.736e-03,0.00048
-6.728e-03,-0.00056
-6.720e-03,-0.0016
-6.712e-03,0.00112
-6.704e-03,-0.00256
-6.696e-03,0.00688
-6.688e-03,0.00104
-6.680e-03,0.00304
-6.672e-03,-0.0044
-6.664e-03,0.00352
-6.656e-03,-0.00184
-6.648e-03,0.00376
-6.640e-03,0.0008
-6.632e-03,0.0068
-6.624e-03,0.00752
-6.616e-03,0.00032
-6.608e-03,0.00288
-6.600e-03,-0.00208
-6.592e-03,0.00184
-6.584e-03,-0.0008
-6.576e-03,0.00224
-6.568e-03,0.0004
-6.560e-03,0.00752
-6.552e-03,0.00104
-6.544e-03,0.0044
-6.536e-03,8e-05
-6.528e-03,0.006
-6.520e-03,-0.00024
-6.512e-03,-0.00232
-6.504e-03,-0.00128
-6.496e-03,-0.00592
-6.488e-03,0.00136
-6.480e-03,-0.00232
-6.472e-03,0.00496
-6.464e-03,-0.00328
-6.456e-03,0.002
-6.448e-03,-0.00776
-6.440e-03,0.00152
-6.432e-03,-0.0048
-6.424e-03,-0.00016
-6.416e-03,0.00016
-6.408e-03,-0.00488
-6.400e-03,0.00888
-6.392e-03,-0.00224
-6.384e-03,0.00488
-6.376e-03,-0.00144
-6.368e-03,0.008
-6.360e-03,-0.00144
-6.352e-03,0.00336
-6.344e-03,-0.00352
-6.336e-03,0.00032
-6.328e-03,0.00192
-6.320e-03,-0.00456
-6.312e-03,0.00056
-6.304e-03,-0.0084
-6.296e-03,0.00216
-6.288e-03,-0.00712
-6.280e-03,0.00016
-6.272e-03,-0.00672
-6.264e-03,0.00032
-6.256e-03,-0.00528
-6.248e-03,-0.00488
-6.240e-03,-0.00096
-6.232e-03,0
-6.224e-03,0.00264
-6.216e-03,-0.0008
-6.208e-03,0.00304
-6.200e-03,-0.00488
-6.192e-03,0.00576
-6.184e-03,-0.00224
-6.176e-03,0.00024
-6.168e-03,0.00096
-6.160e-03,0.00544
-6.152e-03,0.00616
-6.144e-03,0.00408
-6.136e-03,0.00296
-6.128e-03,0.00552
-6.120e-03,0.00656
-6.112e-03,0.00552
-6.104e-03,0.00752
-6.096e-03,-0.00032
-6.088e-03,0.00392
-6.080e-03,-0.00248
-6.072e-03,0.00344
-6.064e-03,-0.00184
-6.056e-03,0.00384
-6.048e-03,-0.00048
-6.040e-03,-0.00144
-6.032e-03,-0.00016
-6.024e-03,0.0012
-6.016e-03,0.00072
-6.008e-03,-0.0016
-6.000e-03,0.0056
-5.992e-03,-0.00672
-5.984e-03,0.0036
-5.976e-03,-0.00752
-5.968e-03,0.00432
-5.960e-03,-0.00032
-5.952e-03,0
-5.944e-03,0.00016
-5.936e-03,-0.002
-5.928e-03,0.00168
-5.920e-03,-0.0028
-5.912e-03,0.00376
-5.904e-03,-0.006
-5.896e-03,0.00696
-5.888e-03,-0.0056
-5.880e-03,0.00024
-5.872e-03,-0.00328
-5.864e-03,-8e-05
-5.856e-03,-0.00248
-5.848e-03,-0.00504
-5.840e-03,0.00192
-5.832e-03,-0.00512
-5.824e-03,0.00648
-5.816e-03,-0.00288
-5.808e-03,0.00248
-5.800e-03,-0.00288
-5.792e-03,0.00256
-5.784e-03,-0.00184
-5.776e-03,0.0028
-5.768e-03,-0.00056
-5.760e-03,0.00152
-5.752e-03,0.00544
-5.744e-03,8e-05
-5.736e-03,0.006
-5.728e-03,-0.00232
-5.720e-03,0.00232
-5.712e-03,-0.00176
-5.704e-03,0.00136
-5.696e-03,-0.00128
-5.688e-03,0.00392
-5.680e-03,0.0016
-5.672e-03,0.00384
-5.664e-03,0.00384
-5.656e-03,0.00608
-5.648e-03,0.0044
-5.640e-03,0.00312
-5.632e-03,0.00464
-5.624e-03,-0.00384
-5.616e-03,0.00104
-5.608e-03,-0.00296
-5.600e-03,0.0072
-5.592e-03,0.00224
-5.584e-03,0.00592
-5.576e-03,0.00032
-5.568e-03,0.00672
-5.560e-03,0.00096
-5.552e-03,0.00096
-5.544e-03,0.0024
-5.536e-03,-0.004
-5.528e-03,0.00952
-5.520e-03,-0.0012
-5.512e-03,0.00848
-5.504e-03,0.00112
-5.496e-03,0.01008
-5.488e-03,0.00176
-5.480e-03,0.004
-5.472e-03,-0.00136
-5.464e-03,-0.00048
-5.456e-03,0.00424
-5.448e-03,-0.00272
-5.440e-03,0.00368
-5.432e-03,-0.00736
-5.424e-03,0.00296
-5.416e-03,-0.00656
-5.408e-03,0.00296
-5.400e-03,-0.00328
-5.392e-03,0.00312
-5.384e-03,0.00184
-5.376e-03,-0.00264
-5.368e-03,0.00344
-5.360e-03,-0.00408
-5.352e-03,-0.00048
-5.344e-03,-0.0056
-5.336e-03,0
-5.328e-03,-0.0072
-5.320e-03,0.00296
-5.312e-03,-0.00368
-5.304e-03,0.00072
-5.296e-03,0.00056
-5.288e-03,-0.00192
-5.280e-03,-0.00024
-5.272e-03,-0.00528
-5.264e-03,-0.00064
-5.256e-03,-0.00448
-5.248e-03,-0.00176
-5.240e-03,-0.00216
-5.232e-03,0.00512
-5.224e-03,-0.00032
-5.216e-03,0.00152
-5.208e-03,-0.0028
-5.200e-03,0.002
-5.192e-03,-0.00312
-5.184e-03,-0.00176
-5.176e-03,-0.00112
-5.168e-03,-0.00304
-5.160e-03,0.00568
-5.152e-03,0.00312
-5.144e-03,0.00264
-5.136e-03,-0.00176
-5.128e-03,0.00584
-5.120e-03,-0.00448
-5.112e-03,0.00224
-5.104e-03,-0.006
-5.096e-03,0.00056
-5.088e-03,-0.0028
-5.080e-03,-0.00352
-5.072e-03,-0.00048
-5.064e-03,-0.00512
-5.056e-03,0.0012
-5.048e-03,-0.00424
-5.040e-03,0.00512
-5.032e-03,-0.00448
-5.024e-03,0.00496
-5.016e-03,-0.00336
-5.008e-03,0.00072
-5.000e-03,-0.00032
-4.992e-03,0.00064
-4.984e-03,-0.0016
-4.976e-03,-0.00648
-4.968e-03,0.00208
-4.960e-03,-0.00808
-4.952e-03,0.00464
-4.944e-03,-0.00464
-4.936e-03,0.0052
-4.928e-03,-0.00112
-4.920e-03,-0.00016
-4.912e-03,-0.00264
-4.904e-03,-0.00256
-4.896e-03,-0.00216
-4.888e-03,-0.00312
-4.880e-03,0.00216
-4.872e-03,-0.0052
-4.864e-03,0.00808
-4.856e-03,-0.00232
-4.848e-03,0.00408
-4.840e-03,0.00056
-4.832e-03,0.00384
-4.824e-03,0.00032
-4.816e-03,-0.00104
-4.808e-03,0.0004
-4.800e-03,-0.00088
-4.792e-03,0.004
-4.784e-03,0.00064
-4.776e-03,-0.00072
-4.768e-03,-0.00424
-4.760e-03,0.00392
-4.752e-03,-0.0016
-4.744e-03,0.00264
-4.736e-03,-0.00024
-4.728e-03,0.00648
-4.720e-03,0.00328
-4.712e-03,0.00168
-4.704e-03,8e-05
-4.696e-03,0.00104
-4.688e-03,-0.0004
-4.680e-03,-0.00184
-4.672e-03,-0.00104
-4.664e-03,-0.006
-4.656e-03,0.00464
-4.648e-03,-0.00504
-4.640e-03,0.00176
-4.632e-03,-0.0032
-4.624e-03,0.004
-4.616e-03,-0.0012
-4.608e-03,-0.00376
-4.600e-03,-0.00376
-4.592e-03,-0.00824
-4.584e-03,-0.002
-4.576e-03,-0.00864
-4.568e-03,0.00064
-4.560e-03,-0.00968
-4.552e-03,-0.00224
-4.544e-03,-0.00952
-4.536e-03,0.00024
-4.528e-03,-0.00448
-4.520e-03,-0.00208
-4.512e-03,-0.0024
-4.504e-03,-0.00952
-4.496e-03,0.00288
-4.488e-03,-0.00568
-4.480e-03,-8e-05
-4.472e-03,-0.00784
-4.464e-03,0.00152
-4.456e-03,-0.00544
-4.448e-03,0.00208
-4.440e-03,-0.004
-4.432e-03,-0.00016
-4.424e-03,0.00336
-4.416e-03,-0.0032
-4.408e-03,0.00192
-4.400e-03,-0.00688
-4.392e-03,0.00264
-4.384e-03,-0.00456
-4.376e-03,0
-4.368e-03,-0.00456
-4.360e-03,0.00256
-4.352e-03,-0.00216
-4.344e-03,-0.00088
-4.336e-03,-0.0016
-4.328e-03,0.00264
-4.320e-03,0.0012
-4.312e-03,0.00056
-4.304e-03,0.0032
-4.296e-03,-0.00144
-4.288e-03,0.00592
-4.280e-03,-0.00016
-4.272e-03,-0.00048
-4.264e-03,-0.00424
-4.256e-03,0.0016
-4.248e-03,-0.00176
-4.240e-03,0.0032
-4.232e-03,-0.00088
-4.224e-03,0.00336
-4.216e-03,0.0024
-4.208e-03,-0.0004
-4.200e-03,0.00312
-4.192e-03,-0.00544
-4.184e-03,0.00064
-4.176e-03,-0.00672
-4.168e-03,0.00304
-4.160e-03,-0.00504
-4.152e-03,0.00208
-4.144e-03,-0.0036
-4.136e-03,-0.00016
-4.128e-03,0.00328
-4.120e-03,0.00088
-4.112e-03,0.00208
-4.104e-03,-0.0056
-4.096e-03,0.00328
-4.088e-03,-0.00952
-4.080e-03,0.00232
-4.072e-03,-0.00768
-4.064e-03,0.00432
-4.056e-03,0.00088
-4.048e-03,-0.00208
-4.040e-03,0.00144
-4.032e-03,-0.00192
-4.024e-03,0.00368
-4.016e-03,-0.00248
-4.008e-03,0.00208
-4.000e-03,-0.00952
-3.992e-03,0.00336
-3.984e-03,-0.0076
-3.976e-03,0
-3.968e-03,-0.00152
-3.960e-03,0.00032
-3.952e-03,0.00064
-3.944e-03,-0.00328
-3.936e-03,0.0004
-3.928e-03,-0.00416
-3.920e-03,0.00544
-3.912e-03,-0.0008
-3.904e-03,0.0004
-3.896e-03,-0.00592
-3.888e-03,-0.00104
-3.880e-03,-0.00384
-3.872e-03,0.0004
-3.864e-03,-0.0012
-3.856e-03,0.00272
-3.848e-03,0.00336
-3.840e-03,-0.00072
-3.832e-03,0.00336
-3.824e-03,0.00128
-3.816e-03,0.00136
-3.808e-03,-0.00088
-3.800e-03,0.00192
-3.792e-03,-0.0048
-3.784e-03,0.00208
-3.776e-03,-0.00552
-3.768e-03,-0.00032
-3.760e-03,-0.00376
-3.752e-03,0.00056
-3.744e-03,-0.0028
-3.736e-03,-0.0036
-3.728e-03,0.00232
-3.720e-03,-0.00336
-3.712e-03,0.00584
-3.704e-03,-0.00072
-3.696e-03,0.00968
-3.688e-03,-0.0016
-3.680e-03,-0.00032
-3.672e-03,-0.00608
-3.664e-03,0.00176
-3.656e-03,-0.0028
-3.648e-03,0
-3.640e-03,0.00376
-3.632e-03,-0.0068
-3.624e-03,0.00624
-3.616e-03,-0.00736
-3.608e-03,0.00112
-3.600e-03,-0.00456
-3.592e-03,0.00424
-3.584e-03,-0.00336
-3.576e-03,0.00112
-3.568e-03,-0.0012
-3.560e-03,0.0004
-3.552e-03,0.00456
-3.544e-03,-0.00432
-3.536e-03,0.00232
-3.528e-03,-0.00968
-3.520e-03,0.00024
-3.512e-03,-0.006
-3.504e-03,0.00112
-3.496e-03,-0.00384
-3.488e-03,-0.00096
-3.480e-03,-0.00184
-3.472e-03,-0.00224
-3.464e-03,0.00304
-3.456e-03,-8e-05
-3.448e-03,0.00192
-3.440e-03,-0.00144
-3.432e-03,0.00176
-3.424e-03,-0.00384
-3.416e-03,0.00216
-3.408e-03,-0.00352
-3.400e-03,-0.00056
-3.392e-03,-0.0004
-3.384e-03,-0.00032
-3.376e-03,-0.0012
-3.368e-03,-0.00056
-3.360e-03,0.00032
-3.352e-03,-0.00032
-3.344e-03,0.0004
-3.336e-03,-0.00216
-3.328e-03,0.0044
-3.320e-03,-0.00416
-3.312e-03,0.0012
-3.304e-03,-0.00448
-3.296e-03,0.00472
-3.288e-03,-0.00128
-3.280e-03,0.00176
-3.272e-03,-0.00216
-3.264e-03,-0.00368
-3.256e-03,0.00056
-3.248e-03,-0.00264
-3.240e-03,-0.00056
-3.232e-03,-0.00552
-3.224e-03,0.00448
-3.216e-03,-0.00664
-3.208e-03,0.00456
-3.200e-03,-0.00536
-3.192e-03,0.00512
-3.184e-03,0.00264
-3.176e-03,-0.00032
-3.168e-03,0.0004
-3.160e-03,-0.00552
-3.152e-03,-0.00072
-3.144e-03,-0.0076
-3.136e-03,-0.00048
-3.128e-03,-0.00928
-3.120e-03,0.00432
-3.112e-03,-0.006
-3.104e-03,-8e-05
-3.096e-03,-0.00152
-3.088e-03,-0.00152
-3.080e-03,-0.00136
-3.072e-03,-0.00768
-3.064e-03,-0.00224
-3.056e-03,-0.00968
-3.048e-03,0.00216
-3.040e-03,-0.00432
-3.032e-03,0.00168
-3.024e-03,-0.00336
-3.016e-03,0.00072
-3.008e-03,0.00016
-3.000e-03,0.00104
-2.992e-03,-0.00016
-2.984e-03,-0.00184
-2.976e-03,-0.00064
-2.968e-03,-0.00536
-2.960e-03,0.00552
-2.952e-03,-0.00032
-2.944e-03,0.00176
-2.936e-03,-0.00112
-2.928e-03,0.002
-2.920e-03,-0.0008
-2.912e-03,0.00216
-2.904e-03,-0.00264
-2.896e-03,0.0012
-2.888e-03,0.00024
-2.880e-03,0.00248
-2.872e-03,0.00232
-2.864e-03,-0.00056
-2.856e-03,0.00464
-2.848e-03,-0.00328
-2.840e-03,0.0016
-2.832e-03,-0.00632
-2.824e-03,0.00208
-2.816e-03,-0.0044
-2.808e-03,-0.00184
-2.800e-03,-0.0064
-2.792e-03,-0.0004
-2.784e-03,-0.00384
-2.776e-03,-0.00048
-2.768e-03,0.00152
-2.760e-03,-0.00664
-2.752e-03,0.00704
-2.744e-03,-0.006
-2.736e-03,-0.00064
-2.728e-03,-0.00848
-2.720e-03,0.0012
-2.712e-03,-0.00552
-2.704e-03,-0.00264
-2.696e-03,-0.00544
-2.688e-03,-0.00376
-2.680e-03,0.00136
-2.672e-03,-0.00752
-2.664e-03,0.00048
-2.656e-03,-0.01016
-2.648e-03,-0.00088
-2.640e-03,-0.00816
-2.632e-03,0.00056
-2.624e-03,-0.00512
-2.616e-03,-0.00456
-2.608e-03,-0.00544
-2.600e-03,-0.01008
-2.592e-03,-0.00232
-2.584e-03,-0.00576
-2.576e-03,-0.00088
-2.568e-03,-0.006
-2.560e-03,0.00048
-2.552e-03,-0.00792
-2.544e-03,0
-2.536e-03,-0.00544
-2.528e-03,0.0016
-2.520e-03,0.00464
-2.512e-03,0.00104
-2.504e-03,0.00144
-2.496e-03,-0.00264
-2.488e-03,0.00224
-2.480e-03,0.0004
-2.472e-03,0.002
-2.464e-03,-0.0012
-2.456e-03,0.00672
-2.448e-03,0.00136
-2.440e-03,0.00568
-2.432e-03,0.00104
-2.424e-03,0.00608
-2.416e-03,-0.00176
-2.408e-03,-0.00104
-2.400e-03,0.00176
-2.392e-03,0.00104
-2.384e-03,0.0076
-2.376e-03,0.0044
-2.368e-03,0.00264
-2.360e-03,-0.00264
-2.352e-03,0.00576
-2.344e-03,-0.0052
-2.336e-03,0.0016
-2.328e-03,-0.0048
-2.320e-03,0.00488
-2.312e-03,-0.0004
-2.304e-03,-0.00408
-2.296e-03,-0.00024
-2.288e-03,-0.00512
-2.280e-03,-0.00048
-2.272e-03,-0.00816
-2.264e-03,0.0016
-2.256e-03,-0.00744
-2.248e-03,0.0024
-2.240e-03,-0.0096
-2.232e-03,-0.00392
-2.224e-03,-0.00384
-2.216e-03,-0.00336
-2.208e-03,-0.00096
-2.200e-03,-0.00704
-2.192e-03,0.00184
-2.184e-03,-0.01008
-2.176e-03,8e-05
-2.168e-03,-0.00832
-2.160e-03,0.00344
-2.152e-03,-8e-05
-2.144e-03,-0.00104
-2.136e-03,-0.00184
-2.128e-03,-0.00152
-2.120e-03,-0.00112
-2.112e-03,-0.00208
-2.104e-03,0.00416
-2.096e-03,-0.00496
-2.088e-03,0.00576
-2.080e-03,-0.00432
-2.072e-03,-8e-05
-2.064e-03,-0.00304
-2.056e-03,0.00232
-2.048e-03,0.0024
-2.040e-03,0.002
-2.032e-03,0.00032
-2.024e-03,-0.0004
-2.016e-03,0.00168
-2.008e-03,-0.00088
-2.000e-03,-8e-05
-1.992e-03,-0.00296
-1.984e-03,0.0048
-1.976e-03,-0.00304
-1.968e-03,0.0024
-1.960e-03,-0.00312
-1.952e-03,0.00352
-1.944e-03,0.00256
-1.936e-03,0.00248
-1.928e-03,-0.00024
-1.920e-03,0.00168
-1.912e-03,-0.0016
-1.904e-03,-0.0024
-1.896e-03,0.00192
-1.888e-03,-0.0048
-1.880e-03,0.00648
-1.872e-03,-0.00536
-1.864e-03,0.00088
-1.856e-03,-0.00448
-1.848e-03,0.00272
-1.840e-03,-0.00064
-1.832e-03,-0.00056
-1.824e-03,-0.00104
-1.816e-03,-0.00256
-1.808e-03,0.004
-1.800e-03,-0.00616
-1.792e-03,0.0052
-1.784e-03,-0.0064
-1.776e-03,0.00304
-1.768e-03,-0.00416
-1.760e-03,0.004
-1.752e-03,-0.00168
-1.744e-03,-0.00328
-1.736e-03,-0.00056
-1.728e-03,-0.00568
-1.720e-03,0.00952
-1.712e-03,-0.00064
-1.704e-03,0.00392
-1.696e-03,-0.00272
-1.688e-03,0.004
-1.680e-03,-0.00384
-1.672e-03,0.00232
-1.664e-03,-0.00232
-1.656e-03,0.00208
-1.648e-03,0.0024
-1.640e-03,-0.0052
-1.632e-03,0.00192
-1.624e-03,-0.00392
-1.616e-03,0.00432
-1.608e-03,-0.00128
-1.600e-03,0.00168
-1.592e-03,-0.00168
-1.584e-03,0.00328
-1.576e-03,0.00016
-1.568e-03,0.00184
-1.560e-03,-0.00128
-1.552e-03,0.00032
-1.544e-03,-0.00104
-1.536e-03,-0.00232
-1.528e-03,0.00192
-1.520e-03,-0.00232
-1.512e-03,0.00312
-1.504e-03,-0.00312
-1.496e-03,-0.00016
-1.488e-03,-0.00296
-1.480e-03,0.00232
-1.472e-03,-0.00104
-1.464e-03,0.0032
-1.456e-03,-0.0032
-1.448e-03,0.00032
-1.440e-03,-0.00112
-1.432e-03,-0.00312
-1.424e-03,0.00648
-1.416e-03,-0.00192
-1.408e-03,0.0016
-1.400e-03,-0.00688
-1.392e-03,0.00416
-1.384e-03,-0.0056
-1.376e-03,0.00096
-1.368e-03,-0.00224
-1.360e-03,0.00064
-1.352e-03,0.00088
-1.344e-03,-0.00104
-1.336e-03,0.00064
-1.328e-03,-0.00672
-1.320e-03,0.00616
-1.312e-03,-0.008
-1.304e-03,0.00184
-1.296e-03,-0.00728
-1.288e-03,0.00368
-1.280e-03,-0.00024
-1.272e-03,-0.00528
-1.264e-03,-0.002
-1.256e-03,-0.00608
-1.248e-03,-0.00064
-1.240e-03,-0.00432
-1.232e-03,0.0032
-1.224e-03,-0.00568
-1.216e-03,0.00504
-1.208e-03,-0.00584
-1.200e-03,-8e-05
-1.192e-03,-0.00104
-1.184e-03,0.00128
-1.176e-03,0.00248
-1.168e-03,-0.00144
-1.160e-03,0.00128
-1.152e-03,-0.00424
-1.144e-03,0.00512
-1.136e-03,0.00144
-1.128e-03,0.0036
-1.120e-03,-0.00304
-1.112e-03,0.00072
-1.104e-03,-0.00448
-1.096e-03,0.00216
-1.088e-03,0.00088
-1.080e-03,0.00272
-1.072e-03,0.00216
-1.064e-03,-0.00232
-1.056e-03,0.00192
-1.048e-03,-0.00072
-1.040e-03,0.0008
-1.032e-03,-0.00016
-1.024e-03,0.00536
-1.016e-03,-0.00288
-1.008e-03,0.00224
-1.000e-03,-0.00296
-9.920e-04,0.00512
-9.840e-04,0.00024
-9.760e-04,0.00168
-9.680e-04,-0.00176
-9.600e-04,-0.00336
-9.520e-04,0.00312
-9.440e-04,-0.00296
-9.360e-04,0.00304
-9.280e-04,-0.00552
-9.200e-04,0.0084
-9.120e-04,-0.00104
-9.040e-04,0.00224
-8.960e-04,-0.00424
-8.880e-04,0
-8.800e-04,-0.00224
-8.720e-04,-0.0028
-8.640e-04,0.0016
-8.560e-04,-0.0092
-8.480e-04,0.00472
-8.400e-04,-0.00856
-8.320e-04,0.00176
-8.240e-04,-0.0028
-8.160e-04,0.00256
-8.080e-04,-0.00336
-8.000e-04,-0.00384
-7.920e-04,-0.0048
-7.840e-04,-0.0024
-7.760e-04,0.00336
-7.680e-04,-0.00424
-7.600e-04,0.00304
-7.520e-04,-0.00864
-7.440e-04,0.00032
-7.360e-04,-0.00472
-7.280e-04,0.00256
-7.200e-04,-0.00136
-7.120e-04,-0.00064
-7.040e-04,-0.0012
-6.960e-04,-0.00424
-6.880e-04,0.00248
-6.800e-04,0.00168
-6.720e-04,0.00144
-6.640e-04,-0.00352
-6.560e-04,0.0024
-6.480e-04,-0.00304
-6.400e-04,0.00424
-6.320e-04,0.00072
-6.240e-04,0.00456
-6.160e-04,0.00168
-6.080e-04,0.0016
-6.000e-04,-0.00048
-5.920e-04,0.0004
-5.840e-04,0.00224
-5.760e-04,0.00224
-5.680e-04,0.00072
-5.600e-04,-0.00232
-5.520e-04,0.00856
-5.440e-04,0.0012
-5.360e-04,0.00328
-5.280e-04,-0.00704
-5.200e-04,0.00288
-5.120e-04,-0.0016
-5.040e-04,0.00168
-4.960e-04,-0.00136
-4.880e-04,-0.00392
-4.800e-04,0.002
-4.720e-04,-0.00248
-4.640e-04,0.00232
-4.560e-04,-0.006
-4.480e-04,0.00296
-4.400e-04,-0.00928
-4.320e-04,0.0016
-4.240e-04,-0.0056
-4.160e-04,0.00192
-4.080e-04,0
-4.000e-04,-0.00688
-3.920e-04,0.00096
-3.840e-04,-0.00664
-3.760e-04,0.00072
-3.680e-04,-0.00704
-3.600e-04,-0.00032
-3.520e-04,-0.00824
-3.440e-04,0.00184
-3.360e-04,-0.00472
-3.280e-04,0.0012
-3.200e-04,0.0012
-3.120e-04,-0.0036
-3.040e-04,0.00024
-2.960e-04,-0.00456
-2.880e-04,0.00328
-2.800e-04,-0.00528
-2.720e-04,0.00104
-2.640e-04,-0.00544
-2.560e-04,0.00448
-2.480e-04,0.0012
-2.400e-04,0.00088
-2.320e-04,-0.00384
-2.240e-04,-0.0012
-2.160e-04,0.00112
-2.080e-04,0.00088
-2.000e-04,0.00192
-1.920e-04,-0.00536
-1.840e-04,0.0056
-1.760e-04,-0.00168
-1.680e-04,0.0008
-1.600e-04,-0.00032
-1.520e-04,0.00392
-1.440e-04,-0.00216
-1.360e-04,0.002
-1.280e-04,-0.0008
-1.200e-04,0.00496
-1.120e-04,0.0028
-1.040e-04,-0.00016
-9.600e-05,0.00064
-8.800e-05,-0.00264
-8.000e-05,0.0044
-7.200e-05,-0.0044
-6.400e-05,-0.00152
-5.600e-05,-0.00736
-4.800e-05,0.00432
-4.000e-05,-0.00336
-3.200e-05,-0.00232
-2.400e-05,-0.0044
-1.600e-05,0.00096
-8.000e-06,-0.00072
1.220e-16,-0.00368
8.000e-06,-0.00016
1.600e-05,-0.01016
2.400e-05,0.006
3.200e-05,-0.00688
4.000e-05,0.0016
4.800e-05,-0.00576
5.600e-05,-0.002
6.400e-05,-0.00376
7.200e-05,-0.00312
8.000e-05,-0.00192
8.800e-05,-0.0056
9.600e-05,-0.00144
1.040e-04,-0.0092
1.120e-04,0.006
1.200e-04,-0.00672
1.280e-04,-0.00032
1.360e-04,-0.00872
1.440e-04,-0.00208
1.520e-04,-0.00432
1.600e-04,-0.002
1.680e-04,-0.002
1.760e-04,-0.008
1.840e-04,0.0032
1.920e-04,-0.00192
2.000e-04,0.0012
2.080e-04,-0.00568
