data/PSU_noise/PSU1_CC2_40A_10ms.CSV

Model,TBS1102C
Firmware Version,v2015-08-04-prequal4ch70_v1.3

Point Format,Y
Horizontal Units,S
Horizontal Scale,0.01
Sample Interval,8e-05
Filter Frequency,2e+08
Record Length,2000
Gating,0.0% to 100.0%
Probe Attenuation,1
Vertical Units,V
Vertical Offset,0
Vertical Scale,0.002
Label,
TIME,CH1
-8.000e-02,-0.00056
-7.992e-02,-0.00176
-7.984e-02,-0.00168
-7.976e-02,0.00184
-7.968e-02,-0.00464
-7.960e-02,0.00176
-7.952e-02,0.00016
-7.944e-02,0.00472
-7.936e-02,-0.00368
-7.928e-02,-0.00536
-7.920e-02,0.004
-7.912e-02,-0.00344
-7.904e-02,0.00088
-7.896e-02,-0.00112
-7.888e-02,-0.0008
-7.880e-02,0.00312
-7.872e-02,-0.00448
-7.864e-02,-8e-05
-7.856e-02,-0.00608
-7.848e-02,0.00152
-7.840e-02,0.00128
-7.832e-02,-0.00064
-7.824e-02,0.00552
-7.816e-02,-0.00224
-7.808e-02,0.0056
-7.800e-02,-0.00328
-7.792e-02,0.00128
-7.784e-02,0.00352
-7.776e-02,-0.00128
-7.768e-02,-0.00016
-7.760e-02,-0.00448
-7.752e-02,0.00192
-7.744e-02,-0.00344
-7.736e-02,0.00056
-7.728e-02,0.0024
-7.720e-02,-0.00256
-7.712e-02,0.006
-7.704e-02,-0.00248
-7.696e-02,0.00216
-7.688e-02,-0.00184
-7.680e-02,-0.004
-7.672e-02,-0.00112
-7.664e-02,-0.00416
-7.656e-02,0.00056
-7.648e-02,0.00088
-7.640e-02,0.00272
-7.632e-02,0.00024
-7.624e-02,0
-7.616e-02,-0.00016
-7.608e-02,-0.00224
-7.600e-02,0.0056
-7.592e-02,0.00168
-7.584e-02,0.00208
-7.576e-02,0.00272
-7.568e-02,-0.00256
-7.560e-02,0.00088
-7.552e-02,-0.0016
-7.544e-02,0.00672
-7.536e-02,0.00072
-7.528e-02,0.00264
-7.520e-02,0.00016
-7.512e-02,-0.00152
-7.504e-02,0.00584
-7.496e-02,-0.00408
-7.488e-02,0.00288
-7.480e-02,0.00104
-7.472e-02,0.00208
-7.464e-02,0.0024
-7.456e-02,-0.00184
-7.448e-02,0.00416
-7.440e-02,-0.00128
-7.432e-02,0.004
-7.424e-02,0.00088
-7.416e-02,0.00056
-7.408e-02,0.00592
-7.400e-02,-0.0036
-7.392e-02,0.00488
-7.384e-02,-0.00464
-7.376e-02,0.00224
-7.368e-02,0.00248
-7.360e-02,0.00128
-7.352e-02,0.0016
-7.344e-02,-0.00128
-7.336e-02,0.00088
-7.328e-02,-0.00584
-7.320e-02,0.0016
-7.312e-02,-0.00056
-7.304e-02,-0.00288
-7.296e-02,0.00472
-7.288e-02,-0.00808
-7.280e-02,0.00032
-7.272e-02,0.00088
-7.264e-02,0.0068
-7.256e-02,0.00016
-7.248e-02,-0.0016
-7.240e-02,0.0016
-7.232e-02,-0.00448
-7.224e-02,0.00472
-7.216e-02,-0.00208
-7.208e-02,-0.00272
-7.200e-02,0.0036
-7.192e-02,-0.00272
-7.184e-02,0.00512
-7.176e-02,-0.00104
-7.168e-02,-0.00144
-7.160e-02,0.00072
-7.152e-02,-0.00272
-7.144e-02,0.00312
-7.136e-02,-0.00048
-7.128e-02,0.00576
-7.120e-02,-8e-05
-7.112e-02,-0.00056
-7.104e-02,0.00104
-7.096e-02,-0.00392
-7.088e-02,0.00432
-7.080e-02,0.0008
-7.072e-02,-0.0016
-7.064e-02,0.0024
-7.056e-02,-0.00208
-7.048e-02,0.0036
-7.040e-02,-0.00168
-7.032e-02,0.00072
-7.024e-02,-0.00024
-7.016e-02,0.00296
-7.008e-02,-0.0016
-7.000e-02,0.00096
-6.992e-02,0.00304
-6.984e-02,-0.0008
-6.976e-02,0.00336
-6.968e-02,-0.00488
-6.960e-02,0.00176
-6.952e-02,-0.00128
-6.944e-02,-8e-05
-6.936e-02,0.00264
-6.928e-02,-0.00304
-6.920e-02,0.0008
-6.912e-02,-0.0028
-6.904e-02,0.00344
-6.896e-02,0.00512
-6.888e-02,0.0012
-6.880e-02,0.0024
-6.872e-02,-0.00504
-6.864e-02,0.00064
-6.856e-02,-0.00064
-6.848e-02,0.0032
-6.840e-02,-0.00192
-6.832e-02,-0.00448
-6.824e-02,0.00328
-6.816e-02,-0.00504
-6.808e-02,0.00544
-6.800e-02,0.00224
-6.792e-02,-0.00184
-6.784e-02,0.00288
-6.776e-02,-0.00472
-6.768e-02,0.00632
-6.760e-02,-0.002
-6.752e-02,0.00272
-6.744e-02,0.00472
-6.736e-02,-0.00592
-6.728e-02,0.00264
-6.720e-02,-0.00368
-6.712e-02,0.00304
-6.704e-02,0.00128
-6.696e-02,-0.00272
-6.688e-02,0.00376
-6.680e-02,-0.00624
-6.672e-02,0.00384
-6.664e-02,-0.0012
-6.656e-02,0.00048
-6.648e-02,-0.00064
-6.640e-02,-0.00272
-6.632e-02,0.00536
-6.624e-02,0.00248
-6.616e-02,0.00696
-6.608e-02,0.00552
-6.600e-02,-0.00248
-6.592e-02,0.00088
-6.584e-02,-0.00624
-6.576e-02,0.00064
-6.568e-02,-0.00048
-6.560e-02,0.00168
-6.552e-02,-0.0028
-6.544e-02,-0.00024
-6.536e-02,-0.00104
-6.528e-02,0.00152
-6.520e-02,0.00304
-6.512e-02,0.00136
-6.504e-02,0.00384
-6.496e-02,-0.00024
-6.488e-02,0.0024
-6.480e-02,-0.00016
-6.472e-02,0.00296
-6.464e-02,0.00328
-6.456e-02,-0.00648
-6.448e-02,0.0024
-6.440e-02,-0.00512
-6.432e-02,0.00376
-6.424e-02,0.00432
-6.416e-02,-0.00328
-6.408e-02,0.00072
-6.400e-02,-0.0052
-6.392e-02,0.004
-6.384e-02,-0.00176
-6.376e-02,-0.00288
-6.368e-02,0.00352
-6.360e-02,-0.0012
-6.352e-02,0.004
-6.344e-02,-0.0056
-6.336e-02,0.00448
-6.328e-02,0.00408
-6.320e-02,-0.00568
-6.312e-02,0.00168
-6.304e-02,-0.00816
-6.296e-02,0.00616
-6.288e-02,-0.00208
-6.280e-02,0.00376
-6.272e-02,0.00144
-6.264e-02,-0.00832
-6.256e-02,0.00472
-6.248e-02,-0.00352
-6.240e-02,0.0016
-6.232e-02,0.00472
-6.224e-02,-0.00328
-6.216e-02,0.00448
-6.208e-02,-0.00464
-6.200e-02,0.00576
-6.192e-02,0.00056
-6.184e-02,0.00096
-6.176e-02,0.00216
-6.168e-02,-0.00336
-6.160e-02,0.00432
-6.152e-02,-0.0004
-6.144e-02,-0.0008
-6.136e-02,-0.0012
-6.128e-02,0.00064
-6.120e-02,0.00504
-6.112e-02,-0.0028
-6.104e-02,-0.00056
-6.096e-02,-0.00408
-6.088e-02,0.0008
-6.080e-02,-0.00032
-6.072e-02,0.00288
-6.064e-02,0.00448
-6.056e-02,0.00272
-6.048e-02,0.00248
-6.040e-02,-0.00352
-6.032e-02,0.00328
-6.024e-02,-0.00392
-6.016e-02,0.00456
-6.008e-02,0.00016
-6.000e-02,-0.0028
-5.992e-02,0.0032
-5.984e-02,-0.00664
-5.976e-02,0.0008
-5.968e-02,-0.00184
-5.960e-02,0.00032
-5.952e-02,0.0072
-5.944e-02,0.0008
-5.936e-02,0.00128
-5.928e-02,-0.00816
-5.920e-02,0.00344
-5.912e-02,-0.00176
-5.904e-02,-0.00344
-5.896e-02,0.0024
-5.888e-02,-0.00856
-5.880e-02,0.00592
-5.872e-02,0.00064
-5.864e-02,-0.00248
-5.856e-02,0.00272
-5.848e-02,-0.00168
-5.840e-02,0.00568
-5.832e-02,-0.00424
-5.824e-02,0.00352
-5.816e-02,0.00104
-5.808e-02,-0.0024
-5.800e-02,0.0048
-5.792e-02,-0.00256
-5.784e-02,0.00832
-5.776e-02,0.00368
-5.768e-02,0.0032
-5.760e-02,0.00216
-5.752e-02,-0.00552
-5.744e-02,0.00536
-5.736e-02,-0.00584
-5.728e-02,-0.00096
-5.720e-02,-0.00072
-5.712e-02,0.00072
-5.704e-02,0.0032
-5.696e-02,-0.00304
-5.688e-02,0.00192
-5.680e-02,-0.00128
-5.672e-02,0.00016
-5.664e-02,0.00128
-5.656e-02,0.0004
-5.648e-02,0.00032
-5.640e-02,-0.0024
-5.632e-02,-0.00064
-5.624e-02,-0.00352
-5.616e-02,0.002
-5.608e-02,-0.00136
-5.600e-02,0.0028
-5.592e-02,0.00328
-5.584e-02,-0.0012
-5.576e-02,0.00496
-5.568e-02,-0.004
-5.560e-02,-0.0028
-5.552e-02,-0.00672
-5.544e-02,-0.00064
-5.536e-02,0.00216
-5.528e-02,-0.00264
-5.520e-02,0.00232
-5.512e-02,-0.00544
-5.504e-02,0.00416
-5.496e-02,-0.0016
-5.488e-02,0.00016
-5.480e-02,0.00424
-5.472e-02,-0.00264
-5.464e-02,0.0036
-5.456e-02,-0.00392
-5.448e-02,-0.00048
-5.440e-02,0.00296
-5.432e-02,-0.00264
-5.424e-02,0.00224
-5.416e-02,-0.00296
-5.408e-02,0.0036
-5.400e-02,0.00168
-5.392e-02,-0.00152
-5.384e-02,0.00304
-5.376e-02,-0.0048
-5.368e-02,0.00176
-5.360e-02,-0.00416
-5.352e-02,-0.00088
-5.344e-02,0.00224
-5.336e-02,-0.00128
-5.328e-02,0.00696
-5.320e-02,-0.00424
-5.312e-02,0.00424
-5.304e-02,0.00128
-5.296e-02,-0.00208
-5.288e-02,0.00496
-5.280e-02,-0.00744
-5.272e-02,0.00416
-5.264e-02,0.00072
-5.256e-02,-0.0012
-5.248e-02,0.00304
-5.240e-02,-0.00264
-5.232e-02,0.00152
-5.224e-02,-0.00504
-5.216e-02,0.00256
-5.208e-02,-0.00024
-5.200e-02,0.00064
-5.192e-02,-0.00216
-5.184e-02,-0.00024
-5.176e-02,0.00096
-5.168e-02,-0.00152
-5.160e-02,0.00288
-5.152e-02,-0.00384
-5.144e-02,0.00064
-5.136e-02,-0.00272
-5.128e-02,-0.00176
-5.120e-02,0.00088
-5.112e-02,-0.00248
-5.104e-02,0.00176
-5.096e-02,-0.00328
-5.088e-02,0.00032
-5.080e-02,-0.00064
-5.072e-02,-0.00288
-5.064e-02,0.0036
-5.056e-02,-0.00296
-5.048e-02,0.00328
-5.040e-02,-0.00128
-5.032e-02,0.00072
-5.024e-02,-0.00136
-5.016e-02,-0.00368
-5.008e-02,0.0012
-5.000e-02,-0.00344
-4.992e-02,0.0028
-4.984e-02,-0.0012
-4.976e-02,-0.00304
-4.968e-02,0.0008
-4.960e-02,-0.00568
-4.952e-02,0.00464
-4.944e-02,-0.0068
-4.936e-02,0.00488
-4.928e-02,0.00464
-4.920e-02,-0.0012
-4.912e-02,0.00352
-4.904e-02,-0.00512
-4.896e-02,0.0056
-4.888e-02,0.00072
-4.880e-02,0.00032
-4.872e-02,0.00512
-4.864e-02,-0.00256
-4.856e-02,0.00408
-4.848e-02,-0.00424
-4.840e-02,0.00336
-4.832e-02,0.00072
-4.824e-02,-0.00376
-4.816e-02,0.0068
-4.808e-02,-0.00736
-4.800e-02,0.002
-4.792e-02,-0.00384
-4.784e-02,0.00104
-4.776e-02,0.00328
-4.768e-02,-0.00408
-4.760e-02,-0.00056
-4.752e-02,-0.00544
-4.744e-02,0.00248
-4.736e-02,-0.00072
-4.728e-02,0.00032
-4.720e-02,-0.00128
-4.712e-02,-0.00336
-4.704e-02,0.00072
-4.696e-02,-0.00056
-4.688e-02,-0.00232
-4.680e-02,-0.00112
-4.672e-02,8e-05
-4.664e-02,-0.0016
-4.656e-02,-0.00328
-4.648e-02,0.0036
-4.640e-02,-0.00136
-4.632e-02,0.00224
-4.624e-02,-0.00176
-4.616e-02,0.00472
-4.608e-02,0.00032
-4.600e-02,-0.00288
-4.592e-02,0.0068
-4.584e-02,0.0004
-4.576e-02,0.00088
-4.568e-02,-0.00232
-4.560e-02,-0.0016
-4.552e-02,0.00304
-4.544e-02,-0.00104
-4.536e-02,0.00664
-4.528e-02,-0.0028
-4.520e-02,-0.00032
-4.512e-02,-0.00208
-4.504e-02,-0.00176
-4.496e-02,0.00528
-4.488e-02,-0.00424
-4.480e-02,0.00336
-4.472e-02,0
-4.464e-02,0.00056
-4.456e-02,0.00144
-4.448e-02,-0.00256
-4.440e-02,0.00568
-4.432e-02,-0.00312
-4.424e-02,0.00128
-4.416e-02,-0.0016
-4.408e-02,-0.00048
-4.400e-02,0.00496
-4.392e-02,-0.00472
-4.384e-02,0.00416
-4.376e-02,-0.00048
-4.368e-02,-0.00144
-4.360e-02,0.0024
-4.352e-02,-0.00208
-4.344e-02,0.0032
-4.336e-02,-0.00648
-4.328e-02,0.00128
-4.320e-02,-0.00392
-4.312e-02,0.00176
-4.304e-02,0.00312
-4.296e-02,-0.004
-4.288e-02,0.00248
-4.280e-02,0.00136
-4.272e-02,0.00416
-4.264e-02,-0.00784
-4.256e-02,-0.0016
-4.248e-02,-0.00104
-4.240e-02,-0.00088
-4.232e-02,0.00256
-4.224e-02,0.00024
-4.216e-02,0.00096
-4.208e-02,-0.00224
-4.200e-02,0.00192
-4.192e-02,-0.0016
-4.184e-02,-0.00136
-4.176e-02,0.00136
-4.168e-02,-0.00096
-4.160e-02,0.0016
-4.152e-02,-0.00272
-4.144e-02,-0.00208
-4.136e-02,0.00096
-4.128e-02,0.0012
-4.120e-02,0.00896
-4.112e-02,0.00048
-4.104e-02,0.0032
-4.096e-02,0.0016
-4.088e-02,0.00056
-4.080e-02,0.00624
-4.072e-02,-0.00416
-4.064e-02,0.00256
-4.056e-02,0.00152
-4.048e-02,0.00128
-4.040e-02,0.00288
-4.032e-02,0.00064
-4.024e-02,0.00832
-4.016e-02,-0.0044
-4.008e-02,0.00024
-4.000e-02,-0.00328
-3.992e-02,-0.00136
-3.984e-02,0.00112
-3.976e-02,-0.00416
-3.968e-02,0.00136
-3.960e-02,-0.0044
-3.952e-02,0.00216
-3.944e-02,0.0068
-3.936e-02,0.00032
-3.928e-02,0.00312
-3.920e-02,-0.00208
-3.912e-02,0.00128
-3.904e-02,-0.0024
-3.896e-02,-0.0004
-3.888e-02,0.00352
-3.880e-02,-0.00384
-3.872e-02,0.00208
-3.864e-02,-0.00744
-3.856e-02,0.00016
-3.848e-02,0.00112
-3.840e-02,0.0012
-3.832e-02,0.00184
-3.824e-02,-0.00352
-3.816e-02,0.0032
-3.808e-02,-0.00136
-3.800e-02,0.00016
-3.792e-02,0.00064
-3.784e-02,-0.00232
-3.776e-02,0.0008
-3.768e-02,-0.00504
-3.760e-02,0.00016
-3.752e-02,-0.00432
-3.744e-02,0.0036
-3.736e-02,0.0012
-3.728e-02,-0.00224
-3.720e-02,0.0008
-3.712e-02,0.00072
-3.704e-02,0.00264
-3.696e-02,-0.00144
-3.688e-02,-0.00048
-3.680e-02,0.00224
-3.672e-02,-0.00144
-3.664e-02,0.00632
-3.656e-02,-0.00016
-3.648e-02,0.00584
-3.640e-02,0.00304
-3.632e-02,0.00128
-3.624e-02,0.00288
-3.616e-02,-0.00416
-3.608e-02,0.00336
-3.600e-02,0.00336
-3.592e-02,0.00392
-3.584e-02,-0.00064
-3.576e-02,0.00248
-3.568e-02,0.00712
-3.560e-02,0.00248
-3.552e-02,0.00176
-3.544e-02,-0.00144
-3.536e-02,0.00416
-3.528e-02,0.00224
-3.520e-02,0.00184
-3.512e-02,0.00392
-3.504e-02,-0.00176
-3.496e-02,0.00048
-3.488e-02,-0.00576
-3.480e-02,0.0036
-3.472e-02,0.00208
-3.464e-02,0.00104
-3.456e-02,0.0024
-3.448e-02,-0.0024
-3.440e-02,0.00016
-3.432e-02,-0.00456
-3.424e-02,0.0032
-3.416e-02,0.00104
-3.408e-02,-0.00496
-3.400e-02,0.00384
-3.392e-02,-0.00264
-3.384e-02,0.00304
-3.376e-02,-0.00032
-3.368e-02,0.0016
-3.360e-02,0.004
-3.352e-02,-0.00504
-3.344e-02,0.0004
-3.336e-02,-0.0036
-3.328e-02,0.0016
-3.320e-02,0.00288
-3.312e-02,-0.0012
-3.304e-02,0.00592
-3.296e-02,-0.00032
-3.288e-02,0.00704
-3.280e-02,-0.00264
-3.272e-02,-0.00056
-3.264e-02,0.00752
-3.256e-02,-0.00456
-3.248e-02,0.00488
-3.240e-02,-0.00256
-3.232e-02,0.00328
-3.224e-02,0.0012
-3.216e-02,0
-3.208e-02,0.00224
-3.200e-02,-0.00096
-3.192e-02,0.00704
-3.184e-02,0.00296
-3.176e-02,0.00192
-3.168e-02,0.00176
-3.160e-02,-0.00152
-3.152e-02,0.00256
-3.144e-02,-0.00192
-3.136e-02,0.00328
-3.128e-02,-0.00304
-3.120e-02,0.0028
-3.112e-02,0.0008
-3.104e-02,0.00048
-3.096e-02,8e-05
-3.088e-02,0.00104
-3.080e-02,0.0036
-3.072e-02,-0.00304
-3.064e-02,0.0012
-3.056e-02,-0.0004
-3.048e-02,-0.00032
-3.040e-02,0.00144
-3.032e-02,-0.00736
-3.024e-02,0.00272
-3.016e-02,-0.00304
-3.008e-02,0.00352
-3.000e-02,-0.00064
-2.992e-02,-0.00176
-2.984e-02,0.00304
-2.976e-02,-0.0056
-2.968e-02,0.0036
-2.960e-02,0
-2.952e-02,0.00024
-2.944e-02,0.00128
-2.936e-02,-0.00472
-2.928e-02,0.00344
-2.920e-02,-0.00328
-2.912e-02,0.00048
-2.904e-02,0.0024
-2.896e-02,-0.0028
-2.888e-02,0.0052
-2.880e-02,-0.00608
-2.872e-02,0.00584
-2.864e-02,-0.00016
-2.856e-02,-0.00432
-2.848e-02,0.00232
-2.840e-02,-0.0064
-2.832e-02,0.00584
-2.824e-02,-0.00112
-2.816e-02,0.00128
-2.808e-02,0.00312
-2.800e-02,-0.0016
-2.792e-02,0.00104
-2.784e-02,-0.00464
-2.776e-02,0.00528
-2.768e-02,-0.00064
-2.760e-02,0.00032
-2.752e-02,0.0012
-2.744e-02,-0.00544
-2.736e-02,0.00472
-2.728e-02,0.00072
-2.720e-02,0.00072
-2.712e-02,-0.00024
-2.704e-02,-0.00128
-2.696e-02,0.00288
-2.688e-02,-0.0056
-2.680e-02,0.00408
-2.672e-02,-0.00296
-2.664e-02,0.0012
-2.656e-02,-0.00192
-2.648e-02,-0.00024
-2.640e-02,0.00104
-2.632e-02,0.00264
-2.624e-02,0.00272
-2.616e-02,-0.00352
-2.608e-02,0.00136
-2.600e-02,-0.00392
-2.592e-02,-0.00064
-2.584e-02,0.00088
-2.576e-02,-0.00224
-2.568e-02,0.00216
-2.560e-02,-0.00616
-2.552e-02,0.00144
-2.544e-02,-0.00056
-2.536e-02,0.00464
-2.528e-02,0.00504
-2.520e-02,-0.00368
-2.512e-02,0.00216
-2.504e-02,-0.00544
-2.496e-02,0.00288
-2.488e-02,0.0004
-2.480e-02,-0.004
-2.472e-02,0.00552
-2.464e-02,-0.00808
-2.456e-02,0.00608
-2.448e-02,-0.00288
-2.440e-02,-0.00072
-2.432e-02,0.00328
-2.424e-02,-0.00264
-2.416e-02,0.00288
-2.408e-02,-0.00456
-2.400e-02,0.00072
-2.392e-02,0.00064
-2.384e-02,-0.00496
-2.376e-02,0.0052
-2.368e-02,-0.00576
-2.360e-02,0.00528
-2.352e-02,0.00096
-2.344e-02,-0.00472
-2.336e-02,0.00216
-2.328e-02,-0.00264
-2.320e-02,0.00288
-2.312e-02,-0.00192
-2.304e-02,-0.0008
-2.296e-02,0.00136
-2.288e-02,0.00288
-2.280e-02,0.00416
-2.272e-02,-0.00656
-2.264e-02,-0.00136
-2.256e-02,0.00128
-2.248e-02,0.00264
-2.240e-02,-0.00128
-2.232e-02,-0.00136
-2.224e-02,0.0052
-2.216e-02,0.00072
-2.208e-02,0.00312
-2.200e-02,-8e-05
-2.192e-02,-0.00112
-2.184e-02,0.00024
-2.176e-02,-0.00296
-2.168e-02,0.00224
-2.160e-02,0.00288
-2.152e-02,0.0036
-2.144e-02,-0.00464
-2.136e-02,0.00168
-2.128e-02,-0.00328
-2.120e-02,0.00072
-2.112e-02,0.00088
-2.104e-02,-0.00088
-2.096e-02,0.00296
-2.088e-02,-0.00568
-2.080e-02,0.00416
-2.072e-02,-0.00096
-2.064e-02,-0.00288
-2.056e-02,0.00384
-2.048e-02,-0.00392
-2.040e-02,0.00072
-2.032e-02,-0.00712
-2.024e-02,8e-05
-2.016e-02,0.00088
-2.008e-02,-0.00024
-2.000e-02,0.00632
-1.992e-02,-0.00464
-1.984e-02,0.00192
-1.976e-02,8e-05
-1.968e-02,0.00016
-1.960e-02,0.0052
-1.952e-02,-0.00648
-1.944e-02,0.00528
-1.936e-02,-0.00512
-1.928e-02,-8e-05
-1.920e-02,0.00336
-1.912e-02,-0.00184
-1.904e-02,0.00384
-1.896e-02,-0.00904
-1.888e-02,0.00528
-1.880e-02,0.0028
-1.872e-02,0.00032
-1.864e-02,0.00152
-1.856e-02,-0.0068
-1.848e-02,0.00496
-1.840e-02,0.00056
-1.832e-02,-8e-05
-1.824e-02,0
-1.816e-02,-0.00376
-1.808e-02,0.00144
-1.800e-02,-0.004
-1.792e-02,0.00512
-1.784e-02,0.00096
-1.776e-02,0.00104
-1.768e-02,0.00248
-1.760e-02,-0.0012
-1.752e-02,-0.00192
-1.744e-02,-0.00144
-1.736e-02,-0.0016
-1.728e-02,-0.00272
-1.720e-02,0.00128
-1.712e-02,-0.00032
-1.704e-02,-0.00088
-1.696e-02,0.0008
-1.688e-02,-0.00368
-1.680e-02,0.0028
-1.672e-02,-0.00016
-1.664e-02,-0.00256
-1.656e-02,-0.00112
-1.648e-02,0.00048
-1.640e-02,8e-05
-1.632e-02,-0.00424
-1.624e-02,-0.0004
-1.616e-02,-0.00784
-1.608e-02,-0.00184
-1.600e-02,0.00152
-1.592e-02,-0.00112
-1.584e-02,0.00424
-1.576e-02,-0.00072
-1.568e-02,0.00224
-1.560e-02,-0.00184
-1.552e-02,-0.00328
-1.544e-02,0.00128
-1.536e-02,-0.00168
-1.528e-02,0.00344
-1.520e-02,-0.00208
-1.512e-02,0.00288
-1.504e-02,0.00184
-1.496e-02,-0.0036
-1.488e-02,0.00488
-1.480e-02,-0.00448
-1.472e-02,0.00464
-1.464e-02,-0.00032
-1.456e-02,0.00032
-1.448e-02,0.00288
-1.440e-02,-0.00624
-1.432e-02,0.00648
-1.424e-02,-0.00368
-1.416e-02,0.00392
-1.408e-02,0.00256
-1.400e-02,0.00032
-1.392e-02,0.00552
-1.384e-02,-0.00464
-1.376e-02,0.004
-1.368e-02,-0.00208
-1.360e-02,0.00064
-1.352e-02,0.00576
-1.344e-02,-0.00096
-1.336e-02,0.00216
-1.328e-02,-0.0056
-1.320e-02,0.0016
-1.312e-02,-0.00256
-1.304e-02,-8e-05
-1.296e-02,0.00136
-1.288e-02,-0.00336
-1.280e-02,-0.0064
-1.272e-02,-0.0056
-1.264e-02,0.00312
-1.256e-02,0.00072
-1.248e-02,-0.00072
-1.240e-02,-0.00152
-1.232e-02,-0.00304
-1.224e-02,0.00248
-1.216e-02,-0.00152
-1.208e-02,0.00176
-1.200e-02,-0.00384
-1.192e-02,-0.00144
-1.184e-02,0.00168
-1.176e-02,0.002
-1.168e-02,0.00512
-1.160e-02,8e-05
-1.152e-02,0.00352
-1.144e-02,-0.00536
-1.136e-02,0.00256
-1.128e-02,0.00216
-1.120e-02,-0.0012
-1.112e-02,0.00472
-1.104e-02,-0.00384
-1.096e-02,0.00032
-1.088e-02,0.00048
-1.080e-02,-0.00256
-1.072e-02,0.0044
-1.064e-02,-0.002
-1.056e-02,0.00432
-1.048e-02,0.00136
-1.040e-02,-0.00136
-1.032e-02,0.00136
-1.024e-02,-0.00312
-1.016e-02,0.00392
-1.008e-02,-0.00472
-1.000e-02,-0.00016
-9.920e-03,-0.00152
-9.840e-03,-0.00264
-9.760e-03,0.00608
-9.680e-03,-0.00128
-9.600e-03,0.00208
-9.520e-03,-0.00328
-9.440e-03,-0.0032
-9.360e-03,0.0056
-9.280e-03,0.00176
-9.200e-03,0.00768
-9.120e-03,-0.00656
-9.040e-03,0.00408
-8.960e-03,0.00024
-8.880e-03,0.0016
-8.800e-03,0.00608
-8.720e-03,0.00056
-8.640e-03,0.00616
-8.560e-03,-0.00448
-8.480e-03,8e-05
-8.400e-03,-0.00072
-8.320e-03,-0.00424
-8.240e-03,-0.00168
-8.160e-03,-0.00608
-8.080e-03,0.00264
-8.000e-03,-0.0032
-7.920e-03,-0.00048
-7.840e-03,0.00024
-7.760e-03,-0.00056
-7.680e-03,0.00192
-7.600e-03,-0.00024
-7.520e-03,0.0012
-7.440e-03,-0.0028
-7.360e-03,0.00368
-7.280e-03,0.00096
-7.200e-03,-0.00544
-7.120e-03,0.00048
-7.040e-03,-0.00056
-6.960e-03,0.00336
-6.880e-03,0.00136
-6.800e-03,-0.0004
-6.720e-03,0
-6.640e-03,-0.00272
-6.560e-03,0.0036
-6.480e-03,-0.00192
-6.400e-03,-0.0008
-6.320e-03,-0.00352
-6.240e-03,-0.00192
-6.160e-03,0.00288
-6.080e-03,-0.00128
-6.000e-03,0.00648
-5.920e-03,-0.00144
-5.840e-03,0.00224
-5.760e-03,-0.00392
-5.680e-03,0.00232
-5.600e-03,0.00352
-5.520e-03,-0.00584
-5.440e-03,0.00352
-5.360e-03,-0.00464
-5.280e-03,0.00024
-5.200e-03,0.00016
-5.120e-03,-0.00232
-5.040e-03,0.00808
-4.960e-03,-0.00432
-4.880e-03,0.00664
-4.800e-03,-0.00328
-4.720e-03,-0.00128
-4.640e-03,0.0044
-4.560e-03,-0.00208
-4.480e-03,0.0056
-4.400e-03,-0.00464
-4.320e-03,0.00424
-4.240e-03,-0.00152
-4.160e-03,0.00216
-4.080e-03,0.00184
-4.000e-03,0.00168
-3.920e-03,0.00168
-3.840e-03,-0.00128
-3.760e-03,-0.00104
-3.680e-03,-0.00088
-3.600e-03,-0.00112
-3.520e-03,0.00192
-3.440e-03,-0.00136
-3.360e-03,0.00224
-3.280e-03,-0.0016
-3.200e-03,0.002
-3.120e-03,0.00088
-3.040e-03,-0.00264
-2.960e-03,0.00392
-2.880e-03,-0.00128
-2.800e-03,0.00672
-2.720e-03,-0.00408
-2.640e-03,-0.00528
-2.560e-03,-0.00088
-2.480e-03,-0.00152
-2.400e-03,0.00184
-2.320e-03,-0.00064
-2.240e-03,0.00632
-2.160e-03,-0.0004
-2.080e-03,-0.00304
-2.000e-03,-0.00264
-1.920e-03,-0.0012
-1.840e-03,0.00528
-1.760e-03,8e-05
-1.680e-03,0.00016
-1.600e-03,-0.00416
-1.520e-03,0.00088
-1.440e-03,0.00128
-1.360e-03,0.00128
-1.280e-03,0.0056
-1.200e-03,0.00048
-1.120e-03,0.00072
-1.040e-03,0.00432
-9.600e-04,-0.00064
-8.800e-04,0.00616
-8.000e-04,-0.00064
-7.200e-04,0.002
-6.400e-04,-0.00408
-5.600e-04,0.0032
-4.800e-04,0.00384
-4.000e-04,0.0016
-3.200e-04,0.0068
-2.400e-04,-0.00448
-1.600e-04,0.0028
-8.000e-05,-0.00264
-1.896e-15,0.00176
8.000e-05,-0.00032
1.600e-04,-0.00384
2.400e-04,0.00384
3.200e-04,-0.00616
4.000e-04,0.00144
4.800e-04,0.0024
5.600e-04,0.0084
6.400e-04,0.00088
7.200e-04,-0.00712
8.000e-04,0.0028
8.800e-04,-0.00208
9.600e-04,0.00136
1.040e-03,-0.00112
1.120e-03,-0.006
1.200e-03,0.00088
1.280e-03,-0.0028
1.360e-03,0.0012
1.440e-03,0.00088
1.520e-03,0.00608
1.600e-03,0.00448
1.680e-03,-0.00344
1.760e-03,0.00128
1.840e-03,-0.00176
1.920e-03,0.00288
2.000e-03,0.00248
2.080e-03,-0.00152
2.160e-03,0.00416
