data/PSU_noise/PSU1_CV1_100A_1ms.CSV

Model,TBS1102C
Firmware Version,v2015-08-04-prequal4ch70_v1.3

Point Format,Y
Horizontal Units,S
Horizontal Scale,0.001
Sample Interval,8e-06
Filter Frequency,2e+08
Record Length,2000
Gating,0.0% to 100.0%
Probe Attenuation,1
Vertical Units,V
Vertical Offset,0
Vertical Scale,0.002
Label,
TIME,CH1
-8.000e-03,-0.00016
-7.992e-03,-0.00096
-7.984e-03,0.00136
-7.976e-03,0.00168
-7.968e-03,0.00216
-7.960e-03,0.0068
-7.952e-03,0.00208
-7.944e-03,-0.00144
-7.936e-03,-0.00024
-7.928e-03,-0.00336
-7.920e-03,-0.00232
-7.912e-03,-0.00288
-7.904e-03,-0.00392
-7.896e-03,-0.00168
-7.888e-03,-0.00168
-7.880e-03,0.0016
-7.872e-03,0.00392
-7.864e-03,0.00088
-7.856e-03,0.00304
-7.848e-03,0.00392
-7.840e-03,0.00672
-7.832e-03,0.00768
-7.824e-03,0.00192
-7.816e-03,0.00016
-7.808e-03,-0.00328
-7.800e-03,-0.00288
-7.792e-03,0.0008
-7.784e-03,-0.00016
-7.776e-03,-0.00064
-7.768e-03,-0.00024
-7.760e-03,0.0012
-7.752e-03,0.004
-7.744e-03,0.00128
-7.736e-03,0.0008
-7.728e-03,0.00208
-7.720e-03,0.00376
-7.712e-03,0.0072
-7.704e-03,0.00448
-7.696e-03,0.00216
-7.688e-03,0.00392
-7.680e-03,0.00352
-7.672e-03,0.006
-7.664e-03,0.00312
-7.656e-03,-0.00104
-7.648e-03,-0.00128
-7.640e-03,-0.00272
-7.632e-03,0.00024
-7.624e-03,0.0032
-7.616e-03,0.00016
-7.608e-03,0.00216
-7.600e-03,0.00328
-7.592e-03,0.00544
-7.584e-03,0.00536
-7.576e-03,0.00232
-7.568e-03,0.00272
-7.560e-03,0.00344
-7.552e-03,0.00376
-7.544e-03,0.00336
-7.536e-03,-0.00256
-7.528e-03,-0.00272
-7.520e-03,-0.0016
-7.512e-03,-0.00056
-7.504e-03,0.00064
-7.496e-03,-0.0016
-7.488e-03,-0.00168
-7.480e-03,-0.00048
-7.472e-03,-0.00272
-7.464e-03,-0.00056
-7.456e-03,8e-05
-7.448e-03,-0.0004
-7.440e-03,-8e-05
-7.432e-03,-0.00144
-7.424e-03,0.00224
-7.416e-03,0.00168
-7.408e-03,-0.00016
-7.400e-03,0.0008
-7.392e-03,-0.00088
-7.384e-03,0.00128
-7.376e-03,0.00088
-7.368e-03,-0.00136
-7.360e-03,0.00136
-7.352e-03,0.00176
-7.344e-03,0.00136
-7.336e-03,0.00296
-7.328e-03,-0.0004
-7.320e-03,-0.00064
-7.312e-03,-0.00144
-7.304e-03,-0.00248
-7.296e-03,-0.00168
-7.288e-03,-0.00464
-7.280e-03,-0.00304
-7.272e-03,-0.00248
-7.264e-03,-0.00192
-7.256e-03,-0.0004
-7.248e-03,-0.00232
-7.240e-03,0.0004
-7.232e-03,0.00256
-7.224e-03,0.00072
-7.216e-03,0.00304
-7.208e-03,0.00264
-7.200e-03,0.00272
-7.192e-03,0.00336
-7.184e-03,0.00152
-7.176e-03,0.00208
-7.168e-03,0.0004
-7.160e-03,-0.00216
-7.152e-03,-0.00072
-7.144e-03,-0.00248
-7.136e-03,-0.00144
-7.128e-03,0.0004
-7.120e-03,-0.00248
-7.112e-03,-0.00168
-7.104e-03,-0.00304
-7.096e-03,0.00016
-7.088e-03,0.00168
-7.080e-03,-0.0024
-7.072e-03,8e-05
-7.064e-03,-8e-05
-7.056e-03,-0.00072
-7.048e-03,0.00144
-7.040e-03,0.00136
-7.032e-03,0.004
-7.024e-03,0.00544
-7.016e-03,0.0036
-7.008e-03,0.00496
-7.000e-03,0.00128
-6.992e-03,0.00096
-6.984e-03,0.00368
-6.976e-03,0.00248
-6.968e-03,0.00512
-6.960e-03,0.00368
-6.952e-03,-0.00016
-6.944e-03,-0.00048
-6.936e-03,-0.0036
-6.928e-03,-0.00136
-6.920e-03,-0.0012
-6.912e-03,-0.00432
-6.904e-03,-0.00408
-6.896e-03,-0.0052
-6.888e-03,-0.00168
-6.880e-03,-0.00032
-6.872e-03,-0.00432
-6.864e-03,-0.00024
-6.856e-03,0.0008
-6.848e-03,0.00072
-6.840e-03,0.00096
-6.832e-03,-0.00088
-6.824e-03,0.0024
-6.816e-03,0.00088
-6.808e-03,8e-05
-6.800e-03,0.00088
-6.792e-03,-0.0016
-6.784e-03,-0.00184
-6.776e-03,-0.00056
-6.768e-03,-0.00032
-6.760e-03,0.00296
-6.752e-03,0.00088
-6.744e-03,-0.00072
-6.736e-03,0.00024
-6.728e-03,-0.00144
-6.720e-03,8e-05
-6.712e-03,0.00032
-6.704e-03,-0.00072
-6.696e-03,0.00232
-6.688e-03,0.00088
-6.680e-03,0.00384
-6.672e-03,0.00344
-6.664e-03,0.002
-6.656e-03,0.0028
-6.648e-03,0.00072
-6.640e-03,0.0008
-6.632e-03,0.00288
-6.624e-03,0
-6.616e-03,-0.00088
-6.608e-03,-0.00224
-6.600e-03,-0.0012
-6.592e-03,0.00048
-6.584e-03,-0.00192
-6.576e-03,-8e-05
-6.568e-03,0.0024
-6.560e-03,0.00064
-6.552e-03,0.00344
-6.544e-03,0.00208
-6.536e-03,0.00344
-6.528e-03,0.00416
-6.520e-03,0.00368
-6.512e-03,0.00576
-6.504e-03,0.00328
-6.496e-03,0.0016
-6.488e-03,0.00144
-6.480e-03,-0.00072
-6.472e-03,0.0012
-6.464e-03,-0.00088
-6.456e-03,-0.00568
-6.448e-03,-0.0032
-6.440e-03,-0.00296
-6.432e-03,-0.00112
-6.424e-03,-0.00112
-6.416e-03,-0.00216
-6.408e-03,0.00088
-6.400e-03,-0.00016
-6.392e-03,0.0008
-6.384e-03,0.00304
-6.376e-03,0.00088
-6.368e-03,0.00216
-6.360e-03,0.00096
-6.352e-03,0.0024
-6.344e-03,0.0044
-6.336e-03,0.00184
-6.328e-03,0.00144
-6.320e-03,-8e-05
-6.312e-03,-0.00168
-6.304e-03,0.00144
-6.296e-03,0
-6.288e-03,-0.00032
-6.280e-03,0.00096
-6.272e-03,0.0012
-6.264e-03,0.00552
-6.256e-03,0.00392
-6.248e-03,0.00248
-6.240e-03,0.00368
-6.232e-03,0.00128
-6.224e-03,0.00232
-6.216e-03,0.00112
-6.208e-03,-0.00168
-6.200e-03,-0.0016
-6.192e-03,-0.00344
-6.184e-03,-0.002
-6.176e-03,-0.00064
-6.168e-03,-0.00304
-6.160e-03,-0.00064
-6.152e-03,-0.00168
-6.144e-03,-0.002
-6.136e-03,0
-6.128e-03,-0.00104
-6.120e-03,0.00072
-6.112e-03,0
-6.104e-03,-0.00072
-6.096e-03,0.00184
-6.088e-03,0.00016
-6.080e-03,0.0008
-6.072e-03,0.0008
-6.064e-03,0.00016
-6.056e-03,0.00376
-6.048e-03,8e-05
-6.040e-03,-0.0028
-6.032e-03,-0.00152
-6.024e-03,8e-05
-6.016e-03,0.00344
-6.008e-03,0.00176
-6.000e-03,-0.0012
-5.992e-03,-0.00184
-5.984e-03,-0.00344
-5.976e-03,0.00048
-5.968e-03,0.00056
-5.960e-03,-0.00376
-5.952e-03,8e-05
-5.944e-03,0
-5.936e-03,0.00144
-5.928e-03,0.0024
-5.920e-03,8e-05
-5.912e-03,0.00112
-5.904e-03,-0.00128
-5.896e-03,-0.0028
-5.888e-03,-0.00072
-5.880e-03,-0.00216
-5.872e-03,-0.00336
-5.864e-03,-0.00232
-5.856e-03,-0.00056
-5.848e-03,0.00104
-5.840e-03,-0.00408
-5.832e-03,-0.00496
-5.824e-03,-0.00272
-5.816e-03,-0.00168
-5.808e-03,0.00224
-5.800e-03,0.00112
-5.792e-03,-0.0008
-5.784e-03,-0.00144
-5.776e-03,-0.0012
-5.768e-03,0.0004
-5.760e-03,-0.00016
-5.752e-03,-0.00152
-5.744e-03,0.00128
-5.736e-03,0.00056
-5.728e-03,0.00192
-5.720e-03,0.00176
-5.712e-03,-0.00184
-5.704e-03,-0.00176
-5.696e-03,-0.00352
-5.688e-03,-0.00096
-5.680e-03,-0.00032
-5.672e-03,-0.00352
-5.664e-03,-0.00248
-5.656e-03,-0.00192
-5.648e-03,-0.00112
-5.640e-03,0.00224
-5.632e-03,0.00064
-5.624e-03,0.0008
-5.616e-03,-0.00024
-5.608e-03,-0.00232
-5.600e-03,0.00032
-5.592e-03,-0.00152
-5.584e-03,-0.00168
-5.576e-03,-0.0004
-5.568e-03,-0.00184
-5.560e-03,-0.00072
-5.552e-03,-8e-05
-5.544e-03,-0.00024
-5.536e-03,0.00088
-5.528e-03,8e-05
-5.520e-03,0.00376
-5.512e-03,0.00256
-5.504e-03,-0.0004
-5.496e-03,0.00056
-5.488e-03,-0.00216
-5.480e-03,-0.00024
-5.472e-03,-0.00064
-5.464e-03,-0.00312
-5.456e-03,-0.00144
-5.448e-03,-0.00264
-5.440e-03,-0.00152
-5.432e-03,0.00208
-5.424e-03,0.00016
-5.416e-03,0.00088
-5.408e-03,-0.00024
-5.400e-03,-0.00056
-5.392e-03,0.00216
-5.384e-03,-0.00064
-5.376e-03,0.0004
-5.368e-03,-0.00088
-5.360e-03,-0.00208
-5.352e-03,0.00328
-5.344e-03,0.00088
-5.336e-03,-0.00048
-5.328e-03,0.00104
-5.320e-03,0.00072
-5.312e-03,0.00328
-5.304e-03,0.00096
-5.296e-03,-0.002
-5.288e-03,-0.00048
-5.280e-03,-0.00288
-5.272e-03,-0.00104
-5.264e-03,-0.00016
-5.256e-03,-0.00072
-5.248e-03,0.0012
-5.240e-03,-8e-05
-5.232e-03,0.0012
-5.224e-03,0.00296
-5.216e-03,-0.00184
-5.208e-03,-0.0008
-5.200e-03,-0.0016
-5.192e-03,-0.0024
-5.184e-03,0.0012
-5.176e-03,-0.00016
-5.168e-03,0.0008
-5.160e-03,0.00248
-5.152e-03,0.00232
-5.144e-03,0.00472
-5.136e-03,0.00024
-5.128e-03,0.00072
-5.120e-03,0.00104
-5.112e-03,0.00152
-5.104e-03,0.00456
-5.096e-03,0.00096
-5.088e-03,-0.0016
-5.080e-03,0.00016
-5.072e-03,-0.002
-5.064e-03,-0.00288
-5.056e-03,-0.00384
-5.048e-03,-0.00248
-5.040e-03,-0.00144
-5.032e-03,-0.00056
-5.024e-03,0.00392
-5.016e-03,0.00608
-5.008e-03,0.00248
-5.000e-03,0.00256
-4.992e-03,0.00024
-4.984e-03,0.00024
-4.976e-03,0.00136
-4.968e-03,-0.00304
-4.960e-03,-0.0044
-4.952e-03,-0.00552
-4.944e-03,-0.00304
-4.936e-03,-0.0012
-4.928e-03,-0.00328
-4.920e-03,-0.00064
-4.912e-03,0.00056
-4.904e-03,0.0004
-4.896e-03,0.00304
-4.888e-03,0.00064
-4.880e-03,0.00152
-4.872e-03,0.0036
-4.864e-03,0.00064
-4.856e-03,0.00032
-4.848e-03,-0.00304
-4.840e-03,-0.00352
-4.832e-03,-0.0016
-4.824e-03,-0.00176
-4.816e-03,0.00224
-4.808e-03,0.004
-4.800e-03,0.0032
-4.792e-03,0.00272
-4.784e-03,-0.00096
-4.776e-03,0.00064
-4.768e-03,-0.00024
-4.760e-03,-0.00488
-4.752e-03,-0.00376
-4.744e-03,-0.00448
-4.736e-03,-0.00232
-4.728e-03,-0.00096
-4.720e-03,-0.00192
-4.712e-03,-0.00248
-4.704e-03,-0.00168
-4.696e-03,0.00072
-4.688e-03,0.00256
-4.680e-03,0.00112
-4.672e-03,0.00456
-4.664e-03,0.0056
-4.656e-03,0.00464
-4.648e-03,0.0064
-4.640e-03,0.00136
-4.632e-03,-0.00072
-4.624e-03,-0.00016
-4.616e-03,-0.00256
-4.608e-03,-0.00072
-4.600e-03,0.00064
-4.592e-03,-0.00176
-4.584e-03,8e-05
-4.576e-03,0.00064
-4.568e-03,0.00448
-4.560e-03,0.0044
-4.552e-03,0.00128
-4.544e-03,0.00272
-4.536e-03,0.00064
-4.528e-03,0.00296
-4.520e-03,0.004
-4.512e-03,0.00112
-4.504e-03,-0.00096
-4.496e-03,-0.00424
-4.488e-03,-0.00496
-4.480e-03,-0.00176
-4.472e-03,-0.00304
-4.464e-03,-0.00192
-4.456e-03,8e-05
-4.448e-03,0.0004
-4.440e-03,0.0024
-4.432e-03,0.00016
-4.424e-03,0.00312
-4.416e-03,0.00368
-4.408e-03,0.00216
-4.400e-03,0.00392
-4.392e-03,0.00152
-4.384e-03,0
-4.376e-03,0.00032
-4.368e-03,-0.00184
-4.360e-03,-0.0004
-4.352e-03,-0.00312
-4.344e-03,-0.00264
-4.336e-03,0.0016
-4.328e-03,0.00192
-4.320e-03,0.00336
-4.312e-03,0.00296
-4.304e-03,0.00248
-4.296e-03,0.0032
-4.288e-03,0.0004
-4.280e-03,0.00192
-4.272e-03,0.00448
-4.264e-03,0.00248
-4.256e-03,0.00296
-4.248e-03,0.00032
-4.240e-03,0.00032
-4.232e-03,0.00136
-4.224e-03,-0.00072
-4.216e-03,-0.00064
-4.208e-03,-0.0016
-4.200e-03,-0.0012
-4.192e-03,0.00264
-4.184e-03,-0.00256
-4.176e-03,-0.00056
-4.168e-03,0.00312
-4.160e-03,0.00112
-4.152e-03,0.00224
-4.144e-03,0.0016
-4.136e-03,-0.00016
-4.128e-03,8e-05
-4.120e-03,-0.00048
-4.112e-03,0.00248
-4.104e-03,0.0012
-4.096e-03,-0.00184
-4.088e-03,-0.00136
-4.080e-03,-0.00168
-4.072e-03,0.00168
-4.064e-03,0.00272
-4.056e-03,0.00128
-4.048e-03,0.00272
-4.040e-03,0.00048
-4.032e-03,-0.00032
-4.024e-03,0.00192
-4.016e-03,-0.00048
-4.008e-03,-0.00128
-4.000e-03,-0.00136
-3.992e-03,0
-3.984e-03,0.00144
-3.976e-03,0.00064
-3.968e-03,8e-05
-3.960e-03,-0.00072
-3.952e-03,-0.00064
-3.944e-03,0.0028
-3.936e-03,0.0004
-3.928e-03,-8e-05
-3.920e-03,0.00032
-3.912e-03,-0.00016
-3.904e-03,0.00472
-3.896e-03,0.00456
-3.888e-03,0.00416
-3.880e-03,0.0036
-3.872e-03,0.00056
-3.864e-03,0.0036
-3.856e-03,0.00184
-3.848e-03,-0.00152
-3.840e-03,-0.0008
-3.832e-03,-0.00056
-3.824e-03,0.00256
-3.816e-03,0.00192
-3.808e-03,-0.00128
-3.800e-03,0.00056
-3.792e-03,0.00096
-3.784e-03,0.00208
-3.776e-03,0.00144
-3.768e-03,0.00016
-3.760e-03,0.00016
-3.752e-03,-0.00088
-3.744e-03,-0.00016
-3.736e-03,0.004
-3.728e-03,0.00224
-3.720e-03,0.00184
-3.712e-03,0.00096
-3.704e-03,0.002
-3.696e-03,0.006
-3.688e-03,0.00216
-3.680e-03,-8e-05
-3.672e-03,0.0008
-3.664e-03,-0.00128
-3.656e-03,-0.00152
-3.648e-03,-0.00464
-3.640e-03,-0.00616
-3.632e-03,-0.00296
-3.624e-03,-0.00344
-3.616e-03,-0.0024
-3.608e-03,-0.00104
-3.600e-03,-0.00112
-3.592e-03,0.0024
-3.584e-03,0.002
-3.576e-03,0.0036
-3.568e-03,0.00552
-3.560e-03,0.00272
-3.552e-03,0.00192
-3.544e-03,0.00248
-3.536e-03,0.00448
-3.528e-03,0.00488
-3.520e-03,0.00128
-3.512e-03,0.0024
-3.504e-03,-0.00024
-3.496e-03,-0.00064
-3.488e-03,0.00136
-3.480e-03,-0.00208
-3.472e-03,-0.00288
-3.464e-03,-0.00416
-3.456e-03,-0.00432
-3.448e-03,-0.00072
-3.440e-03,-0.0036
-3.432e-03,-0.0056
-3.424e-03,-0.004
-3.416e-03,-0.00336
-3.408e-03,0.00304
-3.400e-03,0.00296
-3.392e-03,0.00024
-3.384e-03,0.00152
-3.376e-03,0.0024
-3.368e-03,0.00336
-3.360e-03,0.00256
-3.352e-03,0.0024
-3.344e-03,0.0024
-3.336e-03,-0.00112
-3.328e-03,-0.00064
-3.320e-03,0.00128
-3.312e-03,-0.00064
-3.304e-03,0.00064
-3.296e-03,-0.00072
-3.288e-03,-0.00016
-3.280e-03,0.00256
-3.272e-03,0.00072
-3.264e-03,-0.00048
-3.256e-03,-0.00344
-3.248e-03,-0.00488
-3.240e-03,-0.00208
-3.232e-03,-0.00384
-3.224e-03,-0.00248
-3.216e-03,0.00096
-3.208e-03,0.00232
-3.200e-03,0.00552
-3.192e-03,0.0004
-3.184e-03,-0.0024
-3.176e-03,-0.0008
-3.168e-03,-0.00096
-3.160e-03,0.00104
-3.152e-03,-0.00216
-3.144e-03,-0.00624
-3.136e-03,-0.00392
-3.128e-03,-0.00456
-3.120e-03,-0.00128
-3.112e-03,-0.00072
-3.104e-03,-0.00088
-3.096e-03,0.00528
-3.088e-03,0.006
-3.080e-03,0.00736
-3.072e-03,0.0076
-3.064e-03,0.00368
-3.056e-03,0.00208
-3.048e-03,-0.00152
-3.040e-03,0
-3.032e-03,0.00176
-3.024e-03,-0.002
-3.016e-03,-0.00192
-3.008e-03,-0.00184
-3.000e-03,-0.00072
-2.992e-03,0.00408
-2.984e-03,0.002
-2.976e-03,0.00072
-2.968e-03,0.0016
-2.960e-03,0.00088
-2.952e-03,0.00544
-2.944e-03,0.00352
-2.936e-03,-0.002
-2.928e-03,-0.00376
-2.920e-03,-0.00544
-2.912e-03,-0.0032
-2.904e-03,-0.0048
-2.896e-03,-0.00736
-2.888e-03,-0.00264
-2.880e-03,-0.00208
-2.872e-03,0.0004
-2.864e-03,0.0056
-2.856e-03,0.00368
-2.848e-03,0.0032
-2.840e-03,-8e-05
-2.832e-03,-0.00104
-2.824e-03,-8e-05
-2.816e-03,-0.00128
-2.808e-03,0.00024
-2.800e-03,-0.00016
-2.792e-03,-0.00152
-2.784e-03,0.00216
-2.776e-03,0.00232
-2.768e-03,0.00176
-2.760e-03,0.00128
-2.752e-03,0.00032
-2.744e-03,0.0012
-2.736e-03,-0.00088
-2.728e-03,-8e-05
-2.720e-03,0.00112
-2.712e-03,-0.00168
-2.704e-03,-0.00072
-2.696e-03,-0.00064
-2.688e-03,-0.002
-2.680e-03,-0.002
-2.672e-03,-0.00032
-2.664e-03,0.00488
-2.656e-03,0.00296
-2.648e-03,-0.00072
-2.640e-03,-0.00144
-2.632e-03,-0.00256
-2.624e-03,-8e-05
-2.616e-03,-0.00088
-2.608e-03,-0.00256
-2.600e-03,0.0016
-2.592e-03,0.0012
-2.584e-03,0.00072
-2.576e-03,0.00296
-2.568e-03,0.00024
-2.560e-03,0.00096
-2.552e-03,8e-05
-2.544e-03,-0.00184
-2.536e-03,-0.00088
-2.528e-03,-0.00296
-2.520e-03,-0.00144
-2.512e-03,0.00024
-2.504e-03,-0.00032
-2.496e-03,0.00096
-2.488e-03,-0.00064
-2.480e-03,-8e-05
-2.472e-03,0.00136
-2.464e-03,-0.00232
-2.456e-03,0.0012
-2.448e-03,0.00144
-2.440e-03,-0.00232
-2.432e-03,-0.00256
-2.424e-03,-0.00184
-2.416e-03,0.00032
-2.408e-03,-0.00048
-2.400e-03,-0.00184
-2.392e-03,0.00184
-2.384e-03,8e-05
-2.376e-03,0.0032
-2.368e-03,0.00528
-2.360e-03,0.0012
-2.352e-03,0.0004
-2.344e-03,-0.00104
-2.336e-03,-0.0008
-2.328e-03,0.00168
-2.320e-03,-0.00248
-2.312e-03,8e-05
-2.304e-03,0.00304
-2.296e-03,8e-05
-2.288e-03,0.0016
-2.280e-03,-0.00048
-2.272e-03,-0.00136
-2.264e-03,-0.0012
-2.256e-03,-0.00232
-2.248e-03,0.00208
-2.240e-03,0.00136
-2.232e-03,0.00088
-2.224e-03,0.00032
-2.216e-03,-0.002
-2.208e-03,0.00024
-2.200e-03,-0.00048
-2.192e-03,-0.00232
-2.184e-03,-0.00264
-2.176e-03,-0.00344
-2.168e-03,-0.00112
-2.160e-03,-0.002
-2.152e-03,-0.004
-2.144e-03,-0.00112
-2.136e-03,-0.00216
-2.128e-03,-0.00216
-2.120e-03,-0.00176
-2.112e-03,-0.00376
-2.104e-03,-0.00096
-2.096e-03,0.00104
-2.088e-03,0.00264
-2.080e-03,0.00456
-2.072e-03,0.00016
-2.064e-03,-0.00096
-2.056e-03,-0.00152
-2.048e-03,-0.0024
-2.040e-03,-0.0008
-2.032e-03,-0.00408
-2.024e-03,-0.00568
-2.016e-03,-0.00448
-2.008e-03,-0.00464
-2.000e-03,0.0008
-1.992e-03,0.00088
-1.984e-03,0.00032
-1.976e-03,0.0032
-1.968e-03,0.0004
-1.960e-03,0.00256
-1.952e-03,0.00264
-1.944e-03,0.00032
-1.936e-03,0.00296
-1.928e-03,0.0012
-1.920e-03,0.00176
-1.912e-03,0.00168
-1.904e-03,-0.0028
-1.896e-03,-0.00288
-1.888e-03,-0.0016
-1.880e-03,-0.00064
-1.872e-03,0.00024
-1.864e-03,-0.00112
-1.856e-03,0.00136
-1.848e-03,0.00104
-1.840e-03,-0.00104
-1.832e-03,0.00032
-1.824e-03,-0.0004
-1.816e-03,0.00128
-1.808e-03,0.00224
-1.800e-03,0.00048
-1.792e-03,0.00344
-1.784e-03,0.00168
-1.776e-03,-0.00208
-1.768e-03,-0.0036
-1.760e-03,-0.0048
-1.752e-03,-0.00152
-1.744e-03,0.00056
-1.736e-03,-8e-05
-1.728e-03,0.00096
-1.720e-03,-0.00032
-1.712e-03,0.00272
-1.704e-03,0.0008
-1.696e-03,-0.00304
-1.688e-03,-0.0012
-1.680e-03,-0.00056
-1.672e-03,0.0024
-1.664e-03,0.0052
-1.656e-03,0.002
-1.648e-03,0.0024
-1.640e-03,0.00288
-1.632e-03,0.00168
-1.624e-03,-0.00088
-1.616e-03,-0.00752
-1.608e-03,-0.00776
-1.600e-03,-0.00504
-1.592e-03,-0.00288
-1.584e-03,0.00096
-1.576e-03,-0.00144
-1.568e-03,-0.00144
-1.560e-03,0.0008
-1.552e-03,0.00176
-1.544e-03,0.00408
-1.536e-03,0.00208
-1.528e-03,0.0008
-1.520e-03,0.00344
-1.512e-03,-8e-05
-1.504e-03,0.00144
-1.496e-03,-0.00176
-1.488e-03,-0.00464
-1.480e-03,-0.00352
-1.472e-03,-0.004
-1.464e-03,-0.00224
-1.456e-03,0.0008
-1.448e-03,0.00184
-1.440e-03,0.00392
-1.432e-03,0.00136
-1.424e-03,-0.00024
-1.416e-03,-0.00072
-1.408e-03,-0.00464
-1.400e-03,-0.00456
-1.392e-03,-0.00552
-1.384e-03,-0.00312
-1.376e-03,0.00248
-1.368e-03,0.00352
-1.360e-03,0.0048
-1.352e-03,0.00448
-1.344e-03,0.00352
-1.336e-03,0.00672
-1.328e-03,0.0028
-1.320e-03,0.00048
-1.312e-03,0.00064
-1.304e-03,-0.00224
-1.296e-03,-0.0016
-1.288e-03,-0.0024
-1.280e-03,-0.00176
-1.272e-03,-8e-05
-1.264e-03,-0.00376
-1.256e-03,-0.0008
-1.248e-03,-0.00168
-1.240e-03,-0.00304
-1.232e-03,0.00312
-1.224e-03,0.00592
-1.216e-03,0.00912
-1.208e-03,0.00896
-1.200e-03,0.00416
-1.192e-03,0.00416
-1.184e-03,0.00344
-1.176e-03,0.00416
-1.168e-03,0.00528
-1.160e-03,0.00072
-1.152e-03,-0.00048
-1.144e-03,-0.00112
-1.136e-03,-0.0012
-1.128e-03,-0.00112
-1.120e-03,-0.00512
-1.112e-03,-0.0032
-1.104e-03,-0.00104
-1.096e-03,-0.00056
-1.088e-03,0.0016
-1.080e-03,0.00032
-1.072e-03,0.00064
-1.064e-03,0.00184
-1.056e-03,-0.00168
-1.048e-03,0.00144
-1.040e-03,0.00208
-1.032e-03,0.0008
-1.024e-03,0.00152
-1.016e-03,-0.00088
-1.008e-03,0.00168
-1.000e-03,0.00224
-9.920e-04,-0.00056
-9.840e-04,0.00024
-9.760e-04,-0.00136
-9.680e-04,0.00056
-9.600e-04,8e-05
-9.520e-04,-0.00384
-9.440e-04,-0.0016
-9.360e-04,-0.00152
-9.280e-04,-0.0008
-9.200e-04,0.0036
-9.120e-04,0.00264
-9.040e-04,0.0036
-8.960e-04,0.00384
-8.880e-04,0.00264
-8.800e-04,0.00464
-8.720e-04,0.00208
-8.640e-04,0.002
-8.560e-04,0.00032
-8.480e-04,-0.00152
-8.400e-04,0.00168
-8.320e-04,-0.00064
-8.240e-04,-0.00288
-8.160e-04,-0.00152
-8.080e-04,-0.0024
-8.000e-04,-0.00072
-7.920e-04,-0.00208
-7.840e-04,-0.00112
-7.760e-04,0.00048
-7.680e-04,-0.00032
-7.600e-04,0.00336
-7.520e-04,0.00128
-7.440e-04,-0.00216
-7.360e-04,8e-05
-7.280e-04,0.00104
-7.200e-04,0.00232
-7.120e-04,0.00288
-7.040e-04,-0.00176
-6.960e-04,-0.00112
-6.880e-04,-0.00064
-6.800e-04,0.00128
-6.720e-04,0.00432
-6.640e-04,0.00088
-6.560e-04,-0.00056
-6.480e-04,-0.00104
-6.400e-04,-0.00104
-6.320e-04,0.00312
-6.240e-04,0.0008
-6.160e-04,-0.00144
-6.080e-04,0.0008
-6.000e-04,-0.0016
-5.920e-04,0.00224
-5.840e-04,0.00224
-5.760e-04,0.00296
-5.680e-04,0.00288
-5.600e-04,0.0004
-5.520e-04,0.00208
-5.440e-04,0.00176
-5.360e-04,0.00112
-5.280e-04,0.00528
-5.200e-04,0.00432
-5.120e-04,0.00448
-5.040e-04,0.00408
-4.960e-04,0.00048
-4.880e-04,0.00096
-4.800e-04,-0.00048
-4.720e-04,-0.0012
-4.640e-04,-0.0016
-4.560e-04,-0.00312
-4.480e-04,-0.00232
-4.400e-04,-0.0012
-4.320e-04,0.002
-4.240e-04,0.00272
-4.160e-04,-0.00144
-4.080e-04,-0.00072
-4.000e-04,-8e-05
-3.920e-04,0.0008
-3.840e-04,0.0048
-3.760e-04,0.00248
-3.680e-04,0.0032
-3.600e-04,0.00168
-3.520e-04,0.00224
-3.440e-04,0.00368
-3.360e-04,0.00224
-3.280e-04,0.00176
-3.200e-04,0.00288
-3.120e-04,0
-3.040e-04,0.00048
-2.960e-04,-0.00072
-2.880e-04,-0.00272
-2.800e-04,-0.00048
-2.720e-04,-0.00088
-2.640e-04,0.00168
-2.560e-04,0.00064
-2.480e-04,-0.00112
-2.400e-04,-0.00064
-2.320e-04,-0.00232
-2.240e-04,-0.00016
-2.160e-04,0.00112
-2.080e-04,-0.00184
-2.000e-04,-8e-05
-1.920e-04,0.00088
-1.840e-04,0.00224
-1.760e-04,0.0028
-1.680e-04,0.00016
-1.600e-04,0.00128
-1.520e-04,0.00064
-1.440e-04,-0.00048
-1.360e-04,0
-1.280e-04,-0.00176
-1.200e-04,-0.00208
-1.120e-04,-0.00184
-1.040e-04,-0.00312
-9.600e-05,0
-8.800e-05,-0.00096
-8.000e-05,-0.00224
-7.200e-05,-0.00048
-6.400e-05,-0.00032
-5.600e-05,0.00408
-4.800e-05,0.0024
-4.000e-05,0.00032
-3.200e-05,0.00424
-2.400e-05,0.0032
-1.600e-05,0.0048
-8.000e-06,0.00392
1.220e-16,-0.00136
8.000e-06,-0.0008
1.600e-05,-0.0008
2.400e-05,-0.00024
3.200e-05,0.0004
4.000e-05,-0.00208
4.800e-05,-0.00168
5.600e-05,-0.00248
6.400e-05,-0.00336
7.200e-05,-0.00016
8.000e-05,-0.00208
8.800e-05,-0.00048
9.600e-05,0.00072
1.040e-04,0.00096
1.120e-04,0.00544
1.200e-04,0.00064
1.280e-04,0.00072
1.360e-04,0.00224
1.440e-04,0.00128
1.520e-04,0.0036
1.600e-04,0.00368
1.680e-04,0.00376
1.760e-04,0.006
1.840e-04,0.00384
1.920e-04,0.00344
2.000e-04,0.00104
2.080e-04,-0.00352
2.160e-04,-0.00168
2.240e-04,-0.00608
2.320e-04,-0.00544
2.400e-04,-0.00232
2.480e-04,-0.00456
