data/PSU_noise/PSU2_CV2_20A_10ms.CSV

Model,TBS1102C
Firmware Version,v2015-08-04-prequal4ch70_v1.3

Point Format,Y
Horizontal Units,S
Horizontal Scale,0.01
Sample Interval,8e-05
Filter Frequency,2e+08
Record Length,2000
Gating,0.0% to 100.0%
Probe Attenuation,1
Vertical Units,V
Vertical Offset,0
Vertical Scale,0.001
Label,
TIME,CH1
-7.040e-02,0.00168
-7.032e-02,-0.0018
-7.024e-02,0.0006
-7.016e-02,-0.0014
-7.008e-02,-0.00108
-7.000e-02,0.0004
-6.992e-02,0.00012
-6.984e-02,-0.00112
-6.976e-02,-0.00136
-6.968e-02,-0.00136
-6.960e-02,0.00064
-6.952e-02,-0.00172
-6.944e-02,-0.00092
-6.936e-02,0.00096
-6.928e-02,0.00132
-6.920e-02,-0.00152
-6.912e-02,-0.00092
-6.904e-02,0.00032
-6.896e-02,0.00044
-6.888e-02,0.00112
-6.880e-02,-0.0008
-6.872e-02,-0.00072
-6.864e-02,-0.00052
-6.856e-02,-0.00124
-6.848e-02,-0.00056
-6.840e-02,-0.00048
-6.832e-02,0.00132
-6.824e-02,-0.00012
-6.816e-02,0.00128
-6.808e-02,0.00088
-6.800e-02,0.00136
-6.792e-02,0.00144
-6.784e-02,-0.00176
-6.776e-02,-0.00092
-6.768e-02,0.00204
-6.760e-02,-0.00036
-6.752e-02,-0.00136
-6.744e-02,-0.00076
-6.736e-02,-0.00012
-6.728e-02,0.00036
-6.720e-02,-0.00084
-6.712e-02,-0.00204
-6.704e-02,0
-6.696e-02,0.0018
-6.688e-02,-0.00168
-6.680e-02,0.00084
-6.672e-02,0.001
-6.664e-02,-0.00076
-6.656e-02,-0.001
-6.648e-02,-0.00096
-6.640e-02,-0.00012
-6.632e-02,0.00032
-6.624e-02,0.00092
-6.616e-02,-4e-05
-6.608e-02,-0.00116
-6.600e-02,0.003
-6.592e-02,0.0004
-6.584e-02,0.00012
-6.576e-02,-0.00152
-6.568e-02,-0.00012
-6.560e-02,-0.0016
-6.552e-02,-0.00184
-6.544e-02,-0.00116
-6.536e-02,-0.00124
-6.528e-02,0.00028
-6.520e-02,0.00216
-6.512e-02,0.0012
-6.504e-02,0.00092
-6.496e-02,-0.00016
-6.488e-02,0.00048
-6.480e-02,0.00084
-6.472e-02,0.00112
-6.464e-02,0.00128
-6.456e-02,-0.00108
-6.448e-02,-0.0012
-6.440e-02,0.00156
-6.432e-02,-0.00084
-6.424e-02,0.00032
-6.416e-02,0.0012
-6.408e-02,0.00052
-6.400e-02,-0.00176
-6.392e-02,-0.00224
-6.384e-02,0.0012
-6.376e-02,-0.00076
-6.368e-02,-0.00236
-6.360e-02,-0.00068
-6.352e-02,0
-6.344e-02,0.00144
-6.336e-02,-0.00044
-6.328e-02,-0.0006
-6.320e-02,0.00072
-6.312e-02,-8e-05
-6.304e-02,-0.00032
-6.296e-02,-8e-05
-6.288e-02,-0.00136
-6.280e-02,0.00168
-6.272e-02,-0.00092
-6.264e-02,-0.0008
-6.256e-02,0.00196
-6.248e-02,-0.00108
-6.240e-02,-0.0014
-6.232e-02,0.00052
-6.224e-02,-0.00028
-6.216e-02,-0.00136
-6.208e-02,0.00188
-6.200e-02,-0.00164
-6.192e-02,0.00156
-6.184e-02,0.00012
-6.176e-02,0.00188
-6.168e-02,0.0024
-6.160e-02,-0.00116
-6.152e-02,0.00056
-6.144e-02,0.00172
-6.136e-02,0.00072
-6.128e-02,0.00016
-6.120e-02,0.00156
-6.112e-02,0.00056
-6.104e-02,-0.00116
-6.096e-02,0.00052
-6.088e-02,0.00104
-6.080e-02,-0.00056
-6.072e-02,0.00132
-6.064e-02,0.00208
-6.056e-02,-0.00144
-6.048e-02,-0.00028
-6.040e-02,-0.0008
-6.032e-02,-0.0012
-6.024e-02,-0.00032
-6.016e-02,0.00116
-6.008e-02,-0.0006
-6.000e-02,0.0012
-5.992e-02,0.00044
-5.984e-02,0.00136
-5.976e-02,-0.00036
-5.968e-02,0.0018
-5.960e-02,0.00196
-5.952e-02,0.00052
-5.944e-02,-0.00152
-5.936e-02,0.00056
-5.928e-02,-0.00072
-5.920e-02,0.00136
-5.912e-02,0.00088
-5.904e-02,-0.00212
-5.896e-02,0.00084
-5.888e-02,-0.00324
-5.880e-02,-0.00112
-5.872e-02,0.001
-5.864e-02,0.0012
-5.856e-02,0.00024
-5.848e-02,-0.0006
-5.840e-02,-4e-05
-5.832e-02,0.00108
-5.824e-02,0.00036
-5.816e-02,-0.00076
-5.808e-02,0.00028
-5.800e-02,-0.00044
-5.792e-02,0.00128
-5.784e-02,-0.00012
-5.776e-02,-8e-05
-5.768e-02,0.0016
-5.760e-02,-0.00032
-5.752e-02,-0.00072
-5.744e-02,0.00092
-5.736e-02,0.00156
-5.728e-02,-0.00168
-5.720e-02,-0.00024
-5.712e-02,0.00244
-5.704e-02,-0.00124
-5.696e-02,-0.00044
-5.688e-02,0.00236
-5.680e-02,0.00116
-5.672e-02,4e-05
-5.664e-02,-0.00108
-5.656e-02,-0.00068
-5.648e-02,-0.00032
-5.640e-02,0.0014
-5.632e-02,-0.00048
-5.624e-02,0.00104
-5.616e-02,-0.00108
-5.608e-02,-0.00164
-5.600e-02,0.00104
-5.592e-02,0
-5.584e-02,8e-05
-5.576e-02,-0.00032
-5.568e-02,0.00068
-5.560e-02,0.0012
-5.552e-02,-0.00012
-5.544e-02,-0.00016
-5.536e-02,0.00164
-5.528e-02,0.0014
-5.520e-02,0
-5.512e-02,0.00084
-5.504e-02,-0.001
-5.496e-02,-0.00076
-5.488e-02,0.00084
-5.480e-02,0.00116
-5.472e-02,0.00072
-5.464e-02,8e-05
-5.456e-02,-0.00104
-5.448e-02,-0.00096
-5.440e-02,-0.00036
-5.432e-02,0.0016
-5.424e-02,0.00156
-5.416e-02,-0.00032
-5.408e-02,0.00152
-5.400e-02,0.00144
-5.392e-02,0.0002
-5.384e-02,0.00012
-5.376e-02,0.00056
-5.368e-02,0.00148
-5.360e-02,8e-05
-5.352e-02,0.00048
-5.344e-02,-0.00048
-5.336e-02,0.00152
-5.328e-02,-0.0012
-5.320e-02,8e-05
-5.312e-02,0.0012
-5.304e-02,-0.0014
-5.296e-02,0.0026
-5.288e-02,-0.00112
-5.280e-02,0.00096
-5.272e-02,8e-05
-5.264e-02,-0.0008
-5.256e-02,-0.0008
-5.248e-02,-0.00084
-5.240e-02,-0.00104
-5.232e-02,-0.00104
-5.224e-02,-0.00164
-5.216e-02,-0.0012
-5.208e-02,0
-5.200e-02,0.00024
-5.192e-02,-0.00116
-5.184e-02,-0.00052
-5.176e-02,-0.00016
-5.168e-02,0.00012
-5.160e-02,-0.00148
-5.152e-02,0.00032
-5.144e-02,0.00132
-5.136e-02,-0.00076
-5.128e-02,0.00024
-5.120e-02,0.00104
-5.112e-02,-0.00136
-5.104e-02,0.00188
-5.096e-02,-0.00128
-5.088e-02,-0.00036
-5.080e-02,-0.00112
-5.072e-02,0.0006
-5.064e-02,0.00024
-5.056e-02,-0.00028
-5.048e-02,0.00212
-5.040e-02,0.00184
-5.032e-02,-0.00248
-5.024e-02,0.00032
-5.016e-02,-0.00096
-5.008e-02,0.00128
-5.000e-02,0.00116
-4.992e-02,0.00092
-4.984e-02,0.00124
-4.976e-02,-0.00112
-4.968e-02,0.00192
-4.960e-02,-0.00052
-4.952e-02,-0.0004
-4.944e-02,0.00072
-4.936e-02,0.00128
-4.928e-02,0.00116
-4.920e-02,0.00104
-4.912e-02,-0.0004
-4.904e-02,-0.0004
-4.896e-02,0.00084
-4.888e-02,-0.00168
-4.880e-02,-0.00068
-4.872e-02,4e-05
-4.864e-02,0.00112
-4.856e-02,-0.00052
-4.848e-02,-0.00128
-4.840e-02,-0.0018
-4.832e-02,0.00096
-4.824e-02,0.0004
-4.816e-02,-0.00036
-4.808e-02,0.00024
-4.800e-02,0.00096
-4.792e-02,-0.00148
-4.784e-02,-0.00088
-4.776e-02,0
-4.768e-02,-0.00052
-4.760e-02,0.00128
-4.752e-02,0.00036
-4.744e-02,-0.0012
-4.736e-02,0.00144
-4.728e-02,-0.00076
-4.720e-02,0.0012
-4.712e-02,-0.0008
-4.704e-02,0.00072
-4.696e-02,-0.00128
-4.688e-02,0.00096
-4.680e-02,0.001
-4.672e-02,0.0018
-4.664e-02,-0.00136
-4.656e-02,-0.0012
-4.648e-02,-0.001
-4.640e-02,-0.00148
-4.632e-02,-0.0012
-4.624e-02,-0.00116
-4.616e-02,-0.0004
-4.608e-02,0.00056
-4.600e-02,-8e-05
-4.592e-02,-0.00164
-4.584e-02,-0.00024
-4.576e-02,0.00144
-4.568e-02,0.00136
-4.560e-02,0.00096
-4.552e-02,-0.00156
-4.544e-02,-0.00012
-4.536e-02,-8e-05
-4.528e-02,0.00064
-4.520e-02,-0.00056
-4.512e-02,0.001
-4.504e-02,-0.0004
-4.496e-02,-0.00156
-4.488e-02,0.0012
-4.480e-02,-0.00052
-4.472e-02,0.00136
-4.464e-02,-0.0012
-4.456e-02,0.00056
-4.448e-02,0.00088
-4.440e-02,0.00068
-4.432e-02,0.001
-4.424e-02,-0.00104
-4.416e-02,4e-05
-4.408e-02,0.0004
-4.400e-02,0
-4.392e-02,-0.00076
-4.384e-02,0.00016
-4.376e-02,-0.00148
-4.368e-02,-0.00148
-4.360e-02,-0.00068
-4.352e-02,-0.0002
-4.344e-02,0.00068
-4.336e-02,-0.0002
-4.328e-02,-0.00108
-4.320e-02,0.00016
-4.312e-02,0.00184
-4.304e-02,0.00016
-4.296e-02,-0.00084
-4.288e-02,0.00168
-4.280e-02,0.00132
-4.272e-02,-0.0008
-4.264e-02,-0.00024
-4.256e-02,0.00164
-4.248e-02,0.00204
-4.240e-02,8e-05
-4.232e-02,0.00072
-4.224e-02,-8e-05
-4.216e-02,0.00232
-4.208e-02,0.0014
-4.200e-02,0.0008
-4.192e-02,0.00056
-4.184e-02,0.0008
-4.176e-02,0.0008
-4.168e-02,0.00152
-4.160e-02,0.00128
-4.152e-02,0.0014
-4.144e-02,-8e-05
-4.136e-02,-0.00064
-4.128e-02,0.00024
-4.120e-02,0.00192
-4.112e-02,-0.0004
-4.104e-02,0.00016
-4.096e-02,-0.00084
-4.088e-02,0.00156
-4.080e-02,0.00172
-4.072e-02,-0.00128
-4.064e-02,0.00212
-4.056e-02,0.00012
-4.048e-02,-0.00196
-4.040e-02,-0.00024
-4.032e-02,0.00128
-4.024e-02,0.00064
-4.016e-02,0.00052
-4.008e-02,-0.0008
-4.000e-02,-4e-05
-3.992e-02,0.00032
-3.984e-02,0.00148
-3.976e-02,0.00036
-3.968e-02,-0.00032
-3.960e-02,0.00132
-3.952e-02,-0.00108
-3.944e-02,0.0014
-3.936e-02,-0.0008
-3.928e-02,-0.0012
-3.920e-02,0.00028
-3.912e-02,-0.00152
-3.904e-02,-0.00124
-3.896e-02,0.00112
-3.888e-02,-0.00088
-3.880e-02,0.00128
-3.872e-02,-0.00036
-3.864e-02,-0.00072
-3.856e-02,0.00116
-3.848e-02,-0.0002
-3.840e-02,-0.00016
-3.832e-02,-0.00056
-3.824e-02,-0.00092
-3.816e-02,-0.0006
-3.808e-02,-8e-05
-3.800e-02,0.00108
-3.792e-02,0.00152
-3.784e-02,0.00112
-3.776e-02,0.00068
-3.768e-02,-0.00152
-3.760e-02,-0.0018
-3.752e-02,-0.00036
-3.744e-02,-0.00204
-3.736e-02,0.00112
-3.728e-02,0.00108
-3.720e-02,-0.00136
-3.712e-02,-0.00044
-3.704e-02,0.00152
-3.696e-02,-0.00092
-3.688e-02,0.00096
-3.680e-02,0.00104
-3.672e-02,-0.00168
-3.664e-02,0.002
-3.656e-02,0.00076
-3.648e-02,0.0008
-3.640e-02,0.00192
-3.632e-02,-0.00056
-3.624e-02,-0.00088
-3.616e-02,0.00084
-3.608e-02,0.00196
-3.600e-02,-0.0012
-3.592e-02,-0.0018
-3.584e-02,-0.00064
-3.576e-02,-0.00012
-3.568e-02,0.00024
-3.560e-02,0.0018
-3.552e-02,-0.00012
-3.544e-02,-0.0002
-3.536e-02,-0.0012
-3.528e-02,0.002
-3.520e-02,-0.00172
-3.512e-02,0.002
-3.504e-02,0.0002
-3.496e-02,-0.00072
-3.488e-02,-0.0002
-3.480e-02,0.0004
-3.472e-02,-0.00032
-3.464e-02,0.0016
-3.456e-02,-0.00096
-3.448e-02,-0.00196
-3.440e-02,0.00128
-3.432e-02,-0.00168
-3.424e-02,-0.00048
-3.416e-02,-0.00084
-3.408e-02,-0.00044
-3.400e-02,0.00276
-3.392e-02,-0.00152
-3.384e-02,0.0012
-3.376e-02,-0.00048
-3.368e-02,0.00084
-3.360e-02,-0.00056
-3.352e-02,0.00132
-3.344e-02,-0.0004
-3.336e-02,0.00136
-3.328e-02,-0.00068
-3.320e-02,0.00016
-3.312e-02,-0.00068
-3.304e-02,0.00124
-3.296e-02,0.00208
-3.288e-02,0.00024
-3.280e-02,0.00148
-3.272e-02,0.00092
-3.264e-02,-0.00012
-3.256e-02,0.00044
-3.248e-02,-0.00056
-3.240e-02,0.00188
-3.232e-02,-0.00132
-3.224e-02,-0.00148
-3.216e-02,0.00272
-3.208e-02,0.00156
-3.200e-02,-0.00036
-3.192e-02,-0.00248
-3.184e-02,0.00176
-3.176e-02,0.00132
-3.168e-02,-0.00032
-3.160e-02,-0.00096
-3.152e-02,-0.00064
-3.144e-02,-0.00172
-3.136e-02,-0.00084
-3.128e-02,0.00156
-3.120e-02,0.00128
-3.112e-02,-0.00092
-3.104e-02,0.00052
-3.096e-02,-0.00168
-3.088e-02,0.003
-3.080e-02,-0.00204
-3.072e-02,-0.00072
-3.064e-02,0.00128
-3.056e-02,0.00124
-3.048e-02,0.00124
-3.040e-02,0.0014
-3.032e-02,0.00184
-3.024e-02,0.00036
-3.016e-02,-4e-05
-3.008e-02,-0.00056
-3.000e-02,-0.00044
-2.992e-02,-0.002
-2.984e-02,0.00168
-2.976e-02,0.00132
-2.968e-02,-0.00024
-2.960e-02,-0.00112
-2.952e-02,-4e-05
-2.944e-02,-0.00016
-2.936e-02,-0.00072
-2.928e-02,0.00136
-2.920e-02,-0.0006
-2.912e-02,0.00112
-2.904e-02,0.00048
-2.896e-02,0.00072
-2.888e-02,-0.00108
-2.880e-02,0.00016
-2.872e-02,-0.00176
-2.864e-02,-0.00112
-2.856e-02,-0.00028
-2.848e-02,-0.00108
-2.840e-02,0.00012
-2.832e-02,0.00116
-2.824e-02,-0.0018
-2.816e-02,-4e-05
-2.808e-02,0
-2.800e-02,-0.00088
-2.792e-02,0.00108
-2.784e-02,-0.00116
-2.776e-02,-0.00092
-2.768e-02,-0.0002
-2.760e-02,-0.00084
-2.752e-02,-0.00084
-2.744e-02,0.00016
-2.736e-02,0.0012
-2.728e-02,-0.0004
-2.720e-02,0.00136
-2.712e-02,-0.00064
-2.704e-02,0.00136
-2.696e-02,-0.00148
-2.688e-02,0.0004
-2.680e-02,-0.00088
-2.672e-02,0.0002
-2.664e-02,-0.00024
-2.656e-02,-0.00072
-2.648e-02,0.00148
-2.640e-02,-0.00092
-2.632e-02,0.00088
-2.624e-02,0.0012
-2.616e-02,-0.00028
-2.608e-02,-0.00044
-2.600e-02,8e-05
-2.592e-02,4e-05
-2.584e-02,-0.00088
-2.576e-02,-0.00056
-2.568e-02,0.00076
-2.560e-02,0.00064
-2.552e-02,0.00164
-2.544e-02,-0.00116
-2.536e-02,-0.00084
-2.528e-02,-0.0006
-2.520e-02,-0.0008
-2.512e-02,-0.00056
-2.504e-02,-0.00056
-2.496e-02,0.00024
-2.488e-02,-0.00088
-2.480e-02,-0.00148
-2.472e-02,0.00132
-2.464e-02,0.00136
-2.456e-02,-0.00072
-2.448e-02,0.00096
-2.440e-02,0.00204
-2.432e-02,0.00112
-2.424e-02,-0.00064
-2.416e-02,-0.00088
-2.408e-02,0.00212
-2.400e-02,-0.00152
-2.392e-02,-0.00016
-2.384e-02,-0.0002
-2.376e-02,0.0008
-2.368e-02,0.00016
-2.360e-02,0.00104
-2.352e-02,-0.00144
-2.344e-02,0.00144
-2.336e-02,0.0016
-2.328e-02,0.00032
-2.320e-02,0.00164
-2.312e-02,0.00184
-2.304e-02,4e-05
-2.296e-02,-0.00044
-2.288e-02,0.00176
-2.280e-02,0.00116
-2.272e-02,-0.00056
-2.264e-02,-0.00048
-2.256e-02,0.00152
-2.248e-02,-0.0008
-2.240e-02,0.00208
-2.232e-02,-0.00064
-2.224e-02,0.00064
-2.216e-02,0.00128
-2.208e-02,8e-05
-2.200e-02,0
-2.192e-02,4e-05
-2.184e-02,-0.00116
-2.176e-02,0
-2.168e-02,-0.0002
-2.160e-02,0.00048
-2.152e-02,8e-05
-2.144e-02,0.00068
-2.136e-02,0.00144
-2.128e-02,0.00208
-2.120e-02,0.00132
-2.112e-02,-0.0008
-2.104e-02,0.00176
-2.096e-02,-0.00084
-2.088e-02,0.00232
-2.080e-02,-0.00148
-2.072e-02,-0.0008
-2.064e-02,-0.0006
-2.056e-02,0.00096
-2.048e-02,0.00136
-2.040e-02,-0.00032
-2.032e-02,-0.00088
-2.024e-02,0.00152
-2.016e-02,-0.00152
-2.008e-02,0.00168
-2.000e-02,0.00024
-1.992e-02,0.00024
-1.984e-02,0.00136
-1.976e-02,-0.00196
-1.968e-02,-0.0012
-1.960e-02,0.00132
-1.952e-02,0.00204
-1.944e-02,0.00016
-1.936e-02,-0.00104
-1.928e-02,0.00016
-1.920e-02,0.00212
-1.912e-02,8e-05
-1.904e-02,8e-05
-1.896e-02,-0.00112
-1.888e-02,8e-05
-1.880e-02,0.00108
-1.872e-02,0.002
-1.864e-02,0.00084
-1.856e-02,-0.00016
-1.848e-02,-0.00164
-1.840e-02,-0.00044
-1.832e-02,-0.00116
-1.824e-02,-0.0004
-1.816e-02,0.00232
-1.808e-02,-8e-05
-1.800e-02,0.00184
-1.792e-02,-0.00012
-1.784e-02,-0.00044
-1.776e-02,-0.00024
-1.768e-02,0.00108
-1.760e-02,0.00192
-1.752e-02,0.00136
-1.744e-02,0.00092
-1.736e-02,0.00016
-1.728e-02,0.00112
-1.720e-02,0.00072
-1.712e-02,-0.00072
-1.704e-02,-0.0012
-1.696e-02,0.00032
-1.688e-02,-0.00032
-1.680e-02,0.00128
-1.672e-02,0.00144
-1.664e-02,0.0014
-1.656e-02,0.00136
-1.648e-02,0.00024
-1.640e-02,-0.00144
-1.632e-02,0.00228
-1.624e-02,0
-1.616e-02,-0.00084
-1.608e-02,-0.00064
-1.600e-02,-0.00024
-1.592e-02,-0.0004
-1.584e-02,0.00088
-1.576e-02,-0.00108
-1.568e-02,-0.00028
-1.560e-02,0.00112
-1.552e-02,-0.00012
-1.544e-02,0.00136
-1.536e-02,0.00076
-1.528e-02,-4e-05
-1.520e-02,-0.00112
-1.512e-02,-0.00116
-1.504e-02,4e-05
-1.496e-02,-0.00124
-1.488e-02,-0.00056
-1.480e-02,0.00064
-1.472e-02,0.00116
-1.464e-02,0.0004
-1.456e-02,-0.00168
-1.448e-02,0.00148
-1.440e-02,0.00192
-1.432e-02,-0.00052
-1.424e-02,0.002
-1.416e-02,0.0018
-1.408e-02,-0.00116
-1.400e-02,0.00116
-1.392e-02,0.0014
-1.384e-02,0.00176
-1.376e-02,-0.00012
-1.368e-02,0.00108
-1.360e-02,-0.00112
-1.352e-02,-0.00112
-1.344e-02,-0.00092
-1.336e-02,-0.0004
-1.328e-02,0.00068
-1.320e-02,0.00196
-1.312e-02,0.00064
-1.304e-02,-0.00072
-1.296e-02,-0.00108
-1.288e-02,-0.00092
-1.280e-02,8e-05
-1.272e-02,-0.00048
-1.264e-02,-0.00048
-1.256e-02,0.00168
-1.248e-02,-0.00056
-1.240e-02,0.00028
-1.232e-02,-0.00016
-1.224e-02,0.00064
-1.216e-02,-4e-05
-1.208e-02,0.00196
-1.200e-02,0.00012
-1.192e-02,0.0006
-1.184e-02,0.00172
-1.176e-02,0.00196
-1.168e-02,0.00076
-1.160e-02,-0.00128
-1.152e-02,-0.00168
-1.144e-02,-0.00088
-1.136e-02,0.00252
-1.128e-02,-0.0006
-1.120e-02,0.0004
-1.112e-02,0.00024
-1.104e-02,0.00024
-1.096e-02,0.00168
-1.088e-02,-0.00176
-1.080e-02,0.00104
-1.072e-02,-0.00064
-1.064e-02,-0.00052
-1.056e-02,-0.00068
-1.048e-02,-0.00012
-1.040e-02,-0.00088
-1.032e-02,-0.0014
-1.024e-02,0.00192
-1.016e-02,-0.00116
-1.008e-02,0.00016
-1.000e-02,0.00104
-9.920e-03,-8e-05
-9.840e-03,-0.00124
-9.760e-03,0.00024
-9.680e-03,-4e-05
-9.600e-03,-0.00052
-9.520e-03,-0.001
-9.440e-03,0.00136
-9.360e-03,0.00084
-9.280e-03,0.00156
-9.200e-03,0.00072
-9.120e-03,0.0016
-9.040e-03,0.00128
-8.960e-03,0.00192
-8.880e-03,0.00144
-8.800e-03,0.00148
-8.720e-03,-0.00044
-8.640e-03,0.0006
-8.560e-03,0.00056
-8.480e-03,0.00032
-8.400e-03,0.0004
-8.320e-03,0.00052
-8.240e-03,-0.00108
-8.160e-03,0.0008
-8.080e-03,0.00144
-8.000e-03,-0.0012
-7.920e-03,0.00076
-7.840e-03,-0.00112
-7.760e-03,0.00156
-7.680e-03,-0.00184
-7.600e-03,-0.00128
-7.520e-03,0.00104
-7.440e-03,0.00052
-7.360e-03,-0.00072
-7.280e-03,-0.0018
-7.200e-03,-0.0004
-7.120e-03,0.00112
-7.040e-03,0.00108
-6.960e-03,-0.0004
-6.880e-03,-0.00208
-6.800e-03,0.00092
-6.720e-03,0.00056
-6.640e-03,-0.00032
-6.560e-03,-0.00024
-6.480e-03,-0.0016
-6.400e-03,-0.00152
-6.320e-03,-0.00072
-6.240e-03,0.00012
-6.160e-03,-0.0016
-6.080e-03,-8e-05
-6.000e-03,-0.00104
-5.920e-03,0.00224
-5.840e-03,-0.00128
-5.760e-03,0.00276
-5.680e-03,0
-5.600e-03,0.001
-5.520e-03,-0.00096
-5.440e-03,-0.00048
-5.360e-03,0.00024
-5.280e-03,0.00016
-5.200e-03,0.00068
-5.120e-03,0.00128
-5.040e-03,-0.00136
-4.960e-03,0.00024
-4.880e-03,0.00096
-4.800e-03,-0.00096
-4.720e-03,0.00204
-4.640e-03,0.00104
-4.560e-03,-0.0008
-4.480e-03,0.00168
-4.400e-03,0.00024
-4.320e-03,-0.00188
-4.240e-03,0.00148
-4.160e-03,0.0004
-4.080e-03,0.00148
-4.000e-03,0.00116
-3.920e-03,-0.00188
-3.840e-03,0.00092
-3.760e-03,-0.00044
-3.680e-03,0.0002
-3.600e-03,-0.00072
-3.520e-03,-0.00072
-3.440e-03,-0.00076
-3.360e-03,0.0008
-3.280e-03,0.00152
-3.200e-03,-0.00012
-3.120e-03,-0.0002
-3.040e-03,0.00124
-2.960e-03,-0.00212
-2.880e-03,4e-05
-2.800e-03,-0.00088
-2.720e-03,0.00044
-2.640e-03,-4e-05
-2.560e-03,0.00076
-2.480e-03,-0.00072
-2.400e-03,-0.00036
-2.320e-03,0.00164
-2.240e-03,-0.00016
-2.160e-03,-0.00048
-2.080e-03,-0.00016
-2.000e-03,0.00252
-1.920e-03,0.00216
-1.840e-03,0.00012
-1.760e-03,0.00092
-1.680e-03,0.00048
-1.600e-03,0.00068
-1.520e-03,-0.00068
-1.440e-03,-0.00056
-1.360e-03,0.00088
-1.280e-03,0.00088
-1.200e-03,0.0004
-1.120e-03,0.00124
-1.040e-03,0.0002
-9.600e-04,0.00232
-8.800e-04,0.00092
-8.000e-04,-0.00056
-7.200e-04,0.00112
-6.400e-04,-0.00036
-5.600e-04,0.00072
-4.800e-04,0.00096
-4.000e-04,0
-3.200e-04,-0.00092
-2.400e-04,0.00132
-1.600e-04,0.00164
-8.000e-05,0.00024
-1.508e-15,0.00156
8.000e-05,-0.00024
1.600e-04,0.00128
2.400e-04,0.00192
3.200e-04,-0.00092
4.000e-04,0.00072
4.800e-04,-0.00052
5.600e-04,-0.0004
6.400e-04,0.0014
7.200e-04,0.00116
8.000e-04,-0.00036
8.800e-04,0.00084
9.600e-04,0.00068
1.040e-03,-0.00132
1.120e-03,0.001
1.200e-03,0.00172
1.280e-03,0.00056
1.360e-03,-0.00028
1.440e-03,0.00176
1.520e-03,0.00152
1.600e-03,0.00216
1.680e-03,-0.00032
1.760e-03,0.00016
1.840e-03,-0.00104
1.920e-03,-0.00052
2.000e-03,0.00012
2.080e-03,0.0002
2.160e-03,0.00016
2.240e-03,0.0016
2.320e-03,0.00036
2.400e-03,-0.00012
2.480e-03,-0.00044
2.560e-03,-0.0008
2.640e-03,0.00084
2.720e-03,0.00076
2.800e-03,0.00172
2.880e-03,0.00068
2.960e-03,0.00092
3.040e-03,0.0018
3.120e-03,-0.001
3.200e-03,0.00168
3.280e-03,-0.00036
3.360e-03,-0.0012
3.440e-03,0.00072
3.520e-03,0.00048
3.600e-03,0.00056
3.680e-03,0.00196
3.760e-03,0
3.840e-03,-0.00108
3.920e-03,-0.00064
4.000e-03,0.00092
4.080e-03,-0.0008
4.160e-03,-0.00292
4.240e-03,-0.00016
4.320e-03,-0.00012
4.400e-03,-0.0008
4.480e-03,-0.00068
4.560e-03,-0.00116
4.640e-03,-0.00088
4.720e-03,0.00036
4.800e-03,-8e-05
4.880e-03,0.00092
4.960e-03,-0.00044
5.040e-03,-0.00096
5.120e-03,0.00068
5.200e-03,-0.00204
5.280e-03,-0.00056
5.360e-03,-0.00084
5.440e-03,-0.00108
5.520e-03,-0.00056
5.600e-03,-0.00116
5.680e-03,-0.00024
5.760e-03,-0.0012
5.840e-03,0.00084
5.920e-03,0.00188
6.000e-03,-0.00072
6.080e-03,-0.0004
6.160e-03,0.00164
6.240e-03,0.00024
6.320e-03,0.0002
6.400e-03,-0.00056
6.480e-03,-0.00132
6.560e-03,-0.00108
6.640e-03,-0.00128
6.720e-03,0.00064
6.800e-03,-0.00084
6.880e-03,0.00116
6.960e-03,-0.00152
7.040e-03,0.00144
7.120e-03,0.00032
7.200e-03,-0.00096
7.280e-03,-0.00092
7.360e-03,0.0016
7.440e-03,-0.001
7.520e-03,0.00216
7.600e-03,-0.00128
7.680e-03,-0.00148
7.760e-03,0.00168
7.840e-03,-0.00124
7.920e-03,0.00208
8.000e-03,0.00064
8.080e-03,-0.001
8.160e-03,-0.00036
8.240e-03,0.0008
8.320e-03,0.0016
8.400e-03,-0.00036
8.480e-03,-0.00016
8.560e-03,0.00036
8.640e-03,-0.001
8.720e-03,0.00096
8.800e-03,0.00088
8.880e-03,-0.0012
8.960e-03,0.00152
9.040e-03,0.00112
9.120e-03,-0.00124
9.200e-03,0.00044
9.280e-03,0.00084
9.360e-03,0.00044
9.440e-03,-0.00244
9.520e-03,0.00068
9.600e-03,-0.00156
9.680e-03,0.00104
9.760e-03,-0.00084
9.840e-03,0.00016
9.920e-03,-0.00084
1.000e-02,-0.00272
1.008e-02,-0.00056
1.016e-02,0.00104
1.024e-02,0.0002
1.032e-02,4e-05
1.040e-02,0.00084
1.048e-02,-0.00016
1.056e-02,0.00064
1.064e-02,-0.00032
1.072e-02,0.00184
1.080e-02,-0.00132
1.088e-02,-0.00084
1.096e-02,0.00148
1.104e-02,0.0002
1.112e-02,0.0012
1.120e-02,-0.00108
1.128e-02,0.00024
1.136e-02,0.00084
1.144e-02,0.0002
1.152e-02,0.00204
1.160e-02,-0.00108
1.168e-02,-0.00096
1.176e-02,0.0022
1.184e-02,0.00056
1.192e-02,-0.00044
1.200e-02,-0.0004
1.208e-02,0.00088
1.216e-02,0.00208
1.224e-02,0.00136
1.232e-02,0.0008
1.240e-02,0.00152
1.248e-02,0.0008
1.256e-02,-0.00016
1.264e-02,0.00068
