data/PSU_noise/PSU2_CV1_40A_10ms.CSV

Model,TBS1102C
Firmware Version,v2015-08-04-prequal4ch70_v1.3

Point Format,Y
Horizontal Units,S
Horizontal Scale,0.01
Sample Interval,8e-05
Filter Frequency,2e+08
Record Length,2000
Gating,0.0% to 100.0%
Probe Attenuation,1
Vertical Units,V
Vertical Offset,0
Vertical Scale,0.001
Label,
TIME,CH1
-7.040e-02,0.00028
-7.032e-02,0.00292
-7.024e-02,0.00048
-7.016e-02,-0.00044
-7.008e-02,-0.00048
-7.000e-02,-0.00108
-6.992e-02,0.0026
-6.984e-02,0.00112
-6.976e-02,0
-6.968e-02,-0.00176
-6.960e-02,-0.00136
-6.952e-02,0.00208
-6.944e-02,0.00176
-6.936e-02,-0.0016
-6.928e-02,0.00164
-6.920e-02,-0.00132
-6.912e-02,0.00056
-6.904e-02,0.00012
-6.896e-02,-0.00164
-6.888e-02,0.00028
-6.880e-02,-0.00084
-6.872e-02,0.00068
-6.864e-02,0.00056
-6.856e-02,-0.00124
-6.848e-02,-0.00168
-6.840e-02,0.00104
-6.832e-02,-0.00116
-6.824e-02,0.00176
-6.816e-02,-0.00148
-6.808e-02,-0.00124
-6.800e-02,-0.00164
-6.792e-02,0.00152
-6.784e-02,0.0012
-6.776e-02,-0.0008
-6.768e-02,-0.00096
-6.760e-02,-0.0006
-6.752e-02,0.0016
-6.744e-02,-0.00088
-6.736e-02,0.00012
-6.728e-02,0.00044
-6.720e-02,-0.00084
-6.712e-02,0.00028
-6.704e-02,-0.00152
-6.696e-02,0.0006
-6.688e-02,0.00288
-6.680e-02,-0.00032
-6.672e-02,-0.00128
-6.664e-02,0.00252
-6.656e-02,-0.00252
-6.648e-02,0.00136
-6.640e-02,-0.00124
-6.632e-02,-0.00068
-6.624e-02,0.00092
-6.616e-02,-0.00188
-6.608e-02,0.0008
-6.600e-02,-0.00108
-6.592e-02,0.00028
-6.584e-02,-0.0002
-6.576e-02,-0.00196
-6.568e-02,0.00172
-6.560e-02,0.0016
-6.552e-02,0.00272
-6.544e-02,0.00228
-6.536e-02,-0.0008
-6.528e-02,8e-05
-6.520e-02,-0.00176
-6.512e-02,0.00224
-6.504e-02,-0.00044
-6.496e-02,-0.00184
-6.488e-02,-0.00024
-6.480e-02,0.00188
-6.472e-02,-0.00316
-6.464e-02,-0.00136
-6.456e-02,-0.00024
-6.448e-02,-0.0012
-6.440e-02,0.0006
-6.432e-02,0.00212
-6.424e-02,-0.001
-6.416e-02,-0.00112
-6.408e-02,-0.00124
-6.400e-02,0.00016
-6.392e-02,-0.0018
-6.384e-02,-0.001
-6.376e-02,0.0004
-6.368e-02,-0.00036
-6.360e-02,0.00016
-6.352e-02,-0.00136
-6.344e-02,0.00172
-6.336e-02,-0.00104
-6.328e-02,0.0008
-6.320e-02,0.00192
-6.312e-02,-0.00028
-6.304e-02,-0.00052
-6.296e-02,-0.00164
-6.288e-02,-0.002
-6.280e-02,-0.00164
-6.272e-02,-0.00204
-6.264e-02,-0.00308
-6.256e-02,-0.00132
-6.248e-02,0.0004
-6.240e-02,0.001
-6.232e-02,-0.0004
-6.224e-02,0.00124
-6.216e-02,-0.0014
-6.208e-02,-0.00212
-6.200e-02,-0.00096
-6.192e-02,-0.0006
-6.184e-02,-0.00172
-6.176e-02,-0.00204
-6.168e-02,0.00272
-6.160e-02,-0.00208
-6.152e-02,0.0014
-6.144e-02,-0.00076
-6.136e-02,-0.0016
-6.128e-02,-0.00096
-6.120e-02,-0.00208
-6.112e-02,0.00148
-6.104e-02,0.00184
-6.096e-02,-0.00256
-6.088e-02,-0.00128
-6.080e-02,0.00284
-6.072e-02,-0.0006
-6.064e-02,-0.00184
-6.056e-02,0.00044
-6.048e-02,0
-6.040e-02,0.0016
-6.032e-02,0.00012
-6.024e-02,-0.00108
-6.016e-02,0.00208
-6.008e-02,0.00108
-6.000e-02,0.00208
-5.992e-02,0.00172
-5.984e-02,-0.00148
-5.976e-02,0.0008
-5.968e-02,0.00036
-5.960e-02,0.00084
-5.952e-02,0.00152
-5.944e-02,-0.00168
-5.936e-02,0.00036
-5.928e-02,-0.00128
-5.920e-02,0.00324
-5.912e-02,-0.00196
-5.904e-02,0.0008
-5.896e-02,0.00044
-5.888e-02,0.00056
-5.880e-02,0.0002
-5.872e-02,0.00068
-5.864e-02,0.00048
-5.856e-02,-0.00032
-5.848e-02,0.00032
-5.840e-02,-0.00084
-5.832e-02,0.00188
-5.824e-02,-0.00148
-5.816e-02,-0.0022
-5.808e-02,-0.0004
-5.800e-02,0.00256
-5.792e-02,-0.00032
-5.784e-02,-0.00016
-5.776e-02,0.00016
-5.768e-02,-0.0014
-5.760e-02,0.00048
-5.752e-02,0.00164
-5.744e-02,0.00124
-5.736e-02,-0.00048
-5.728e-02,-0.0014
-5.720e-02,0.0008
-5.712e-02,0.001
-5.704e-02,0.002
-5.696e-02,0.00176
-5.688e-02,0.00052
-5.680e-02,-0.00108
-5.672e-02,0.00144
-5.664e-02,0.0032
-5.656e-02,-0.00036
-5.648e-02,-0.00156
-5.640e-02,-0.0024
-5.632e-02,0.00124
-5.624e-02,0.00128
-5.616e-02,0.00112
-5.608e-02,0.00256
-5.600e-02,0.00148
-5.592e-02,0.00172
-5.584e-02,0.00024
-5.576e-02,-0.00152
-5.568e-02,0.0008
-5.560e-02,0.00228
-5.552e-02,-0.0014
-5.544e-02,-0.00072
-5.536e-02,-0.00164
-5.528e-02,0.00108
-5.520e-02,0.00108
-5.512e-02,-0.0026
-5.504e-02,0.00156
-5.496e-02,-0.00128
-5.488e-02,0.00128
-5.480e-02,-0.0014
-5.472e-02,-0.00076
-5.464e-02,0.00204
-5.456e-02,0.00112
-5.448e-02,0.00148
-5.440e-02,0.00104
-5.432e-02,-0.0024
-5.424e-02,0.00116
-5.416e-02,0.00084
-5.408e-02,-0.00316
-5.400e-02,-0.00108
-5.392e-02,-0.00364
-5.384e-02,0.00016
-5.376e-02,-0.0016
-5.368e-02,-0.00112
-5.360e-02,0.00072
-5.352e-02,0.00108
-5.344e-02,0.00064
-5.336e-02,-0.00124
-5.328e-02,8e-05
-5.320e-02,0.00232
-5.312e-02,0.00108
-5.304e-02,-0.0004
-5.296e-02,-0.00148
-5.288e-02,-0.00128
-5.280e-02,-0.00096
-5.272e-02,0.00228
-5.264e-02,0.00152
-5.256e-02,0.00024
-5.248e-02,-0.00308
-5.240e-02,0.00044
-5.232e-02,0.00232
-5.224e-02,-0.00096
-5.216e-02,4e-05
-5.208e-02,-0.00028
-5.200e-02,0.00212
-5.192e-02,0.00264
-5.184e-02,-0.00196
-5.176e-02,-0.00116
-5.168e-02,-0.0018
-5.160e-02,-0.00092
-5.152e-02,4e-05
-5.144e-02,-0.00372
-5.136e-02,-0.00024
-5.128e-02,-0.0016
-5.120e-02,0.00116
-5.112e-02,0.00248
-5.104e-02,0.00016
-5.096e-02,0.0012
-5.088e-02,0.00148
-5.080e-02,-0.0032
-5.072e-02,-0.00068
-5.064e-02,0.00148
-5.056e-02,0.00188
-5.048e-02,0.00212
-5.040e-02,-0.00244
-5.032e-02,0.00044
-5.024e-02,-0.00136
-5.016e-02,0.00272
-5.008e-02,-0.002
-5.000e-02,0.00096
-4.992e-02,0.00172
-4.984e-02,-0.00116
-4.976e-02,-0.00196
-4.968e-02,-0.0014
-4.960e-02,0.0028
-4.952e-02,-0.00124
-4.944e-02,-0.00096
-4.936e-02,-0.0024
-4.928e-02,0.00024
-4.920e-02,0.00156
-4.912e-02,0.0016
-4.904e-02,0.003
-4.896e-02,0.0008
-4.888e-02,0.00096
-4.880e-02,-0.00212
-4.872e-02,0.0002
-4.864e-02,0.0012
-4.856e-02,-0.00136
-4.848e-02,-0.00104
-4.840e-02,0.00112
-4.832e-02,0.00172
-4.824e-02,-0.00016
-4.816e-02,0.00104
-4.808e-02,-0.00244
-4.800e-02,0.00048
-4.792e-02,-0.00136
-4.784e-02,-0.0016
-4.776e-02,0.00152
-4.768e-02,0.00168
-4.760e-02,0.00092
-4.752e-02,0.00172
-4.744e-02,0.0004
-4.736e-02,0.00088
-4.728e-02,-0.00016
-4.720e-02,0.00028
-4.712e-02,-0.001
-4.704e-02,-8e-05
-4.696e-02,-0.00128
-4.688e-02,0.00124
-4.680e-02,0.00264
-4.672e-02,0.0002
-4.664e-02,0.0014
-4.656e-02,0.00048
-4.648e-02,0.00132
-4.640e-02,0.0012
-4.632e-02,0.0026
-4.624e-02,0.00068
-4.616e-02,0.00216
-4.608e-02,0.00068
-4.600e-02,-0.00028
-4.592e-02,-0.00196
-4.584e-02,0.00208
-4.576e-02,0.00048
-4.568e-02,0.0024
-4.560e-02,0.00228
-4.552e-02,-0.00128
-4.544e-02,0.00276
-4.536e-02,-0.00032
-4.528e-02,-0.00136
-4.520e-02,-0.00064
-4.512e-02,-0.00276
-4.504e-02,-0.0008
-4.496e-02,-0.00276
-4.488e-02,-0.00148
-4.480e-02,0.00044
-4.472e-02,0.00124
-4.464e-02,0.0018
-4.456e-02,-0.00276
-4.448e-02,0.00128
-4.440e-02,-0.003
-4.432e-02,-0.00244
-4.424e-02,-0.0024
-4.416e-02,-0.00144
-4.408e-02,-0.00236
-4.400e-02,0.00024
-4.392e-02,0.0024
-4.384e-02,-0.00052
-4.376e-02,-0.00136
-4.368e-02,0.00248
-4.360e-02,0.00172
-4.352e-02,0.00044
-4.344e-02,0.00048
-4.336e-02,0.0016
-4.328e-02,0.00172
-4.320e-02,0.0008
-4.312e-02,-0.002
-4.304e-02,-0.00104
-4.296e-02,0.0028
-4.288e-02,0.0008
-4.280e-02,-0.00152
-4.272e-02,-0.00156
-4.264e-02,-0.002
-4.256e-02,0.00136
-4.248e-02,0.0002
-4.240e-02,0.00308
-4.232e-02,-0.00136
-4.224e-02,0.00128
-4.216e-02,0.00264
-4.208e-02,0.00256
-4.200e-02,0.00288
-4.192e-02,-0.00072
-4.184e-02,0.00012
-4.176e-02,-0.0012
-4.168e-02,-0.00184
-4.160e-02,0.00148
-4.152e-02,-0.0016
-4.144e-02,-0.00128
-4.136e-02,-0.00084
-4.128e-02,4e-05
-4.120e-02,-0.00012
-4.112e-02,0.00256
-4.104e-02,-0.00116
-4.096e-02,0.0028
-4.088e-02,-0.0018
-4.080e-02,0.00128
-4.072e-02,0.00124
-4.064e-02,4e-05
-4.056e-02,0.00168
-4.048e-02,0.00016
-4.040e-02,-0.00028
-4.032e-02,0.00172
-4.024e-02,-0.00252
-4.016e-02,-0.00148
-4.008e-02,-0.00024
-4.000e-02,0.00136
-3.992e-02,-0.0008
-3.984e-02,0.00064
-3.976e-02,0.00176
-3.968e-02,-0.00096
-3.960e-02,0.00224
-3.952e-02,0.00136
-3.944e-02,0.00048
-3.936e-02,-0.00156
-3.928e-02,-0.00056
-3.920e-02,0.00064
-3.912e-02,0.00092
-3.904e-02,0.00192
-3.896e-02,0.00092
-3.888e-02,0.00072
-3.880e-02,-0.00228
-3.872e-02,4e-05
-3.864e-02,-0.00064
-3.856e-02,-0.003
-3.848e-02,0.00104
-3.840e-02,-0.00232
-3.832e-02,0.00148
-3.824e-02,-0.00124
-3.816e-02,-0.00192
-3.808e-02,-0.00068
-3.800e-02,-0.0006
-3.792e-02,0.00328
-3.784e-02,-0.00148
-3.776e-02,0.00172
-3.768e-02,0.00128
-3.760e-02,0.00072
-3.752e-02,-0.00016
-3.744e-02,0
-3.736e-02,0.00244
-3.728e-02,-0.00176
-3.720e-02,-0.00104
-3.712e-02,-0.0002
-3.704e-02,0.0008
-3.696e-02,0.00244
-3.688e-02,0.00164
-3.680e-02,-0.00036
-3.672e-02,-0.00036
-3.664e-02,0.00092
-3.656e-02,-0.00048
-3.648e-02,0.0018
-3.640e-02,-0.00172
-3.632e-02,0.002
-3.624e-02,-0.00076
-3.616e-02,-0.00124
-3.608e-02,0.00048
-3.600e-02,-0.00132
-3.592e-02,-0.001
-3.584e-02,0.00032
-3.576e-02,-0.00168
-3.568e-02,0.00092
-3.560e-02,0.0006
-3.552e-02,0
-3.544e-02,-0.00152
-3.536e-02,-0.0006
-3.528e-02,0.00032
-3.520e-02,0.0016
-3.512e-02,0.00104
-3.504e-02,-0.00108
-3.496e-02,-0.001
-3.488e-02,0.00044
-3.480e-02,0.00052
-3.472e-02,0.0008
-3.464e-02,-4e-05
-3.456e-02,-0.00076
-3.448e-02,0.00088
-3.440e-02,-0.0008
-3.432e-02,0.00272
-3.424e-02,-0.00052
-3.416e-02,0.00016
-3.408e-02,-0.00108
-3.400e-02,-0.0008
-3.392e-02,-0.00208
-3.384e-02,-0.00216
-3.376e-02,-0.00088
-3.368e-02,-0.0028
-3.360e-02,-0.00028
-3.352e-02,0.00204
-3.344e-02,-0.00024
-3.336e-02,0.001
-3.328e-02,-0.00148
-3.320e-02,0.0004
-3.312e-02,-0.00116
-3.304e-02,0.00064
-3.296e-02,0.0016
-3.288e-02,0.0028
-3.280e-02,0.00132
-3.272e-02,0.0022
-3.264e-02,0.00204
-3.256e-02,0.00148
-3.248e-02,0.00104
-3.240e-02,0.00272
-3.232e-02,0.00076
-3.224e-02,-4e-05
-3.216e-02,-0.00164
-3.208e-02,-0.00056
-3.200e-02,-0.00132
-3.192e-02,-0.00248
-3.184e-02,-0.00112
-3.176e-02,0.00096
-3.168e-02,-0.0038
-3.160e-02,-8e-05
-3.152e-02,0.00224
-3.144e-02,0.00176
-3.136e-02,0.00196
-3.128e-02,-0.00104
-3.120e-02,0.00072
-3.112e-02,0.00132
-3.104e-02,-0.00136
-3.096e-02,0.00248
-3.088e-02,0.00116
-3.080e-02,-8e-05
-3.072e-02,-0.00204
-3.064e-02,-0.00104
-3.056e-02,-0.00092
-3.048e-02,0.00076
-3.040e-02,-0.0018
-3.032e-02,0.0028
-3.024e-02,0.00084
-3.016e-02,0.00048
-3.008e-02,-0.00156
-3.000e-02,0.001
-2.992e-02,-0.00084
-2.984e-02,0.00264
-2.976e-02,0.00192
-2.968e-02,0.00192
-2.960e-02,0.00012
-2.952e-02,0.0022
-2.944e-02,0.0008
-2.936e-02,-0.00136
-2.928e-02,0.00124
-2.920e-02,0.00032
-2.912e-02,0.001
-2.904e-02,-8e-05
-2.896e-02,-0.00072
-2.888e-02,0.00116
-2.880e-02,-0.00092
-2.872e-02,-0.00092
-2.864e-02,0.00184
-2.856e-02,0.0028
-2.848e-02,0.00212
-2.840e-02,-0.0014
-2.832e-02,-0.00128
-2.824e-02,0.00344
-2.816e-02,-0.00128
-2.808e-02,0.00236
-2.800e-02,0.0006
-2.792e-02,-0.00124
-2.784e-02,0.00192
-2.776e-02,0.00072
-2.768e-02,-0.0004
-2.760e-02,-0.0004
-2.752e-02,0.00184
-2.744e-02,0.00168
-2.736e-02,-0.00024
-2.728e-02,-0.0002
-2.720e-02,-0.00072
-2.712e-02,-0.00116
-2.704e-02,0.00212
-2.696e-02,0.00208
-2.688e-02,-0.00204
-2.680e-02,-0.00076
-2.672e-02,0.00144
-2.664e-02,-0.00272
-2.656e-02,0.00192
-2.648e-02,0.00248
-2.640e-02,0.00284
-2.632e-02,-4e-05
-2.624e-02,-0.00128
-2.616e-02,-0.00224
-2.608e-02,0.00188
-2.600e-02,0.00196
-2.592e-02,0.00028
-2.584e-02,-0.00092
-2.576e-02,0.00024
-2.568e-02,-0.0028
-2.560e-02,-0.00116
-2.552e-02,-0.00072
-2.544e-02,0.0022
-2.536e-02,-0.00216
-2.528e-02,-0.00184
-2.520e-02,-0.00084
-2.512e-02,-0.00072
-2.504e-02,0.0004
-2.496e-02,0.00128
-2.488e-02,4e-05
-2.480e-02,-0.00116
-2.472e-02,0.0002
-2.464e-02,-0.00144
-2.456e-02,0.00196
-2.448e-02,0.00128
-2.440e-02,-0.00148
-2.432e-02,-0.00104
-2.424e-02,-0.002
-2.416e-02,0.00092
-2.408e-02,-0.00216
-2.400e-02,-0.0016
-2.392e-02,-0.00204
-2.384e-02,-0.00184
-2.376e-02,0.00052
-2.368e-02,0.00056
-2.360e-02,0.00148
-2.352e-02,-0.00236
-2.344e-02,0.00252
-2.336e-02,-0.00288
-2.328e-02,4e-05
-2.320e-02,-0.00172
-2.312e-02,-0.00296
-2.304e-02,-0.00224
-2.296e-02,-0.00236
-2.288e-02,0.00268
-2.280e-02,-0.00016
-2.272e-02,0.00084
-2.264e-02,0.00084
-2.256e-02,0.00148
-2.248e-02,0.00056
-2.240e-02,-0.00224
-2.232e-02,-0.00184
-2.224e-02,-0.00284
-2.216e-02,-0.00156
-2.208e-02,-0.00216
-2.200e-02,-0.00096
-2.192e-02,-0.0022
-2.184e-02,0.00128
-2.176e-02,0.00132
-2.168e-02,-0.00284
-2.160e-02,0.00328
-2.152e-02,0.00032
-2.144e-02,-0.00284
-2.136e-02,-0.0004
-2.128e-02,4e-05
-2.120e-02,0.0014
-2.112e-02,-0.00132
-2.104e-02,0.00116
-2.096e-02,0.00236
-2.088e-02,0.00048
-2.080e-02,0.00108
-2.072e-02,0.00036
-2.064e-02,0.0006
-2.056e-02,0.00044
-2.048e-02,-0.00236
-2.040e-02,0.00152
-2.032e-02,-0.00224
-2.024e-02,0.00068
-2.016e-02,-0.0014
-2.008e-02,0.00096
-2.000e-02,0.0018
-1.992e-02,0.00212
-1.984e-02,0.00176
-1.976e-02,-0.0006
-1.968e-02,0.00204
-1.960e-02,-0.00276
-1.952e-02,0.00192
-1.944e-02,0.0008
-1.936e-02,0.001
-1.928e-02,-0.00084
-1.920e-02,-0.00144
-1.912e-02,-0.00108
-1.904e-02,0.00068
-1.896e-02,0.00108
-1.888e-02,0.00028
-1.880e-02,-0.00048
-1.872e-02,4e-05
-1.864e-02,0.0012
-1.856e-02,-0.00044
-1.848e-02,-0.00088
-1.840e-02,0.00164
-1.832e-02,0.00148
-1.824e-02,-0.00072
-1.816e-02,-0.00196
-1.808e-02,4e-05
-1.800e-02,-0.00196
-1.792e-02,-0.00032
-1.784e-02,-0.00056
-1.776e-02,-0.00104
-1.768e-02,-0.0012
-1.760e-02,-0.00144
-1.752e-02,-0.0016
-1.744e-02,-0.00028
-1.736e-02,-0.00088
-1.728e-02,0.00108
-1.720e-02,0.00272
-1.712e-02,-0.00096
-1.704e-02,-0.00228
-1.696e-02,0.00088
-1.688e-02,0.0012
-1.680e-02,0.00048
-1.672e-02,-0.00136
-1.664e-02,-0.00076
-1.656e-02,-0.00128
-1.648e-02,0.00144
-1.640e-02,0.00308
-1.632e-02,0.00192
-1.624e-02,0.00024
-1.616e-02,-0.00068
-1.608e-02,-0.00084
-1.600e-02,0.0002
-1.592e-02,0.001
-1.584e-02,0.00056
-1.576e-02,0.00052
-1.568e-02,4e-05
-1.560e-02,-0.0002
-1.552e-02,0.00108
-1.544e-02,-0.00264
-1.536e-02,-0.00104
-1.528e-02,0.00084
-1.520e-02,-0.00156
-1.512e-02,0.00072
-1.504e-02,0.0018
-1.496e-02,-0.00104
-1.488e-02,0.001
-1.480e-02,-0.001
-1.472e-02,0.00032
-1.464e-02,-0.00096
-1.456e-02,0.00128
-1.448e-02,-0.00076
-1.440e-02,0.00228
-1.432e-02,-0.00028
-1.424e-02,-4e-05
-1.416e-02,-0.00024
-1.408e-02,0.00052
-1.400e-02,0.0012
-1.392e-02,0.00076
-1.384e-02,-0.00168
-1.376e-02,-0.00164
-1.368e-02,0.00168
-1.360e-02,-0.00072
-1.352e-02,0.00036
-1.344e-02,0.0026
-1.336e-02,-0.00216
-1.328e-02,0.00308
-1.320e-02,-0.0008
-1.312e-02,-0.0006
-1.304e-02,-0.00144
-1.296e-02,0.00024
-1.288e-02,-0.0018
-1.280e-02,0.00132
-1.272e-02,-0.0024
-1.264e-02,-0.00164
-1.256e-02,-0.00256
-1.248e-02,-0.00012
-1.240e-02,-0.00124
-1.232e-02,-0.0016
-1.224e-02,0.00036
-1.216e-02,0.00188
-1.208e-02,-0.0022
-1.200e-02,0.00016
-1.192e-02,0.00096
-1.184e-02,-0.00092
-1.176e-02,-8e-05
-1.168e-02,0.00164
-1.160e-02,0.0008
-1.152e-02,-0.0004
-1.144e-02,-0.00192
-1.136e-02,0.00328
-1.128e-02,-0.00252
-1.120e-02,0.00108
-1.112e-02,0.00152
-1.104e-02,-0.00212
-1.096e-02,0.00152
-1.088e-02,0.00204
-1.080e-02,0.00196
-1.072e-02,0.00252
-1.064e-02,0.00228
-1.056e-02,-0.00032
-1.048e-02,0.00088
-1.040e-02,0.00136
-1.032e-02,0.00264
-1.024e-02,-0.0006
-1.016e-02,-0.00132
-1.008e-02,0.00192
-1.000e-02,0.0014
-9.920e-03,-0.00232
-9.840e-03,-0.00012
-9.760e-03,0.00156
-9.680e-03,-0.00112
-9.600e-03,0.00052
-9.520e-03,0.00252
-9.440e-03,-0.00152
-9.360e-03,-0.00188
-9.280e-03,-0.0004
-9.200e-03,-0.00208
-9.120e-03,-0.0004
-9.040e-03,0.00204
-8.960e-03,0.00068
-8.880e-03,-0.0016
-8.800e-03,0.00224
-8.720e-03,-0.00248
-8.640e-03,-0.00112
-8.560e-03,0.00088
-8.480e-03,0.00044
-8.400e-03,0.00268
-8.320e-03,-4e-05
-8.240e-03,-0.00012
-8.160e-03,-0.0016
-8.080e-03,-0.00064
-8.000e-03,-0.00072
-7.920e-03,-0.00084
-7.840e-03,-0.00104
-7.760e-03,-0.00044
-7.680e-03,-4e-05
-7.600e-03,-0.00196
-7.520e-03,-0.00152
-7.440e-03,-0.001
-7.360e-03,0.00052
-7.280e-03,0.00132
-7.200e-03,0.00372
-7.120e-03,0.00196
-7.040e-03,-0.00012
-6.960e-03,-0.00144
-6.880e-03,-0.00188
-6.800e-03,0.00188
-6.720e-03,-0.00012
-6.640e-03,0.00052
-6.560e-03,-0.0014
-6.480e-03,0.002
-6.400e-03,0.00224
-6.320e-03,-0.00156
-6.240e-03,0.00156
-6.160e-03,-0.00136
-6.080e-03,0.00168
-6.000e-03,-0.00088
-5.920e-03,0.00176
-5.840e-03,-0.00256
-5.760e-03,-0.0018
-5.680e-03,0.00064
-5.600e-03,0.0004
-5.520e-03,-0.00028
-5.440e-03,0.00048
-5.360e-03,0.00072
-5.280e-03,-0.0016
-5.200e-03,-0.00136
-5.120e-03,-0.00108
-5.040e-03,0.00036
-4.960e-03,0.0002
-4.880e-03,0.00016
-4.800e-03,0.00116
-4.720e-03,0.00172
-4.640e-03,0.00072
-4.560e-03,0.00124
-4.480e-03,0.00124
-4.400e-03,-0.00056
-4.320e-03,0.00136
-4.240e-03,0.00116
-4.160e-03,0.00216
-4.080e-03,4e-05
-4.000e-03,0.00048
-3.920e-03,0.0026
-3.840e-03,0.0016
-3.760e-03,0.0008
-3.680e-03,0.00196
-3.600e-03,0.00096
-3.520e-03,-8e-05
-3.440e-03,-0.00252
-3.360e-03,-0.0022
-3.280e-03,-4e-05
-3.200e-03,0.00124
-3.120e-03,0.00028
-3.040e-03,-0.00104
-2.960e-03,-0.00072
-2.880e-03,0.00164
-2.800e-03,0.00148
-2.720e-03,-0.00208
-2.640e-03,4e-05
-2.560e-03,-0.00028
-2.480e-03,-0.00216
-2.400e-03,-0.00036
-2.320e-03,0
-2.240e-03,-0.00088
-2.160e-03,0.00092
-2.080e-03,-0.00136
-2.000e-03,0.00288
-1.920e-03,-0.00272
-1.840e-03,0.00308
-1.760e-03,0.00096
-1.680e-03,-0.00156
-1.600e-03,0.00228
-1.520e-03,0.00116
-1.440e-03,-0.0014
-1.360e-03,0.0004
-1.280e-03,0.002
-1.200e-03,-0.00052
-1.120e-03,-0.00316
-1.040e-03,0.00024
-9.600e-04,0.00288
-8.800e-04,0.00064
-8.000e-04,-0.0006
-7.200e-04,-0.00188
-6.400e-04,0.00148
-5.600e-04,-0.00144
-4.800e-04,0.00084
-4.000e-04,0.00284
-3.200e-04,-0.00176
-2.400e-04,0.00052
-1.600e-04,-0.00072
-8.000e-05,-0.00188
-1.508e-15,0.00172
8.000e-05,0.00036
1.600e-04,-0.00172
2.400e-04,-0.00064
3.200e-04,-0.00016
4.000e-04,-0.00048
4.800e-04,-0.00124
5.600e-04,0.00088
6.400e-04,0.00248
7.200e-04,-0.0008
8.000e-04,-0.00264
8.800e-04,0.00264
9.600e-04,0.00084
1.040e-03,-0.00172
1.120e-03,-0.00104
1.200e-03,0.00224
1.280e-03,-0.0006
1.360e-03,0.00116
1.440e-03,0.00236
1.520e-03,0.001
1.600e-03,-0.00172
1.680e-03,0.0014
1.760e-03,-0.00292
1.840e-03,-0.00052
1.920e-03,-0.0018
2.000e-03,-0.00204
2.080e-03,0.00064
2.160e-03,0.00172
2.240e-03,-0.00052
2.320e-03,0.00188
2.400e-03,0.00116
2.480e-03,-4e-05
2.560e-03,0.00144
2.640e-03,0.00084
2.720e-03,-0.00044
2.800e-03,-0.00132
2.880e-03,-0.00116
2.960e-03,-0.00016
3.040e-03,0.0022
3.120e-03,0.00208
3.200e-03,-0.001
3.280e-03,-0.00172
3.360e-03,0.00224
3.440e-03,0.00132
3.520e-03,0.00092
3.600e-03,-0.0012
3.680e-03,-0.00024
3.760e-03,0.0008
3.840e-03,-0.00212
3.920e-03,0.00124
4.000e-03,-0.00124
4.080e-03,-0.00212
4.160e-03,-0.001
4.240e-03,-0.00108
4.320e-03,-0.00064
4.400e-03,-0.0006
4.480e-03,-0.00168
4.560e-03,-0.0002
4.640e-03,0.00128
4.720e-03,0.00072
4.800e-03,-0.00076
4.880e-03,0.00048
4.960e-03,0.00172
5.040e-03,-0.0012
5.120e-03,0.00072
5.200e-03,-0.00128
5.280e-03,0.00228
5.360e-03,-0.00224
5.440e-03,0.00024
5.520e-03,0.00132
5.600e-03,-0.00268
5.680e-03,0.00056
5.760e-03,-0.00148
5.840e-03,0.00276
5.920e-03,0.00052
6.000e-03,-0.00232
6.080e-03,-0.0032
6.160e-03,-0.00104
6.240e-03,0.00052
6.320e-03,-0.00232
6.400e-03,0.00016
6.480e-03,0.00104
6.560e-03,-0.00196
6.640e-03,-0.0024
6.720e-03,0.00108
6.800e-03,-0.00084
6.880e-03,-8e-05
6.960e-03,0.00364
7.040e-03,-0.00076
7.120e-03,0.00192
7.200e-03,0.00084
7.280e-03,-0.00156
7.360e-03,0.00036
7.440e-03,0.0018
7.520e-03,-0.00304
7.600e-03,-0.00176
7.680e-03,-0.00164
7.760e-03,0.00072
7.840e-03,0.00036
7.920e-03,0.0006
8.000e-03,-0.00108
8.080e-03,0.00152
8.160e-03,-0.00116
8.240e-03,-0.00096
8.320e-03,0.00096
8.400e-03,-0.00156
8.480e-03,-0.002
8.560e-03,0.00212
8.640e-03,-0.00224
8.720e-03,-0.0004
8.800e-03,-0.00036
8.880e-03,0.00192
8.960e-03,0.00024
9.040e-03,0.00288
9.120e-03,-0.00152
9.200e-03,-0.001
9.280e-03,-0.00116
9.360e-03,-0.00024
9.440e-03,0.00224
9.520e-03,0.00168
9.600e-03,0.00176
9.680e-03,0.00232
9.760e-03,-0.00148
9.840e-03,-0.00052
9.920e-03,-0.00268
1.000e-02,-0.00228
1.008e-02,0.00204
1.016e-02,0.00288
1.024e-02,0.00084
1.032e-02,-0.00192
1.040e-02,0.00084
1.048e-02,-0.00036
1.056e-02,-0.00168
1.064e-02,-0.0018
1.072e-02,-0.0014
1.080e-02,-0.0014
1.088e-02,0.00104
1.096e-02,-0.00148
1.104e-02,-0.0002
1.112e-02,0.0004
1.120e-02,-0.00136
1.128e-02,0.0006
1.136e-02,0.00128
1.144e-02,-0.00232
1.152e-02,-0.00132
1.160e-02,0.00088
1.168e-02,0.00148
1.176e-02,0.00148
1.184e-02,-0.002
1.192e-02,0.00068
1.200e-02,8e-05
1.208e-02,0.00304
1.216e-02,0.00188
1.224e-02,-0.00152
1.232e-02,-0.00068
