data/PSU_noise/PSU2_CV2_0A_100ms.CSV

Model,TBS1102C
Firmware Version,v2015-08-04-prequal4ch70_v1.3

Point Format,Y
Horizontal Units,S
Horizontal Scale,0.1
Sample Interval,0.0008
Filter Frequency,2e+08
Record Length,2000
Gating,0.0% to 100.0%
Probe Attenuation,1
Vertical Units,V
Vertical Offset,0
Vertical Scale,0.005
Label,
TIME,CH1
-7.904e-01,-0.0106
-7.896e-01,-0.0004
-7.888e-01,-0.0026
-7.880e-01,0.003
-7.872e-01,0.0034
-7.864e-01,-0.0046
-7.856e-01,0.0026
-7.848e-01,-0.0004
-7.840e-01,0.0014
-7.832e-01,-0.0052
-7.824e-01,-0.0008
-7.816e-01,-0.0032
-7.808e-01,0.007
-7.800e-01,0.0018
-7.792e-01,-0.0028
-7.784e-01,-0.0002
-7.776e-01,-0.0036
-7.768e-01,0.0046
-7.760e-01,-0.0028
-7.752e-01,0.0056
-7.744e-01,0.002
-7.736e-01,-0.0016
-7.728e-01,0.0022
-7.720e-01,-0.0098
-7.712e-01,0.007
-7.704e-01,0.0018
-7.696e-01,0.003
-7.688e-01,-0.004
-7.680e-01,0.0112
-7.672e-01,0.0062
-7.664e-01,-0.0074
-7.656e-01,0.011
-7.648e-01,-0.0048
-7.640e-01,0.0016
-7.632e-01,0.0032
-7.624e-01,-0.0002
-7.616e-01,0.0078
-7.608e-01,0.0062
-7.600e-01,0.0022
-7.592e-01,-0.0056
-7.584e-01,-0.0016
-7.576e-01,0.0002
-7.568e-01,0.0074
-7.560e-01,0.0016
-7.552e-01,-0.0022
-7.544e-01,-0.0026
-7.536e-01,-0.0014
-7.528e-01,0.0124
-7.520e-01,0.0024
-7.512e-01,-0.005
-7.504e-01,0.0032
-7.496e-01,0.0032
-7.488e-01,-0.0022
-7.480e-01,-0.001
-7.472e-01,0.0034
-7.464e-01,-0.0026
-7.456e-01,-0.0022
-7.448e-01,0.0138
-7.440e-01,0.0042
-7.432e-01,-0.0032
-7.424e-01,0.001
-7.416e-01,0.0014
-7.408e-01,0.0066
-7.400e-01,-0.005
-7.392e-01,0.0018
-7.384e-01,-0.0026
-7.376e-01,0.0038
-7.368e-01,0.0002
-7.360e-01,0.001
-7.352e-01,-0.0018
-7.344e-01,-0.0002
-7.336e-01,0.0034
-7.328e-01,-0.002
-7.320e-01,-0.0006
-7.312e-01,-0.0048
-7.304e-01,0.006
-7.296e-01,-0.0016
-7.288e-01,0.0046
-7.280e-01,0.0068
-7.272e-01,-0.006
-7.264e-01,-0.0104
-7.256e-01,-0.0034
-7.248e-01,-0.0026
-7.240e-01,0.0042
-7.232e-01,0.0054
-7.224e-01,-0.0016
-7.216e-01,-0.0036
-7.208e-01,-0.0008
-7.200e-01,-0.0014
-7.192e-01,-0.0026
-7.184e-01,0.001
-7.176e-01,-0.003
-7.168e-01,-0.0036
-7.160e-01,0.0098
-7.152e-01,-0.0034
-7.144e-01,0.0062
-7.136e-01,-0.0006
-7.128e-01,-0.0034
-7.120e-01,0.0064
-7.112e-01,-0.0054
-7.104e-01,-0.003
-7.096e-01,-0.0018
-7.088e-01,-0.0006
-7.080e-01,-0.0046
-7.072e-01,0.0054
-7.064e-01,0.0044
-7.056e-01,0.004
-7.048e-01,-0.0026
-7.040e-01,-0.0008
-7.032e-01,0.0108
-7.024e-01,0.0046
-7.016e-01,-0.0076
-7.008e-01,-0.0028
-7.000e-01,0.0062
-6.992e-01,0.0038
-6.984e-01,-0.0002
-6.976e-01,-0.0006
-6.968e-01,0.0034
-6.960e-01,0.0006
-6.952e-01,-0.0012
-6.944e-01,0.0008
-6.936e-01,0.0014
-6.928e-01,-0.005
-6.920e-01,-0.003
-6.912e-01,-0.0034
-6.904e-01,-0.0038
-6.896e-01,0.0038
-6.888e-01,-0.0022
-6.880e-01,0.0002
-6.872e-01,-0.0014
-6.864e-01,-0.0068
-6.856e-01,-0.0028
-6.848e-01,0.006
-6.840e-01,-0.0044
-6.832e-01,-0.0078
-6.824e-01,-0.0008
-6.816e-01,0.0028
-6.808e-01,-0.0048
-6.800e-01,0.0122
-6.792e-01,0.0038
-6.784e-01,-0.0106
-6.776e-01,-0.0036
-6.768e-01,-0.0006
-6.760e-01,-0.0066
-6.752e-01,0.006
-6.744e-01,-0.0048
-6.736e-01,-0.0014
-6.728e-01,-0.0004
-6.720e-01,-0.0034
-6.712e-01,0.0126
-6.704e-01,0.0014
-6.696e-01,-0.002
-6.688e-01,-0.0042
-6.680e-01,-0.0016
-6.672e-01,0.0036
-6.664e-01,0.0008
-6.656e-01,-0.0004
-6.648e-01,0.007
-6.640e-01,-0.0012
-6.632e-01,-0.0002
-6.624e-01,0.0004
-6.616e-01,0.0008
-6.608e-01,0.0008
-6.600e-01,-0.001
-6.592e-01,-0.0004
-6.584e-01,-0.0024
-6.576e-01,-0.0066
-6.568e-01,0.0048
-6.560e-01,-0.0046
-6.552e-01,-0.0014
-6.544e-01,0.002
-6.536e-01,-0.0052
-6.528e-01,-0.008
-6.520e-01,0.001
-6.512e-01,-0.0044
-6.504e-01,-0.001
-6.496e-01,0.001
-6.488e-01,0.0018
-6.480e-01,0.0004
-6.472e-01,-0.0054
-6.464e-01,-0.003
-6.456e-01,0.005
-6.448e-01,-0.0076
-6.440e-01,-0.0022
-6.432e-01,0
-6.424e-01,0.0048
-6.416e-01,-0.0018
-6.408e-01,-0.0012
-6.400e-01,-0.003
-6.392e-01,-0.0012
-6.384e-01,-0.0002
-6.376e-01,0.002
-6.368e-01,0.0016
-6.360e-01,-0.004
-6.352e-01,0.0036
-6.344e-01,0.0004
-6.336e-01,-0.0028
-6.328e-01,0.0034
-6.320e-01,0.0052
-6.312e-01,0.0008
-6.304e-01,0.0036
-6.296e-01,0.0012
-6.288e-01,-0.0056
-6.280e-01,0.0154
-6.272e-01,-0.0024
-6.264e-01,0.0048
-6.256e-01,-0.0022
-6.248e-01,0.0004
-6.240e-01,-0.006
-6.232e-01,0.0002
-6.224e-01,-0.0108
-6.216e-01,0.0056
-6.208e-01,-0.002
-6.200e-01,0.0092
-6.192e-01,0.0076
-6.184e-01,-0.0014
-6.176e-01,0.0008
-6.168e-01,-0.0024
-6.160e-01,0.004
-6.152e-01,0
-6.144e-01,-0.0002
-6.136e-01,-0.0012
-6.128e-01,0.0044
-6.120e-01,-0.004
-6.112e-01,-0.0004
-6.104e-01,0.0016
-6.096e-01,0.005
-6.088e-01,0.0074
-6.080e-01,-0.0092
-6.072e-01,0.0018
-6.064e-01,0.0014
-6.056e-01,0.0046
-6.048e-01,-0.004
-6.040e-01,0.0132
-6.032e-01,0.0066
-6.024e-01,-0.0002
-6.016e-01,0.0076
-6.008e-01,-0.0044
-6.000e-01,0.0004
-5.992e-01,0.0002
-5.984e-01,-0.0006
-5.976e-01,-0.011
-5.968e-01,0.0004
-5.960e-01,0.0066
-5.952e-01,-0.0042
-5.944e-01,0.0006
-5.936e-01,0.003
-5.928e-01,-0.003
-5.920e-01,0.0006
-5.912e-01,0.0118
-5.904e-01,0.0062
-5.896e-01,-0.001
-5.888e-01,-0.0014
-5.880e-01,0.0042
-5.872e-01,-0.0048
-5.864e-01,-0.0006
-5.856e-01,-0.0068
-5.848e-01,-0.0076
-5.840e-01,-0.0024
-5.832e-01,-0.0006
-5.824e-01,0.0088
-5.816e-01,-0.0034
-5.808e-01,0.002
-5.800e-01,-0.0014
-5.792e-01,0.0034
-5.784e-01,-0.0074
-5.776e-01,0.0034
-5.768e-01,-0.0008
-5.760e-01,-0.0002
-5.752e-01,0.0048
-5.744e-01,-0.006
-5.736e-01,0.0058
-5.728e-01,0.002
-5.720e-01,-0.0028
-5.712e-01,-0.0016
-5.704e-01,-0.0016
-5.696e-01,-0.0034
-5.688e-01,-0.0016
-5.680e-01,0.0012
-5.672e-01,-0.0098
-5.664e-01,-0.0066
-5.656e-01,0.0042
-5.648e-01,0.001
-5.640e-01,-0.0004
-5.632e-01,-0.0034
-5.624e-01,-0.0052
-5.616e-01,0.0052
-5.608e-01,-0.0006
-5.600e-01,-0.0018
-5.592e-01,0.015
-5.584e-01,0.0026
-5.576e-01,-0.0014
-5.568e-01,0.005
-5.560e-01,0.0106
-5.552e-01,0.0038
-5.544e-01,0.0002
-5.536e-01,-0.0032
-5.528e-01,0.0126
-5.520e-01,-0.0034
-5.512e-01,0.004
-5.504e-01,0.0024
-5.496e-01,0.0044
-5.488e-01,-0.0008
-5.480e-01,-0.003
-5.472e-01,-0.0018
-5.464e-01,0.0044
-5.456e-01,-0.0026
-5.448e-01,0.0018
-5.440e-01,0.0046
-5.432e-01,0.0002
-5.424e-01,-0.0058
-5.416e-01,-0.0044
-5.408e-01,-0.0034
-5.400e-01,0.0026
-5.392e-01,-0.0052
-5.384e-01,0.0006
-5.376e-01,0.0042
-5.368e-01,0.0044
-5.360e-01,-0.0006
-5.352e-01,-0.0044
-5.344e-01,-0.001
-5.336e-01,-0.0044
-5.328e-01,-0.0002
-5.320e-01,-0.0006
-5.312e-01,0.002
-5.304e-01,-0.0122
-5.296e-01,-0.0042
-5.288e-01,0.0066
-5.280e-01,-0.007
-5.272e-01,-0.002
-5.264e-01,0
-5.256e-01,-0.0022
-5.248e-01,-0.0024
-5.240e-01,0.003
-5.232e-01,-0.0012
-5.224e-01,-0.0024
-5.216e-01,-0.0024
-5.208e-01,-0.0058
-5.200e-01,0.004
-5.192e-01,0.009
-5.184e-01,-0.0016
-5.176e-01,-0.0014
-5.168e-01,-0.0006
-5.160e-01,0.0022
-5.152e-01,0.0042
-5.144e-01,-0.0108
-5.136e-01,0.0006
-5.128e-01,0.005
-5.120e-01,-0.0008
-5.112e-01,0.0022
-5.104e-01,-0.01
-5.096e-01,-0.008
-5.088e-01,0.0006
-5.080e-01,0.0128
-5.072e-01,0.0056
-5.064e-01,0.0032
-5.056e-01,-0.0002
-5.048e-01,-0.002
-5.040e-01,0.0012
-5.032e-01,-0.0036
-5.024e-01,-0.012
-5.016e-01,-0.002
-5.008e-01,-0.001
-5.000e-01,-0.005
-4.992e-01,0.016
-4.984e-01,-0.0014
-4.976e-01,-0.0032
-4.968e-01,0.012
-4.960e-01,0.0136
-4.952e-01,0.0006
-4.944e-01,0.0052
-4.936e-01,0.0026
-4.928e-01,0.0102
-4.920e-01,0.0114
-4.912e-01,0.0028
-4.904e-01,-0.0014
-4.896e-01,-0.001
-4.888e-01,-0.003
-4.880e-01,-0.0094
-4.872e-01,0.006
-4.864e-01,-0.0012
-4.856e-01,0.0068
-4.848e-01,-0.0008
-4.840e-01,0.0022
-4.832e-01,-0.009
-4.824e-01,-0.01
-4.816e-01,-0.0012
-4.808e-01,0.0012
-4.800e-01,0.0038
-4.792e-01,-0.0046
-4.784e-01,-0.0004
-4.776e-01,-0.0022
-4.768e-01,0.0006
-4.760e-01,0.0022
-4.752e-01,-0.007
-4.744e-01,-0.0052
-4.736e-01,0.0004
-4.728e-01,0.0062
-4.720e-01,0.0016
-4.712e-01,-0.0082
-4.704e-01,-0.0028
-4.696e-01,-0.0028
-4.688e-01,0.0058
-4.680e-01,0.0038
-4.672e-01,0.0046
-4.664e-01,-0.0026
-4.656e-01,-0.0102
-4.648e-01,-0.0038
-4.640e-01,0.0084
-4.632e-01,-0.0046
-4.624e-01,-0.0018
-4.616e-01,0.0162
-4.608e-01,0
-4.600e-01,-0.001
-4.592e-01,0.0068
-4.584e-01,-0.0034
-4.576e-01,0.0156
-4.568e-01,-0.0018
-4.560e-01,0.0046
-4.552e-01,-0.0048
-4.544e-01,0.0044
-4.536e-01,-0.0026
-4.528e-01,-0.0006
-4.520e-01,-0.0038
-4.512e-01,-0.0018
-4.504e-01,-0.0016
-4.496e-01,-0.0052
-4.488e-01,-0.001
-4.480e-01,0.0052
-4.472e-01,-0.0024
-4.464e-01,0.0022
-4.456e-01,0.0072
-4.448e-01,-0.0038
-4.440e-01,-0.0034
-4.432e-01,0.0024
-4.424e-01,0
-4.416e-01,-0.0018
-4.408e-01,0.0124
-4.400e-01,-0.0014
-4.392e-01,-0.0002
-4.384e-01,0.0002
-4.376e-01,0.0056
-4.368e-01,0.0162
-4.360e-01,0.002
-4.352e-01,-0.003
-4.344e-01,-0.0056
-4.336e-01,0.005
-4.328e-01,-0.0056
-4.320e-01,-0.0008
-4.312e-01,0.0008
-4.304e-01,0.0012
-4.296e-01,-0.007
-4.288e-01,-0.0044
-4.280e-01,-0.0004
-4.272e-01,-0.0052
-4.264e-01,-0.0012
-4.256e-01,0
-4.248e-01,-0.0116
-4.240e-01,-0.0044
-4.232e-01,0.0002
-4.224e-01,-0.0004
-4.216e-01,-0.004
-4.208e-01,-0.0008
-4.200e-01,0.0002
-4.192e-01,-0.0042
-4.184e-01,0.0062
-4.176e-01,0.0082
-4.168e-01,-0.0082
-4.160e-01,0.0036
-4.152e-01,-0.003
-4.144e-01,0.0064
-4.136e-01,-0.0044
-4.128e-01,-0.0002
-4.120e-01,0.0004
-4.112e-01,-0.004
-4.104e-01,0.0006
-4.096e-01,0.0104
-4.088e-01,0.0004
-4.080e-01,0.0016
-4.072e-01,-0.001
-4.064e-01,-0.0038
-4.056e-01,0.0062
-4.048e-01,-0.0012
-4.040e-01,0.0014
-4.032e-01,0.0016
-4.024e-01,-0.0024
-4.016e-01,0.0004
-4.008e-01,-0.0042
-4.000e-01,-0.0048
-3.992e-01,-0.0002
-3.984e-01,-0.0026
-3.976e-01,-0.0024
-3.968e-01,-0.0018
-3.960e-01,0.0058
-3.952e-01,0.0006
-3.944e-01,0.005
-3.936e-01,0.004
-3.928e-01,-0.0006
-3.920e-01,-0.0054
-3.912e-01,0.0046
-3.904e-01,0.0012
-3.896e-01,0.0038
-3.888e-01,-0.004
-3.880e-01,-0.0118
-3.872e-01,-0.0016
-3.864e-01,-0.0002
-3.856e-01,0.0012
-3.848e-01,-0.0022
-3.840e-01,0.002
-3.832e-01,0.0006
-3.824e-01,-0.001
-3.816e-01,-0.0034
-3.808e-01,0
-3.800e-01,-0.0034
-3.792e-01,-0.0032
-3.784e-01,0.001
-3.776e-01,0.004
-3.768e-01,-0.0052
-3.760e-01,-0.0044
-3.752e-01,-0.0072
-3.744e-01,0.0074
-3.736e-01,0.0006
-3.728e-01,-0.002
-3.720e-01,0.0046
-3.712e-01,0.0006
-3.704e-01,-0.0024
-3.696e-01,0.0074
-3.688e-01,-0.003
-3.680e-01,-0.0014
-3.672e-01,-0.0008
-3.664e-01,-0.0018
-3.656e-01,0.0008
-3.648e-01,0.004
-3.640e-01,0.0006
-3.632e-01,0.0048
-3.624e-01,-0.0004
-3.616e-01,-0.0046
-3.608e-01,0.005
-3.600e-01,0.0002
-3.592e-01,0.013
-3.584e-01,0.0038
-3.576e-01,0.0022
-3.568e-01,-0.0012
-3.560e-01,-0.0022
-3.552e-01,0.0056
-3.544e-01,0.0016
-3.536e-01,0.0022
-3.528e-01,0.0038
-3.520e-01,-0.0044
-3.512e-01,0.002
-3.504e-01,0.0038
-3.496e-01,0.0004
-3.488e-01,0.0028
-3.480e-01,-0.0012
-3.472e-01,0.0006
-3.464e-01,0.0082
-3.456e-01,0
-3.448e-01,-0.0008
-3.440e-01,0.012
-3.432e-01,0.0108
-3.424e-01,0.0036
-3.416e-01,-0.0074
-3.408e-01,-0.003
-3.400e-01,0.006
-3.392e-01,-0.0056
-3.384e-01,-0.0008
-3.376e-01,-0.0018
-3.368e-01,-0.0008
-3.360e-01,-0.0046
-3.352e-01,0.0022
-3.344e-01,0.0014
-3.336e-01,0.0144
-3.328e-01,0.0026
-3.320e-01,-0.0026
-3.312e-01,-0.0056
-3.304e-01,-0.0012
-3.296e-01,0.0024
-3.288e-01,0.0058
-3.280e-01,-0.0018
-3.272e-01,0.0018
-3.264e-01,-0.002
-3.256e-01,-0.003
-3.248e-01,-0.0054
-3.240e-01,-0.0014
-3.232e-01,-0.0008
-3.224e-01,0.008
-3.216e-01,0.0036
-3.208e-01,-0.001
-3.200e-01,-0.0054
-3.192e-01,0.0042
-3.184e-01,-0.0026
-3.176e-01,-0.0024
-3.168e-01,-0.0012
-3.160e-01,0.0008
-3.152e-01,-0.0032
-3.144e-01,0.002
-3.136e-01,0.0026
-3.128e-01,-0.0034
-3.120e-01,0.0008
-3.112e-01,-0.0028
-3.104e-01,-0.0016
-3.096e-01,-0.003
-3.088e-01,0.0078
-3.080e-01,-0.0036
-3.072e-01,-0.0032
-3.064e-01,-0.0032
-3.056e-01,-0.0004
-3.048e-01,-0.0024
-3.040e-01,-0.0012
-3.032e-01,-0.0004
-3.024e-01,0.0038
-3.016e-01,-0.0032
-3.008e-01,-0.005
-3.000e-01,-0.0052
-2.992e-01,-0.0008
-2.984e-01,-0.0028
-2.976e-01,0.0008
-2.968e-01,-0.002
-2.960e-01,0.0162
-2.952e-01,0.001
-2.944e-01,0.002
-2.936e-01,0.0078
-2.928e-01,0.0006
-2.920e-01,-0.0004
-2.912e-01,-0.001
-2.904e-01,0.0022
-2.896e-01,0.0008
-2.888e-01,-0.0016
-2.880e-01,0.0012
-2.872e-01,-0.002
-2.864e-01,-0.0034
-2.856e-01,-0.0028
-2.848e-01,0.0022
-2.840e-01,-0.0002
-2.832e-01,0.0016
-2.824e-01,0.0044
-2.816e-01,-0.0064
-2.808e-01,-0.004
-2.800e-01,-0.0022
-2.792e-01,-0.004
-2.784e-01,0
-2.776e-01,0.0036
-2.768e-01,-0.0056
-2.760e-01,-0.0016
-2.752e-01,-0.0024
-2.744e-01,0.005
-2.736e-01,-0.0082
-2.728e-01,-0.0034
-2.720e-01,-0.0094
-2.712e-01,0.0004
-2.704e-01,-0.0022
-2.696e-01,0.0098
-2.688e-01,0.0012
-2.680e-01,0.0016
-2.672e-01,-0.0008
-2.664e-01,0.0046
-2.656e-01,-0.0014
-2.648e-01,0.0032
-2.640e-01,-0.006
-2.632e-01,-0.0034
-2.624e-01,0.0058
-2.616e-01,-0.0078
-2.608e-01,-0.0084
-2.600e-01,-0.0014
-2.592e-01,-0.0044
-2.584e-01,0.0018
-2.576e-01,-0.0102
-2.568e-01,-0.0006
-2.560e-01,0.0044
-2.552e-01,-0.0016
-2.544e-01,0
-2.536e-01,0.0046
-2.528e-01,0.0044
-2.520e-01,0.0138
-2.512e-01,0.0036
-2.504e-01,-0.0038
-2.496e-01,-0.008
-2.488e-01,0.0028
-2.480e-01,-0.0042
-2.472e-01,0.0038
-2.464e-01,0.003
-2.456e-01,-0.0028
-2.448e-01,0.0028
-2.440e-01,-0.002
-2.432e-01,-0.0024
-2.424e-01,-0.0026
-2.416e-01,0.0022
-2.408e-01,-0.0038
-2.400e-01,-0.007
-2.392e-01,-0.001
-2.384e-01,-0.0026
-2.376e-01,-0.0034
-2.368e-01,0.0068
-2.360e-01,-0.003
-2.352e-01,-0.0014
-2.344e-01,0.0062
-2.336e-01,0.002
-2.328e-01,-0.0004
-2.320e-01,0.0032
-2.312e-01,0.0008
-2.304e-01,0.0056
-2.296e-01,-0.0056
-2.288e-01,0.0006
-2.280e-01,-0.0006
-2.272e-01,-0.0016
-2.264e-01,0.003
-2.256e-01,0.0002
-2.248e-01,0.007
-2.240e-01,0.0038
-2.232e-01,-0.0018
-2.224e-01,0.008
-2.216e-01,0.0026
-2.208e-01,-0.0028
-2.200e-01,0.0002
-2.192e-01,-0.002
-2.184e-01,0.0036
-2.176e-01,-0.0034
-2.168e-01,-0.0016
-2.160e-01,0.0002
-2.152e-01,-0.0022
-2.144e-01,0.007
-2.136e-01,-0.0072
-2.128e-01,0.0022
-2.120e-01,-0.0014
-2.112e-01,-0.0018
-2.104e-01,0.0002
-2.096e-01,0
-2.088e-01,0.0056
-2.080e-01,0.0018
-2.072e-01,0.0004
-2.064e-01,-0.0114
-2.056e-01,0.004
-2.048e-01,-0.0026
-2.040e-01,0.0114
-2.032e-01,0.0002
-2.024e-01,0.0022
-2.016e-01,-0.0056
-2.008e-01,-0.0024
-2.000e-01,0.0018
-1.992e-01,-0.007
-1.984e-01,0.0064
-1.976e-01,0
-1.968e-01,0.006
-1.960e-01,-0.0014
-1.952e-01,0.01
-1.944e-01,0.0044
-1.936e-01,0.0006
-1.928e-01,-0.0022
-1.920e-01,0.0004
-1.912e-01,-0.0006
-1.904e-01,-0.0032
-1.896e-01,-0.0096
-1.888e-01,0.0012
-1.880e-01,-0.0018
-1.872e-01,0.0052
-1.864e-01,0.0026
-1.856e-01,-0.0122
-1.848e-01,-0.001
-1.840e-01,0.0086
-1.832e-01,0.0168
-1.824e-01,0.0048
-1.816e-01,-0.0022
-1.808e-01,0.0004
-1.800e-01,0.0024
-1.792e-01,-0.003
-1.784e-01,-0.0012
-1.776e-01,0.0022
-1.768e-01,0.0026
-1.760e-01,0.0042
-1.752e-01,0
-1.744e-01,-0.0032
-1.736e-01,-0.008
-1.728e-01,0.0062
-1.720e-01,-0.0036
-1.712e-01,-0.0058
-1.704e-01,0.0012
-1.696e-01,0.0048
-1.688e-01,0.0046
-1.680e-01,0.0036
-1.672e-01,-0.001
-1.664e-01,0.0032
-1.656e-01,0.0026
-1.648e-01,0.003
-1.640e-01,0.0038
-1.632e-01,0.0016
-1.624e-01,-0.0014
-1.616e-01,0.0016
-1.608e-01,-0.0048
-1.600e-01,0.0006
-1.592e-01,0.0006
-1.584e-01,-0.0084
-1.576e-01,0.006
-1.568e-01,-0.0006
-1.560e-01,0.0044
-1.552e-01,-0.0002
-1.544e-01,-0.0014
-1.536e-01,0.0074
-1.528e-01,0.0014
-1.520e-01,-0.0048
-1.512e-01,-0.001
-1.504e-01,-0.0016
-1.496e-01,0.0022
-1.488e-01,0.0016
-1.480e-01,0.0026
-1.472e-01,-0.0064
-1.464e-01,-0.0038
-1.456e-01,-0.0012
-1.448e-01,0.0032
-1.440e-01,0.0014
-1.432e-01,-0.0014
-1.424e-01,-0.0074
-1.416e-01,-0.0076
-1.408e-01,0.0006
-1.400e-01,0.0056
-1.392e-01,-0.0022
-1.384e-01,-0.0052
-1.376e-01,-0.002
-1.368e-01,-0.0044
-1.360e-01,0.0026
-1.352e-01,-0.0028
-1.344e-01,-0.0064
-1.336e-01,-0.0026
-1.328e-01,-0.0028
-1.320e-01,0.0064
-1.312e-01,-0.0012
-1.304e-01,0.0058
-1.296e-01,0.0034
-1.288e-01,0.0008
-1.280e-01,-0.0036
-1.272e-01,-0.0042
-1.264e-01,-0.0006
-1.256e-01,0.0076
-1.248e-01,-0.0026
-1.240e-01,-0.0058
-1.232e-01,0.0028
-1.224e-01,-0.0006
-1.216e-01,-0.0014
-1.208e-01,0.0062
-1.200e-01,0.01
-1.192e-01,-0.002
-1.184e-01,-0.0062
-1.176e-01,-0.0032
-1.168e-01,0.0012
-1.160e-01,0.0074
-1.152e-01,0.0038
-1.144e-01,-0.0002
-1.136e-01,-0.002
-1.128e-01,-0.0002
-1.120e-01,-0.0004
-1.112e-01,-0.003
-1.104e-01,0.0014
-1.096e-01,-0.0044
-1.088e-01,-0.003
-1.080e-01,0.0006
-1.072e-01,0.0006
-1.064e-01,-0.0014
-1.056e-01,0.004
-1.048e-01,0.0036
-1.040e-01,0.003
-1.032e-01,0.0064
-1.024e-01,-0.0042
-1.016e-01,-0.0002
-1.008e-01,-0.0026
-1.000e-01,0.0016
-9.920e-02,-0.0038
-9.840e-02,-0.0028
-9.760e-02,0.0048
-9.680e-02,0
-9.600e-02,0.0004
-9.520e-02,0.0012
-9.440e-02,0.0064
-9.360e-02,-0.003
-9.280e-02,-0.0008
-9.200e-02,0.0008
-9.120e-02,0.0022
-9.040e-02,-0.0006
-8.960e-02,0.0024
-8.880e-02,-0.0016
-8.800e-02,-0.0064
-8.720e-02,-0.011
-8.640e-02,0.0014
-8.560e-02,0.0026
-8.480e-02,0.0038
-8.400e-02,0.0006
-8.320e-02,-0.0004
-8.240e-02,0.004
-8.160e-02,0.0092
-8.080e-02,-0.0012
-8.000e-02,-0.0004
-7.920e-02,0.0036
-7.840e-02,0.001
-7.760e-02,0.0126
-7.680e-02,0.0018
-7.600e-02,0.0006
-7.520e-02,0.0048
-7.440e-02,-0.002
-7.360e-02,0.0052
-7.280e-02,0.0074
-7.200e-02,-0.0002
-7.120e-02,-0.0036
-7.040e-02,0.0066
-6.960e-02,0.0028
-6.880e-02,0.0002
-6.800e-02,-0.0026
-6.720e-02,-0.0014
-6.640e-02,0.0026
-6.560e-02,0.0086
-6.480e-02,0.0004
-6.400e-02,0.0006
-6.320e-02,-0.001
-6.240e-02,-0.0062
-6.160e-02,-0.0022
-6.080e-02,-0.0018
-6.000e-02,-0.0036
-5.920e-02,0.005
-5.840e-02,0.0038
-5.760e-02,0.0022
-5.680e-02,0.004
-5.600e-02,-0.0008
-5.520e-02,-0.0004
-5.440e-02,0.008
-5.360e-02,0.0018
-5.280e-02,-0.0006
-5.200e-02,0.005
-5.120e-02,-0.0008
-5.040e-02,-0.0028
-4.960e-02,-0.0004
-4.880e-02,-0.001
-4.800e-02,0.002
-4.720e-02,0.004
-4.640e-02,-0.006
-4.560e-02,-0.0032
-4.480e-02,0.0032
-4.400e-02,-0.0028
-4.320e-02,-0.0006
-4.240e-02,0
-4.160e-02,-0.0014
-4.080e-02,0.0026
-4.000e-02,-0.0008
-3.920e-02,0.0072
-3.840e-02,-0.0046
-3.760e-02,0.0044
-3.680e-02,0.0072
-3.600e-02,0.0024
-3.520e-02,-0.0044
-3.440e-02,-0.0004
-3.360e-02,0.0012
-3.280e-02,0.0014
-3.200e-02,0.0002
-3.120e-02,-0.0082
-3.040e-02,0.0066
-2.960e-02,-0.0018
-2.880e-02,-0.0134
-2.800e-02,0.0088
-2.720e-02,-0.0058
-2.640e-02,-0.0014
-2.560e-02,0.0006
-2.480e-02,-0.0024
-2.400e-02,0.001
-2.320e-02,0.0004
-2.240e-02,0.0014
-2.160e-02,-0.0004
-2.080e-02,-0.0074
-2.000e-02,0.007
-1.920e-02,-0.0028
-1.840e-02,-0.0008
-1.760e-02,-0.002
-1.680e-02,0.0052
-1.600e-02,-0.0056
-1.520e-02,0.0016
-1.440e-02,0.0004
-1.360e-02,-0.0008
-1.280e-02,-0.0006
-1.200e-02,0.0082
-1.120e-02,-0.0052
-1.040e-02,-0.0016
-9.600e-03,0.0008
-8.800e-03,-0.0034
-8.000e-03,0.0046
-7.200e-03,0.013
-6.400e-03,0
-5.600e-03,-0.0014
-4.800e-03,-0.004
-4.000e-03,0.0036
-3.200e-03,-0.0074
-2.400e-03,-0.003
-1.600e-03,0.0108
-8.000e-04,0.0048
1.440e-14,-0.0038
8.000e-04,0
1.600e-03,-0.0016
2.400e-03,0.0096
3.200e-03,0.0012
4.000e-03,0
4.800e-03,-0.002
5.600e-03,-0.0052
6.400e-03,0.0018
7.200e-03,0.0058
8.000e-03,0.0006
8.800e-03,-0.003
9.600e-03,0.0016
1.040e-02,-0.0026
1.120e-02,-0.0052
1.200e-02,0.0008
1.280e-02,0.0022
1.360e-02,-0.0002
1.440e-02,0.0192
1.520e-02,0.0046
1.600e-02,-0.0022
1.680e-02,0.0008
1.760e-02,0.0016
1.840e-02,0.0078
1.920e-02,-0.0016
2.000e-02,-0.0046
2.080e-02,0.004
2.160e-02,-0.001
2.240e-02,0.001
2.320e-02,0.0006
2.400e-02,-0.004
2.480e-02,-0.0024
2.560e-02,0.0026
2.640e-02,0.0028
2.720e-02,-0.0004
2.800e-02,0.0004
2.880e-02,0.0006
2.960e-02,0
3.040e-02,0.0068
3.120e-02,-0.0038
3.200e-02,0.0004
3.280e-02,0.0046
3.360e-02,-0.0074
3.440e-02,0.0012
3.520e-02,-0.001
3.600e-02,-0.0014
3.680e-02,0.0008
3.760e-02,0.0036
3.840e-02,-0.0004
3.920e-02,-0.005
4.000e-02,-0.007
4.080e-02,0.0054
4.160e-02,-0.0002
4.240e-02,0.003
4.320e-02,-0.0004
4.400e-02,0.0014
4.480e-02,0.0144
4.560e-02,0.0034
4.640e-02,0.0066
4.720e-02,-0.0068
4.800e-02,-0.008
4.880e-02,-0.0024
4.960e-02,0.0028
5.040e-02,-0.0014
5.120e-02,0.002
5.200e-02,-0.0022
5.280e-02,-0.0032
5.360e-02,-0.0034
5.440e-02,-0.0026
5.520e-02,0.007
5.600e-02,-0.0024
5.680e-02,0.0004
5.760e-02,0.0062
5.840e-02,-0.002
5.920e-02,0.0056
6.000e-02,0.011
6.080e-02,0.0012
6.160e-02,-0.0076
6.240e-02,0.0048
6.320e-02,0.0026
6.400e-02,0.0068
6.480e-02,0.0028
6.560e-02,-0.0018
6.640e-02,0.0008
6.720e-02,0.0058
6.800e-02,-0.0062
6.880e-02,-0.0032
6.960e-02,0.0048
7.040e-02,-0.0054
7.120e-02,0.0052
7.200e-02,-0.0018
7.280e-02,0.002
7.360e-02,-0.0022
7.440e-02,0.0096
7.520e-02,0.0014
7.600e-02,-0.004
7.680e-02,0.001
