data/PSU_noise/PSU2_CV1_20A_10ms.CSV

Model,TBS1102C
Firmware Version,v2015-08-04-prequal4ch70_v1.3

Point Format,Y
Horizontal Units,S
Horizontal Scale,0.01
Sample Interval,8e-05
Filter Frequency,2e+08
Record Length,2000
Gating,0.0% to 100.0%
Probe Attenuation,1
Vertical Units,V
Vertical Offset,0
Vertical Scale,0.001
Label,
TIME,CH1
-7.040e-02,8e-05
-7.032e-02,0.0014
-7.024e-02,0.00072
-7.016e-02,0.00272
-7.008e-02,-0.00108
-7.000e-02,-0.00104
-6.992e-02,-0.00148
-6.984e-02,0.0012
-6.976e-02,0.0002
-6.968e-02,0.00188
-6.960e-02,0.00164
-6.952e-02,0.00012
-6.944e-02,0
-6.936e-02,-0.00088
-6.928e-02,-0.00036
-6.920e-02,-0.00208
-6.912e-02,0.00076
-6.904e-02,-0.00184
-6.896e-02,-0.00056
-6.888e-02,0.0024
-6.880e-02,-0.00192
-6.872e-02,0.00276
-6.864e-02,0.00232
-6.856e-02,-0.00084
-6.848e-02,0.0012
-6.840e-02,0.00052
-6.832e-02,-0.00068
-6.824e-02,-0.00152
-6.816e-02,0.00028
-6.808e-02,-0.00192
-6.800e-02,-0.0002
-6.792e-02,-0.00184
-6.784e-02,0.00104
-6.776e-02,0.00084
-6.768e-02,0.00144
-6.760e-02,0.00264
-6.752e-02,-0.001
-6.744e-02,0.00032
-6.736e-02,-0.0008
-6.728e-02,-0.0006
-6.720e-02,0.00296
-6.712e-02,0.00188
-6.704e-02,-0.00012
-6.696e-02,-0.00212
-6.688e-02,0.00252
-6.680e-02,0.00196
-6.672e-02,-0.00072
-6.664e-02,0.00112
-6.656e-02,0.00188
-6.648e-02,0.00068
-6.640e-02,-0.0016
-6.632e-02,0.00328
-6.624e-02,0.00036
-6.616e-02,-0.0012
-6.608e-02,0.00096
-6.600e-02,0.00068
-6.592e-02,-0.00072
-6.584e-02,-0.00028
-6.576e-02,-0.00056
-6.568e-02,-0.00192
-6.560e-02,-0.00128
-6.552e-02,0.00084
-6.544e-02,-0.0018
-6.536e-02,-0.00136
-6.528e-02,-0.00104
-6.520e-02,-0.00104
-6.512e-02,-0.00044
-6.504e-02,-0.00196
-6.496e-02,-0.00076
-6.488e-02,-0.003
-6.480e-02,0.00148
-6.472e-02,0.00168
-6.464e-02,-0.0012
-6.456e-02,-0.00084
-6.448e-02,-0.00088
-6.440e-02,0.00164
-6.432e-02,0.0024
-6.424e-02,-0.00264
-6.416e-02,-0.00168
-6.408e-02,-0.00068
-6.400e-02,-0.0008
-6.392e-02,-0.001
-6.384e-02,0.0004
-6.376e-02,0.00012
-6.368e-02,0.00072
-6.360e-02,0.00184
-6.352e-02,0.00212
-6.344e-02,-0.00152
-6.336e-02,-0.00128
-6.328e-02,0.00196
-6.320e-02,0.00124
-6.312e-02,-0.00132
-6.304e-02,-0.00316
-6.296e-02,-0.00044
-6.288e-02,-0.0004
-6.280e-02,-0.00124
-6.272e-02,-0.00244
-6.264e-02,-0.0014
-6.256e-02,-0.00136
-6.248e-02,0.00112
-6.240e-02,-0.00168
-6.232e-02,-0.00012
-6.224e-02,0.00084
-6.216e-02,0.001
-6.208e-02,-0.00236
-6.200e-02,0.00108
-6.192e-02,0.00072
-6.184e-02,0.00012
-6.176e-02,-0.00148
-6.168e-02,-0.0008
-6.160e-02,-0.0008
-6.152e-02,-0.0004
-6.144e-02,0.00156
-6.136e-02,-0.00208
-6.128e-02,0.00064
-6.120e-02,0.00144
-6.112e-02,0.00052
-6.104e-02,0.00184
-6.096e-02,-0.00188
-6.088e-02,0.00188
-6.080e-02,0.00016
-6.072e-02,0.00096
-6.064e-02,0.00072
-6.056e-02,0.00224
-6.048e-02,-0.00056
-6.040e-02,0.00012
-6.032e-02,0.00116
-6.024e-02,-0.00092
-6.016e-02,-0.00204
-6.008e-02,-0.00076
-6.000e-02,0.00156
-5.992e-02,0.00196
-5.984e-02,-0.00048
-5.976e-02,0.00172
-5.968e-02,0.00032
-5.960e-02,-0.00084
-5.952e-02,-0.00232
-5.944e-02,-0.00208
-5.936e-02,0.00016
-5.928e-02,0.00068
-5.920e-02,0.00044
-5.912e-02,-0.00088
-5.904e-02,-0.00208
-5.896e-02,-0.00052
-5.888e-02,0.00076
-5.880e-02,0.00072
-5.872e-02,-0.00168
-5.864e-02,8e-05
-5.856e-02,0.00268
-5.848e-02,4e-05
-5.840e-02,-0.00256
-5.832e-02,-0.00316
-5.824e-02,-0.00024
-5.816e-02,0.00112
-5.808e-02,-0.0016
-5.800e-02,0.00072
-5.792e-02,0.00196
-5.784e-02,0.00156
-5.776e-02,0.00016
-5.768e-02,-0.0012
-5.760e-02,-0.00176
-5.752e-02,0.00188
-5.744e-02,0.0002
-5.736e-02,0.00124
-5.728e-02,-0.00028
-5.720e-02,-0.0014
-5.712e-02,-0.00156
-5.704e-02,0.0014
-5.696e-02,-0.0004
-5.688e-02,-0.00208
-5.680e-02,-0.00064
-5.672e-02,0.00168
-5.664e-02,0.00224
-5.656e-02,-4e-05
-5.648e-02,0.00096
-5.640e-02,-0.00064
-5.632e-02,-0.00248
-5.624e-02,0.0012
-5.616e-02,0.0008
-5.608e-02,-0.00096
-5.600e-02,0.00036
-5.592e-02,0.0018
-5.584e-02,0.001
-5.576e-02,-0.00184
-5.568e-02,0.00072
-5.560e-02,-0.00128
-5.552e-02,-0.00048
-5.544e-02,-0.0014
-5.536e-02,0.00252
-5.528e-02,0.00064
-5.520e-02,-0.00236
-5.512e-02,-0.00264
-5.504e-02,-0.00212
-5.496e-02,0.00124
-5.488e-02,-0.00168
-5.480e-02,-0.00096
-5.472e-02,-0.0006
-5.464e-02,-0.0018
-5.456e-02,-0.00084
-5.448e-02,-0.00172
-5.440e-02,-0.00252
-5.432e-02,0.0018
-5.424e-02,-0.00144
-5.416e-02,-0.00096
-5.408e-02,-0.00208
-5.400e-02,0.00056
-5.392e-02,4e-05
-5.384e-02,-0.00128
-5.376e-02,-0.00216
-5.368e-02,0.00056
-5.360e-02,0.00072
-5.352e-02,-0.00136
-5.344e-02,0.0026
-5.336e-02,0.00192
-5.328e-02,0.00164
-5.320e-02,0.0022
-5.312e-02,-0.00108
-5.304e-02,-0.00108
-5.296e-02,-0.00124
-5.288e-02,0.00232
-5.280e-02,0.00156
-5.272e-02,0.00228
-5.264e-02,-0.00228
-5.256e-02,0.00052
-5.248e-02,0.00172
-5.240e-02,0.00104
-5.232e-02,-0.00204
-5.224e-02,0.00164
-5.216e-02,4e-05
-5.208e-02,0.00072
-5.200e-02,0.0006
-5.192e-02,0.00212
-5.184e-02,-0.0008
-5.176e-02,0.00016
-5.168e-02,-0.00048
-5.160e-02,0.00044
-5.152e-02,-0.0022
-5.144e-02,0.0032
-5.136e-02,-0.00064
-5.128e-02,0.00084
-5.120e-02,0.001
-5.112e-02,-0.0024
-5.104e-02,0.00128
-5.096e-02,0.00116
-5.088e-02,-0.00116
-5.080e-02,-0.00068
-5.072e-02,-0.00208
-5.064e-02,-0.00116
-5.056e-02,0.00148
-5.048e-02,-0.00156
-5.040e-02,0.0002
-5.032e-02,0.0008
-5.024e-02,-0.002
-5.016e-02,-0.0008
-5.008e-02,0.00044
-5.000e-02,-0.00096
-4.992e-02,0.001
-4.984e-02,0.00076
-4.976e-02,0.00168
-4.968e-02,0.00088
-4.960e-02,-0.00196
-4.952e-02,0.00052
-4.944e-02,-0.00104
-4.936e-02,0.00104
-4.928e-02,-4e-05
-4.920e-02,-0.00192
-4.912e-02,0.00132
-4.904e-02,-0.0004
-4.896e-02,0.0002
-4.888e-02,-0.00096
-4.880e-02,-0.00088
-4.872e-02,0.00072
-4.864e-02,-0.00172
-4.856e-02,-0.00236
-4.848e-02,0.00112
-4.840e-02,-0.0006
-4.832e-02,-0.001
-4.824e-02,0.0002
-4.816e-02,-0.00196
-4.808e-02,0.00152
-4.800e-02,0.00076
-4.792e-02,-0.0008
-4.784e-02,-0.001
-4.776e-02,-0.00124
-4.768e-02,-0.001
-4.760e-02,0.00032
-4.752e-02,-0.00052
-4.744e-02,-0.00028
-4.736e-02,0.001
-4.728e-02,0.00044
-4.720e-02,0.00044
-4.712e-02,-4e-05
-4.704e-02,0.00044
-4.696e-02,-0.00268
-4.688e-02,0.0016
-4.680e-02,0.0008
-4.672e-02,0.0012
-4.664e-02,0.00108
-4.656e-02,-0.00064
-4.648e-02,-0.00136
-4.640e-02,-0.0004
-4.632e-02,0.00256
-4.624e-02,0.0018
-4.616e-02,-0.0016
-4.608e-02,-0.00028
-4.600e-02,-0.00192
-4.592e-02,-0.00036
-4.584e-02,0.00156
-4.576e-02,0.00044
-4.568e-02,-0.0022
-4.560e-02,0.00152
-4.552e-02,-0.00172
-4.544e-02,0.00184
-4.536e-02,-0.00212
-4.528e-02,-0.00236
-4.520e-02,0.00152
-4.512e-02,-0.00012
-4.504e-02,0.00084
-4.496e-02,0.00152
-4.488e-02,-0.00124
-4.480e-02,-0.00036
-4.472e-02,-0.0006
-4.464e-02,0.00024
-4.456e-02,0.00044
-4.448e-02,0.00036
-4.440e-02,-0.00076
-4.432e-02,0.0002
-4.424e-02,-0.00156
-4.416e-02,0.0006
-4.408e-02,-0.00124
-4.400e-02,0.00104
-4.392e-02,-0.0004
-4.384e-02,-0.00212
-4.376e-02,-0.00128
-4.368e-02,-0.00116
-4.360e-02,0.00112
-4.352e-02,-0.00188
-4.344e-02,0.00164
-4.336e-02,-4e-05
-4.328e-02,-0.002
-4.320e-02,0.00172
-4.312e-02,0.00108
-4.304e-02,0.00248
-4.296e-02,0.00048
-4.288e-02,0.00056
-4.280e-02,-0.00108
-4.272e-02,0.0008
-4.264e-02,0.00248
-4.256e-02,-0.00128
-4.248e-02,-0.0008
-4.240e-02,0.002
-4.232e-02,-0.0004
-4.224e-02,0.00148
-4.216e-02,-0.00152
-4.208e-02,0.00156
-4.200e-02,0.00252
-4.192e-02,-0.00076
-4.184e-02,-0.00028
-4.176e-02,-0.00012
-4.168e-02,0.00128
-4.160e-02,-0.00092
-4.152e-02,0.00092
-4.144e-02,0.00128
-4.136e-02,0.00172
-4.128e-02,0.00052
-4.120e-02,0.00072
-4.112e-02,-0.00088
-4.104e-02,0.00068
-4.096e-02,0.00028
-4.088e-02,0.00088
-4.080e-02,0.00024
-4.072e-02,0.00164
-4.064e-02,0.00016
-4.056e-02,0.00044
-4.048e-02,-0.00068
-4.040e-02,0.00192
-4.032e-02,0.00108
-4.024e-02,-0.00068
-4.016e-02,0.00208
-4.008e-02,0.0012
-4.000e-02,-0.0014
-3.992e-02,0.00064
-3.984e-02,0.00032
-3.976e-02,-0.00112
-3.968e-02,4e-05
-3.960e-02,-0.00152
-3.952e-02,-0.00156
-3.944e-02,-0.001
-3.936e-02,0.00092
-3.928e-02,-0.00104
-3.920e-02,0.00064
-3.912e-02,-0.0006
-3.904e-02,0.00204
-3.896e-02,0.00192
-3.888e-02,0
-3.880e-02,-0.00204
-3.872e-02,0.00184
-3.864e-02,0.0012
-3.856e-02,0.00132
-3.848e-02,-0.00172
-3.840e-02,0.00084
-3.832e-02,-0.00048
-3.824e-02,0
-3.816e-02,0.0008
-3.808e-02,0.00268
-3.800e-02,0.00048
-3.792e-02,0.0002
-3.784e-02,-4e-05
-3.776e-02,0.00152
-3.768e-02,0.00292
-3.760e-02,-0.00104
-3.752e-02,0.0008
-3.744e-02,0.00108
-3.736e-02,0.00064
-3.728e-02,0.00264
-3.720e-02,0.00072
-3.712e-02,-0.00124
-3.704e-02,-8e-05
-3.696e-02,0.00036
-3.688e-02,0.00112
-3.680e-02,0.00044
-3.672e-02,-0.00116
-3.664e-02,0.00036
-3.656e-02,0.00084
-3.648e-02,-0.00112
-3.640e-02,0.00192
-3.632e-02,0.00044
-3.624e-02,0.00096
-3.616e-02,-0.00144
-3.608e-02,0.00116
-3.600e-02,-0.00292
-3.592e-02,-0.00104
-3.584e-02,0.00116
-3.576e-02,-8e-05
-3.568e-02,-0.00088
-3.560e-02,0.0022
-3.552e-02,0.00108
-3.544e-02,-0.00196
-3.536e-02,0.0012
-3.528e-02,0.00016
-3.520e-02,0.00128
-3.512e-02,-4e-05
-3.504e-02,-0.00028
-3.496e-02,0.00208
-3.488e-02,0.0008
-3.480e-02,0.0014
-3.472e-02,0.00088
-3.464e-02,-0.0028
-3.456e-02,0.00112
-3.448e-02,-0.00084
-3.440e-02,0.00012
-3.432e-02,0.00152
-3.424e-02,0.00036
-3.416e-02,0.0006
-3.408e-02,0.00024
-3.400e-02,0.00172
-3.392e-02,-0.00132
-3.384e-02,0.002
-3.376e-02,0.00164
-3.368e-02,0.00128
-3.360e-02,0.00128
-3.352e-02,0.00124
-3.344e-02,-0.00088
-3.336e-02,-0.00068
-3.328e-02,0.00096
-3.320e-02,-0.00228
-3.312e-02,0.00168
-3.304e-02,-0.00048
-3.296e-02,0.00144
-3.288e-02,-0.00036
-3.280e-02,0.00132
-3.272e-02,0.00016
-3.264e-02,0.00212
-3.256e-02,0.00148
-3.248e-02,-0.002
-3.240e-02,0.00168
-3.232e-02,-0.0004
-3.224e-02,0.00192
-3.216e-02,-0.00204
-3.208e-02,-0.00136
-3.200e-02,-0.00084
-3.192e-02,4e-05
-3.184e-02,0.0002
-3.176e-02,-0.00204
-3.168e-02,0.00032
-3.160e-02,-0.00132
-3.152e-02,0.0008
-3.144e-02,-0.00128
-3.136e-02,-0.00304
-3.128e-02,0.0008
-3.120e-02,0.00148
-3.112e-02,-0.00064
-3.104e-02,0.00272
-3.096e-02,0.00016
-3.088e-02,0.00096
-3.080e-02,-4e-05
-3.072e-02,-0.00048
-3.064e-02,-0.00152
-3.056e-02,0.00052
-3.048e-02,0.0002
-3.040e-02,0
-3.032e-02,0.00148
-3.024e-02,0.0008
-3.016e-02,0.0024
-3.008e-02,-4e-05
-3.000e-02,0.00064
-2.992e-02,-0.00144
-2.984e-02,0.00036
-2.976e-02,0.00128
-2.968e-02,-0.00164
-2.960e-02,0.00096
-2.952e-02,0.00172
-2.944e-02,0.00208
-2.936e-02,-0.00072
-2.928e-02,-0.0004
-2.920e-02,0.00132
-2.912e-02,-0.00096
-2.904e-02,-0.00308
-2.896e-02,-0.00056
-2.888e-02,0.00016
-2.880e-02,-0.00052
-2.872e-02,8e-05
-2.864e-02,-0.00248
-2.856e-02,-0.00228
-2.848e-02,0.00132
-2.840e-02,0.00024
-2.832e-02,-8e-05
-2.824e-02,-0.00168
-2.816e-02,-0.0016
-2.808e-02,-0.00056
-2.800e-02,0.0002
-2.792e-02,0.00236
-2.784e-02,-0.00064
-2.776e-02,-0.00192
-2.768e-02,0.00164
-2.760e-02,-0.00132
-2.752e-02,0.00016
-2.744e-02,-0.00288
-2.736e-02,0.00172
-2.728e-02,-0.0018
-2.720e-02,0.00108
-2.712e-02,0.00136
-2.704e-02,-0.00164
-2.696e-02,8e-05
-2.688e-02,-0.00204
-2.680e-02,0.00056
-2.672e-02,-0.00108
-2.664e-02,8e-05
-2.656e-02,0.00172
-2.648e-02,-0.00164
-2.640e-02,0.00196
-2.632e-02,0.00052
-2.624e-02,0.00112
-2.616e-02,0.0006
-2.608e-02,0.0022
-2.600e-02,-0.00112
-2.592e-02,-0.00032
-2.584e-02,0.00212
-2.576e-02,0.00088
-2.568e-02,0.00144
-2.560e-02,0.00252
-2.552e-02,0.00132
-2.544e-02,-0.00192
-2.536e-02,0.00204
-2.528e-02,-8e-05
-2.520e-02,-0.00108
-2.512e-02,-0.00096
-2.504e-02,0.00232
-2.496e-02,-0.00252
-2.488e-02,0.00064
-2.480e-02,0.00116
-2.472e-02,-0.00112
-2.464e-02,-0.00024
-2.456e-02,-0.00124
-2.448e-02,0.0012
-2.440e-02,-0.00172
-2.432e-02,0.00092
-2.424e-02,0.00052
-2.416e-02,-4e-05
-2.408e-02,0.00156
-2.400e-02,-0.00168
-2.392e-02,-0.00188
-2.384e-02,-0.00208
-2.376e-02,-0.00188
-2.368e-02,0.00156
-2.360e-02,0.00148
-2.352e-02,-0.0006
-2.344e-02,-0.00068
-2.336e-02,-0.0012
-2.328e-02,-0.00136
-2.320e-02,-0.00056
-2.312e-02,0.00072
-2.304e-02,8e-05
-2.296e-02,0.00028
-2.288e-02,-0.00076
-2.280e-02,-0.00112
-2.272e-02,-0.00152
-2.264e-02,0.00016
-2.256e-02,-0.0018
-2.248e-02,0.0006
-2.240e-02,-0.00096
-2.232e-02,-0.00336
-2.224e-02,-0.00172
-2.216e-02,-0.00048
-2.208e-02,-8e-05
-2.200e-02,0.00092
-2.192e-02,-0.00228
-2.184e-02,0.00048
-2.176e-02,-8e-05
-2.168e-02,8e-05
-2.160e-02,0.00112
-2.152e-02,4e-05
-2.144e-02,-0.00108
-2.136e-02,0.00164
-2.128e-02,-0.00204
-2.120e-02,-0.00032
-2.112e-02,-0.00064
-2.104e-02,0.00064
-2.096e-02,0.00108
-2.088e-02,-0.00096
-2.080e-02,-0.00124
-2.072e-02,0.00132
-2.064e-02,-0.00016
-2.056e-02,-0.00172
-2.048e-02,0.00016
-2.040e-02,0.00196
-2.032e-02,0.00088
-2.024e-02,-0.00168
-2.016e-02,-0.00076
-2.008e-02,0.0006
-2.000e-02,-0.00084
-1.992e-02,-0.00096
-1.984e-02,-0.00272
-1.976e-02,0.00104
-1.968e-02,-0.0004
-1.960e-02,8e-05
-1.952e-02,0.00212
-1.944e-02,0.00044
-1.936e-02,0.00188
-1.928e-02,-0.00036
-1.920e-02,0.002
-1.912e-02,-0.00072
-1.904e-02,-0.0004
-1.896e-02,-0.00116
-1.888e-02,-0.00096
-1.880e-02,-0.00116
-1.872e-02,-0.00032
-1.864e-02,-0.0004
-1.856e-02,0.0002
-1.848e-02,0.0016
-1.840e-02,-0.00284
-1.832e-02,-0.0006
-1.824e-02,0.001
-1.816e-02,-0.00056
-1.808e-02,-0.00064
-1.800e-02,-0.00136
-1.792e-02,-0.0006
-1.784e-02,-0.00116
-1.776e-02,-0.00172
-1.768e-02,0.00232
-1.760e-02,-0.00108
-1.752e-02,-0.00144
-1.744e-02,0.00072
-1.736e-02,-0.00168
-1.728e-02,0
-1.720e-02,0.00036
-1.712e-02,0.00044
-1.704e-02,-0.0014
-1.696e-02,-0.00132
-1.688e-02,0.00372
-1.680e-02,0.00228
-1.672e-02,-0.0014
-1.664e-02,0.00156
-1.656e-02,-0.00264
-1.648e-02,0.00116
-1.640e-02,0.00184
-1.632e-02,-0.00152
-1.624e-02,0.00096
-1.616e-02,0.00104
-1.608e-02,-0.00136
-1.600e-02,0.0024
-1.592e-02,-0.00328
-1.584e-02,0.00048
-1.576e-02,0.0008
-1.568e-02,0.0016
-1.560e-02,-0.00072
-1.552e-02,0.00104
-1.544e-02,0.00104
-1.536e-02,0.001
-1.528e-02,0.00164
-1.520e-02,0.00028
-1.512e-02,-0.00324
-1.504e-02,0.00136
-1.496e-02,0.00168
-1.488e-02,0.0002
-1.480e-02,0.00232
-1.472e-02,0.00036
-1.464e-02,0.00088
-1.456e-02,0.00076
-1.448e-02,-0.00152
-1.440e-02,0.00072
-1.432e-02,-0.00092
-1.424e-02,0.0008
-1.416e-02,-0.00244
-1.408e-02,0.00136
-1.400e-02,-0.00176
-1.392e-02,-0.00124
-1.384e-02,-0.00048
-1.376e-02,-0.00068
-1.368e-02,0.00096
-1.360e-02,-0.00276
-1.352e-02,-0.00088
-1.344e-02,0.00016
-1.336e-02,-0.00124
-1.328e-02,-0.00092
-1.320e-02,-0.00288
-1.312e-02,-0.00048
-1.304e-02,0.00228
-1.296e-02,0.00064
-1.288e-02,-0.00168
-1.280e-02,-0.00096
-1.272e-02,0.00216
-1.264e-02,-0.00124
-1.256e-02,0.00088
-1.248e-02,0.0004
-1.240e-02,-0.00112
-1.232e-02,0.00184
-1.224e-02,-0.002
-1.216e-02,0.00112
-1.208e-02,-0.00104
-1.200e-02,0.00164
-1.192e-02,0.00164
-1.184e-02,-0.00204
-1.176e-02,-0.00176
-1.168e-02,0.00116
-1.160e-02,-0.0006
-1.152e-02,-0.00068
-1.144e-02,0.00096
-1.136e-02,-0.00212
-1.128e-02,0.00048
-1.120e-02,0.00116
-1.112e-02,-0.00052
-1.104e-02,-0.00032
-1.096e-02,-0.00104
-1.088e-02,-0.00188
-1.080e-02,0.00228
-1.072e-02,0.00084
-1.064e-02,-0.00108
-1.056e-02,-0.00168
-1.048e-02,0.00036
-1.040e-02,0.00016
-1.032e-02,-0.00184
-1.024e-02,-0.00028
-1.016e-02,-0.00112
-1.008e-02,-0.00036
-1.000e-02,-0.0012
-9.920e-03,0.0008
-9.840e-03,-0.0004
-9.760e-03,-0.00176
-9.680e-03,0.00156
-9.600e-03,0.0002
-9.520e-03,-0.0016
-9.440e-03,0.00332
-9.360e-03,-0.00152
-9.280e-03,0.00104
-9.200e-03,-0.00204
-9.120e-03,0.00044
-9.040e-03,0.0004
-8.960e-03,0.00136
-8.880e-03,-0.00076
-8.800e-03,0.00076
-8.720e-03,-4e-05
-8.640e-03,-4e-05
-8.560e-03,0.00108
-8.480e-03,-0.00092
-8.400e-03,0.00168
-8.320e-03,0.00096
-8.240e-03,0.00084
-8.160e-03,0.00028
-8.080e-03,-0.00136
-8.000e-03,-0.00188
-7.920e-03,0.00048
-7.840e-03,0.00152
-7.760e-03,0.001
-7.680e-03,-0.00148
-7.600e-03,-0.00292
-7.520e-03,-0.0014
-7.440e-03,-0.00092
-7.360e-03,-0.00216
-7.280e-03,0.00288
-7.200e-03,-0.00136
-7.120e-03,-0.00232
-7.040e-03,0.00152
-6.960e-03,0.00084
-6.880e-03,-0.00076
-6.800e-03,-0.00176
-6.720e-03,0.00132
-6.640e-03,-0.00084
-6.560e-03,-0.00248
-6.480e-03,-0.00072
-6.400e-03,0.00256
-6.320e-03,0.00148
-6.240e-03,-0.00172
-6.160e-03,0.00052
-6.080e-03,0.0002
-6.000e-03,-0.00108
-5.920e-03,0.0014
-5.840e-03,0.00184
-5.760e-03,-0.0012
-5.680e-03,0.00128
-5.600e-03,-0.00056
-5.520e-03,8e-05
-5.440e-03,-0.00052
-5.360e-03,0.00012
-5.280e-03,-0.00176
-5.200e-03,-0.00112
-5.120e-03,0.00076
-5.040e-03,0.00208
-4.960e-03,-0.00168
-4.880e-03,-0.00048
-4.800e-03,-0.00104
-4.720e-03,0.00092
-4.640e-03,0.00216
-4.560e-03,-0.00228
-4.480e-03,-0.002
-4.400e-03,-0.00016
-4.320e-03,-0.00148
-4.240e-03,-0.00084
-4.160e-03,0.00072
-4.080e-03,0.0004
-4.000e-03,-0.00116
-3.920e-03,-0.00336
-3.840e-03,-0.00108
-3.760e-03,0.001
-3.680e-03,-0.00188
-3.600e-03,0.00208
-3.520e-03,-0.0002
-3.440e-03,-0.00232
-3.360e-03,-0.00092
-3.280e-03,-0.00072
-3.200e-03,-8e-05
-3.120e-03,-8e-05
-3.040e-03,0.0006
-2.960e-03,0.00096
-2.880e-03,-0.00172
-2.800e-03,0.00012
-2.720e-03,-0.00228
-2.640e-03,-0.0024
-2.560e-03,-0.0006
-2.480e-03,8e-05
-2.400e-03,0.00036
-2.320e-03,-0.00196
-2.240e-03,0.00152
-2.160e-03,0.00028
-2.080e-03,-0.00228
-2.000e-03,0.00028
-1.920e-03,-0.00192
-1.840e-03,-0.00236
-1.760e-03,-0.00064
-1.680e-03,0.00056
-1.600e-03,-0.00212
-1.520e-03,0.00132
-1.440e-03,-0.00148
-1.360e-03,0.00132
-1.280e-03,-0.00128
-1.200e-03,0.0018
-1.120e-03,-0.00216
-1.040e-03,-0.00232
-9.600e-04,0.00116
-8.800e-04,-0.00048
-8.000e-04,0.00168
-7.200e-04,0.00192
-6.400e-04,-0.00132
-5.600e-04,0.00088
-4.800e-04,-0.00116
-4.000e-04,-0.002
-3.200e-04,-0.00068
-2.400e-04,0.00052
-1.600e-04,0.00156
-8.000e-05,0.0008
-1.508e-15,0.0012
8.000e-05,-0.00148
1.600e-04,-0.0022
2.400e-04,0.00012
3.200e-04,-0.00044
4.000e-04,0
4.800e-04,0.0014
5.600e-04,-0.00012
6.400e-04,0.00196
7.200e-04,0.00172
8.000e-04,0.0014
8.800e-04,8e-05
9.600e-04,-0.00084
1.040e-03,-0.00016
1.120e-03,0.00084
1.200e-03,0.00284
1.280e-03,0.00028
1.360e-03,0.00204
1.440e-03,-0.00072
1.520e-03,0.00132
1.600e-03,-0.0002
1.680e-03,-0.00204
1.760e-03,-0.00156
1.840e-03,-0.00144
1.920e-03,-0.00268
2.000e-03,0.00092
2.080e-03,0.00104
2.160e-03,-0.00192
2.240e-03,-0.00236
2.320e-03,-0.00156
2.400e-03,-0.00044
2.480e-03,0.00228
2.560e-03,0.00056
2.640e-03,-4e-05
2.720e-03,0.00072
2.800e-03,-0.00136
2.880e-03,-0.00032
2.960e-03,0.00132
3.040e-03,0.00088
3.120e-03,-0.00084
3.200e-03,-0.0014
3.280e-03,-0.00176
3.360e-03,-0.00052
3.440e-03,0.00092
3.520e-03,0.001
3.600e-03,-0.0012
3.680e-03,-0.00032
3.760e-03,0.00248
3.840e-03,-0.00152
3.920e-03,0.00264
4.000e-03,0.00164
4.080e-03,-0.00088
4.160e-03,-0.00092
4.240e-03,0.00232
4.320e-03,0.00164
4.400e-03,0.00092
4.480e-03,-0.00112
4.560e-03,0.00084
4.640e-03,-0.00176
4.720e-03,0
4.800e-03,0.00172
4.880e-03,-0.00184
4.960e-03,0.0012
5.040e-03,-0.0016
5.120e-03,-0.00228
5.200e-03,0.0002
5.280e-03,-0.00028
5.360e-03,-0.0006
5.440e-03,-0.00172
5.520e-03,0.00056
5.600e-03,0.0012
5.680e-03,-0.00128
5.760e-03,0.00048
5.840e-03,-0.0016
5.920e-03,-0.00204
6.000e-03,-0.00224
6.080e-03,0.00136
6.160e-03,0.00044
6.240e-03,-0.00184
6.320e-03,-0.00048
6.400e-03,-0.0028
6.480e-03,-0.00264
6.560e-03,-0.00036
6.640e-03,0.00028
6.720e-03,8e-05
6.800e-03,-0.00228
6.880e-03,-0.0006
6.960e-03,-0.00164
7.040e-03,-0.00104
7.120e-03,0.00044
7.200e-03,0.0008
7.280e-03,0.0016
7.360e-03,-0.00036
7.440e-03,-0.00036
7.520e-03,0.00104
7.600e-03,-0.00124
7.680e-03,0.00012
7.760e-03,0.00268
7.840e-03,-0.00104
7.920e-03,-0.0006
8.000e-03,-0.0002
8.080e-03,-0.0016
8.160e-03,0.00216
8.240e-03,0.00052
8.320e-03,-0.00044
8.400e-03,0.00156
8.480e-03,-0.00232
8.560e-03,-0.00096
8.640e-03,0.00132
8.720e-03,0.00136
8.800e-03,0.00024
8.880e-03,-0.00112
8.960e-03,0.00124
9.040e-03,-0.00136
9.120e-03,-0.00168
9.200e-03,-0.00048
9.280e-03,0.00084
9.360e-03,0.0012
9.440e-03,0.00168
9.520e-03,0.00024
9.600e-03,-0.00088
9.680e-03,0.00128
9.760e-03,-0.00104
9.840e-03,-0.00012
9.920e-03,0.00016
1.000e-02,-0.00128
1.008e-02,-0.00172
1.016e-02,0.0004
1.024e-02,0.00064
1.032e-02,0.0014
1.040e-02,0.00012
1.048e-02,0.00208
1.056e-02,0.00164
1.064e-02,-0.0016
1.072e-02,0.0012
1.080e-02,0.00056
1.088e-02,-0.00036
1.096e-02,0.00048
1.104e-02,0.00204
1.112e-02,-0.00188
1.120e-02,-0.0026
1.128e-02,0.00152
1.136e-02,0.00136
1.144e-02,0.00056
1.152e-02,-0.00272
1.160e-02,-0.00092
1.168e-02,0.0002
1.176e-02,-0.0006
1.184e-02,0.00068
1.192e-02,0.00176
1.200e-02,0.0004
1.208e-02,0.00136
1.216e-02,0.0006
1.224e-02,0.00152
1.232e-02,0.00148
