data/PSU_noise/PSU2_CV1_0A_1ms.CSV

Model,TBS1102C
Firmware Version,v2015-08-04-prequal4ch70_v1.3

Point Format,Y
Horizontal Units,S
Horizontal Scale,0.001
Sample Interval,8e-06
Filter Frequency,2e+08
Record Length,2000
Gating,0.0% to 100.0%
Probe Attenuation,1
Vertical Units,V
Vertical Offset,0
Vertical Scale,0.005
Label,
TIME,CH1
1.6000e-03,-0.002
1.6080e-03,-0.0032
1.6160e-03,-0.005
1.6240e-03,-0.0058
1.6320e-03,-0.0034
1.6400e-03,-0.0016
1.6480e-03,-0.004
1.6560e-03,-0.0064
1.6640e-03,-0.0064
1.6720e-03,-0.007
1.6800e-03,-0.005
1.6880e-03,-0.006
1.6960e-03,-0.0088
1.7040e-03,-0.0088
1.7120e-03,-0.0076
1.7200e-03,-0.007
1.7280e-03,-0.0044
1.7360e-03,-0.0044
1.7440e-03,-0.0058
1.7520e-03,-0.0064
1.7600e-03,-0.0058
1.7680e-03,-0.0036
1.7760e-03,-0.0022
1.7840e-03,0.0006
1.7920e-03,0.0004
1.8000e-03,0.0002
1.8080e-03,-0.0012
1.8160e-03,-0.002
1.8240e-03,0.0002
1.8320e-03,0.0018
1.8400e-03,0.0046
1.8480e-03,0.0056
1.8560e-03,0.005
1.8640e-03,0.0038
1.8720e-03,0.0026
1.8800e-03,0.0022
1.8880e-03,0.0044
1.8960e-03,0.006
1.9040e-03,0.0052
1.9120e-03,0.0042
1.9200e-03,0.0028
1.9280e-03,0.0032
1.9360e-03,0.0042
1.9440e-03,0.0072
1.9520e-03,0.0068
1.9600e-03,0.004
1.9680e-03,0.0028
1.9760e-03,0.003
1.9840e-03,0.0062
1.9920e-03,0.008
2.0000e-03,0.0054
2.0080e-03,0.003
2.0160e-03,0.002
2.0240e-03,0.0032
2.0320e-03,0.0058
2.0400e-03,0.0056
2.0480e-03,0.0028
2.0560e-03,0.0002
2.0640e-03,0.0024
2.0720e-03,0.0034
2.0800e-03,0.0016
2.0880e-03,-0.0004
2.0960e-03,0.0002
2.1040e-03,0.0022
2.1120e-03,0.001
2.1200e-03,-0.0018
2.1280e-03,-0.0032
2.1360e-03,-0.002
2.1440e-03,-0.0024
2.1520e-03,-0.001
2.1600e-03,-0.0026
2.1680e-03,-0.004
2.1760e-03,-0.0058
2.1840e-03,-0.0048
2.1920e-03,-0.0054
2.2000e-03,-0.0056
2.2080e-03,-0.0048
2.2160e-03,-0.0042
2.2240e-03,-0.0034
2.2320e-03,-0.004
2.2400e-03,-0.004
2.2480e-03,-0.0034
2.2560e-03,-0.006
2.2640e-03,-0.006
2.2720e-03,-0.007
2.2800e-03,-0.0064
2.2880e-03,-0.005
2.2960e-03,-0.0038
2.3040e-03,-0.0032
2.3120e-03,-0.0024
2.3200e-03,-0.003
2.3280e-03,-0.003
2.3360e-03,-0.0042
2.3440e-03,-0.0048
2.3520e-03,-0.0034
2.3600e-03,-0.0034
2.3680e-03,-0.0028
2.3760e-03,-0.003
2.3840e-03,-0.0012
2.3920e-03,-0.0002
2.4000e-03,0.0002
2.4080e-03,0.0008
2.4160e-03,-0.0022
2.4240e-03,-0.0036
2.4320e-03,-0.0036
2.4400e-03,-0.0028
2.4480e-03,-0.0022
2.4560e-03,-0.0022
2.4640e-03,-0.0022
2.4720e-03,-0.0002
2.4800e-03,-0.0002
2.4880e-03,-0.0004
2.4960e-03,-0.0008
2.5040e-03,-0.0016
2.5120e-03,-0.0022
2.5200e-03,-0.0032
2.5280e-03,-0.001
2.5360e-03,-0.0004
2.5440e-03,-0.0008
2.5520e-03,-0.0014
2.5600e-03,-0.0026
2.5680e-03,-0.0038
2.5760e-03,-0.0028
2.5840e-03,-0.0004
2.5920e-03,-0.001
2.6000e-03,-0.0012
2.6080e-03,-0.0012
2.6160e-03,-0.0026
2.6240e-03,-0.0032
2.6320e-03,-0.0044
2.6400e-03,-0.0034
2.6480e-03,-0.0006
2.6560e-03,0.0016
2.6640e-03,0.0026
2.6720e-03,0.0018
2.6800e-03,0.0008
2.6880e-03,0.0024
2.6960e-03,0.0044
2.7040e-03,0.0038
2.7120e-03,0.0052
2.7200e-03,0.0048
2.7280e-03,0.004
2.7360e-03,0.0072
2.7440e-03,0.008
2.7520e-03,0.0086
2.7600e-03,0.0084
2.7680e-03,0.0082
2.7760e-03,0.007
2.7840e-03,0.006
2.7920e-03,0.0072
2.8000e-03,0.0094
2.8080e-03,0.011
2.8160e-03,0.0114
2.8240e-03,0.0112
2.8320e-03,0.0098
2.8400e-03,0.0076
2.8480e-03,0.0078
2.8560e-03,0.0088
2.8640e-03,0.0112
2.8720e-03,0.0106
2.8800e-03,0.0094
2.8880e-03,0.0064
2.8960e-03,0.0066
2.9040e-03,0.0094
2.9120e-03,0.01
2.9200e-03,0.0086
2.9280e-03,0.0058
2.9360e-03,0.0026
2.9440e-03,0.004
2.9520e-03,0.0074
2.9600e-03,0.0052
2.9680e-03,0.0046
2.9760e-03,0.0026
2.9840e-03,-0.0006
2.9920e-03,0.0016
3.0000e-03,0.002
3.0080e-03,0.0022
3.0160e-03,0.0006
3.0240e-03,-0.0012
3.0320e-03,-0.001
3.0400e-03,-0.0006
3.0480e-03,-0.0012
3.0560e-03,-0.004
3.0640e-03,-0.0046
3.0720e-03,-0.0028
3.0800e-03,-0.0016
3.0880e-03,-0.0016
3.0960e-03,-0.0062
3.1040e-03,-0.0058
3.1120e-03,-0.0042
3.1200e-03,-0.006
3.1280e-03,-0.008
3.1360e-03,-0.0092
3.1440e-03,-0.0072
3.1520e-03,-0.0074
3.1600e-03,-0.01
3.1680e-03,-0.01
3.1760e-03,-0.0086
3.1840e-03,-0.0072
3.1920e-03,-0.0094
3.2000e-03,-0.0094
3.2080e-03,-0.0092
3.2160e-03,-0.0062
3.2240e-03,-0.0054
3.2320e-03,-0.0054
3.2400e-03,-0.0072
3.2480e-03,-0.0064
3.2560e-03,-0.0028
3.2640e-03,-0.0026
3.2720e-03,-0.003
3.2800e-03,-0.0014
3.2880e-03,0.0008
3.2960e-03,0.0024
3.3040e-03,0.0018
3.3120e-03,0.001
3.3200e-03,0.0044
3.3280e-03,0.0054
3.3360e-03,0.0026
3.3440e-03,0.0014
3.3520e-03,0.004
3.3600e-03,0.0072
3.3680e-03,0.0042
3.3760e-03,0.0032
3.3840e-03,0.0054
3.3920e-03,0.0082
3.4000e-03,0.0068
3.4080e-03,0.005
3.4160e-03,0.006
3.4240e-03,0.009
3.4320e-03,0.009
3.4400e-03,0.0074
3.4480e-03,0.0052
3.4560e-03,0.0068
3.4640e-03,0.01
3.4720e-03,0.0084
3.4800e-03,0.0058
3.4880e-03,0.0064
3.4960e-03,0.0082
3.5040e-03,0.0092
3.5120e-03,0.0062
3.5200e-03,0.0034
3.5280e-03,0.0056
3.5360e-03,0.0076
3.5440e-03,0.0056
3.5520e-03,0.0032
3.5600e-03,0.003
3.5680e-03,0.0024
3.5760e-03,0.0038
3.5840e-03,0.0034
3.5920e-03,0.0026
3.6000e-03,0.001
3.6080e-03,-0.001
3.6160e-03,0
3.6240e-03,0.0016
3.6320e-03,0
3.6400e-03,-0.0016
3.6480e-03,-0.0036
3.6560e-03,-0.0034
3.6640e-03,-0.0026
3.6720e-03,-0.0014
3.6800e-03,-0.0022
3.6880e-03,-0.0044
3.6960e-03,-0.0062
3.7040e-03,-0.006
3.7120e-03,-0.0044
3.7200e-03,-0.0032
3.7280e-03,-0.005
3.7360e-03,-0.008
3.7440e-03,-0.009
3.7520e-03,-0.0094
3.7600e-03,-0.007
3.7680e-03,-0.0074
3.7760e-03,-0.0072
3.7840e-03,-0.0084
3.7920e-03,-0.0088
3.8000e-03,-0.0084
3.8080e-03,-0.0088
3.8160e-03,-0.01
3.8240e-03,-0.0102
3.8320e-03,-0.0066
3.8400e-03,-0.005
3.8480e-03,-0.0064
3.8560e-03,-0.008
3.8640e-03,-0.0084
3.8720e-03,-0.007
3.8800e-03,-0.006
3.8880e-03,-0.0026
3.8960e-03,-0.0032
3.9040e-03,-0.0058
3.9120e-03,-0.0058
3.9200e-03,-0.005
3.9280e-03,-0.0038
3.9360e-03,-0.0026
3.9440e-03,-0.0026
3.9520e-03,-0.0022
3.9600e-03,-0.0046
3.9680e-03,-0.0052
3.9760e-03,-0.0046
3.9840e-03,-0.005
3.9920e-03,-0.0038
4.0000e-03,-0.0006
4.0080e-03,-0.0008
4.0160e-03,-0.0028
4.0240e-03,-0.0036
4.0320e-03,-0.0022
4.0400e-03,-0.0034
4.0480e-03,-0.0038
4.0560e-03,-0.0018
4.0640e-03,-0.0016
4.0720e-03,-0.0006
4.0800e-03,-0.001
4.0880e-03,-0.0002
4.0960e-03,-0.0016
4.1040e-03,-0.004
4.1120e-03,-0.0014
4.1200e-03,-0.0004
4.1280e-03,0.0004
4.1360e-03,-0.0008
4.1440e-03,-0.0032
4.1520e-03,-0.0036
4.1600e-03,-0.0034
4.1680e-03,-0.0024
4.1760e-03,-0.001
4.1840e-03,-0.0026
4.1920e-03,-0.0002
4.2000e-03,0.0012
4.2080e-03,-0.0006
4.2160e-03,-0.0022
4.2240e-03,-0.002
4.2320e-03,-0.0008
4.2400e-03,-0.001
4.2480e-03,0.0008
4.2560e-03,0.0014
4.2640e-03,0.0032
4.2720e-03,0.002
4.2800e-03,0.0008
4.2880e-03,-0.0012
4.2960e-03,-0.0004
4.3040e-03,0.0024
4.3120e-03,0.0028
4.3200e-03,0.001
4.3280e-03,0.0012
4.3360e-03,0.0014
4.3440e-03,0.0026
4.3520e-03,0.0034
4.3600e-03,0.0018
4.3680e-03,-0.0006
4.3760e-03,-0.0002
4.3840e-03,0
4.3920e-03,0
4.4000e-03,0.0012
4.4080e-03,0
4.4160e-03,-0.0016
4.4240e-03,-0.002
4.4320e-03,-0.0016
4.4400e-03,0.0002
4.4480e-03,0.0006
4.4560e-03,-0.0002
4.4640e-03,-0.0028
4.4720e-03,-0.0032
4.4800e-03,-0.0002
4.4880e-03,-0.0004
4.4960e-03,-0.0006
4.5040e-03,-0.0004
4.5120e-03,0.0024
4.5200e-03,0.0036
4.5280e-03,0.0014
4.5360e-03,0.0012
4.5440e-03,0.0038
4.5520e-03,0.0058
4.5600e-03,0.0032
4.5680e-03,0.002
4.5760e-03,0.0044
4.5840e-03,0.0062
4.5920e-03,0.0032
4.6000e-03,0.0032
4.6080e-03,0.0046
4.6160e-03,0.0056
4.6240e-03,0.004
4.6320e-03,0.0034
4.6400e-03,0.0058
4.6480e-03,0.0058
4.6560e-03,0.0026
4.6640e-03,0.0036
4.6720e-03,0.0064
4.6800e-03,0.0024
4.6880e-03,0.0034
4.6960e-03,0.0054
4.7040e-03,0.0028
4.7120e-03,0.0016
4.7200e-03,0.0038
4.7280e-03,0.004
4.7360e-03,0.0018
4.7440e-03,0.0026
4.7520e-03,0.002
4.7600e-03,-0.0002
4.7680e-03,0
4.7760e-03,0.0016
4.7840e-03,-0.0016
4.7920e-03,-0.001
4.8000e-03,0.001
4.8080e-03,-0.0028
4.8160e-03,-0.0024
4.8240e-03,0.0004
4.8320e-03,-0.0026
4.8400e-03,-0.003
4.8480e-03,-0.0012
4.8560e-03,-0.006
4.8640e-03,-0.0068
4.8720e-03,-0.0024
4.8800e-03,-0.0022
4.8880e-03,-0.005
4.8960e-03,-0.0024
4.9040e-03,-0.0042
4.9120e-03,-0.0028
4.9200e-03,-0.0012
4.9280e-03,-0.0028
4.9360e-03,-0.0034
4.9440e-03,-0.0014
4.9520e-03,-0.0036
4.9600e-03,-0.0026
4.9680e-03,-0.0012
4.9760e-03,-0.004
4.9840e-03,-0.0028
4.9920e-03,-0.0006
5.0000e-03,-0.0046
5.0080e-03,-0.0036
5.0160e-03,-0.0014
5.0240e-03,-0.0028
5.0320e-03,-0.0034
5.0400e-03,-0.0008
5.0480e-03,-0.0046
5.0560e-03,-0.0052
5.0640e-03,-0.0022
5.0720e-03,-0.002
5.0800e-03,-0.004
5.0880e-03,-0.0014
5.0960e-03,0
5.1040e-03,-0.0024
5.1120e-03,0.0002
5.1200e-03,0.001
5.1280e-03,-0.0014
5.1360e-03,-0.0012
5.1440e-03,0.0018
5.1520e-03,-0.0002
5.1600e-03,0.001
5.1680e-03,0.004
5.1760e-03,0.002
5.1840e-03,0
5.1920e-03,0.001
5.2000e-03,0.0026
5.2080e-03,-0.0002
5.2160e-03,0.001
5.2240e-03,0.0042
5.2320e-03,0.0022
5.2400e-03,-0.0004
5.2480e-03,0.0016
5.2560e-03,0.0028
5.2640e-03,-0.0006
5.2720e-03,0.0018
5.2800e-03,0.004
5.2880e-03,0.0012
5.2960e-03,-0.001
5.3040e-03,0.0026
5.3120e-03,0.0024
5.3200e-03,0.001
5.3280e-03,0.001
5.3360e-03,0.002
5.3440e-03,0.0016
5.3520e-03,-0.0004
5.3600e-03,0.0008
5.3680e-03,0.0016
5.3760e-03,-0.0004
5.3840e-03,-0.0018
5.3920e-03,-0.001
5.4000e-03,0
5.4080e-03,-0.0004
5.4160e-03,-0.0036
5.4240e-03,-0.0018
5.4320e-03,0.0002
5.4400e-03,-0.0006
5.4480e-03,-0.0016
5.4560e-03,-0.0036
5.4640e-03,-0.0012
5.4720e-03,0.0022
5.4800e-03,0.0008
5.4880e-03,-0.0014
5.4960e-03,0.0008
5.5040e-03,0.0022
5.5120e-03,0.004
5.5200e-03,0.0026
5.5280e-03,0.0026
5.5360e-03,0.0048
5.5440e-03,0.0058
5.5520e-03,0.0062
5.5600e-03,0.0054
5.5680e-03,0.0044
5.5760e-03,0.005
5.5840e-03,0.0076
5.5920e-03,0.0074
5.6000e-03,0.006
5.6080e-03,0.006
5.6160e-03,0.0044
5.6240e-03,0.006
5.6320e-03,0.0068
5.6400e-03,0.0058
5.6480e-03,0.004
5.6560e-03,0.005
5.6640e-03,0.0058
5.6720e-03,0.006
5.6800e-03,0.0036
5.6880e-03,0.0036
5.6960e-03,0.0048
5.7040e-03,0.0048
5.7120e-03,0.0042
5.7200e-03,0.0014
5.7280e-03,0.0024
5.7360e-03,0.0034
5.7440e-03,0.0004
5.7520e-03,0
5.7600e-03,0.001
5.7680e-03,0.0028
5.7760e-03,0.0024
5.7840e-03,-0.0012
5.7920e-03,-0.0022
5.8000e-03,-0.0016
5.8080e-03,0
5.8160e-03,-0.0004
5.8240e-03,-0.0014
5.8320e-03,-0.003
5.8400e-03,-0.0058
5.8480e-03,-0.0044
5.8560e-03,-0.0026
5.8640e-03,-0.0044
5.8720e-03,-0.0058
5.8800e-03,-0.0068
5.8880e-03,-0.0042
5.8960e-03,-0.0018
5.9040e-03,-0.0036
5.9120e-03,-0.0038
5.9200e-03,-0.0006
5.9280e-03,0.0004
5.9360e-03,-0.0008
5.9440e-03,-0.0022
5.9520e-03,0.0006
5.9600e-03,0.004
5.9680e-03,0.0042
5.9760e-03,0.0016
5.9840e-03,-0.0002
5.9920e-03,0.0012
6.0000e-03,0.0032
6.0080e-03,0.006
6.0160e-03,0.0056
6.0240e-03,0.0036
6.0320e-03,0.0024
6.0400e-03,0.0022
6.0480e-03,0.002
6.0560e-03,0.0054
6.0640e-03,0.0058
6.0720e-03,0.0048
6.0800e-03,0.0016
6.0880e-03,0.0038
6.0960e-03,0.0042
6.1040e-03,0.0034
6.1120e-03,0.0046
6.1200e-03,0.003
6.1280e-03,0.0034
6.1360e-03,0.0036
6.1440e-03,0.0052
6.1520e-03,0.0016
6.1600e-03,0.0032
6.1680e-03,0.006
6.1760e-03,0.0024
6.1840e-03,0.0018
6.1920e-03,0.0014
6.2000e-03,0.0032
6.2080e-03,0.002
6.2160e-03,-0.0012
6.2240e-03,0.0012
6.2320e-03,0.0018
6.2400e-03,0.0014
6.2480e-03,-0.0022
6.2560e-03,-0.0026
6.2640e-03,-0.0004
6.2720e-03,-0.0014
6.2800e-03,-0.0034
6.2880e-03,-0.0032
6.2960e-03,-0.002
6.3040e-03,-0.0052
6.3120e-03,-0.0042
6.3200e-03,-0.0022
6.3280e-03,-0.006
6.3360e-03,-0.0074
6.3440e-03,-0.0046
6.3520e-03,-0.0036
6.3600e-03,-0.0062
6.3680e-03,-0.0048
6.3760e-03,-0.0046
6.3840e-03,-0.0088
6.3920e-03,-0.0088
6.4000e-03,-0.0062
6.4080e-03,-0.004
6.4160e-03,-0.0078
6.4240e-03,-0.0064
6.4320e-03,-0.0058
6.4400e-03,-0.006
6.4480e-03,-0.0066
6.4560e-03,-0.0042
6.4640e-03,-0.0008
6.4720e-03,-0.0014
6.4800e-03,-0.0022
6.4880e-03,0.0018
6.4960e-03,0.0028
6.5040e-03,0.0018
6.5120e-03,0.0016
6.5200e-03,0.0048
6.5280e-03,0.0054
6.5360e-03,0.0044
6.5440e-03,0.0032
6.5520e-03,0.0062
6.5600e-03,0.009
6.5680e-03,0.0086
6.5760e-03,0.0068
6.5840e-03,0.0074
6.5920e-03,0.01
6.6000e-03,0.0118
6.6080e-03,0.0104
6.6160e-03,0.0084
6.6240e-03,0.0104
6.6320e-03,0.0122
6.6400e-03,0.0108
6.6480e-03,0.0104
6.6560e-03,0.0118
6.6640e-03,0.0136
6.6720e-03,0.0102
6.6800e-03,0.008
6.6880e-03,0.0118
6.6960e-03,0.0138
6.7040e-03,0.0094
6.7120e-03,0.0078
6.7200e-03,0.0088
6.7280e-03,0.0104
6.7360e-03,0.0074
6.7440e-03,0.0076
6.7520e-03,0.0096
6.7600e-03,0.01
6.7680e-03,0.0076
6.7760e-03,0.0056
6.7840e-03,0.0056
6.7920e-03,0.0078
6.8000e-03,0.0054
6.8080e-03,0.0042
6.8160e-03,0.0048
6.8240e-03,0.0054
6.8320e-03,0.003
6.8400e-03,0.0022
6.8480e-03,0.0038
6.8560e-03,0.0014
6.8640e-03,-0.0014
6.8720e-03,-0.001
6.8800e-03,0.0022
6.8880e-03,0.0002
6.8960e-03,-0.0036
6.9040e-03,-0.002
6.9120e-03,-0.001
6.9200e-03,-0.0024
6.9280e-03,-0.0046
6.9360e-03,-0.0056
6.9440e-03,-0.004
6.9520e-03,-0.0054
6.9600e-03,-0.0078
6.9680e-03,-0.0068
6.9760e-03,-0.0054
6.9840e-03,-0.0054
6.9920e-03,-0.0078
7.0000e-03,-0.0092
7.0080e-03,-0.0072
7.0160e-03,-0.0058
7.0240e-03,-0.008
7.0320e-03,-0.01
7.0400e-03,-0.0102
7.0480e-03,-0.009
7.0560e-03,-0.0078
7.0640e-03,-0.0086
7.0720e-03,-0.0094
7.0800e-03,-0.0098
7.0880e-03,-0.0096
7.0960e-03,-0.0084
7.1040e-03,-0.0108
7.1120e-03,-0.012
7.1200e-03,-0.011
7.1280e-03,-0.0076
7.1360e-03,-0.0064
7.1440e-03,-0.005
7.1520e-03,-0.0076
7.1600e-03,-0.0086
7.1680e-03,-0.0056
7.1760e-03,-0.003
7.1840e-03,-0.0024
7.1920e-03,-0.0002
7.2000e-03,0.0006
7.2080e-03,-0.0004
7.2160e-03,-0.0002
7.2240e-03,0.0004
7.2320e-03,0.004
7.2400e-03,0.0056
7.2480e-03,0.0046
7.2560e-03,0.0042
7.2640e-03,0.0026
7.2720e-03,0.0074
7.2800e-03,0.008
7.2880e-03,0.0082
7.2960e-03,0.0058
7.3040e-03,0.004
7.3120e-03,0.0102
7.3200e-03,0.0092
7.3280e-03,0.0082
7.3360e-03,0.0068
7.3440e-03,0.0088
7.3520e-03,0.0096
7.3600e-03,0.011
7.3680e-03,0.011
7.3760e-03,0.0084
7.3840e-03,0.0086
7.3920e-03,0.0098
7.4000e-03,0.01
7.4080e-03,0.0116
7.4160e-03,0.011
7.4240e-03,0.0078
7.4320e-03,0.0076
7.4400e-03,0.0088
7.4480e-03,0.0102
7.4560e-03,0.0108
7.4640e-03,0.0076
7.4720e-03,0.006
7.4800e-03,0.0082
7.4880e-03,0.0076
7.4960e-03,0.008
7.5040e-03,0.007
7.5120e-03,0.0048
7.5200e-03,0.0028
7.5280e-03,0.0024
7.5360e-03,0.0062
7.5440e-03,0.0058
7.5520e-03,0.004
7.5600e-03,0.0024
7.5680e-03,0.0002
7.5760e-03,-0.0006
7.5840e-03,-0.0008
7.5920e-03,0.0002
7.6000e-03,0.0014
7.6080e-03,0.0012
7.6160e-03,0.0008
7.6240e-03,-0.0014
7.6320e-03,-0.0024
7.6400e-03,-0.004
7.6480e-03,-0.0048
7.6560e-03,-0.0048
7.6640e-03,-0.0048
7.6720e-03,-0.0038
7.6800e-03,-0.003
7.6880e-03,-0.0052
7.6960e-03,-0.008
7.7040e-03,-0.008
7.7120e-03,-0.0094
7.7200e-03,-0.008
7.7280e-03,-0.0068
7.7360e-03,-0.0062
7.7440e-03,-0.007
7.7520e-03,-0.009
7.7600e-03,-0.0108
7.7680e-03,-0.0116
7.7760e-03,-0.0112
7.7840e-03,-0.0098
7.7920e-03,-0.009
7.8000e-03,-0.008
7.8080e-03,-0.0082
7.8160e-03,-0.0094
7.8240e-03,-0.0108
7.8320e-03,-0.0122
7.8400e-03,-0.011
7.8480e-03,-0.0094
7.8560e-03,-0.0082
7.8640e-03,-0.009
7.8720e-03,-0.0092
7.8800e-03,-0.0112
7.8880e-03,-0.012
7.8960e-03,-0.0094
7.9040e-03,-0.0054
7.9120e-03,-0.005
7.9200e-03,-0.005
7.9280e-03,-0.0046
7.9360e-03,-0.0072
7.9440e-03,-0.0032
7.9520e-03,-0.0006
7.9600e-03,0.002
7.9680e-03,0.0018
7.9760e-03,0.0034
7.9840e-03,0.0036
7.9920e-03,0.0032
8.0000e-03,0.0024
8.0080e-03,0.004
8.0160e-03,0.0058
8.0240e-03,0.008
8.0320e-03,0.0088
8.0400e-03,0.0096
8.0480e-03,0.0084
8.0560e-03,0.0096
8.0640e-03,0.0082
8.0720e-03,0.009
8.0800e-03,0.0106
8.0880e-03,0.0116
8.0960e-03,0.0114
8.1040e-03,0.01
8.1120e-03,0.0096
8.1200e-03,0.0104
8.1280e-03,0.0112
8.1360e-03,0.0116
8.1440e-03,0.0118
8.1520e-03,0.0132
8.1600e-03,0.0128
8.1680e-03,0.011
8.1760e-03,0.0096
8.1840e-03,0.0092
8.1920e-03,0.0106
8.2000e-03,0.0126
8.2080e-03,0.0124
8.2160e-03,0.0088
8.2240e-03,0.0072
8.2320e-03,0.007
8.2400e-03,0.0088
8.2480e-03,0.0108
8.2560e-03,0.01
8.2640e-03,0.0068
8.2720e-03,0.0046
8.2800e-03,0.0048
8.2880e-03,0.0046
8.2960e-03,0.0056
8.3040e-03,0.0066
8.3120e-03,0.0054
8.3200e-03,0.0032
8.3280e-03,0.002
8.3360e-03,0
8.3440e-03,-0.0002
8.3520e-03,-0.0008
8.3600e-03,0
8.3680e-03,-0.0002
8.3760e-03,-0.0004
8.3840e-03,-0.0018
8.3920e-03,-0.0026
8.4000e-03,-0.004
8.4080e-03,-0.0052
8.4160e-03,-0.0044
8.4240e-03,-0.0032
8.4320e-03,-0.0038
8.4400e-03,-0.0062
8.4480e-03,-0.0072
8.4560e-03,-0.0078
8.4640e-03,-0.006
8.4720e-03,-0.0052
8.4800e-03,-0.007
8.4880e-03,-0.0092
8.4960e-03,-0.0096
8.5040e-03,-0.0106
8.5120e-03,-0.008
8.5200e-03,-0.007
8.5280e-03,-0.0092
8.5360e-03,-0.011
8.5440e-03,-0.012
8.5520e-03,-0.0108
8.5600e-03,-0.008
8.5680e-03,-0.008
8.5760e-03,-0.0104
8.5840e-03,-0.011
8.5920e-03,-0.0104
8.6000e-03,-0.0102
8.6080e-03,-0.0076
8.6160e-03,-0.0092
8.6240e-03,-0.0098
8.6320e-03,-0.011
8.6400e-03,-0.0096
8.6480e-03,-0.0068
8.6560e-03,-0.0074
8.6640e-03,-0.008
8.6720e-03,-0.0096
8.6800e-03,-0.0098
8.6880e-03,-0.0052
8.6960e-03,-0.0072
8.7040e-03,-0.0094
8.7120e-03,-0.0086
8.7200e-03,-0.0058
8.7280e-03,-0.0038
8.7360e-03,-0.006
8.7440e-03,-0.0084
8.7520e-03,-0.0074
8.7600e-03,-0.0048
8.7680e-03,-0.0036
8.7760e-03,-0.0044
8.7840e-03,-0.005
8.7920e-03,-0.0052
8.8000e-03,-0.0036
8.8080e-03,-0.0032
8.8160e-03,-0.0016
8.8240e-03,-0.002
8.8320e-03,-0.0034
8.8400e-03,-0.0042
8.8480e-03,-0.0008
8.8560e-03,0.0004
8.8640e-03,-0.0002
8.8720e-03,-0.0026
8.8800e-03,-0.0028
8.8880e-03,0
8.8960e-03,0.001
8.9040e-03,-0.0014
8.9120e-03,-0.0022
8.9200e-03,-0.0024
8.9280e-03,-0.0008
8.9360e-03,0.0014
8.9440e-03,0.0008
8.9520e-03,-0.0004
8.9600e-03,-0.0008
8.9680e-03,-0.002
8.9760e-03,-0.0008
8.9840e-03,0.0004
8.9920e-03,0.0004
9.0000e-03,-0.0018
9.0080e-03,-0.0026
9.0160e-03,-0.0028
9.0240e-03,-0.0006
9.0320e-03,0.0006
9.0400e-03,0.001
9.0480e-03,-0.0016
9.0560e-03,-0.0024
9.0640e-03,0.0006
9.0720e-03,0.0018
9.0800e-03,0.0002
9.0880e-03,-0.002
9.0960e-03,-0.0038
9.1040e-03,-0.001
9.1120e-03,0.0014
9.1200e-03,0
9.1280e-03,-0.0012
9.1360e-03,-0.0038
9.1440e-03,-0.0032
9.1520e-03,-0.0006
9.1600e-03,-0.0008
9.1680e-03,-0.0022
9.1760e-03,-0.004
9.1840e-03,-0.0044
9.1920e-03,-0.0034
9.2000e-03,-0.0016
9.2080e-03,-0.0022
9.2160e-03,-0.0042
9.2240e-03,-0.003
9.2320e-03,-0.002
9.2400e-03,-0.0008
9.2480e-03,0.0006
9.2560e-03,-0.0012
9.2640e-03,-0.0024
9.2720e-03,0.0002
9.2800e-03,0.0014
9.2880e-03,0.0016
9.2960e-03,0.0002
9.3040e-03,-0.0004
9.3120e-03,-0.001
9.3200e-03,0.0002
9.3280e-03,0.002
9.3360e-03,0.0032
9.3440e-03,0.0026
9.3520e-03,0.0008
9.3600e-03,0
9.3680e-03,-0.0012
9.3760e-03,0.0002
9.3840e-03,-0.0004
9.3920e-03,-0.0008
9.4000e-03,0.0014
9.4080e-03,0.0016
9.4160e-03,0.0016
9.4240e-03,0.0008
9.4320e-03,-0.0002
9.4400e-03,-0.001
9.4480e-03,-0.0018
9.4560e-03,-0.002
9.4640e-03,-0.0018
9.4720e-03,-0.0002
9.4800e-03,0.0016
9.4880e-03,0.0008
9.4960e-03,0.0016
9.5040e-03,0.0022
9.5120e-03,0.0016
9.5200e-03,0
9.5280e-03,-0.001
9.5360e-03,0
9.5440e-03,0.0004
9.5520e-03,0.0004
9.5600e-03,0
9.5680e-03,0.0008
9.5760e-03,0.001
9.5840e-03,0.0014
9.5920e-03,0.0024
9.6000e-03,0.0008
9.6080e-03,0.0004
9.6160e-03,0.0004
9.6240e-03,-0.0014
9.6320e-03,-0.0012
9.6400e-03,-0.002
9.6480e-03,-0.002
9.6560e-03,-0.0002
9.6640e-03,-0.0004
9.6720e-03,0.0004
9.6800e-03,0.0006
9.6880e-03,-0.0012
9.6960e-03,-0.0036
9.7040e-03,-0.003
9.7120e-03,-0.0036
9.7200e-03,-0.0046
9.7280e-03,-0.0024
9.7360e-03,0.0004
9.7440e-03,0.0006
9.7520e-03,0.0024
9.7600e-03,0.002
9.7680e-03,0.001
9.7760e-03,-0.0002
9.7840e-03,0.0006
9.7920e-03,-0.0014
9.8000e-03,-0.0016
9.8080e-03,-0.0008
9.8160e-03,-0.0014
9.8240e-03,0.0012
9.8320e-03,0.0024
9.8400e-03,0.0028
9.8480e-03,0.0008
9.8560e-03,-0.0006
9.8640e-03,0.0008
9.8720e-03,0.0002
9.8800e-03,0.002
9.8880e-03,0.0018
9.8960e-03,0.0022
9.9040e-03,0.0018
9.9120e-03,0.0012
9.9200e-03,-0.0004
9.9280e-03,-0.0016
9.9360e-03,-0.0002
9.9440e-03,0.0034
9.9520e-03,0.003
9.9600e-03,0.0008
9.9680e-03,-0.0012
9.9760e-03,-0.0024
9.9840e-03,-0.0022
9.9920e-03,-0.0002
1.0000e-02,0.0002
1.0008e-02,-0.0016
1.0016e-02,-0.0024
1.0024e-02,-0.0026
1.0032e-02,-0.0026
1.0040e-02,-0.0004
1.0048e-02,-0.0018
1.0056e-02,-0.004
1.0064e-02,-0.0038
1.0072e-02,-0.0028
1.0080e-02,-0.0016
1.0088e-02,-0.0016
1.0096e-02,-0.004
1.0104e-02,-0.004
1.0112e-02,-0.0024
1.0120e-02,-0.002
1.0128e-02,-0.0018
1.0136e-02,-0.0022
1.0144e-02,-0.0034
1.0152e-02,-0.0016
1.0160e-02,0.0004
1.0168e-02,0.0006
1.0176e-02,-0.0012
1.0184e-02,-0.0026
1.0192e-02,-0.004
1.0200e-02,-0.0028
1.0208e-02,0.0002
1.0216e-02,0.0006
1.0224e-02,0
1.0232e-02,-0.0032
