data/PSU_noise/PSU2_CV2_60A_100us.CSV

Model,TBS1102C
Firmware Version,v2015-08-04-prequal4ch70_v1.3

Point Format,Y
Horizontal Units,S
Horizontal Scale,0.0001
Sample Interval,8e-07
Filter Frequency,2e+08
Record Length,2000
Gating,0.0% to 100.0%
Probe Attenuation,1
Vertical Units,V
Vertical Offset,0
Vertical Scale,0.001
Label,
TIME,CH1
8.80000e-03,0.00032
8.80080e-03,0.00132
8.80160e-03,0.00088
8.80240e-03,-0.00068
8.80320e-03,-0.00116
8.80400e-03,0.001
8.80480e-03,0.00052
8.80560e-03,-0.00236
8.80640e-03,-0.00108
8.80720e-03,0.00224
8.80800e-03,0.00148
8.80880e-03,-0.00064
8.80960e-03,0.00128
8.81040e-03,0.00196
8.81120e-03,0.00056
8.81200e-03,-0.00056
8.81280e-03,-0.00012
8.81360e-03,0.00048
8.81440e-03,-0.00056
8.81520e-03,-0.00152
8.81600e-03,0.00088
8.81680e-03,0.00276
8.81760e-03,-0.00084
8.81840e-03,-0.0014
8.81920e-03,0.00224
8.82000e-03,0.00164
8.82080e-03,-0.00132
8.82160e-03,-0.00024
8.82240e-03,0.00144
8.82320e-03,-0.0006
8.82400e-03,-0.00168
8.82480e-03,0.00016
8.82560e-03,0.00068
8.82640e-03,-0.00128
8.82720e-03,-0.00108
8.82800e-03,0.00148
8.82880e-03,0.00132
8.82960e-03,-0.00128
8.83040e-03,-0.00172
8.83120e-03,0.00184
8.83200e-03,0.0016
8.83280e-03,-0.00136
8.83360e-03,-0.0006
8.83440e-03,0.002
8.83520e-03,0
8.83600e-03,-0.0026
8.83680e-03,0.0004
8.83760e-03,0.001
8.83840e-03,-0.00156
8.83920e-03,-0.0006
8.84000e-03,0.00204
8.84080e-03,0.00128
8.84160e-03,-0.00084
8.84240e-03,-0.00108
8.84320e-03,0.0008
8.84400e-03,0.0012
8.84480e-03,-0.00124
8.84560e-03,-0.00196
8.84640e-03,0.00016
8.84720e-03,0.0004
8.84800e-03,-0.0016
8.84880e-03,0.00012
8.84960e-03,0.00268
8.85040e-03,0.00072
8.85120e-03,-0.0008
8.85200e-03,0.00064
8.85280e-03,0.00168
8.85360e-03,-0.00128
8.85440e-03,-0.00244
8.85520e-03,-0.0012
8.85600e-03,0.00064
8.85680e-03,-0.00012
8.85760e-03,-0.0012
8.85840e-03,0.00064
8.85920e-03,0.00224
8.86000e-03,0.00052
8.86080e-03,-0.00016
8.86160e-03,0.00212
8.86240e-03,0.00188
8.86320e-03,-0.0014
8.86400e-03,-0.0004
8.86480e-03,0.00164
8.86560e-03,0.001
8.86640e-03,-0.00104
8.86720e-03,-0.00076
8.86800e-03,0.00172
8.86880e-03,0.00176
8.86960e-03,-0.00048
8.87040e-03,-8e-05
8.87120e-03,0.00208
8.87200e-03,0.00052
8.87280e-03,-0.00156
8.87360e-03,0.00204
8.87440e-03,0.00228
8.87520e-03,-0.00104
8.87600e-03,-0.0006
8.87680e-03,0.0022
8.87760e-03,0.00116
8.87840e-03,-0.00112
8.87920e-03,-4e-05
8.88000e-03,0.00196
8.88080e-03,0.00176
8.88160e-03,0
8.88240e-03,0.00052
8.88320e-03,0.00116
8.88400e-03,-8e-05
8.88480e-03,-0.00092
8.88560e-03,0.00028
8.88640e-03,0.00156
8.88720e-03,-0.0006
8.88800e-03,-0.001
8.88880e-03,0.00228
8.88960e-03,0.00228
8.89040e-03,-0.00168
8.89120e-03,-0.00016
8.89200e-03,0.00276
8.89280e-03,0.00076
8.89360e-03,-0.00128
8.89440e-03,0.00016
8.89520e-03,0.0002
8.89600e-03,-0.00096
8.89680e-03,-0.00108
8.89760e-03,0.001
8.89840e-03,0.00248
8.89920e-03,0.00124
8.90000e-03,-0.00128
8.90080e-03,0.00128
8.90160e-03,0.00252
8.90240e-03,-0.00032
8.90320e-03,-0.00208
8.90400e-03,0.00016
8.90480e-03,0.0016
8.90560e-03,-0.00152
8.90640e-03,-0.0018
8.90720e-03,0.0014
8.90800e-03,0.00116
8.90880e-03,-0.00032
8.90960e-03,0.00036
8.91040e-03,0.00216
8.91120e-03,0.00132
8.91200e-03,-0.00032
8.91280e-03,-0.00068
8.91360e-03,0.00136
8.91440e-03,0.0014
8.91520e-03,-0.00184
8.91600e-03,-0.00092
8.91680e-03,0.0026
8.91760e-03,0.00092
8.91840e-03,-0.00092
8.91920e-03,0.001
8.92000e-03,0.00152
8.92080e-03,-0.0008
8.92160e-03,-0.00052
8.92240e-03,0.00236
8.92320e-03,0.00144
8.92400e-03,-0.0008
8.92480e-03,-0.00032
8.92560e-03,0.0012
8.92640e-03,0.00112
8.92720e-03,-0.00124
8.92800e-03,-0.00112
8.92880e-03,0.00192
8.92960e-03,0.0012
8.93040e-03,-0.0008
8.93120e-03,0.0014
8.93200e-03,0.00272
8.93280e-03,-0.00052
8.93360e-03,-0.00088
8.93440e-03,0.00232
8.93520e-03,0.00072
8.93600e-03,-0.00148
8.93680e-03,-0.00136
8.93760e-03,0.0012
8.93840e-03,0.00028
8.93920e-03,-0.0014
8.94000e-03,-0.00024
8.94080e-03,0.0022
8.94160e-03,0.00136
8.94240e-03,-0.00024
8.94320e-03,0.00052
8.94400e-03,0.00128
8.94480e-03,-0.0008
8.94560e-03,-0.00212
8.94640e-03,0.00056
8.94720e-03,0.0012
8.94800e-03,-0.0012
8.94880e-03,-0.00092
8.94960e-03,0.00212
8.95040e-03,0.00204
8.95120e-03,-0.0008
8.95200e-03,-0.00032
8.95280e-03,0.00176
8.95360e-03,0.001
8.95440e-03,-0.00024
8.95520e-03,0.00016
8.95600e-03,0.0014
8.95680e-03,0.00048
8.95760e-03,-0.00084
8.95840e-03,0.00064
8.95920e-03,0.00268
8.96000e-03,0.00052
8.96080e-03,-0.0014
8.96160e-03,0.001
8.96240e-03,0.00228
8.96320e-03,-4e-05
8.96400e-03,-0.00084
8.96480e-03,0.00128
8.96560e-03,0.00152
8.96640e-03,0.00012
8.96720e-03,-8e-05
8.96800e-03,0.0014
8.96880e-03,0.00144
8.96960e-03,-0.00112
8.97040e-03,-0.0016
8.97120e-03,0.00224
8.97200e-03,0.00164
8.97280e-03,-0.00176
8.97360e-03,0.0006
8.97440e-03,0.0024
8.97520e-03,0.00036
8.97600e-03,-0.0006
8.97680e-03,8e-05
8.97760e-03,0.00084
8.97840e-03,-4e-05
8.97920e-03,-0.0012
8.98000e-03,0.00016
8.98080e-03,0.00104
8.98160e-03,-0.00128
8.98240e-03,-0.00092
8.98320e-03,0.00228
8.98400e-03,0.00156
8.98480e-03,-0.00184
8.98560e-03,-0.00032
8.98640e-03,0.00236
8.98720e-03,-0.00084
8.98800e-03,-0.00152
8.98880e-03,0.001
8.98960e-03,0.00076
8.99040e-03,0
8.99120e-03,0.00056
8.99200e-03,0.0016
8.99280e-03,0.00112
8.99360e-03,-0.00064
8.99440e-03,-0.00044
8.99520e-03,0.0014
8.99600e-03,0.00116
8.99680e-03,-0.00148
8.99760e-03,-0.0008
8.99840e-03,0.00264
8.99920e-03,-0.0004
9.00000e-03,-0.00152
9.00080e-03,-0.0002
9.00160e-03,0.00172
9.00240e-03,-0.00064
9.00320e-03,-0.00132
9.00400e-03,0.00068
9.00480e-03,0.00076
9.00560e-03,-0.00148
9.00640e-03,-0.00112
9.00720e-03,0.00108
9.00800e-03,0.00236
9.00880e-03,0.00024
9.00960e-03,-0.00068
9.01040e-03,0.00168
9.01120e-03,0.00204
9.01200e-03,-0.00124
9.01280e-03,-0.0012
9.01360e-03,0.00128
9.01440e-03,0.00024
9.01520e-03,-0.00144
9.01600e-03,0.00076
9.01680e-03,0.00188
9.01760e-03,0.00016
9.01840e-03,-0.00068
9.01920e-03,0.00032
9.02000e-03,0.00212
9.02080e-03,0.00096
9.02160e-03,-0.00056
9.02240e-03,0.00048
9.02320e-03,0.00212
9.02400e-03,8e-05
9.02480e-03,-0.00072
9.02560e-03,0.00148
9.02640e-03,0.00044
9.02720e-03,-0.00168
9.02800e-03,-0.0002
9.02880e-03,0.00208
9.02960e-03,0.00048
9.03040e-03,-0.00076
9.03120e-03,0.00052
9.03200e-03,0.00212
9.03280e-03,0.00036
9.03360e-03,-0.00132
9.03440e-03,0.00024
9.03520e-03,0.00124
9.03600e-03,-0.00172
9.03680e-03,-0.00164
9.03760e-03,0.00012
9.03840e-03,-8e-05
9.03920e-03,-0.00172
9.04000e-03,4e-05
9.04080e-03,0.00236
9.04160e-03,0.00032
9.04240e-03,-0.00056
9.04320e-03,0.0006
9.04400e-03,0.0016
9.04480e-03,-0.00012
9.04560e-03,-0.00216
9.04640e-03,-0.00036
9.04720e-03,0.00124
9.04800e-03,-0.00044
9.04880e-03,-0.0008
9.04960e-03,0.00136
9.05040e-03,0.00132
9.05120e-03,-0.00112
9.05200e-03,0.0006
9.05280e-03,0.00216
9.05360e-03,0.00044
9.05440e-03,-0.00104
9.05520e-03,0.00044
9.05600e-03,0.00196
9.05680e-03,0.00024
9.05760e-03,-0.00076
9.05840e-03,0.00036
9.05920e-03,0.00192
9.06000e-03,0.00084
9.06080e-03,-0.001
9.06160e-03,0.00108
9.06240e-03,0.0018
9.06320e-03,-0.00148
9.06400e-03,-0.001
9.06480e-03,0.0022
9.06560e-03,0.00176
9.06640e-03,-0.00056
9.06720e-03,0.0002
9.06800e-03,0.00156
9.06880e-03,0.00152
9.06960e-03,0.00028
9.07040e-03,-0.00132
9.07120e-03,0.0012
9.07200e-03,0.00192
9.07280e-03,-0.00096
9.07360e-03,-0.00016
9.07440e-03,0.0024
9.07520e-03,0.00056
9.07600e-03,-0.0012
9.07680e-03,0.00072
9.07760e-03,0.00256
9.07840e-03,-0.00052
9.07920e-03,-0.00064
9.08000e-03,0.00084
9.08080e-03,0.0016
9.08160e-03,0.00068
9.08240e-03,-0.00064
9.08320e-03,0.00084
9.08400e-03,0.00144
9.08480e-03,-0.00052
9.08560e-03,-0.00036
9.08640e-03,0.00248
9.08720e-03,0.00012
9.08800e-03,-0.00172
9.08880e-03,0.00148
9.08960e-03,0.003
9.09040e-03,-0.00016
9.09120e-03,-0.00068
9.09200e-03,0.00164
9.09280e-03,0.0016
9.09360e-03,-0.0006
9.09440e-03,-0.00068
9.09520e-03,0.00024
9.09600e-03,8e-05
9.09680e-03,-0.0008
9.09760e-03,-0.0002
9.09840e-03,0.00184
9.09920e-03,0.0008
9.10000e-03,-0.00076
9.10080e-03,0.00064
9.10160e-03,0.00248
9.10240e-03,0.00032
9.10320e-03,-0.00244
9.10400e-03,0.00036
9.10480e-03,0.00208
9.10560e-03,-0.0006
9.10640e-03,-0.00108
9.10720e-03,0.00144
9.10800e-03,0.00192
9.10880e-03,-0.00016
9.10960e-03,0.00048
9.11040e-03,0.0022
9.11120e-03,0.00152
9.11200e-03,-0.00052
9.11280e-03,-0.00028
9.11360e-03,0.00124
9.11440e-03,0.00144
9.11520e-03,-0.00104
9.11600e-03,-0.00088
9.11680e-03,0.00304
9.11760e-03,0.00148
9.11840e-03,0
9.11920e-03,0.00096
9.12000e-03,0.0022
9.12080e-03,0.00076
9.12160e-03,-0.00028
9.12240e-03,0.00136
9.12320e-03,0.00204
9.12400e-03,0.00044
9.12480e-03,-0.00076
9.12560e-03,0.00064
9.12640e-03,0.0022
9.12720e-03,-0.00044
9.12800e-03,-0.00164
9.12880e-03,0.00096
9.12960e-03,0.00228
9.13040e-03,-0.00016
9.13120e-03,0.00032
9.13200e-03,0.0032
9.13280e-03,0.00112
9.13360e-03,-0.00028
9.13440e-03,0.0012
9.13520e-03,0.00132
9.13600e-03,4e-05
9.13680e-03,-0.00192
9.13760e-03,-0.00024
9.13840e-03,0.00244
9.13920e-03,0
9.14000e-03,-0.00228
9.14080e-03,0.00132
9.14160e-03,0.0022
9.14240e-03,-0.00064
9.14320e-03,-0.00044
9.14400e-03,0.00164
9.14480e-03,-0.00028
9.14560e-03,-0.00352
9.14640e-03,-0.00052
9.14720e-03,0.00112
9.14800e-03,-0.00104
9.14880e-03,-8e-05
9.14960e-03,0.00136
9.15040e-03,0.00252
9.15120e-03,0.00116
9.15200e-03,-0.00092
9.15280e-03,0.00044
9.15360e-03,0.0016
9.15440e-03,-0.00048
9.15520e-03,-0.00116
9.15600e-03,0.00132
9.15680e-03,0.00032
9.15760e-03,-0.00216
9.15840e-03,0.00068
9.15920e-03,0.002
9.16000e-03,-0.00016
9.16080e-03,-0.00152
9.16160e-03,0.00056
9.16240e-03,0.00176
9.16320e-03,8e-05
9.16400e-03,-0.00104
9.16480e-03,-0.00056
9.16560e-03,0.00128
9.16640e-03,0.0006
9.16720e-03,-0.00132
9.16800e-03,0.00036
9.16880e-03,0.0022
9.16960e-03,-0.00112
9.17040e-03,-0.00188
9.17120e-03,0.00208
9.17200e-03,0.00248
9.17280e-03,-0.0008
9.17360e-03,0.0006
9.17440e-03,0.00172
9.17520e-03,0.00208
9.17600e-03,-4e-05
9.17680e-03,-0.00052
9.17760e-03,0.00068
9.17840e-03,0.00184
9.17920e-03,-0.00024
9.18000e-03,-0.00076
9.18080e-03,0.00268
9.18160e-03,0.00132
9.18240e-03,-0.00112
9.18320e-03,0.00156
9.18400e-03,0.00288
9.18480e-03,-0.00052
9.18560e-03,-0.00136
9.18640e-03,0.00044
9.18720e-03,0.00132
9.18800e-03,0.00032
9.18880e-03,-0.0012
9.18960e-03,0.00084
9.19040e-03,0.00168
9.19120e-03,0.00072
9.19200e-03,-0.00028
9.19280e-03,0.002
9.19360e-03,0.00096
9.19440e-03,-0.00204
9.19520e-03,0.0006
9.19600e-03,0.00232
9.19680e-03,-0.00152
9.19760e-03,-0.00204
9.19840e-03,0.00164
9.19920e-03,0.00196
9.20000e-03,-0.00016
9.20080e-03,-0.0004
9.20160e-03,0.00184
9.20240e-03,0.00204
9.20320e-03,-0.00012
9.20400e-03,-0.00048
9.20480e-03,0.00116
9.20560e-03,0.00052
9.20640e-03,-0.00104
9.20720e-03,0.0004
9.20800e-03,0.00248
9.20880e-03,0.00096
9.20960e-03,-0.00216
9.21040e-03,0.00064
9.21120e-03,0.00304
9.21200e-03,-4e-05
9.21280e-03,-0.00112
9.21360e-03,0.00148
9.21440e-03,0.00124
9.21520e-03,8e-05
9.21600e-03,4e-05
9.21680e-03,0.0014
9.21760e-03,0.0016
9.21840e-03,-0.00024
9.21920e-03,-0.00048
9.22000e-03,0.00208
9.22080e-03,0.00204
9.22160e-03,-0.00152
9.22240e-03,-0.00112
9.22320e-03,0.00212
9.22400e-03,0.00168
9.22480e-03,-0.00012
9.22560e-03,-0.0002
9.22640e-03,0.00168
9.22720e-03,8e-05
9.22800e-03,-0.00096
9.22880e-03,-8e-05
9.22960e-03,0.00104
9.23040e-03,-0.00012
9.23120e-03,-0.00084
9.23200e-03,0.0008
9.23280e-03,0.0026
9.23360e-03,-0.00028
9.23440e-03,-0.00236
9.23520e-03,0.0016
9.23600e-03,0.00192
9.23680e-03,-0.00196
9.23760e-03,-0.00096
9.23840e-03,0.00164
9.23920e-03,0.00056
9.24000e-03,0.00024
9.24080e-03,-0.0002
9.24160e-03,0.00196
9.24240e-03,0.00052
9.24320e-03,-0.00204
9.24400e-03,-0.00012
9.24480e-03,0.00236
9.24560e-03,-0.00012
9.24640e-03,-0.00296
9.24720e-03,0.00068
9.24800e-03,0.00216
9.24880e-03,-0.001
9.24960e-03,-0.00104
9.25040e-03,0.0018
9.25120e-03,0.00128
9.25200e-03,-0.00128
9.25280e-03,-0.00056
9.25360e-03,0.00032
9.25440e-03,-0.00044
9.25520e-03,-0.00084
9.25600e-03,-4e-05
9.25680e-03,0.00224
9.25760e-03,0.00104
9.25840e-03,-0.00144
9.25920e-03,0.00064
9.26000e-03,0.00264
9.26080e-03,-0.00056
9.26160e-03,-0.00144
9.26240e-03,0.00156
9.26320e-03,0.00088
9.26400e-03,-0.00108
9.26480e-03,-0.00032
9.26560e-03,0.001
9.26640e-03,0.0004
9.26720e-03,-0.0004
9.26800e-03,0.00036
9.26880e-03,0.00164
9.26960e-03,0.0018
9.27040e-03,-0.00032
9.27120e-03,-0.00112
9.27200e-03,0.00332
9.27280e-03,0.00164
9.27360e-03,-0.00184
9.27440e-03,-0.0002
9.27520e-03,0.00172
9.27600e-03,0.00016
9.27680e-03,-0.00152
9.27760e-03,-0.00016
9.27840e-03,0.00096
9.27920e-03,0.00036
9.28000e-03,4e-05
9.28080e-03,0.00136
9.28160e-03,0.00296
9.28240e-03,0.0008
9.28320e-03,-0.002
9.28400e-03,0.00044
9.28480e-03,0.002
9.28560e-03,-0.00148
9.28640e-03,-0.00164
9.28720e-03,0.00076
9.28800e-03,0.00052
9.28880e-03,-0.00028
9.28960e-03,0.00024
9.29040e-03,0.00196
9.29120e-03,0.00144
9.29200e-03,-0.00012
9.29280e-03,0.00072
9.29360e-03,0.00232
9.29440e-03,0.00056
9.29520e-03,-0.00228
9.29600e-03,-0.00052
9.29680e-03,0.00188
9.29760e-03,-0.00036
9.29840e-03,-0.00132
9.29920e-03,0.0016
9.30000e-03,0.00196
9.30080e-03,-4e-05
9.30160e-03,0.00056
9.30240e-03,0.00208
9.30320e-03,0.00072
9.30400e-03,-0.001
9.30480e-03,0.00056
9.30560e-03,0.002
9.30640e-03,-0.00024
9.30720e-03,-0.00136
9.30800e-03,-0.00016
9.30880e-03,0.00288
9.30960e-03,0.00036
9.31040e-03,-0.0016
9.31120e-03,0.00124
9.31200e-03,0.00196
9.31280e-03,-0.00052
9.31360e-03,-0.00044
9.31440e-03,0.00184
9.31520e-03,0.00112
9.31600e-03,-0.0012
9.31680e-03,-0.00032
9.31760e-03,0.0018
9.31840e-03,0.00016
9.31920e-03,-0.002
9.32000e-03,-0.0006
9.32080e-03,0.00112
9.32160e-03,0.00156
9.32240e-03,-0.00076
9.32320e-03,-0.00048
9.32400e-03,0.00208
9.32480e-03,0.00148
9.32560e-03,-0.00104
9.32640e-03,0.00056
9.32720e-03,0.00204
9.32800e-03,-0.0002
9.32880e-03,-0.001
9.32960e-03,0.00064
9.33040e-03,0.00212
9.33120e-03,0.00028
9.33200e-03,-0.0012
9.33280e-03,4e-05
9.33360e-03,0.00248
9.33440e-03,0.001
9.33520e-03,-0.00148
9.33600e-03,0.00076
9.33680e-03,0.00144
9.33760e-03,-0.00084
9.33840e-03,-0.00016
9.33920e-03,0.0018
9.34000e-03,0.00076
9.34080e-03,-0.00056
9.34160e-03,-0.00036
9.34240e-03,0.00144
9.34320e-03,0.001
9.34400e-03,-0.00156
9.34480e-03,-0.00132
9.34560e-03,0.0024
9.34640e-03,0.00068
9.34720e-03,-0.00196
9.34800e-03,0.00088
9.34880e-03,0.00232
9.34960e-03,-4e-05
9.35040e-03,-0.0006
9.35120e-03,0.00108
9.35200e-03,0.00064
9.35280e-03,-0.00104
9.35360e-03,-0.00108
9.35440e-03,0.001
9.35520e-03,0.00092
9.35600e-03,-0.00188
9.35680e-03,-0.00084
9.35760e-03,0.00264
9.35840e-03,0.00168
9.35920e-03,-0.00152
9.36000e-03,0.00032
9.36080e-03,0.00228
9.36160e-03,-0.00084
9.36240e-03,-0.00156
9.36320e-03,0.0008
9.36400e-03,0.00056
9.36480e-03,-0.00116
9.36560e-03,-0.00068
9.36640e-03,0.00036
9.36720e-03,0.00092
9.36800e-03,-0.00056
9.36880e-03,-0.00152
9.36960e-03,0.00148
9.37040e-03,0.002
9.37120e-03,-0.00088
9.37200e-03,-0.00104
9.37280e-03,0.00148
9.37360e-03,0.00068
9.37440e-03,-0.0016
9.37520e-03,0.00012
9.37600e-03,0.00116
9.37680e-03,-0.0006
9.37760e-03,-0.00148
9.37840e-03,0.00036
9.37920e-03,0.00124
9.38000e-03,0.00052
9.38080e-03,-0.00036
9.38160e-03,0.00104
9.38240e-03,0.00268
9.38320e-03,0.00056
9.38400e-03,-0.002
9.38480e-03,-8e-05
9.38560e-03,0.00116
9.38640e-03,-0.00208
9.38720e-03,-0.00124
9.38800e-03,0.00156
9.38880e-03,0.00096
9.38960e-03,-0.00132
9.39040e-03,4e-05
9.39120e-03,0.00228
9.39200e-03,0.00104
9.39280e-03,-0.00068
9.39360e-03,-0.00048
9.39440e-03,0.00192
9.39520e-03,0.00124
9.39600e-03,-0.00232
9.39680e-03,-0.001
9.39760e-03,0.00192
9.39840e-03,8e-05
9.39920e-03,-0.0012
9.40000e-03,0.00164
9.40080e-03,0.0018
9.40160e-03,-0.00076
9.40240e-03,-0.0002
9.40320e-03,0.00156
9.40400e-03,0.00072
9.40480e-03,-0.00164
9.40560e-03,-0.00032
9.40640e-03,0.0018
9.40720e-03,0.00076
9.40800e-03,-0.00164
9.40880e-03,-0.00048
9.40960e-03,0.00144
9.41040e-03,0.00064
9.41120e-03,-0.00112
9.41200e-03,0.0012
9.41280e-03,0.00168
9.41360e-03,-0.00116
9.41440e-03,-0.00028
9.41520e-03,0.0026
9.41600e-03,0.00048
9.41680e-03,-0.00164
9.41760e-03,0.00016
9.41840e-03,0.00168
9.41920e-03,0.0004
9.42000e-03,-0.00196
9.42080e-03,-0.00076
9.42160e-03,0.00208
9.42240e-03,0.00084
9.42320e-03,-0.00144
9.42400e-03,0.00044
9.42480e-03,0.00172
9.42560e-03,-0.00028
9.42640e-03,-0.0018
9.42720e-03,0.00076
9.42800e-03,0.00144
9.42880e-03,-0.00136
9.42960e-03,-0.00108
9.43040e-03,0.00036
9.43120e-03,0.0018
9.43200e-03,-0.00068
9.43280e-03,-0.00124
9.43360e-03,0.0016
9.43440e-03,0.00224
9.43520e-03,-0.0004
9.43600e-03,-0.00136
9.43680e-03,0.00124
9.43760e-03,0.00076
9.43840e-03,-0.00076
9.43920e-03,0.0006
9.44000e-03,0.00196
9.44080e-03,0.00056
9.44160e-03,-0.001
9.44240e-03,-0.0006
9.44320e-03,0.00072
9.44400e-03,-4e-05
9.44480e-03,-0.0024
9.44560e-03,-0.00052
9.44640e-03,0.00228
9.44720e-03,-0.00016
9.44800e-03,-0.00092
9.44880e-03,0.0018
9.44960e-03,0.00148
9.45040e-03,-0.0012
9.45120e-03,8e-05
9.45200e-03,0.0012
9.45280e-03,-0.00024
9.45360e-03,-0.00124
9.45440e-03,-0.00096
9.45520e-03,0.00108
9.45600e-03,0.00112
9.45680e-03,-0.00204
9.45760e-03,0.00064
9.45840e-03,0.00308
9.45920e-03,0.00012
9.46000e-03,-0.00184
9.46080e-03,0.00112
9.46160e-03,0.00124
9.46240e-03,-0.00104
9.46320e-03,-0.00072
9.46400e-03,0.00136
9.46480e-03,-8e-05
9.46560e-03,-0.00168
9.46640e-03,0.00036
9.46720e-03,0.00156
9.46800e-03,0.00064
9.46880e-03,-0.00088
9.46960e-03,0.0004
9.47040e-03,0.00168
9.47120e-03,0.00048
9.47200e-03,-0.00148
9.47280e-03,0.0004
9.47360e-03,0.00264
9.47440e-03,-0.0002
9.47520e-03,-0.00104
9.47600e-03,0.001
9.47680e-03,0.00056
9.47760e-03,-0.0014
9.47840e-03,0.00016
9.47920e-03,0.00248
9.48000e-03,0.0018
9.48080e-03,-0.00016
9.48160e-03,0.00088
9.48240e-03,0.00248
9.48320e-03,0.00172
9.48400e-03,-0.00096
9.48480e-03,-0.00084
9.48560e-03,0.00108
9.48640e-03,0.00088
9.48720e-03,-0.00184
9.48800e-03,-0.00092
9.48880e-03,0.00132
9.48960e-03,0.0002
9.49040e-03,-0.0008
9.49120e-03,0.00208
9.49200e-03,0.00276
9.49280e-03,-0.00044
9.49360e-03,-0.001
9.49440e-03,0.00048
9.49520e-03,0.00124
9.49600e-03,-0.00032
9.49680e-03,-0.00164
9.49760e-03,0.00056
9.49840e-03,0.00256
9.49920e-03,-0.00036
9.50000e-03,-0.0008
9.50080e-03,0.00216
9.50160e-03,0.00084
9.50240e-03,-0.00152
9.50320e-03,0.00044
9.50400e-03,0.0018
9.50480e-03,4e-05
9.50560e-03,-0.00152
9.50640e-03,0.00028
9.50720e-03,0.00224
9.50800e-03,0.00084
9.50880e-03,-0.00152
9.50960e-03,0.00088
9.51040e-03,0.00224
9.51120e-03,-0.00152
9.51200e-03,-0.0012
9.51280e-03,0.00156
9.51360e-03,0.00068
9.51440e-03,-0.00152
9.51520e-03,0.00124
9.51600e-03,0.00172
9.51680e-03,-0.00032
9.51760e-03,-0.00116
9.51840e-03,0.00108
9.51920e-03,0.00132
9.52000e-03,0
9.52080e-03,-0.00164
9.52160e-03,0.00012
9.52240e-03,0.00176
9.52320e-03,-0.0012
9.52400e-03,-0.0016
9.52480e-03,0.00152
9.52560e-03,0.00024
9.52640e-03,-0.00216
9.52720e-03,-0.00048
9.52800e-03,0.00152
9.52880e-03,0.00024
9.52960e-03,-0.00112
9.53040e-03,0.00044
9.53120e-03,0.00248
9.53200e-03,0.00128
9.53280e-03,-0.00176
9.53360e-03,-0.00064
9.53440e-03,0.00212
9.53520e-03,8e-05
9.53600e-03,-0.00204
9.53680e-03,-0.0002
9.53760e-03,0.00116
9.53840e-03,-4e-05
9.53920e-03,-8e-05
9.54000e-03,0.00128
9.54080e-03,0.00212
9.54160e-03,0.00064
9.54240e-03,-0.00036
9.54320e-03,0.00112
9.54400e-03,0.00152
9.54480e-03,-0.00168
9.54560e-03,-0.00272
9.54640e-03,0.00092
9.54720e-03,0.0006
9.54800e-03,-0.0012
9.54880e-03,-4e-05
9.54960e-03,0.00108
9.55040e-03,0.00084
9.55120e-03,-8e-05
9.55200e-03,0.00016
9.55280e-03,0.00124
9.55360e-03,0.00092
9.55440e-03,-0.00164
9.55520e-03,0.0006
9.55600e-03,0.00292
9.55680e-03,-0.00112
9.55760e-03,-0.00204
9.55840e-03,0.00152
9.55920e-03,0.00184
9.56000e-03,-0.00056
9.56080e-03,-0.00132
9.56160e-03,0.00032
9.56240e-03,0.0012
9.56320e-03,-0.00128
9.56400e-03,-0.00012
9.56480e-03,0.00172
9.56560e-03,0.00084
9.56640e-03,-0.00164
9.56720e-03,0.00032
9.56800e-03,0.00224
9.56880e-03,-0.00112
9.56960e-03,-0.0016
9.57040e-03,0.00164
9.57120e-03,0.0012
9.57200e-03,-0.00108
9.57280e-03,-0.00076
9.57360e-03,0.00096
9.57440e-03,0.0014
9.57520e-03,-0.00032
9.57600e-03,-0.00064
9.57680e-03,0.0016
9.57760e-03,0.00064
9.57840e-03,-0.00124
9.57920e-03,-0.00016
9.58000e-03,0.00216
9.58080e-03,0.00036
9.58160e-03,-0.0014
9.58240e-03,0.0006
9.58320e-03,0.00116
