data/PSU_noise/PSU2_CV1_0A_10ms.CSV

Model,TBS1102C
Firmware Version,v2015-08-04-prequal4ch70_v1.3

Point Format,Y
Horizontal Units,S
Horizontal Scale,0.01
Sample Interval,8e-05
Filter Frequency,2e+08
Record Length,2000
Gating,0.0% to 100.0%
Probe Attenuation,1
Vertical Units,V
Vertical Offset,0
Vertical Scale,0.005
Label,
TIME,CH1
-7.040e-02,-0.0156
-7.032e-02,-0.0136
-7.024e-02,0.0012
-7.016e-02,0.0132
-7.008e-02,0.0176
-7.000e-02,0.0132
-6.992e-02,0.0084
-6.984e-02,-0.0014
-6.976e-02,-0.0104
-6.968e-02,-0.0102
-6.960e-02,-0.0142
-6.952e-02,-0.0106
-6.944e-02,-0.0052
-6.936e-02,-0.0002
-6.928e-02,0.0048
-6.920e-02,0.0028
-6.912e-02,0.0004
-6.904e-02,0.0004
-6.896e-02,-0.0072
-6.888e-02,-0.0088
-6.880e-02,-0.0082
-6.872e-02,-0.0076
-6.864e-02,-0.003
-6.856e-02,0.002
-6.848e-02,0.004
-6.840e-02,0
-6.832e-02,-0.0038
-6.824e-02,-0.0048
-6.816e-02,-0.0036
-6.808e-02,0.0054
-6.800e-02,0.008
-6.792e-02,0.0052
-6.784e-02,0.0002
-6.776e-02,-0.005
-6.768e-02,-0.0056
-6.760e-02,-0.0022
-6.752e-02,-0.0034
-6.744e-02,-0.0034
-6.736e-02,-0.002
-6.728e-02,0
-6.720e-02,0.0054
-6.712e-02,-0.002
-6.704e-02,-0.0018
-6.696e-02,0.002
-6.688e-02,-0.002
-6.680e-02,-0.0022
-6.672e-02,-0.0026
-6.664e-02,0.002
-6.656e-02,0.0032
-6.648e-02,-0.0004
-6.640e-02,0
-6.632e-02,-0.0028
-6.624e-02,-0.0018
-6.616e-02,-0.0008
-6.608e-02,0.0018
-6.600e-02,0.0006
-6.592e-02,-0.0022
-6.584e-02,-0.0008
-6.576e-02,0.0046
-6.568e-02,0.009
-6.560e-02,0.0026
-6.552e-02,0.0004
-6.544e-02,-0.0044
-6.536e-02,-0.0012
-6.528e-02,0.0042
-6.520e-02,0.0032
-6.512e-02,-0.0002
-6.504e-02,-0.0014
-6.496e-02,-0.0056
-6.488e-02,-0.0028
-6.480e-02,0.0044
-6.472e-02,0.005
-6.464e-02,0.0028
-6.456e-02,0.0014
-6.448e-02,-0.0022
-6.440e-02,-0.0098
-6.432e-02,-0.0012
-6.424e-02,0.0078
-6.416e-02,0.012
-6.408e-02,0.0098
-6.400e-02,0.0072
-6.392e-02,0.0002
-6.384e-02,-0.0048
-6.376e-02,-0.0126
-6.368e-02,-0.009
-6.360e-02,-0.0054
-6.352e-02,-0.0012
-6.344e-02,0.0028
-6.336e-02,-0.0008
-6.328e-02,0.0008
-6.320e-02,-0.002
-6.312e-02,-0.0026
-6.304e-02,0.0022
-6.296e-02,0.0062
-6.288e-02,0.0032
-6.280e-02,0.0008
-6.272e-02,-0.0034
-6.264e-02,-0.0068
-6.256e-02,-0.007
-6.248e-02,-0.0034
-6.240e-02,0.001
-6.232e-02,0.0056
-6.224e-02,0.0022
-6.216e-02,0.0018
-6.208e-02,-0.003
-6.200e-02,-0.004
-6.192e-02,-0.0044
-6.184e-02,-0.003
-6.176e-02,-0.0008
-6.168e-02,-0.0006
-6.160e-02,-0.0006
-6.152e-02,0.002
-6.144e-02,0.001
-6.136e-02,-0.0022
-6.128e-02,0.0018
-6.120e-02,0.0026
-6.112e-02,0.0036
-6.104e-02,0.0012
-6.096e-02,-0.003
-6.088e-02,0.0038
-6.080e-02,0.0062
-6.072e-02,0.0038
-6.064e-02,-0.0022
-6.056e-02,-0.006
-6.048e-02,-0.0038
-6.040e-02,0.0008
-6.032e-02,0.0054
-6.024e-02,0.002
-6.016e-02,-0.0008
-6.008e-02,-0.0052
-6.000e-02,-0.0072
-5.992e-02,-0.0012
-5.984e-02,0.0136
-5.976e-02,0.0194
-5.968e-02,0.0182
-5.960e-02,0.013
-5.952e-02,0.0014
-5.944e-02,-0.0092
-5.936e-02,-0.0142
-5.928e-02,-0.0174
-5.920e-02,-0.0146
-5.912e-02,-0.0028
-5.904e-02,0.0016
-5.896e-02,0.0078
-5.888e-02,0.0082
-5.880e-02,0.0078
-5.872e-02,0.0016
-5.864e-02,-0.0018
-5.856e-02,-0.009
-5.848e-02,-0.0084
-5.840e-02,-0.0094
-5.832e-02,-0.0062
-5.824e-02,0.0014
-5.816e-02,0.002
-5.808e-02,0.0024
-5.800e-02,0.0006
-5.792e-02,0.0002
-5.784e-02,-0.0062
-5.776e-02,-0.0062
-5.768e-02,-0.0038
-5.760e-02,-0.0024
-5.752e-02,-0.0014
-5.744e-02,0.0004
-5.736e-02,-0.0014
-5.728e-02,-0.0014
-5.720e-02,0.005
-5.712e-02,0.0038
-5.704e-02,0.0034
-5.696e-02,0.0006
-5.688e-02,-0.0012
-5.680e-02,-0.0082
-5.672e-02,-0.0042
-5.664e-02,0.007
-5.656e-02,0.0066
-5.648e-02,0.0068
-5.640e-02,0.0014
-5.632e-02,-0.0046
-5.624e-02,-0.0094
-5.616e-02,-0.004
-5.608e-02,-0.0036
-5.600e-02,0.0024
-5.592e-02,0.0048
-5.584e-02,-0.0022
-5.576e-02,-0.0026
-5.568e-02,-0.0026
-5.560e-02,0.0044
-5.552e-02,0.0042
-5.544e-02,0.0078
-5.536e-02,0.006
-5.528e-02,0.0018
-5.520e-02,-0.0044
-5.512e-02,-0.0054
-5.504e-02,-0.0076
-5.496e-02,-0.0036
-5.488e-02,-0.0012
-5.480e-02,0.002
-5.472e-02,0.0028
-5.464e-02,-0.0004
-5.456e-02,0
-5.448e-02,0
-5.440e-02,-0.0026
-5.432e-02,-0.0026
-5.424e-02,-0.0004
-5.416e-02,-0.0018
-5.408e-02,0.001
-5.400e-02,-0.005
-5.392e-02,-0.0048
-5.384e-02,0.0002
-5.376e-02,0.0006
-5.368e-02,-0.0028
-5.360e-02,0.0042
-5.352e-02,0.0008
-5.344e-02,0.0006
-5.336e-02,0.0002
-5.328e-02,0.0018
-5.320e-02,0.0076
-5.312e-02,0.0022
-5.304e-02,0.0014
-5.296e-02,-0.002
-5.288e-02,-0.0006
-5.280e-02,0.0008
-5.272e-02,0.002
-5.264e-02,0.0002
-5.256e-02,-0.0002
-5.248e-02,-0.0034
-5.240e-02,-0.0028
-5.232e-02,0.003
-5.224e-02,0.007
-5.216e-02,0.0038
-5.208e-02,0.0016
-5.200e-02,-0.0022
-5.192e-02,-0.0062
-5.184e-02,0
-5.176e-02,0.0048
-5.168e-02,0.0072
-5.160e-02,0.0034
-5.152e-02,0.0038
-5.144e-02,-0.003
-5.136e-02,-0.007
-5.128e-02,-0.0104
-5.120e-02,0.0002
-5.112e-02,-0.0006
-5.104e-02,0
-5.096e-02,-0.0022
-5.088e-02,-0.003
-5.080e-02,0.0028
-5.072e-02,0.0024
-5.064e-02,-0.0024
-5.056e-02,-0.0026
-5.048e-02,0.0026
-5.040e-02,0.0018
-5.032e-02,-0.0004
-5.024e-02,-0.0036
-5.016e-02,-0.0008
-5.008e-02,-0.0004
-5.000e-02,0.0024
-4.992e-02,-0.004
-4.984e-02,-0.0002
-4.976e-02,0.0056
-4.968e-02,0.0076
-4.960e-02,0.0028
-4.952e-02,0.0016
-4.944e-02,-0.0056
-4.936e-02,0.0004
-4.928e-02,0.006
-4.920e-02,0.005
-4.912e-02,0.0042
-4.904e-02,-0.002
-4.896e-02,-0.001
-4.888e-02,-0.0066
-4.880e-02,-0.0026
-4.872e-02,0.0032
-4.864e-02,0.009
-4.856e-02,0.0064
-4.848e-02,0.0056
-4.840e-02,-0.0032
-4.832e-02,-0.0086
-4.824e-02,-0.0082
-4.816e-02,-0.005
-4.808e-02,-0.003
-4.800e-02,-0.0036
-4.792e-02,-0.004
-4.784e-02,0
-4.776e-02,0.0012
-4.768e-02,0.001
-4.760e-02,0.0018
-4.752e-02,-0.0016
-4.744e-02,-0.0034
-4.736e-02,-0.0034
-4.728e-02,-0.0038
-4.720e-02,0.0026
-4.712e-02,0.0026
-4.704e-02,0.0002
-4.696e-02,0.001
-4.688e-02,0.003
-4.680e-02,-0.001
-4.672e-02,0.0002
-4.664e-02,0.0038
-4.656e-02,-0.002
-4.648e-02,0.001
-4.640e-02,-0.0018
-4.632e-02,0.001
-4.624e-02,0.0014
-4.616e-02,-0.0012
-4.608e-02,-0.002
-4.600e-02,0.0004
-4.592e-02,-0.0014
-4.584e-02,0.0078
-4.576e-02,0.0086
-4.568e-02,0.0024
-4.560e-02,0.0008
-4.552e-02,-0.004
-4.544e-02,-0.0064
-4.536e-02,-0.002
-4.528e-02,-0.0042
-4.520e-02,0.001
-4.512e-02,0.006
-4.504e-02,-0.001
-4.496e-02,-0.0002
-4.488e-02,0.0016
-4.480e-02,0.0042
-4.472e-02,0.0082
-4.464e-02,0.0056
-4.456e-02,-0.0002
-4.448e-02,-0.0026
-4.440e-02,-0.0012
-4.432e-02,0.009
-4.424e-02,0.012
-4.416e-02,0.0128
-4.408e-02,0.0072
-4.400e-02,0.001
-4.392e-02,-0.0054
-4.384e-02,-0.0082
-4.376e-02,-0.0094
-4.368e-02,-0.007
-4.360e-02,-0.0036
-4.352e-02,-0.001
-4.344e-02,0.0014
-4.336e-02,0.0004
-4.328e-02,0.0004
-4.320e-02,-0.0064
-4.312e-02,-0.006
-4.304e-02,-0.0048
-4.296e-02,-0.0046
-4.288e-02,-0.0002
-4.280e-02,-0.0046
-4.272e-02,0.0022
-4.264e-02,0.0056
-4.256e-02,0.0096
-4.248e-02,0.0054
-4.240e-02,0.0008
-4.232e-02,-0.0046
-4.224e-02,-0.006
-4.216e-02,-0.0032
-4.208e-02,-0.0038
-4.200e-02,-0.001
-4.192e-02,0.0028
-4.184e-02,0.0032
-4.176e-02,-0.0042
-4.168e-02,-0.0016
-4.160e-02,0.0012
-4.152e-02,0.0036
-4.144e-02,-0.0004
-4.136e-02,0.001
-4.128e-02,-0.0014
-4.120e-02,0.0018
-4.112e-02,-0.0014
-4.104e-02,-0.0012
-4.096e-02,0.0016
-4.088e-02,-0.0002
-4.080e-02,0.0002
-4.072e-02,0.0002
-4.064e-02,0.0034
-4.056e-02,0.0042
-4.048e-02,0.0008
-4.040e-02,-0.001
-4.032e-02,-0.0014
-4.024e-02,-0.004
-4.016e-02,-0.0014
-4.008e-02,0.0012
-4.000e-02,0.0018
-3.992e-02,0.0032
-3.984e-02,-0.0008
-3.976e-02,-0.0044
-3.968e-02,-0.0012
-3.960e-02,-0.0022
-3.952e-02,-0.0022
-3.944e-02,0.001
-3.936e-02,-0.0014
-3.928e-02,0.0012
-3.920e-02,0.0002
-3.912e-02,0.0104
-3.904e-02,0.011
-3.896e-02,0.015
-3.888e-02,0.0046
-3.880e-02,-0.0008
-3.872e-02,-0.0044
-3.864e-02,-0.0084
-3.856e-02,-0.0056
-3.848e-02,-0.0034
-3.840e-02,0.0002
-3.832e-02,-0.0022
-3.824e-02,-0.002
-3.816e-02,-0.002
-3.808e-02,-0.0008
-3.800e-02,0.0026
-3.792e-02,0.0022
-3.784e-02,-0.0018
-3.776e-02,0.0008
-3.768e-02,0.0006
-3.760e-02,-0.0004
-3.752e-02,-0.0028
-3.744e-02,-0.0018
-3.736e-02,0.001
-3.728e-02,0.0004
-3.720e-02,0
-3.712e-02,0.0026
-3.704e-02,0.0024
-3.696e-02,-0.0016
-3.688e-02,0.0004
-3.680e-02,-0.0012
-3.672e-02,0.0014
-3.664e-02,-0.0022
-3.656e-02,0.003
-3.648e-02,0.0048
-3.640e-02,0.0068
-3.632e-02,0.0046
-3.624e-02,0
-3.616e-02,-0.0032
-3.608e-02,-0.0074
-3.600e-02,0.0004
-3.592e-02,0.0052
-3.584e-02,0.0028
-3.576e-02,0.003
-3.568e-02,-0.0032
-3.560e-02,-0.0074
-3.552e-02,-0.0026
-3.544e-02,-0.004
-3.536e-02,0
-3.528e-02,-0.0012
-3.520e-02,-0.002
-3.512e-02,-0.0042
-3.504e-02,-0.002
-3.496e-02,0.0064
-3.488e-02,0.0082
-3.480e-02,0.0114
-3.472e-02,0.0052
-3.464e-02,-0.003
-3.456e-02,-0.0062
-3.448e-02,-0.0122
-3.440e-02,-0.0046
-3.432e-02,-0.004
-3.424e-02,0.002
-3.416e-02,-0.0018
-3.408e-02,0
-3.400e-02,-0.0018
-3.392e-02,-0.0026
-3.384e-02,-0.002
-3.376e-02,0.0012
-3.368e-02,-0.0036
-3.360e-02,0.0018
-3.352e-02,0.0032
-3.344e-02,0.0006
-3.336e-02,-0.0016
-3.328e-02,0.0002
-3.320e-02,0.0072
-3.312e-02,0.0068
-3.304e-02,0.0022
-3.296e-02,-0.0044
-3.288e-02,-0.0058
-3.280e-02,0.0008
-3.272e-02,0.0028
-3.264e-02,0.0064
-3.256e-02,0.0024
-3.248e-02,-0.0026
-3.240e-02,-0.008
-3.232e-02,-0.0034
-3.224e-02,-0.0012
-3.216e-02,0.0014
-3.208e-02,0.0028
-3.200e-02,-0.001
-3.192e-02,-0.0012
-3.184e-02,-0.0032
-3.176e-02,-0.0014
-3.168e-02,0.0016
-3.160e-02,0.0024
-3.152e-02,-0.0008
-3.144e-02,-0.0022
-3.136e-02,-0.0002
-3.128e-02,-0.0022
-3.120e-02,-0.0006
-3.112e-02,-0.0028
-3.104e-02,-0.002
-3.096e-02,0
-3.088e-02,-0.0004
-3.080e-02,-0.0008
-3.072e-02,0.0044
-3.064e-02,0.0044
-3.056e-02,0.005
-3.048e-02,-0.0016
-3.040e-02,-0.0032
-3.032e-02,-0.005
-3.024e-02,-0.0034
-3.016e-02,0.004
-3.008e-02,0.0054
-3.000e-02,0.0076
-2.992e-02,-0.0006
-2.984e-02,-0.0046
-2.976e-02,-0.0054
-2.968e-02,-0.0028
-2.960e-02,-0.0032
-2.952e-02,-0.0014
-2.944e-02,0.0034
-2.936e-02,0.0036
-2.928e-02,0.0036
-2.920e-02,0.0018
-2.912e-02,-0.0016
-2.904e-02,0.0014
-2.896e-02,0.0054
-2.888e-02,0.0084
-2.880e-02,0.0018
-2.872e-02,0.001
-2.864e-02,-0.0034
-2.856e-02,-0.004
-2.848e-02,-0.0066
-2.840e-02,-0.0052
-2.832e-02,-0.0008
-2.824e-02,0.0012
-2.816e-02,0.004
-2.808e-02,0.0036
-2.800e-02,0.0046
-2.792e-02,-0.002
-2.784e-02,-0.0006
-2.776e-02,-0.006
-2.768e-02,-0.0004
-2.760e-02,0.0048
-2.752e-02,0.0076
-2.744e-02,0.006
-2.736e-02,0.0016
-2.728e-02,-0.0006
-2.720e-02,-0.007
-2.712e-02,-0.0066
-2.704e-02,-0.002
-2.696e-02,-0.0058
-2.688e-02,-0.0018
-2.680e-02,0.0028
-2.672e-02,0.0024
-2.664e-02,0.0014
-2.656e-02,-0.0008
-2.648e-02,-0.0026
-2.640e-02,0.0016
-2.632e-02,0.0136
-2.624e-02,0.0124
-2.616e-02,0.011
-2.608e-02,0.002
-2.600e-02,-0.003
-2.592e-02,-0.0094
-2.584e-02,-0.0134
-2.576e-02,-0.0082
-2.568e-02,-0.0024
-2.560e-02,0.001
-2.552e-02,0.0024
-2.544e-02,0.0028
-2.536e-02,0.0012
-2.528e-02,-0.0034
-2.520e-02,-0.003
-2.512e-02,0.0024
-2.504e-02,0.0044
-2.496e-02,0.0066
-2.488e-02,-0.0026
-2.480e-02,-0.006
-2.472e-02,-0.0072
-2.464e-02,-0.0048
-2.456e-02,-0.002
-2.448e-02,0.0004
-2.440e-02,-0.0044
-2.432e-02,-0.0006
-2.424e-02,0.0028
-2.416e-02,0.0066
-2.408e-02,0.0074
-2.400e-02,0.001
-2.392e-02,-0.0056
-2.384e-02,-0.0086
-2.376e-02,0.0002
-2.368e-02,0.0096
-2.360e-02,0.0116
-2.352e-02,0.013
-2.344e-02,0.0072
-2.336e-02,-0.001
-2.328e-02,-0.0076
-2.320e-02,-0.0138
-2.312e-02,-0.0114
-2.304e-02,-0.0102
-2.296e-02,-0.0022
-2.288e-02,0.0058
-2.280e-02,0.0062
-2.272e-02,0.0028
-2.264e-02,-0.0016
-2.256e-02,-0.0062
-2.248e-02,-0.009
-2.240e-02,-0.001
-2.232e-02,0.0058
-2.224e-02,0.0042
-2.216e-02,0.0048
-2.208e-02,0.0018
-2.200e-02,-0.0054
-2.192e-02,-0.0086
-2.184e-02,-0.0054
-2.176e-02,-0.0008
-2.168e-02,-0.0038
-2.160e-02,-0.0002
-2.152e-02,-0.0058
-2.144e-02,0.002
-2.136e-02,0.0022
-2.128e-02,0.0018
-2.120e-02,0.0002
-2.112e-02,0.0048
-2.104e-02,0.0042
-2.096e-02,0.0028
-2.088e-02,0.0026
-2.080e-02,-0.0042
-2.072e-02,-0.0066
-2.064e-02,0.001
-2.056e-02,0.0056
-2.048e-02,0.0066
-2.040e-02,0.0008
-2.032e-02,-0.0046
-2.024e-02,-0.004
-2.016e-02,-0.0014
-2.008e-02,0.0024
-2.000e-02,0.0048
-1.992e-02,0.0024
-1.984e-02,0.0014
-1.976e-02,-0.0062
-1.968e-02,-0.0094
-1.960e-02,0.0042
-1.952e-02,0.0088
-1.944e-02,0.014
-1.936e-02,0.0112
-1.928e-02,0.0052
-1.920e-02,-0.0006
-1.912e-02,-0.0094
-1.904e-02,-0.0114
-1.896e-02,-0.0048
-1.888e-02,-0.0024
-1.880e-02,-0.0024
-1.872e-02,0.004
-1.864e-02,0.0022
-1.856e-02,-0.0022
-1.848e-02,-0.002
-1.840e-02,-0.0028
-1.832e-02,0.0032
-1.824e-02,0.0076
-1.816e-02,0.0072
-1.808e-02,0.0014
-1.800e-02,0
-1.792e-02,-0.0046
-1.784e-02,-0.007
-1.776e-02,-0.0046
-1.768e-02,0.0016
-1.760e-02,0.0018
-1.752e-02,0.0002
-1.744e-02,-0.0028
-1.736e-02,-0.0012
-1.728e-02,0.0012
-1.720e-02,-0.0018
-1.712e-02,-0.0016
-1.704e-02,0.0014
-1.696e-02,-0.001
-1.688e-02,-0.0002
-1.680e-02,0.0004
-1.672e-02,-0.0022
-1.664e-02,0.0012
-1.656e-02,0.0004
-1.648e-02,0.001
-1.640e-02,0.0006
-1.632e-02,0.0006
-1.624e-02,-0.001
-1.616e-02,0.0002
-1.608e-02,-0.0024
-1.600e-02,-0.0004
-1.592e-02,0.0028
-1.584e-02,0.0014
-1.576e-02,0.0004
-1.568e-02,0.004
-1.560e-02,0.0058
-1.552e-02,0.0018
-1.544e-02,-0.0036
-1.536e-02,-0.0078
-1.528e-02,0.0018
-1.520e-02,0.002
-1.512e-02,0.006
-1.504e-02,0.0004
-1.496e-02,-0.0036
-1.488e-02,-0.0024
-1.480e-02,-0.0058
-1.472e-02,-0.0014
-1.464e-02,0.0012
-1.456e-02,0.0072
-1.448e-02,0.005
-1.440e-02,-0.0014
-1.432e-02,-0.0018
-1.424e-02,-0.0064
-1.416e-02,-0.0042
-1.408e-02,-0.0026
-1.400e-02,-0.0008
-1.392e-02,0.003
-1.384e-02,0.0006
-1.376e-02,0.0016
-1.368e-02,-0.001
-1.360e-02,0.0046
-1.352e-02,0.0066
-1.344e-02,0.0082
-1.336e-02,0.0024
-1.328e-02,-0.0038
-1.320e-02,-0.0072
-1.312e-02,-0.0028
-1.304e-02,0.002
-1.296e-02,0.0078
-1.288e-02,0.0036
-1.280e-02,0.001
-1.272e-02,-0.0046
-1.264e-02,-0.0056
-1.256e-02,-0.0072
-1.248e-02,-0.0038
-1.240e-02,-0.004
-1.232e-02,0.0012
-1.224e-02,-0.0036
-1.216e-02,-0.0002
-1.208e-02,0.007
-1.200e-02,0.0062
-1.192e-02,0.0066
-1.184e-02,-0.0004
-1.176e-02,-0.0024
-1.168e-02,-0.0042
-1.160e-02,-0.0012
-1.152e-02,0.0054
-1.144e-02,0.0042
-1.136e-02,0.0014
-1.128e-02,-0.0032
-1.120e-02,-0.003
-1.112e-02,-0.0026
-1.104e-02,0.0014
-1.096e-02,-0.0044
-1.088e-02,-0.0034
-1.080e-02,0.002
-1.072e-02,0.0038
-1.064e-02,-0.0024
-1.056e-02,-0.0016
-1.048e-02,0.0008
-1.040e-02,0.0044
-1.032e-02,0.0058
-1.024e-02,0.003
-1.016e-02,-0.0038
-1.008e-02,-0.0046
-1.000e-02,0.0004
-9.920e-03,0.0022
-9.840e-03,0.0024
-9.760e-03,0.0008
-9.680e-03,-0.0022
-9.600e-03,-0.005
-9.520e-03,-0.004
-9.440e-03,0.006
-9.360e-03,0.0094
-9.280e-03,0.007
-9.200e-03,0.0038
-9.120e-03,0.0006
-9.040e-03,-0.0058
-8.960e-03,-0.0076
-8.880e-03,-0.0074
-8.800e-03,-0.004
-8.720e-03,0.0002
-8.640e-03,0.0008
-8.560e-03,-0.0014
-8.480e-03,0.0016
-8.400e-03,-0.0004
-8.320e-03,-0.002
-8.240e-03,-0.0026
-8.160e-03,0.0058
-8.080e-03,0.007
-8.000e-03,0.0084
-7.920e-03,0.0022
-7.840e-03,-0.001
-7.760e-03,-0.003
-7.680e-03,0.0016
-7.600e-03,0.008
-7.520e-03,0.0088
-7.440e-03,0.0086
-7.360e-03,0.0068
-7.280e-03,-0.0016
-7.200e-03,-0.0028
-7.120e-03,-0.0118
-7.040e-03,-0.0104
-6.960e-03,-0.0084
-6.880e-03,-0.0014
-6.800e-03,0.0036
-6.720e-03,0.0038
-6.640e-03,0.0042
-6.560e-03,-0.0026
-6.480e-03,-0.0018
-6.400e-03,0.0008
-6.320e-03,0.001
-6.240e-03,0.0018
-6.160e-03,0.0046
-6.080e-03,-0.0014
-6.000e-03,-0.0062
-5.920e-03,-0.0042
-5.840e-03,-0.001
-5.760e-03,-0.0032
-5.680e-03,0
-5.600e-03,-0.0018
-5.520e-03,-0.0014
-5.440e-03,-0.0026
-5.360e-03,0.0032
-5.280e-03,0.011
-5.200e-03,0.0164
-5.120e-03,0.0102
-5.040e-03,0.0046
-4.960e-03,-0.0032
-4.880e-03,-0.0088
-4.800e-03,-0.0106
-4.720e-03,-0.003
-4.640e-03,0.0054
-4.560e-03,0.0062
-4.480e-03,0.0048
-4.400e-03,0.0034
-4.320e-03,0.003
-4.240e-03,-0.0018
-4.160e-03,-0.0046
-4.080e-03,-0.0054
-4.000e-03,-0.0036
-3.920e-03,-0.0026
-3.840e-03,0.003
-3.760e-03,0.0036
-3.680e-03,0.0012
-3.600e-03,0.0008
-3.520e-03,-0.0038
-3.440e-03,-0.0064
-3.360e-03,0.0038
-3.280e-03,0.0044
-3.200e-03,0.0062
-3.120e-03,0.0024
-3.040e-03,-0.0014
-2.960e-03,-0.006
-2.880e-03,-0.0106
-2.800e-03,-0.0048
-2.720e-03,0.0004
-2.640e-03,0.0006
-2.560e-03,-0.0028
-2.480e-03,-0.004
-2.400e-03,-0.0002
-2.320e-03,-0.0022
-2.240e-03,0.0014
-2.160e-03,0.0006
-2.080e-03,0.003
-2.000e-03,-0.001
-1.920e-03,0.0012
-1.840e-03,-0.0012
-1.760e-03,0.0026
-1.680e-03,0.0002
-1.600e-03,0.0006
-1.520e-03,0.0002
-1.440e-03,0.0006
-1.360e-03,0.0054
-1.280e-03,0.0056
-1.200e-03,0.0028
-1.120e-03,-0.003
-1.040e-03,-0.0028
-9.600e-04,-0.0066
-8.800e-04,0.0006
-8.000e-04,0.0016
-7.200e-04,0.0028
-6.400e-04,0.0016
-5.600e-04,-0.0038
-4.800e-04,-0.0042
-4.000e-04,-0.0026
-3.200e-04,-0.0036
-2.400e-04,-0.0018
-1.600e-04,-0.0022
-8.000e-05,0.0014
-1.508e-15,0.0026
8.000e-05,0.0018
1.600e-04,-0.0004
2.400e-04,-0.0008
3.200e-04,0
4.000e-04,-0.0004
4.800e-04,-0.0018
5.600e-04,0.0052
6.400e-04,0.006
7.200e-04,0.0018
8.000e-04,-0.0014
8.800e-04,-0.0038
9.600e-04,-0.0042
1.040e-03,-0.006
1.120e-03,-0.0022
1.200e-03,0.0002
1.280e-03,0.0002
1.360e-03,-0.0004
1.440e-03,0.0008
1.520e-03,-0.0028
1.600e-03,-0.0022
1.680e-03,0.0062
1.760e-03,0.0058
1.840e-03,0.003
1.920e-03,-0.0016
2.000e-03,-0.0052
2.080e-03,-0.003
2.160e-03,-0.0008
2.240e-03,-0.0032
2.320e-03,0
2.400e-03,0.0014
2.480e-03,0.0008
2.560e-03,0.0006
2.640e-03,-0.0044
2.720e-03,-0.0028
2.800e-03,-0.0012
2.880e-03,-0.001
2.960e-03,0.0008
3.040e-03,0.0072
3.120e-03,0.0096
3.200e-03,0.0028
3.280e-03,0.0016
3.360e-03,-0.0062
3.440e-03,-0.0046
3.520e-03,-0.0016
3.600e-03,-0.0048
3.680e-03,0.0014
3.760e-03,-0.0006
3.840e-03,0.0036
3.920e-03,0.003
4.000e-03,0.0006
4.080e-03,-0.0006
4.160e-03,-0.0006
4.240e-03,0.0016
4.320e-03,0.0012
4.400e-03,0.0014
4.480e-03,-0.0006
4.560e-03,0.0016
4.640e-03,-0.0016
4.720e-03,-0.0012
4.800e-03,0.0028
4.880e-03,-0.0024
4.960e-03,-0.0024
5.040e-03,0.0046
5.120e-03,0.0086
5.200e-03,0.0048
5.280e-03,0.0006
5.360e-03,-0.0036
5.440e-03,-0.006
5.520e-03,-0.0054
5.600e-03,-0.0008
5.680e-03,0.003
5.760e-03,0.0022
5.840e-03,-0.0022
5.920e-03,-0.0008
6.000e-03,0.0008
6.080e-03,-0.0024
6.160e-03,-0.0028
6.240e-03,-0.0012
6.320e-03,0.0048
6.400e-03,0.0078
6.480e-03,0.0022
6.560e-03,-0.0038
6.640e-03,-0.0056
6.720e-03,-0.0006
6.800e-03,-0.0038
6.880e-03,-0.0016
6.960e-03,0.0014
7.040e-03,0.001
7.120e-03,-0.0012
7.200e-03,-0.0056
7.280e-03,0.0038
7.360e-03,0.0054
7.440e-03,0.0028
7.520e-03,0
7.600e-03,-0.004
7.680e-03,-0.0036
7.760e-03,-0.0048
7.840e-03,0.0022
7.920e-03,0.001
8.000e-03,0.0042
8.080e-03,-0.0024
8.160e-03,-0.0034
8.240e-03,0.0004
8.320e-03,-0.0046
8.400e-03,0.0036
8.480e-03,0.0012
8.560e-03,0.0006
8.640e-03,-0.0026
8.720e-03,-0.0018
8.800e-03,0.0006
8.880e-03,0.0028
8.960e-03,0.0054
9.040e-03,-0.002
9.120e-03,-0.0056
9.200e-03,0.001
9.280e-03,0.0046
9.360e-03,0.0048
9.440e-03,0.0002
9.520e-03,-0.0034
9.600e-03,-0.0058
9.680e-03,-0.0016
9.760e-03,0.0106
9.840e-03,0.0118
9.920e-03,0.0116
1.000e-02,0.0036
1.008e-02,-0.0038
1.016e-02,-0.0066
1.024e-02,-0.0116
1.032e-02,-0.0124
1.040e-02,-0.008
1.048e-02,0.0046
1.056e-02,0.0082
1.064e-02,0.0064
1.072e-02,0.0052
1.080e-02,0.0014
1.088e-02,-0.003
1.096e-02,-0.01
1.104e-02,-0.0114
1.112e-02,-0.003
1.120e-02,-0.0032
1.128e-02,0.0012
1.136e-02,-0.0006
1.144e-02,0.0008
1.152e-02,-0.0024
1.160e-02,-0.0016
1.168e-02,-0.0024
1.176e-02,0
1.184e-02,0.0004
1.192e-02,0.0002
1.200e-02,0.0008
1.208e-02,0.0018
1.216e-02,-0.002
1.224e-02,0.0002
1.232e-02,-0.002
1.240e-02,0.0034
1.248e-02,0.0018
1.256e-02,-0.0002
1.264e-02,0.0028
1.272e-02,0.0002
1.280e-02,-0.0042
1.288e-02,0.0002
1.296e-02,0.0018
1.304e-02,0.0058
1.312e-02,0.0006
1.320e-02,-0.0024
1.328e-02,-0.0002
1.336e-02,0.0006
1.344e-02,0.0044
1.352e-02,0.004
1.360e-02,-0.0022
1.368e-02,-0.0054
1.376e-02,-0.0084
1.384e-02,0.0006
1.392e-02,0.0104
1.400e-02,0.011
1.408e-02,0.01
1.416e-02,0.0056
1.424e-02,-0.0014
1.432e-02,-0.0064
1.440e-02,-0.0122
1.448e-02,-0.0064
1.456e-02,-0.0006
1.464e-02,0.0012
1.472e-02,0.0004
1.480e-02,0.0014
1.488e-02,-0.0048
1.496e-02,-0.0044
1.504e-02,-0.0032
1.512e-02,0.001
1.520e-02,-0.0018
1.528e-02,-0.0018
1.536e-02,-0.0032
1.544e-02,0.003
1.552e-02,0.0074
1.560e-02,0.003
1.568e-02,0.0014
1.576e-02,-0.0004
1.584e-02,-0.0062
1.592e-02,0.003
1.600e-02,0.0132
1.608e-02,0.021
1.616e-02,0.0146
1.624e-02,0.0066
1.632e-02,-0.0028
1.640e-02,-0.0118
1.648e-02,-0.0136
1.656e-02,-0.0166
1.664e-02,-0.0138
1.672e-02,-0.0016
1.680e-02,0.0036
1.688e-02,0.0062
