data/PSU_noise/PSU2_CC1_100A_10ms.CSV

Model,TBS1102C
Firmware Version,v2015-08-04-prequal4ch70_v1.3

Point Format,Y
Horizontal Units,S
Horizontal Scale,0.01
Sample Interval,8e-05
Filter Frequency,2e+08
Record Length,2000
Gating,0.0% to 100.0%
Probe Attenuation,1
Vertical Units,V
Vertical Offset,0
Vertical Scale,0.002
Label,
TIME,CH1
-7.040e-02,-0.00296
-7.032e-02,-0.00264
-7.024e-02,-0.00144
-7.016e-02,-0.0024
-7.008e-02,0
-7.000e-02,0.00168
-6.992e-02,0.00064
-6.984e-02,-0.0004
-6.976e-02,-0.00248
-6.968e-02,-0.0008
-6.960e-02,0.00112
-6.952e-02,-0.00168
-6.944e-02,-0.00432
-6.936e-02,-0.00448
-6.928e-02,-0.00424
-6.920e-02,-0.00528
-6.912e-02,-0.00568
-6.904e-02,-0.00472
-6.896e-02,-0.00208
-6.888e-02,0.00072
-6.880e-02,-0.0016
-6.872e-02,-0.00128
-6.864e-02,0.00064
-6.856e-02,0.0004
-6.848e-02,-0.00216
-6.840e-02,-0.00184
-6.832e-02,-0.00272
-6.824e-02,0.00128
-6.816e-02,0.00032
-6.808e-02,0.0004
-6.800e-02,-0.002
-6.792e-02,-0.00096
-6.784e-02,0.00176
-6.776e-02,0.00232
-6.768e-02,0.00192
-6.760e-02,-0.00208
-6.752e-02,-0.00184
-6.744e-02,0.00088
-6.736e-02,0.00024
-6.728e-02,-0.00184
-6.720e-02,-0.0048
-6.712e-02,-0.0016
-6.704e-02,-0.00256
-6.696e-02,-0.00368
-6.688e-02,-0.00216
-6.680e-02,0.0024
-6.672e-02,-0.00064
-6.664e-02,0.00264
-6.656e-02,-0.00128
-6.648e-02,8e-05
-6.640e-02,0.00112
-6.632e-02,-0.00296
-6.624e-02,-0.00056
-6.616e-02,-0.00104
-6.608e-02,-0.0032
-6.600e-02,-0.00352
-6.592e-02,-0.00064
-6.584e-02,-0.00208
-6.576e-02,-0.00048
-6.568e-02,-0.00336
-6.560e-02,-0.00352
-6.552e-02,-0.00224
-6.544e-02,0.00088
-6.536e-02,-0.002
-6.528e-02,0.00088
-6.520e-02,-0.00184
-6.512e-02,-0.00168
-6.504e-02,0.00056
-6.496e-02,-0.00112
-6.488e-02,0.0016
-6.480e-02,-0.00096
-6.472e-02,-0.00104
-6.464e-02,-0.00176
-6.456e-02,0.0012
-6.448e-02,0.00144
-6.440e-02,-0.00184
-6.432e-02,-0.00048
-6.424e-02,-0.00024
-6.416e-02,0.0004
-6.408e-02,0.00104
-6.400e-02,-0.00312
-6.392e-02,-0.00232
-6.384e-02,-0.00064
-6.376e-02,0.00032
-6.368e-02,-8e-05
-6.360e-02,0.00048
-6.352e-02,-8e-05
-6.344e-02,-0.00032
-6.336e-02,-0.00248
-6.328e-02,0.00064
-6.320e-02,-0.00152
-6.312e-02,0.00144
-6.304e-02,-0.00032
-6.296e-02,-0.00264
-6.288e-02,-0.00328
-6.280e-02,-0.00384
-6.272e-02,-0.00136
-6.264e-02,-0.0012
-6.256e-02,-0.002
-6.248e-02,-0.00264
-6.240e-02,-0.00192
-6.232e-02,-0.00192
-6.224e-02,-0.00432
-6.216e-02,-0.00264
-6.208e-02,-0.00384
-6.200e-02,0.00032
-6.192e-02,0
-6.184e-02,-0.00184
-6.176e-02,-0.00152
-6.168e-02,-0.0004
-6.160e-02,0.00096
-6.152e-02,-0.00216
-6.144e-02,-0.00176
-6.136e-02,-0.00056
-6.128e-02,-0.00112
-6.120e-02,8e-05
-6.112e-02,-0.00208
-6.104e-02,-0.00208
-6.096e-02,0.00072
-6.088e-02,-0.00056
-6.080e-02,-0.00184
-6.072e-02,-0.00192
-6.064e-02,-0.0028
-6.056e-02,-0.00304
-6.048e-02,-0.00536
-6.040e-02,-0.00336
-6.032e-02,-0.00192
-6.024e-02,-0.00184
-6.016e-02,0.00048
-6.008e-02,0.00024
-6.000e-02,-0.00024
-5.992e-02,0.0036
-5.984e-02,0.00232
-5.976e-02,0.0004
-5.968e-02,0
-5.960e-02,-0.00232
-5.952e-02,-0.00064
-5.944e-02,-0.00456
-5.936e-02,-0.00272
-5.928e-02,-0.00128
-5.920e-02,-0.0024
-5.912e-02,-0.00416
-5.904e-02,-0.00088
-5.896e-02,-0.00304
-5.888e-02,-0.002
-5.880e-02,-0.0028
-5.872e-02,-0.00464
-5.864e-02,-0.00048
-5.856e-02,-0.00072
-5.848e-02,-0.00096
-5.840e-02,-0.00016
-5.832e-02,-8e-05
-5.824e-02,0.00168
-5.816e-02,0.00144
-5.808e-02,-0.0016
-5.800e-02,0.0016
-5.792e-02,-0.00256
-5.784e-02,-0.00192
-5.776e-02,-0.00232
-5.768e-02,0
-5.760e-02,0
-5.752e-02,-0.00176
-5.744e-02,-0.00152
-5.736e-02,-0.00072
-5.728e-02,-0.00168
-5.720e-02,-0.00104
-5.712e-02,-0.00064
-5.704e-02,-0.00296
-5.696e-02,-0.00264
-5.688e-02,-0.00128
-5.680e-02,-0.00344
-5.672e-02,-0.00176
-5.664e-02,0.00032
-5.656e-02,0
-5.648e-02,0.00248
-5.640e-02,0.00144
-5.632e-02,0.0004
-5.624e-02,-0.00144
-5.616e-02,-0.00072
-5.608e-02,-0.00152
-5.600e-02,-0.0024
-5.592e-02,-0.0032
-5.584e-02,-0.00248
-5.576e-02,-0.00328
-5.568e-02,0.00016
-5.560e-02,-0.00056
-5.552e-02,-0.00144
-5.544e-02,-0.00264
-5.536e-02,-0.002
-5.528e-02,-0.00328
-5.520e-02,-0.00264
-5.512e-02,-0.00264
-5.504e-02,-0.00288
-5.496e-02,-0.0012
-5.488e-02,-0.00336
-5.480e-02,0.00016
-5.472e-02,0.00016
-5.464e-02,-0.00208
-5.456e-02,-0.0032
-5.448e-02,-0.00144
-5.440e-02,-0.00128
-5.432e-02,0.00144
-5.424e-02,-0.00024
-5.416e-02,-0.0016
-5.408e-02,-0.00048
-5.400e-02,-0.00304
-5.392e-02,-0.00536
-5.384e-02,-0.00496
-5.376e-02,-0.00288
-5.368e-02,-0.00288
-5.360e-02,-0.00184
-5.352e-02,-0.0008
-5.344e-02,-0.00096
-5.336e-02,-0.0036
-5.328e-02,-8e-05
-5.320e-02,-0.00296
-5.312e-02,-0.00216
-5.304e-02,-0.00456
-5.296e-02,-0.0036
-5.288e-02,-0.00128
-5.280e-02,-0.00296
-5.272e-02,-0.00584
-5.264e-02,-0.0052
-5.256e-02,-0.00336
-5.248e-02,-0.00416
-5.240e-02,-0.00496
-5.232e-02,-0.0036
-5.224e-02,-0.00504
-5.216e-02,-0.00112
-5.208e-02,-0.00464
-5.200e-02,-0.00256
-5.192e-02,-0.00328
-5.184e-02,-0.00232
-5.176e-02,-0.00352
-5.168e-02,-0.00288
-5.160e-02,-0.00152
-5.152e-02,-0.0012
-5.144e-02,-0.00168
-5.136e-02,0.00096
-5.128e-02,-0.00256
-5.120e-02,-0.00224
-5.112e-02,0.00064
-5.104e-02,0.00128
-5.096e-02,-0.00048
-5.088e-02,-0.00264
-5.080e-02,-0.00224
-5.072e-02,-0.0048
-5.064e-02,-0.002
-5.056e-02,-0.00608
-5.048e-02,-0.0032
-5.040e-02,-0.0032
-5.032e-02,-0.00304
-5.024e-02,-0.0028
-5.016e-02,-0.0032
-5.008e-02,0.00032
-5.000e-02,-0.0016
-4.992e-02,-0.00176
-4.984e-02,-0.0032
-4.976e-02,-0.0016
-4.968e-02,-0.0016
-4.960e-02,-0.00304
-4.952e-02,-0.00048
-4.944e-02,-0.00432
-4.936e-02,-0.00112
-4.928e-02,-0.00144
-4.920e-02,-0.00368
-4.912e-02,-0.00288
-4.904e-02,-0.00304
-4.896e-02,-0.00616
-4.888e-02,-0.00472
-4.880e-02,-0.00496
-4.872e-02,-0.00376
-4.864e-02,-0.00208
-4.856e-02,0.00064
-4.848e-02,0.0004
-4.840e-02,0.0004
-4.832e-02,8e-05
-4.824e-02,-0.00192
-4.816e-02,-0.00192
-4.808e-02,0.00136
-4.800e-02,-0.0036
-4.792e-02,0
-4.784e-02,-0.00056
-4.776e-02,-0.00256
-4.768e-02,0.00104
-4.760e-02,-0.00136
-4.752e-02,-0.00032
-4.744e-02,-0.00024
-4.736e-02,-0.0016
-4.728e-02,-0.00136
-4.720e-02,-0.00376
-4.712e-02,-0.0032
-4.704e-02,-0.00136
-4.696e-02,-0.00368
-4.688e-02,-0.00016
-4.680e-02,0.00208
-4.672e-02,0.00048
-4.664e-02,-0.00096
-4.656e-02,0.00104
-4.648e-02,-0.00096
-4.640e-02,0.002
-4.632e-02,0.00032
-4.624e-02,-0.00328
-4.616e-02,-0.00248
-4.608e-02,-0.00328
-4.600e-02,-0.0036
-4.592e-02,-0.0012
-4.584e-02,-0.00328
-4.576e-02,-0.0016
-4.568e-02,-0.00296
-4.560e-02,0.00048
-4.552e-02,-0.00136
-4.544e-02,-0.00248
-4.536e-02,-0.00224
-4.528e-02,0.00064
-4.520e-02,-0.00064
-4.512e-02,-0.00088
-4.504e-02,-0.00144
-4.496e-02,-0.00096
-4.488e-02,0.00064
-4.480e-02,0.00048
-4.472e-02,0.00168
-4.464e-02,-0.00128
-4.456e-02,-0.00072
-4.448e-02,-0.00016
-4.440e-02,-0.00344
-4.432e-02,-0.00312
-4.424e-02,-0.0004
-4.416e-02,-0.0008
-4.408e-02,0.00144
-4.400e-02,-0.00096
-4.392e-02,-0.00088
-4.384e-02,-0.0048
-4.376e-02,-0.00168
-4.368e-02,-0.00504
-4.360e-02,-0.0028
-4.352e-02,-0.00144
-4.344e-02,-0.00264
-4.336e-02,-0.00248
-4.328e-02,-0.00112
-4.320e-02,-0.00032
-4.312e-02,0.00104
-4.304e-02,0.00152
-4.296e-02,-0.0012
-4.288e-02,-0.0036
-4.280e-02,-0.0048
-4.272e-02,-0.00416
-4.264e-02,-0.00248
-4.256e-02,-0.0032
-4.248e-02,-0.00504
-4.240e-02,-0.00096
-4.232e-02,-0.00376
-4.224e-02,-0.004
-4.216e-02,-0.00392
-4.208e-02,-0.00192
-4.200e-02,0.00104
-4.192e-02,-0.00432
-4.184e-02,-8e-05
-4.176e-02,-0.00072
-4.168e-02,-0.004
-4.160e-02,-0.0036
-4.152e-02,-0.00064
-4.144e-02,-0.00064
-4.136e-02,-0.0036
-4.128e-02,0.00176
-4.120e-02,0
-4.112e-02,0.00176
-4.104e-02,8e-05
-4.096e-02,-0.00184
-4.088e-02,0.00016
-4.080e-02,-0.00016
-4.072e-02,-0.0044
-4.064e-02,-0.0024
-4.056e-02,-0.00224
-4.048e-02,-0.00464
-4.040e-02,-0.00288
-4.032e-02,-0.00112
-4.024e-02,-0.00088
-4.016e-02,-0.00032
-4.008e-02,0.00032
-4.000e-02,0.00128
-3.992e-02,0.00072
-3.984e-02,-0.00208
-3.976e-02,-0.00016
-3.968e-02,-0.00288
-3.960e-02,-0.00464
-3.952e-02,-0.00432
-3.944e-02,-0.00552
-3.936e-02,-8e-05
-3.928e-02,-0.00136
-3.920e-02,-0.00248
-3.912e-02,-0.00168
-3.904e-02,-0.00152
-3.896e-02,-0.00512
-3.888e-02,-0.00416
-3.880e-02,-0.00448
-3.872e-02,-0.00408
-3.864e-02,-0.00288
-3.856e-02,0.00024
-3.848e-02,-0.0004
-3.840e-02,0.00072
-3.832e-02,-0.00128
-3.824e-02,0.00024
-3.816e-02,0.00216
-3.808e-02,0.00184
-3.800e-02,0.0004
-3.792e-02,0.0008
-3.784e-02,0.00232
-3.776e-02,-0.00312
-3.768e-02,-0.00168
-3.760e-02,-0.00328
-3.752e-02,0.00048
-3.744e-02,-8e-05
-3.736e-02,0.00024
-3.728e-02,-0.0004
-3.720e-02,-0.0028
-3.712e-02,-0.00144
-3.704e-02,-0.00208
-3.696e-02,-0.00136
-3.688e-02,-0.00112
-3.680e-02,0.00128
-3.672e-02,0.00104
-3.664e-02,0.0012
-3.656e-02,0.00112
-3.648e-02,0.0012
-3.640e-02,0
-3.632e-02,0.00144
-3.624e-02,-0.0016
-3.616e-02,-0.00272
-3.608e-02,-0.00048
-3.600e-02,-0.004
-3.592e-02,-0.0036
-3.584e-02,-0.00208
-3.576e-02,-8e-05
-3.568e-02,-0.00328
-3.560e-02,-0.00176
-3.552e-02,-0.00216
-3.544e-02,-0.00232
-3.536e-02,-0.00048
-3.528e-02,0.00104
-3.520e-02,-0.00384
-3.512e-02,0.0008
-3.504e-02,-0.00264
-3.496e-02,0.00072
-3.488e-02,-0.0024
-3.480e-02,-0.00152
-3.472e-02,-0.00064
-3.464e-02,0.00152
-3.456e-02,-0.00128
-3.448e-02,-8e-05
-3.440e-02,0.00032
-3.432e-02,-0.00088
-3.424e-02,0.0016
-3.416e-02,0.00152
-3.408e-02,-0.00104
-3.400e-02,-0.00272
-3.392e-02,-0.00504
-3.384e-02,-0.00384
-3.376e-02,-0.00312
-3.368e-02,-0.00168
-3.360e-02,-0.00344
-3.352e-02,8e-05
-3.344e-02,0.00072
-3.336e-02,0.0008
-3.328e-02,0.0012
-3.320e-02,0.0008
-3.312e-02,-0.00112
-3.304e-02,-0.00176
-3.296e-02,-0.00056
-3.288e-02,-8e-05
-3.280e-02,-0.0024
-3.272e-02,-0.00224
-3.264e-02,-0.00592
-3.256e-02,-0.0064
-3.248e-02,-0.00192
-3.240e-02,-0.0032
-3.232e-02,-0.0052
-3.224e-02,-0.00096
-3.216e-02,-0.00224
-3.208e-02,-0.00256
-3.200e-02,0.00112
-3.192e-02,-0.00192
-3.184e-02,-0.00216
-3.176e-02,-0.00216
-3.168e-02,-0.00136
-3.160e-02,-0.00096
-3.152e-02,-0.00256
-3.144e-02,-0.00168
-3.136e-02,-0.00072
-3.128e-02,0.00232
-3.120e-02,-0.00024
-3.112e-02,-0.00176
-3.104e-02,0.00072
-3.096e-02,-0.00056
-3.088e-02,-0.00376
-3.080e-02,-0.00184
-3.072e-02,-0.00016
-3.064e-02,-0.00288
-3.056e-02,-0.0036
-3.048e-02,-0.00152
-3.040e-02,-0.00096
-3.032e-02,-0.0008
-3.024e-02,0
-3.016e-02,-0.00208
-3.008e-02,-0.0036
-3.000e-02,0.0004
-2.992e-02,-0.00248
-2.984e-02,0.00032
-2.976e-02,0.00144
-2.968e-02,-0.00104
-2.960e-02,-0.0004
-2.952e-02,0.00048
-2.944e-02,-0.00256
-2.936e-02,-0.00248
-2.928e-02,-0.00384
-2.920e-02,-0.00048
-2.912e-02,-0.00312
-2.904e-02,-0.00432
-2.896e-02,-0.0032
-2.888e-02,-0.00192
-2.880e-02,0.00088
-2.872e-02,-0.00056
-2.864e-02,0.00144
-2.856e-02,0.00096
-2.848e-02,0.00072
-2.840e-02,0.00056
-2.832e-02,-0.00096
-2.824e-02,-0.00256
-2.816e-02,0.00048
-2.808e-02,-0.0012
-2.800e-02,-0.00048
-2.792e-02,-0.00016
-2.784e-02,0.0016
-2.776e-02,0.00288
-2.768e-02,0.00104
-2.760e-02,-0.00048
-2.752e-02,0.00112
-2.744e-02,-0.00072
-2.736e-02,-0.00112
-2.728e-02,0.00032
-2.720e-02,-0.00192
-2.712e-02,-0.00488
-2.704e-02,-0.00424
-2.696e-02,-0.00464
-2.688e-02,-0.00296
-2.680e-02,0
-2.672e-02,-0.00048
-2.664e-02,0.00104
-2.656e-02,0.00256
-2.648e-02,0.00176
-2.640e-02,0.00048
-2.632e-02,0.00136
-2.624e-02,0.00152
-2.616e-02,-0.00024
-2.608e-02,-0.00096
-2.600e-02,-0.00176
-2.592e-02,-0.0016
-2.584e-02,-0.00168
-2.576e-02,-0.00168
-2.568e-02,0.00032
-2.560e-02,0.00072
-2.552e-02,0.00184
-2.544e-02,0.00208
-2.536e-02,-0.0008
-2.528e-02,0.00232
-2.520e-02,-0.00072
-2.512e-02,-0.00128
-2.504e-02,-0.00032
-2.496e-02,0.00136
-2.488e-02,0.00064
-2.480e-02,-0.002
-2.472e-02,8e-05
-2.464e-02,0.00296
-2.456e-02,0.00136
-2.448e-02,-0.00112
-2.440e-02,-0.00136
-2.432e-02,-0.00048
-2.424e-02,-0.002
-2.416e-02,-0.002
-2.408e-02,-0.00112
-2.400e-02,0.0008
-2.392e-02,-0.00352
-2.384e-02,-0.0032
-2.376e-02,-0.00336
-2.368e-02,-0.0012
-2.360e-02,-0.00312
-2.352e-02,0.00256
-2.344e-02,-0.0012
-2.336e-02,0.0024
-2.328e-02,0.00384
-2.320e-02,-0.00032
-2.312e-02,-0.00056
-2.304e-02,-0.0024
-2.296e-02,0.00032
-2.288e-02,-0.00088
-2.280e-02,-0.00504
-2.272e-02,-0.0044
-2.264e-02,-0.00376
-2.256e-02,-0.00504
-2.248e-02,-0.00288
-2.240e-02,-0.00464
-2.232e-02,-0.00336
-2.224e-02,-0.00384
-2.216e-02,-0.0012
-2.208e-02,0.00168
-2.200e-02,0.00136
-2.192e-02,-0.0008
-2.184e-02,-8e-05
-2.176e-02,-0.00248
-2.168e-02,0.00056
-2.160e-02,-0.0008
-2.152e-02,0.0004
-2.144e-02,0.00024
-2.136e-02,-0.00048
-2.128e-02,0.00096
-2.120e-02,0.00224
-2.112e-02,0.00072
-2.104e-02,0.00032
-2.096e-02,-0.0008
-2.088e-02,-0.00024
-2.080e-02,-0.00032
-2.072e-02,0.00048
-2.064e-02,0.00064
-2.056e-02,0.00256
-2.048e-02,0.00128
-2.040e-02,0.00176
-2.032e-02,0.00096
-2.024e-02,-0.00128
-2.016e-02,0.00272
-2.008e-02,-0.00288
-2.000e-02,0.002
-1.992e-02,0.0016
-1.984e-02,-0.0012
-1.976e-02,0.00144
-1.968e-02,-0.00192
-1.960e-02,0.0008
-1.952e-02,0.00016
-1.944e-02,-0.0024
-1.936e-02,-0.00256
-1.928e-02,-0.00336
-1.920e-02,-0.00376
-1.912e-02,8e-05
-1.904e-02,-0.00048
-1.896e-02,-0.0012
-1.888e-02,-0.00056
-1.880e-02,-0.00208
-1.872e-02,0.00072
-1.864e-02,-0.00056
-1.856e-02,-0.00048
-1.848e-02,0.00072
-1.840e-02,-0.00016
-1.832e-02,0.00184
-1.824e-02,-0.00136
-1.816e-02,0.00392
-1.808e-02,0.00136
-1.800e-02,0.00568
-1.792e-02,0.00256
-1.784e-02,0.00272
-1.776e-02,0.00248
-1.768e-02,0.00112
-1.760e-02,0.00232
-1.752e-02,0.00248
-1.744e-02,0.00152
-1.736e-02,0.0004
-1.728e-02,-0.00088
-1.720e-02,0.00272
-1.712e-02,-0.0004
-1.704e-02,0.0004
-1.696e-02,-0.00288
-1.688e-02,-0.00208
-1.680e-02,0.0008
-1.672e-02,0.00472
-1.664e-02,0.00248
-1.656e-02,0.00336
-1.648e-02,0.00536
-1.640e-02,0.00344
-1.632e-02,0.00024
-1.624e-02,-0.00032
-1.616e-02,0.00224
-1.608e-02,0.00096
-1.600e-02,-0.00336
-1.592e-02,-0.002
-1.584e-02,0.00144
-1.576e-02,-0.00056
-1.568e-02,-0.00288
-1.560e-02,-0.00136
-1.552e-02,0.00288
-1.544e-02,0.00016
-1.536e-02,0.00344
-1.528e-02,0.0004
-1.520e-02,0.00096
-1.512e-02,0.00344
-1.504e-02,-0.00072
-1.496e-02,-0.00072
-1.488e-02,-0.00064
-1.480e-02,0.00136
-1.472e-02,0.00056
-1.464e-02,-0.00032
-1.456e-02,0.00272
-1.448e-02,0.00032
-1.440e-02,0.00216
-1.432e-02,0.00376
-1.424e-02,0.00032
-1.416e-02,0.00016
-1.408e-02,-0.00184
-1.400e-02,-0.00216
-1.392e-02,0.00104
-1.384e-02,-0.0056
-1.376e-02,-0.0012
-1.368e-02,-0.00336
-1.360e-02,0
-1.352e-02,-0.0012
-1.344e-02,-0.00064
-1.336e-02,0.0028
-1.328e-02,0.00168
-1.320e-02,0.00104
-1.312e-02,-0.00104
-1.304e-02,0.002
-1.296e-02,0.0016
-1.288e-02,-0.00136
-1.280e-02,-0.00296
-1.272e-02,-0.00048
-1.264e-02,-0.00272
-1.256e-02,-0.0012
-1.248e-02,-0.00296
-1.240e-02,-0.00184
-1.232e-02,-0.0036
-1.224e-02,-0.00256
-1.216e-02,-0.0012
-1.208e-02,-0.00112
-1.200e-02,0.00128
-1.192e-02,-0.00144
-1.184e-02,0.00256
-1.176e-02,-0.0004
-1.168e-02,0.00384
-1.160e-02,-0.00032
-1.152e-02,0.0008
-1.144e-02,0.00072
-1.136e-02,-0.00208
-1.128e-02,0.00088
-1.120e-02,0.00264
-1.112e-02,0.00064
-1.104e-02,0.00112
-1.096e-02,0.00216
-1.088e-02,-8e-05
-1.080e-02,8e-05
-1.072e-02,0.002
-1.064e-02,0.00184
-1.056e-02,-0.00216
-1.048e-02,-0.00368
-1.040e-02,-0.0032
-1.032e-02,-0.00064
-1.024e-02,-0.00136
-1.016e-02,0.00112
-1.008e-02,0.00176
-1.000e-02,-0.00056
-9.920e-03,0.00272
-9.840e-03,0.00032
-9.760e-03,-0.00056
-9.680e-03,0.00152
-9.600e-03,-0.00184
-9.520e-03,0.00192
-9.440e-03,-0.00144
-9.360e-03,-0.00088
-9.280e-03,-0.00288
-9.200e-03,-0.00216
-9.120e-03,-0.00192
-9.040e-03,0
-8.960e-03,0.0008
-8.880e-03,-0.00248
-8.800e-03,0.00136
-8.720e-03,-0.00136
-8.640e-03,0.0024
-8.560e-03,0.00264
-8.480e-03,0.0024
-8.400e-03,0.00168
-8.320e-03,0.00128
-8.240e-03,0
-8.160e-03,0.00136
-8.080e-03,0.0012
-8.000e-03,0.0008
-7.920e-03,-0.0004
-7.840e-03,0.00336
-7.760e-03,0.00336
-7.680e-03,0.0024
-7.600e-03,0.00168
-7.520e-03,0.00384
-7.440e-03,0.0024
-7.360e-03,-0.00072
-7.280e-03,0.00184
-7.200e-03,-0.00136
-7.120e-03,-0.0028
-7.040e-03,-0.0016
-6.960e-03,-0.00312
-6.880e-03,0.00136
-6.800e-03,0.00256
-6.720e-03,0.00264
-6.640e-03,0.00472
-6.560e-03,0.00488
-6.480e-03,0.0044
-6.400e-03,0.00248
-6.320e-03,0.00408
-6.240e-03,-0.00088
-6.160e-03,0.00096
-6.080e-03,-0.00016
-6.000e-03,0.00264
-5.920e-03,-0.00216
-5.840e-03,-0.00048
-5.760e-03,0.0028
-5.680e-03,0.00128
-5.600e-03,0.00352
-5.520e-03,0.00216
-5.440e-03,0.00136
-5.360e-03,-0.00072
-5.280e-03,0.00112
-5.200e-03,0.00304
-5.120e-03,0.00264
-5.040e-03,0.00016
-4.960e-03,0.0024
-4.880e-03,0.00032
-4.800e-03,0.00048
-4.720e-03,0.00256
-4.640e-03,0.00168
-4.560e-03,0.00408
-4.480e-03,0.00328
-4.400e-03,0.00448
-4.320e-03,-0.0012
-4.240e-03,0.00256
-4.160e-03,0.00088
-4.080e-03,-0.0004
-4.000e-03,-8e-05
-3.920e-03,0.00312
-3.840e-03,-0.00264
-3.760e-03,0.00288
-3.680e-03,0.0024
-3.600e-03,0.00232
-3.520e-03,0.00264
-3.440e-03,0.00056
-3.360e-03,0.00184
-3.280e-03,0.00416
-3.200e-03,0.0016
-3.120e-03,0.00184
-3.040e-03,0.00136
-2.960e-03,-0.00128
-2.880e-03,0.00048
-2.800e-03,-0.00112
-2.720e-03,-0.00208
-2.640e-03,-0.00296
-2.560e-03,0.00096
-2.480e-03,-8e-05
-2.400e-03,-0.00168
-2.320e-03,-0.00056
-2.240e-03,0.0008
-2.160e-03,0.00128
-2.080e-03,0.00216
-2.000e-03,0.00152
-1.920e-03,0.00216
-1.840e-03,0.00072
-1.760e-03,0.00072
-1.680e-03,0.002
-1.600e-03,0.00048
-1.520e-03,0.00016
-1.440e-03,0.00264
-1.360e-03,0.0024
-1.280e-03,0.00016
-1.200e-03,0.00072
-1.120e-03,0.0028
-1.040e-03,0.00296
-9.600e-04,0.00296
-8.800e-04,0.00024
-8.000e-04,0.0012
-7.200e-04,-0.00104
-6.400e-04,-0.00136
-5.600e-04,8e-05
-4.800e-04,0.00144
-4.000e-04,-0.00152
-3.200e-04,0.0008
-2.400e-04,0.0028
-1.600e-04,0.00248
-8.000e-05,8e-05
-1.508e-15,0.0024
8.000e-05,0.00424
1.600e-04,0.00288
2.400e-04,0.0032
3.200e-04,0.00176
4.000e-04,0.00232
4.800e-04,0.00136
5.600e-04,-0.00072
6.400e-04,-0.00264
7.200e-04,-0.00256
8.000e-04,-8e-05
8.800e-04,-0.00168
9.600e-04,-0.0004
1.040e-03,0.00024
1.120e-03,0.00248
1.200e-03,8e-05
1.280e-03,0.0024
1.360e-03,0.00248
1.440e-03,0.00304
1.520e-03,0.0036
1.600e-03,0.00112
1.680e-03,0.00184
1.760e-03,0.00584
1.840e-03,0.00688
1.920e-03,0.0044
2.000e-03,0.00168
2.080e-03,0.00136
2.160e-03,0
2.240e-03,0.00136
2.320e-03,0.00288
2.400e-03,0.00384
2.480e-03,0.00344
2.560e-03,0.00312
2.640e-03,0.00024
2.720e-03,0.00176
2.800e-03,0.00248
2.880e-03,0.0008
2.960e-03,0.00296
3.040e-03,0.00024
3.120e-03,0.00488
3.200e-03,0.00344
3.280e-03,0.002
3.360e-03,0.00504
3.440e-03,0.00352
3.520e-03,0.00504
3.600e-03,0.00536
3.680e-03,0.00344
3.760e-03,0.0004
3.840e-03,0.00032
3.920e-03,0.00232
4.000e-03,-0.0024
4.080e-03,0.00048
4.160e-03,-0.00144
4.240e-03,0.00128
4.320e-03,0.00064
4.400e-03,0.00096
4.480e-03,-0.00048
4.560e-03,0.00224
4.640e-03,0.00392
4.720e-03,0.0036
4.800e-03,0.00592
4.880e-03,0.0016
4.960e-03,0.00344
5.040e-03,0.00264
5.120e-03,0.00128
5.200e-03,0.0016
5.280e-03,0.00256
5.360e-03,0.00128
5.440e-03,0.00536
5.520e-03,0.00144
5.600e-03,0.0044
5.680e-03,0.00104
5.760e-03,0.00112
5.840e-03,0.0012
5.920e-03,0.00048
6.000e-03,-0.00016
6.080e-03,-0.0004
6.160e-03,-0.0008
6.240e-03,0
6.320e-03,-0.00064
6.400e-03,-0.00104
6.480e-03,0.0012
6.560e-03,0.00296
6.640e-03,0.00608
6.720e-03,8e-05
6.800e-03,0.00016
6.880e-03,0.00384
6.960e-03,0.00056
7.040e-03,0.00176
7.120e-03,0
7.200e-03,8e-05
7.280e-03,0.00112
7.360e-03,-0.00264
7.440e-03,-0.0032
7.520e-03,-0.00272
7.600e-03,-0.0036
7.680e-03,-0.00104
7.760e-03,-0.0032
7.840e-03,0.0012
7.920e-03,0.00136
8.000e-03,-0.00136
8.080e-03,0.00064
8.160e-03,0.0012
8.240e-03,0.00336
8.320e-03,0.00464
8.400e-03,0.00088
8.480e-03,0.00288
8.560e-03,0.00088
8.640e-03,-0.00072
8.720e-03,0.0036
8.800e-03,0.00104
8.880e-03,0.00288
8.960e-03,0.00432
9.040e-03,0.00176
9.120e-03,0.00096
9.200e-03,0.0048
9.280e-03,0.00384
9.360e-03,-0.0004
9.440e-03,0.00288
9.520e-03,-0.0012
9.600e-03,0.00224
9.680e-03,0.00088
9.760e-03,0.0012
9.840e-03,0.0024
9.920e-03,0.00272
1.000e-02,0.00472
1.008e-02,0.00112
1.016e-02,0.00256
1.024e-02,0.0032
1.032e-02,0.00368
1.040e-02,-0.00024
1.048e-02,0.0012
1.056e-02,-0.00152
1.064e-02,0.00232
1.072e-02,-0.00024
1.080e-02,0.00168
1.088e-02,0.00272
1.096e-02,0.00288
1.104e-02,0.0048
1.112e-02,0.0024
1.120e-02,0.00152
1.128e-02,0.00048
1.136e-02,0.00352
1.144e-02,0.0016
1.152e-02,0.00416
1.160e-02,0.00168
1.168e-02,0.00144
1.176e-02,8e-05
1.184e-02,0.00176
1.192e-02,0.00336
1.200e-02,0.00176
1.208e-02,0.0068
1.216e-02,0.00328
1.224e-02,0.00424
