data/PSU_noise/PSU2_CC2_80A_100ms.CSV

Model,TBS1102C
Firmware Version,v2015-08-04-prequal4ch70_v1.3

Point Format,Y
Horizontal Units,S
Horizontal Scale,0.1
Sample Interval,0.0008
Filter Frequency,2e+08
Record Length,2000
Gating,0.0% to 100.0%
Probe Attenuation,1
Vertical Units,V
Vertical Offset,0
Vertical Scale,0.001
Label,
TIME,CH1
-7.904e-01,-0.00112
-7.896e-01,0.00124
-7.888e-01,0.00072
-7.880e-01,-0.00148
-7.872e-01,-0.0016
-7.864e-01,-0.00248
-7.856e-01,0.00204
-7.848e-01,-0.00208
-7.840e-01,-0.00296
-7.832e-01,-0.00088
-7.824e-01,-0.00124
-7.816e-01,-0.0004
-7.808e-01,-0.00144
-7.800e-01,-0.00212
-7.792e-01,-0.00156
-7.784e-01,-0.00376
-7.776e-01,0.00112
-7.768e-01,-0.001
-7.760e-01,-0.00268
-7.752e-01,-0.00076
-7.744e-01,-0.00188
-7.736e-01,-0.002
-7.728e-01,-0.00132
-7.720e-01,0.00148
-7.712e-01,0.00156
-7.704e-01,-0.00272
-7.696e-01,-0.00164
-7.688e-01,-0.00064
-7.680e-01,-0.00116
-7.672e-01,-0.002
-7.664e-01,-0.00184
-7.656e-01,-8e-05
-7.648e-01,-0.00192
-7.640e-01,-8e-05
-7.632e-01,-0.00032
-7.624e-01,0.00288
-7.616e-01,-0.00044
-7.608e-01,-0.0002
-7.600e-01,0.00148
-7.592e-01,0.00348
-7.584e-01,0.00148
-7.576e-01,0.00068
-7.568e-01,-0.00092
-7.560e-01,0.00256
-7.552e-01,0.00352
-7.544e-01,0.00104
-7.536e-01,-0.00036
-7.528e-01,0.00392
-7.520e-01,0.00212
-7.512e-01,0.00216
-7.504e-01,-4e-05
-7.496e-01,0.00208
-7.488e-01,0.002
-7.480e-01,0.00112
-7.472e-01,-0.00268
-7.464e-01,0.00064
-7.456e-01,0.00028
-7.448e-01,-0.00032
-7.440e-01,-0.00136
-7.432e-01,0.00104
-7.424e-01,8e-05
-7.416e-01,-0.00268
-7.408e-01,-0.00012
-7.400e-01,0.001
-7.392e-01,0.00176
-7.384e-01,4e-05
-7.376e-01,-0.00052
-7.368e-01,-0.00096
-7.360e-01,-0.00176
-7.352e-01,0.00036
-7.344e-01,-0.003
-7.336e-01,-0.00384
-7.328e-01,-0.00116
-7.320e-01,-0.00176
-7.312e-01,-0.00232
-7.304e-01,-0.00356
-7.296e-01,-0.00212
-7.288e-01,-0.00396
-7.280e-01,-0.00276
-7.272e-01,-0.00504
-7.264e-01,-0.00308
-7.256e-01,-0.00172
-7.248e-01,-0.0022
-7.240e-01,-0.00192
-7.232e-01,-0.00064
-7.224e-01,-0.00096
-7.216e-01,-0.00404
-7.208e-01,-0.00196
-7.200e-01,-0.00036
-7.192e-01,-0.00168
-7.184e-01,-0.0014
-7.176e-01,-0.00056
-7.168e-01,-0.00384
-7.160e-01,0.00032
-7.152e-01,-0.00012
-7.144e-01,0.00268
-7.136e-01,0.00072
-7.128e-01,0.00152
-7.120e-01,0.00012
-7.112e-01,0.00132
-7.104e-01,0.00048
-7.096e-01,0.00316
-7.088e-01,0.0014
-7.080e-01,-0.00052
-7.072e-01,-8e-05
-7.064e-01,0.00092
-7.056e-01,0.00356
-7.048e-01,0.0016
-7.040e-01,0.00204
-7.032e-01,0.00196
-7.024e-01,0.00376
-7.016e-01,-0.00104
-7.008e-01,0.0008
-7.000e-01,0.00432
-6.992e-01,0.00412
-6.984e-01,0.002
-6.976e-01,0.00208
-6.968e-01,-0.0018
-6.960e-01,0.00172
-6.952e-01,-0.00052
-6.944e-01,0.00212
-6.936e-01,0.00072
-6.928e-01,0.00028
-6.920e-01,0.00176
-6.912e-01,0.00212
-6.904e-01,-0.00212
-6.896e-01,0.00176
-6.888e-01,-0.0008
-6.880e-01,-0.00292
-6.872e-01,-0.00408
-6.864e-01,-0.00308
-6.856e-01,-0.00168
-6.848e-01,-0.00508
-6.840e-01,-0.001
-6.832e-01,-0.00044
-6.824e-01,-0.00184
-6.816e-01,-0.0044
-6.808e-01,8e-05
-6.800e-01,-0.00304
-6.792e-01,-0.00172
-6.784e-01,-0.00256
-6.776e-01,-0.00212
-6.768e-01,-0.00328
-6.760e-01,-0.0022
-6.752e-01,-0.00256
-6.744e-01,-0.0002
-6.736e-01,-0.00464
-6.728e-01,-0.00204
-6.720e-01,-4e-05
-6.712e-01,-0.00256
-6.704e-01,-0.00236
-6.696e-01,-0.002
-6.688e-01,-0.00168
-6.680e-01,-0.00108
-6.672e-01,-0.0038
-6.664e-01,-0.00084
-6.656e-01,0.00128
-6.648e-01,-0.00148
-6.640e-01,-0.00208
-6.632e-01,0.0004
-6.624e-01,0.00092
-6.616e-01,-0.00196
-6.608e-01,-0.0002
-6.600e-01,-0.00032
-6.592e-01,0.0018
-6.584e-01,0.00032
-6.576e-01,0.00076
-6.568e-01,-0.00224
-6.560e-01,0.00052
-6.552e-01,0.00188
-6.544e-01,0.00028
-6.536e-01,0.00152
-6.528e-01,0.0036
-6.520e-01,0.00304
-6.512e-01,0.00292
-6.504e-01,-0.001
-6.496e-01,0.0008
-6.488e-01,0.00172
-6.480e-01,0
-6.472e-01,-0.00196
-6.464e-01,-0.00124
-6.456e-01,-0.0002
-6.448e-01,0.00068
-6.440e-01,-0.00024
-6.432e-01,-0.00224
-6.424e-01,0.0012
-6.416e-01,-0.00156
-6.408e-01,0.00072
-6.400e-01,-0.00068
-6.392e-01,-0.00076
-6.384e-01,-0.00056
-6.376e-01,-0.00056
-6.368e-01,-0.00236
-6.360e-01,-0.00132
-6.352e-01,-0.0016
-6.344e-01,-0.00272
-6.336e-01,-0.00228
-6.328e-01,-0.00012
-6.320e-01,-0.00184
-6.312e-01,-0.0022
-6.304e-01,-0.00264
-6.296e-01,0.00056
-6.288e-01,-0.00084
-6.280e-01,-0.00236
-6.272e-01,-0.00488
-6.264e-01,-0.00068
-6.256e-01,-0.00016
-6.248e-01,-0.00444
-6.240e-01,-0.00324
-6.232e-01,-0.00224
-6.224e-01,0.00048
-6.216e-01,-0.001
-6.208e-01,0.0002
-6.200e-01,-0.001
-6.192e-01,0.00036
-6.184e-01,-0.0034
-6.176e-01,0.00248
-6.168e-01,-0.00056
-6.160e-01,0.0002
-6.152e-01,0.0022
-6.144e-01,0.00348
-6.136e-01,-0.0006
-6.128e-01,0.0028
-6.120e-01,0.003
-6.112e-01,0.00196
-6.104e-01,0.00088
-6.096e-01,0.00212
-6.088e-01,0.0032
-6.080e-01,-0.00032
-6.072e-01,-0.00112
-6.064e-01,0.00272
-6.056e-01,0.00352
-6.048e-01,0.00036
-6.040e-01,0.00056
-6.032e-01,0.00168
-6.024e-01,0.00492
-6.016e-01,-0.00048
-6.008e-01,0.00276
-6.000e-01,0.00356
-5.992e-01,0.00288
-5.984e-01,-0.00104
-5.976e-01,0.00116
-5.968e-01,0.00056
-5.960e-01,0.0004
-5.952e-01,0.0022
-5.944e-01,0.00112
-5.936e-01,0.00104
-5.928e-01,0.00048
-5.920e-01,-0.00072
-5.912e-01,-0.0006
-5.904e-01,-0.00068
-5.896e-01,0.00132
-5.888e-01,0.00148
-5.880e-01,-0.0022
-5.872e-01,-0.00292
-5.864e-01,-0.00168
-5.856e-01,4e-05
-5.848e-01,-0.00128
-5.840e-01,-0.00152
-5.832e-01,-0.00088
-5.824e-01,-0.00132
-5.816e-01,-0.0046
-5.808e-01,0.00108
-5.800e-01,-0.00216
-5.792e-01,-0.001
-5.784e-01,-0.00272
-5.776e-01,-0.0002
-5.768e-01,-0.00412
-5.760e-01,-0.00068
-5.752e-01,-0.00036
-5.744e-01,0.00028
-5.736e-01,-0.00352
-5.728e-01,-0.00096
-5.720e-01,-0.00076
-5.712e-01,-0.002
-5.704e-01,0.00096
-5.696e-01,-0.00108
-5.688e-01,-0.00036
-5.680e-01,-0.00324
-5.672e-01,-0.00108
-5.664e-01,0.00036
-5.656e-01,0.00136
-5.648e-01,0.00152
-5.640e-01,0.00152
-5.632e-01,-0.00092
-5.624e-01,4e-05
-5.616e-01,8e-05
-5.608e-01,0.00444
-5.600e-01,0.00304
-5.592e-01,0.00448
-5.584e-01,0.00352
-5.576e-01,0.0014
-5.568e-01,-0.0016
-5.560e-01,0.00092
-5.552e-01,0.0002
-5.544e-01,0.0014
-5.536e-01,0.00132
-5.528e-01,0.00292
-5.520e-01,0.00444
-5.512e-01,0.0008
-5.504e-01,0.00264
-5.496e-01,0.00152
-5.488e-01,0.0042
-5.480e-01,-0.00232
-5.472e-01,-0.00052
-5.464e-01,0.00224
-5.456e-01,0.0002
-5.448e-01,0.0002
-5.440e-01,0.00228
-5.432e-01,0.00112
-5.424e-01,0.00056
-5.416e-01,-0.00036
-5.408e-01,0.00112
-5.400e-01,0.00052
-5.392e-01,8e-05
-5.384e-01,0.00048
-5.376e-01,0.0022
-5.368e-01,-0.00048
-5.360e-01,0.00172
-5.352e-01,-0.00068
-5.344e-01,0.00128
-5.336e-01,-0.00092
-5.328e-01,4e-05
-5.320e-01,0.00152
-5.312e-01,-0.00228
-5.304e-01,-0.00272
-5.296e-01,-0.00056
-5.288e-01,-0.00112
-5.280e-01,-0.00368
-5.272e-01,-0.00464
-5.264e-01,-0.00188
-5.256e-01,-0.00232
-5.248e-01,-0.00296
-5.240e-01,-0.00196
-5.232e-01,-0.00164
-5.224e-01,0.0004
-5.216e-01,-0.00328
-5.208e-01,-0.00056
-5.200e-01,-0.00032
-5.192e-01,0.00056
-5.184e-01,-0.0012
-5.176e-01,0.00336
-5.168e-01,-0.00356
-5.160e-01,-4e-05
-5.152e-01,0.00036
-5.144e-01,0.00252
-5.136e-01,-0.0014
-5.128e-01,0.003
-5.120e-01,0.00432
-5.112e-01,-0.00112
-5.104e-01,0.00152
-5.096e-01,0.00072
-5.088e-01,0
-5.080e-01,-0.00228
-5.072e-01,0
-5.064e-01,-0.0002
-5.056e-01,0.00124
-5.048e-01,0.001
-5.040e-01,-0.00092
-5.032e-01,0.00096
-5.024e-01,0.00296
-5.016e-01,0.00108
-5.008e-01,0.00224
-5.000e-01,0.00312
-4.992e-01,0.0028
-4.984e-01,0.0026
-4.976e-01,0.0036
-4.968e-01,-0.00024
-4.960e-01,0.00172
-4.952e-01,0.00288
-4.944e-01,4e-05
-4.936e-01,0.00124
-4.928e-01,0.00224
-4.920e-01,0.00216
-4.912e-01,-4e-05
-4.904e-01,0.00052
-4.896e-01,4e-05
-4.888e-01,-0.0002
-4.880e-01,-0.00064
-4.872e-01,-0.0044
-4.864e-01,-0.00084
-4.856e-01,-0.00024
-4.848e-01,-0.00388
-4.840e-01,-0.0034
-4.832e-01,-0.00256
-4.824e-01,-0.00216
-4.816e-01,-0.00056
-4.808e-01,0.00048
-4.800e-01,-0.00292
-4.792e-01,-0.00044
-4.784e-01,-0.00016
-4.776e-01,-0.00236
-4.768e-01,-0.00296
-4.760e-01,-0.0006
-4.752e-01,0.00092
-4.744e-01,-0.00196
-4.736e-01,-0.00372
-4.728e-01,0.00048
-4.720e-01,-0.0008
-4.712e-01,-0.00092
-4.704e-01,-0.00244
-4.696e-01,-0.00276
-4.688e-01,-0.0024
-4.680e-01,-0.00508
-4.672e-01,-0.00408
-4.664e-01,-0.00096
-4.656e-01,0.00164
-4.648e-01,-0.00016
-4.640e-01,0.00156
-4.632e-01,0.00164
-4.624e-01,0.0002
-4.616e-01,0.00272
-4.608e-01,0.00236
-4.600e-01,0.00276
-4.592e-01,0.00148
-4.584e-01,0.00064
-4.576e-01,0.00116
-4.568e-01,-0.00212
-4.560e-01,0.00296
-4.552e-01,0.00188
-4.544e-01,0.00148
-4.536e-01,-0.00028
-4.528e-01,0.00016
-4.520e-01,0.00364
-4.512e-01,-0.00032
-4.504e-01,0.00332
-4.496e-01,0.00412
-4.488e-01,0.0028
-4.480e-01,-0.00184
-4.472e-01,0.0006
-4.464e-01,0.00156
-4.456e-01,0.00228
-4.448e-01,0.00036
-4.440e-01,-0.00084
-4.432e-01,-0.00024
-4.424e-01,0.00184
-4.416e-01,0.00052
-4.408e-01,0.00316
-4.400e-01,4e-05
-4.392e-01,0.00304
-4.384e-01,0.00072
-4.376e-01,-0.00112
-4.368e-01,-0.00328
-4.360e-01,-0.00148
-4.352e-01,0.00176
-4.344e-01,-0.00228
-4.336e-01,-0.00408
-4.328e-01,-0.00224
-4.320e-01,0.0004
-4.312e-01,-0.00064
-4.304e-01,-0.00232
-4.296e-01,-0.00216
-4.288e-01,0.00096
-4.280e-01,-0.00368
-4.272e-01,-0.00476
-4.264e-01,-0.0022
-4.256e-01,-0.0018
-4.248e-01,-0.00096
-4.240e-01,-0.0008
-4.232e-01,-0.00344
-4.224e-01,-0.0014
-4.216e-01,-0.00016
-4.208e-01,0.00012
-4.200e-01,-0.0014
-4.192e-01,0.00152
-4.184e-01,-0.00108
-4.176e-01,-0.00012
-4.168e-01,-0.0036
-4.160e-01,0.00104
-4.152e-01,0.00168
-4.144e-01,0.00136
-4.136e-01,8e-05
-4.128e-01,0.0022
-4.120e-01,0.00112
-4.112e-01,-8e-05
-4.104e-01,0.00012
-4.096e-01,-4e-05
-4.088e-01,0.00264
-4.080e-01,0.00032
-4.072e-01,-8e-05
-4.064e-01,0.00152
-4.056e-01,0.00248
-4.048e-01,0.0006
-4.040e-01,-0.00084
-4.032e-01,0.00108
-4.024e-01,0.00312
-4.016e-01,0.00292
-4.008e-01,0.00508
-4.000e-01,0.00232
-3.992e-01,0.00228
-3.984e-01,0.00492
-3.976e-01,0.00404
-3.968e-01,-0.00024
-3.960e-01,0.00152
-3.952e-01,0.00292
-3.944e-01,0.00072
-3.936e-01,0.00024
-3.928e-01,0.00264
-3.920e-01,0.00288
-3.912e-01,0.00032
-3.904e-01,-4e-05
-3.896e-01,0.00188
-3.888e-01,0.0028
-3.880e-01,-0.00264
-3.872e-01,-0.00036
-3.864e-01,4e-05
-3.856e-01,-0.0006
-3.848e-01,-0.00276
-3.840e-01,-0.00016
-3.832e-01,-0.00028
-3.824e-01,0.0022
-3.816e-01,0.00216
-3.808e-01,0.00044
-3.800e-01,-0.00188
-3.792e-01,-0.00116
-3.784e-01,0.00124
-3.776e-01,0.00072
-3.768e-01,-0.00104
-3.760e-01,-8e-05
-3.752e-01,-0.00176
-3.744e-01,-0.00032
-3.736e-01,-0.00332
-3.728e-01,0.00132
-3.720e-01,-0.00016
-3.712e-01,-0.00356
-3.704e-01,-0.00172
-3.696e-01,0.0006
-3.688e-01,-0.00204
-3.680e-01,-0.00468
-3.672e-01,-0.00364
-3.664e-01,-0.00284
-3.656e-01,0.0008
-3.648e-01,-0.00208
-3.640e-01,0.00212
-3.632e-01,-0.00096
-3.624e-01,0.00352
-3.616e-01,0.003
-3.608e-01,0.00176
-3.600e-01,4e-05
-3.592e-01,0.00272
-3.584e-01,0.00356
-3.576e-01,0.0016
-3.568e-01,0.00068
-3.560e-01,0.00284
-3.552e-01,0.00244
-3.544e-01,-0.00012
-3.536e-01,0.0006
-3.528e-01,0.00308
-3.520e-01,0.00164
-3.512e-01,0.0014
-3.504e-01,0.00272
-3.496e-01,0.00252
-3.488e-01,0.00084
-3.480e-01,-0.00156
-3.472e-01,0.002
-3.464e-01,0.00124
-3.456e-01,0.00316
-3.448e-01,-0.00056
-3.440e-01,0.00084
-3.432e-01,0.00044
-3.424e-01,0.00484
-3.416e-01,0.00352
-3.408e-01,0.001
-3.400e-01,-0.00256
-3.392e-01,-0.0006
-3.384e-01,0.00416
-3.376e-01,-0.00048
-3.368e-01,0.00012
-3.360e-01,-0.00188
-3.352e-01,-0.00052
-3.344e-01,-0.00064
-3.336e-01,-0.00404
-3.328e-01,0.00056
-3.320e-01,0.00124
-3.312e-01,-0.00364
-3.304e-01,-0.001
-3.296e-01,-0.00032
-3.288e-01,-0.003
-3.280e-01,-0.00508
-3.272e-01,-0.00188
-3.264e-01,-0.00424
-3.256e-01,-0.0018
-3.248e-01,-0.00136
-3.240e-01,-0.00116
-3.232e-01,-0.00144
-3.224e-01,0.00048
-3.216e-01,-0.00076
-3.208e-01,0.00068
-3.200e-01,-0.00132
-3.192e-01,8e-05
-3.184e-01,-0.00064
-3.176e-01,0.00016
-3.168e-01,-0.00012
-3.160e-01,-0.00116
-3.152e-01,0.00176
-3.144e-01,-0.00224
-3.136e-01,-0.00044
-3.128e-01,0.0012
-3.120e-01,0.00308
-3.112e-01,-0.00104
-3.104e-01,0.00196
-3.096e-01,0.00016
-3.088e-01,0.00032
-3.080e-01,-0.00276
-3.072e-01,-0.00052
-3.064e-01,-0.002
-3.056e-01,-0.00016
-3.048e-01,0.00072
-3.040e-01,0.00212
-3.032e-01,0.0004
-3.024e-01,0.00252
-3.016e-01,0.0042
-3.008e-01,0.003
-3.000e-01,0.0022
-2.992e-01,0.00452
-2.984e-01,0.00376
-2.976e-01,0.00196
-2.968e-01,0.00128
-2.960e-01,0.00248
-2.952e-01,0.0014
-2.944e-01,0.00096
-2.936e-01,0.00124
-2.928e-01,0.00224
-2.920e-01,0.00044
-2.912e-01,-0.00116
-2.904e-01,0.00164
-2.896e-01,-0.0006
-2.888e-01,0.00116
-2.880e-01,-0.00144
-2.872e-01,-0.00216
-2.864e-01,-0.00036
-2.856e-01,0.00112
-2.848e-01,0.00156
-2.840e-01,0.00116
-2.832e-01,-0.00324
-2.824e-01,-0.00076
-2.816e-01,-0.0008
-2.808e-01,0.00168
-2.800e-01,-0.0006
-2.792e-01,8e-05
-2.784e-01,0.00064
-2.776e-01,0.0002
-2.768e-01,-0.00324
-2.760e-01,-0.00016
-2.752e-01,-0.0006
-2.744e-01,-0.0006
-2.736e-01,-0.00212
-2.728e-01,-0.00316
-2.720e-01,0.0004
-2.712e-01,-0.0038
-2.704e-01,-0.00252
-2.696e-01,-0.00348
-2.688e-01,-0.00032
-2.680e-01,-0.00296
-2.672e-01,-0.00312
-2.664e-01,-0.001
-2.656e-01,0.00048
-2.648e-01,-0.00012
-2.640e-01,-8e-05
-2.632e-01,0
-2.624e-01,0.00088
-2.616e-01,-0.00052
-2.608e-01,0
-2.600e-01,0.00084
-2.592e-01,0.00048
-2.584e-01,0.00356
-2.576e-01,0.0002
-2.568e-01,0.00012
-2.560e-01,-0.00012
-2.552e-01,0.00224
-2.544e-01,-0.00072
-2.536e-01,0.00328
-2.528e-01,0.00308
-2.520e-01,0.00196
-2.512e-01,0.00072
-2.504e-01,0.00216
-2.496e-01,-0.00012
-2.488e-01,0.00292
-2.480e-01,0.0002
-2.472e-01,0.00128
-2.464e-01,-0.0012
-2.456e-01,0.00092
-2.448e-01,0.0004
-2.440e-01,0.00212
-2.432e-01,0.00132
-2.424e-01,0.00368
-2.416e-01,0.00196
-2.408e-01,0.003
-2.400e-01,0.00116
-2.392e-01,0.0016
-2.384e-01,0.00096
-2.376e-01,-8e-05
-2.368e-01,-0.00228
-2.360e-01,-0.0014
-2.352e-01,0.00056
-2.344e-01,-0.00108
-2.336e-01,-0.00016
-2.328e-01,0.00032
-2.320e-01,-0.00108
-2.312e-01,-0.0034
-2.304e-01,-0.00276
-2.296e-01,-0.00208
-2.288e-01,-0.00152
-2.280e-01,-0.00188
-2.272e-01,-0.00332
-2.264e-01,-0.00196
-2.256e-01,-0.00272
-2.248e-01,0.00016
-2.240e-01,-0.00136
-2.232e-01,-0.00428
-2.224e-01,-0.00112
-2.216e-01,-0.00212
-2.208e-01,8e-05
-2.200e-01,-0.00276
-2.192e-01,0.00136
-2.184e-01,-0.00068
-2.176e-01,0.00056
-2.168e-01,-0.00368
-2.160e-01,-0.00152
-2.152e-01,0.00156
-2.144e-01,-0.00104
-2.136e-01,-0.00068
-2.128e-01,-0.00144
-2.120e-01,0.0004
-2.112e-01,-0.001
-2.104e-01,-8e-05
-2.096e-01,0.001
-2.088e-01,-0.0012
-2.080e-01,-0.00068
-2.072e-01,-0.00044
-2.064e-01,-0.00068
-2.056e-01,-0.00012
-2.048e-01,0.00164
-2.040e-01,0.00124
-2.032e-01,0.00184
-2.024e-01,0.00336
-2.016e-01,0.00288
-2.008e-01,0.00228
-2.000e-01,0.0006
-1.992e-01,0.00132
-1.984e-01,0.0026
-1.976e-01,0.00288
-1.968e-01,-0.00044
-1.960e-01,0.00272
-1.952e-01,0.00424
-1.944e-01,0.00192
-1.936e-01,0.00136
-1.928e-01,0.00244
-1.920e-01,0.0034
-1.912e-01,4e-05
-1.904e-01,0.00256
-1.896e-01,-0.00036
-1.888e-01,0.0026
-1.880e-01,-0.00056
-1.872e-01,0.00012
-1.864e-01,-0.002
-1.856e-01,0.00088
-1.848e-01,8e-05
-1.840e-01,0.00032
-1.832e-01,-0.0008
-1.824e-01,0.00128
-1.816e-01,0.00028
-1.808e-01,-0.0006
-1.800e-01,-0.00048
-1.792e-01,8e-05
-1.784e-01,0.0004
-1.776e-01,-0.0008
-1.768e-01,-0.00396
-1.760e-01,0.0004
-1.752e-01,-0.00072
-1.744e-01,-0.00124
-1.736e-01,-0.00252
-1.728e-01,-0.00164
-1.720e-01,-0.00136
-1.712e-01,-0.00228
-1.704e-01,0.00144
-1.696e-01,-0.00012
-1.688e-01,-0.0016
-1.680e-01,-0.00264
-1.672e-01,-0.0032
-1.664e-01,-0.00352
-1.656e-01,-0.00048
-1.648e-01,-0.00144
-1.640e-01,-0.002
-1.632e-01,-0.00224
-1.624e-01,0.002
-1.616e-01,0.00032
-1.608e-01,0.00132
-1.600e-01,0.00028
-1.592e-01,0.00096
-1.584e-01,0.001
-1.576e-01,-0.0016
-1.568e-01,-0.00108
-1.560e-01,-0.00092
-1.552e-01,-0.00072
-1.544e-01,-0.00108
-1.536e-01,0
-1.528e-01,0.00036
-1.520e-01,0.0034
-1.512e-01,-4e-05
-1.504e-01,0.00244
-1.496e-01,0.00256
-1.488e-01,0.00248
-1.480e-01,0.00196
-1.472e-01,0.00304
-1.464e-01,-0.0006
-1.456e-01,0.00396
-1.448e-01,0.00324
-1.440e-01,0.00144
-1.432e-01,-0.00096
-1.424e-01,0.00212
-1.416e-01,0.00104
-1.408e-01,0.00128
-1.400e-01,0.00016
-1.392e-01,0.00384
-1.384e-01,0.00064
-1.376e-01,0.00116
-1.368e-01,0.00172
-1.360e-01,0.00224
-1.352e-01,0.00048
-1.344e-01,-0.00128
-1.336e-01,-0.00176
-1.328e-01,-0.0026
-1.320e-01,0.00148
-1.312e-01,-0.0004
-1.304e-01,0.00048
-1.296e-01,-0.00172
-1.288e-01,-0.00192
-1.280e-01,-0.00176
-1.272e-01,-0.00164
-1.264e-01,-0.00208
-1.256e-01,-0.00144
-1.248e-01,-0.00084
-1.240e-01,4e-05
-1.232e-01,-0.00208
-1.224e-01,-0.00108
-1.216e-01,0.0012
-1.208e-01,-0.00396
-1.200e-01,-0.00136
-1.192e-01,-0.00116
-1.184e-01,-0.00176
-1.176e-01,-0.00332
-1.168e-01,-0.00364
-1.160e-01,-0.00344
-1.152e-01,-0.00128
-1.144e-01,-0.0006
-1.136e-01,-0.0046
-1.128e-01,0.00064
-1.120e-01,0.00016
-1.112e-01,-0.00372
-1.104e-01,-0.00092
-1.096e-01,-0.0004
-1.088e-01,0.00112
-1.080e-01,-0.00112
-1.072e-01,-0.00252
-1.064e-01,-0.00416
-1.056e-01,-0.00208
-1.048e-01,-0.00048
-1.040e-01,0.00124
-1.032e-01,-0.0002
-1.024e-01,0.0008
-1.016e-01,0.00236
-1.008e-01,0.00132
-1.000e-01,0.0012
-9.920e-02,0.00332
-9.840e-02,0.003
-9.760e-02,0.00128
-9.680e-02,-0.00124
-9.600e-02,0.00228
-9.520e-02,0.00112
-9.440e-02,0.00148
-9.360e-02,0.00016
-9.280e-02,0.00332
-9.200e-02,0.0034
-9.120e-02,0.00184
-9.040e-02,0.00188
-8.960e-02,0.00196
-8.880e-02,0.00148
-8.800e-02,0.00092
-8.720e-02,-0.00012
-8.640e-02,0.00028
-8.560e-02,0.0002
-8.480e-02,0.00216
-8.400e-02,0.0022
-8.320e-02,-0.00016
-8.240e-02,0.00052
-8.160e-02,0.00012
-8.080e-02,-0.00184
-8.000e-02,8e-05
-7.920e-02,0.002
-7.840e-02,0.00368
-7.760e-02,-0.00012
-7.680e-02,-0.00124
-7.600e-02,0.00032
-7.520e-02,0.00068
-7.440e-02,-0.00076
-7.360e-02,-0.001
-7.280e-02,0.00072
-7.200e-02,0.00144
-7.120e-02,-0.00156
-7.040e-02,0.00036
-6.960e-02,-0.00376
-6.880e-02,-0.00184
-6.800e-02,-0.0006
-6.720e-02,-0.00228
-6.640e-02,-0.00036
-6.560e-02,4e-05
-6.480e-02,0.00196
-6.400e-02,0.00176
-6.320e-02,-0.00196
-6.240e-02,0.00084
-6.160e-02,0.00308
-6.080e-02,-0.0002
-6.000e-02,-0.00132
-5.920e-02,0.00024
-5.840e-02,0.00192
-5.760e-02,-0.00244
-5.680e-02,-0.00136
-5.600e-02,-0.0008
-5.520e-02,0.00104
-5.440e-02,0.00036
-5.360e-02,8e-05
-5.280e-02,0.0028
-5.200e-02,0.00432
-5.120e-02,-0.00012
-5.040e-02,0.00248
-4.960e-02,0.00072
-4.880e-02,0.00236
-4.800e-02,0.00196
-4.720e-02,0.00236
-4.640e-02,0.00168
-4.560e-02,0.00144
-4.480e-02,0.00356
-4.400e-02,0.0022
-4.320e-02,0.00168
-4.240e-02,0.0012
-4.160e-02,0.00328
-4.080e-02,0.00304
-4.000e-02,0.00272
-3.920e-02,0.0034
-3.840e-02,0.00356
-3.760e-02,0.00172
-3.680e-02,0.0026
-3.600e-02,0.00336
-3.520e-02,0.0018
-3.440e-02,0.00084
-3.360e-02,-0.00064
-3.280e-02,4e-05
-3.200e-02,0.00148
-3.120e-02,-0.00152
-3.040e-02,0.0016
-2.960e-02,-0.00032
-2.880e-02,0.00248
-2.800e-02,-0.00048
-2.720e-02,-0.00212
-2.640e-02,-0.00316
-2.560e-02,0.00144
-2.480e-02,-0.00096
-2.400e-02,-0.00276
-2.320e-02,-0.00416
-2.240e-02,-0.00088
-2.160e-02,-0.00168
-2.080e-02,-0.00256
-2.000e-02,-0.00096
-1.920e-02,-0.00152
-1.840e-02,0
-1.760e-02,-0.00324
-1.680e-02,-0.00396
-1.600e-02,-0.00264
-1.520e-02,-0.00224
-1.440e-02,-0.00168
-1.360e-02,-0.00468
-1.280e-02,-0.00232
-1.200e-02,-0.00216
-1.120e-02,-0.00268
-1.040e-02,-0.00016
-9.600e-03,-0.00244
-8.800e-03,0.001
-8.000e-03,-0.0014
-7.200e-03,-0.00068
-6.400e-03,-0.00188
-5.600e-03,-0.00132
-4.800e-03,0
-4.000e-03,0.00056
-3.200e-03,-0.00012
-2.400e-03,-0.00028
-1.600e-03,0.00316
-8.000e-04,0.00192
1.440e-14,0.00188
8.000e-04,0.00276
1.600e-03,0.00364
2.400e-03,8e-05
3.200e-03,-0.00016
4.000e-03,0.0004
4.800e-03,0.00228
5.600e-03,0
6.400e-03,0.00148
7.200e-03,-0.00024
8.000e-03,0.00236
8.800e-03,0.001
9.600e-03,0.00376
1.040e-02,0.002
1.120e-02,0.00316
1.200e-02,0.00036
1.280e-02,0.0004
1.360e-02,-0.0004
1.440e-02,0.00204
1.520e-02,0.00336
1.600e-02,0.0032
1.680e-02,-0.00136
1.760e-02,0.00272
1.840e-02,0.00036
1.920e-02,0.00124
2.000e-02,0.0002
2.080e-02,0.0032
2.160e-02,0.00316
2.240e-02,-0.00288
2.320e-02,-0.0012
2.400e-02,-0.00172
2.480e-02,0.00164
2.560e-02,0.00052
2.640e-02,0.00048
2.720e-02,0.00036
2.800e-02,-0.00128
2.880e-02,-0.0032
2.960e-02,0.00132
3.040e-02,-0.00368
3.120e-02,0.00188
3.200e-02,-0.0026
3.280e-02,-0.0004
3.360e-02,-0.0028
