data/PSU_noise/PSU2_CV1_40A_100ms.CSV

Model,TBS1102C
Firmware Version,v2015-08-04-prequal4ch70_v1.3

Point Format,Y
Horizontal Units,S
Horizontal Scale,0.1
Sample Interval,0.0008
Filter Frequency,2e+08
Record Length,2000
Gating,0.0% to 100.0%
Probe Attenuation,1
Vertical Units,V
Vertical Offset,0
Vertical Scale,0.001
Label,
TIME,CH1
-7.904e-01,-0.00248
-7.896e-01,0.00044
-7.888e-01,0.00124
-7.880e-01,-0.00256
-7.872e-01,-0.00172
-7.864e-01,0.00236
-7.856e-01,-0.00176
-7.848e-01,-0.001
-7.840e-01,0.00016
-7.832e-01,0.00064
-7.824e-01,-0.00204
-7.816e-01,0.00088
-7.808e-01,0.00164
-7.800e-01,0.00156
-7.792e-01,0.00224
-7.784e-01,8e-05
-7.776e-01,-0.00024
-7.768e-01,-0.00128
-7.760e-01,-0.00128
-7.752e-01,-0.00152
-7.744e-01,-0.00196
-7.736e-01,0.00204
-7.728e-01,-0.00124
-7.720e-01,0.00116
-7.712e-01,0.00088
-7.704e-01,-0.0008
-7.696e-01,-0.001
-7.688e-01,-0.00168
-7.680e-01,0.0024
-7.672e-01,0.00176
-7.664e-01,-0.00028
-7.656e-01,0.00104
-7.648e-01,0.00076
-7.640e-01,-0.001
-7.632e-01,0
-7.624e-01,-0.00104
-7.616e-01,0.00016
-7.608e-01,0.00188
-7.600e-01,0.00024
-7.592e-01,0.0012
-7.584e-01,0.0022
-7.576e-01,0.00156
-7.568e-01,-0.00168
-7.560e-01,0.00128
-7.552e-01,-0.0018
-7.544e-01,-0.00084
-7.536e-01,0.00152
-7.528e-01,-0.00068
-7.520e-01,0.0022
-7.512e-01,-0.00144
-7.504e-01,0.00048
-7.496e-01,-0.00032
-7.488e-01,-0.00064
-7.480e-01,-0.00256
-7.472e-01,-0.00328
-7.464e-01,0.0018
-7.456e-01,0.0012
-7.448e-01,-0.00064
-7.440e-01,0.00056
-7.432e-01,0.00308
-7.424e-01,0.00248
-7.416e-01,0.00168
-7.408e-01,-0.00068
-7.400e-01,0.00108
-7.392e-01,-4e-05
-7.384e-01,-0.00088
-7.376e-01,0.00232
-7.368e-01,-0.00036
-7.360e-01,-0.00056
-7.352e-01,-0.0008
-7.344e-01,0.00192
-7.336e-01,0.00104
-7.328e-01,0.00104
-7.320e-01,0.00144
-7.312e-01,-0.00052
-7.304e-01,0.00192
-7.296e-01,-0.00136
-7.288e-01,0.00048
-7.280e-01,-0.00276
-7.272e-01,0.0014
-7.264e-01,0.00088
-7.256e-01,0.00124
-7.248e-01,0.00012
-7.240e-01,-8e-05
-7.232e-01,-0.0028
-7.224e-01,0.0016
-7.216e-01,0.0004
-7.208e-01,0.00028
-7.200e-01,0.00096
-7.192e-01,0.0008
-7.184e-01,-0.00124
-7.176e-01,0.00192
-7.168e-01,-0.00076
-7.160e-01,0.00172
-7.152e-01,-4e-05
-7.144e-01,-0.00144
-7.136e-01,-0.00168
-7.128e-01,0.00112
-7.120e-01,0.00028
-7.112e-01,0.00208
-7.104e-01,0.00116
-7.096e-01,-0.00224
-7.088e-01,-0.0016
-7.080e-01,0.00112
-7.072e-01,0.00176
-7.064e-01,-0.00072
-7.056e-01,-0.00172
-7.048e-01,-0.0014
-7.040e-01,0.0008
-7.032e-01,-0.00172
-7.024e-01,-0.00212
-7.016e-01,0.00176
-7.008e-01,0.00072
-7.000e-01,-0.00156
-6.992e-01,0.00036
-6.984e-01,0.00064
-6.976e-01,0.0014
-6.968e-01,0.00112
-6.960e-01,0.00104
-6.952e-01,0.00308
-6.944e-01,-0.00032
-6.936e-01,-0.00012
-6.928e-01,0.001
-6.920e-01,-0.00144
-6.912e-01,0.00096
-6.904e-01,-0.00208
-6.896e-01,0.00016
-6.888e-01,-0.0008
-6.880e-01,0.00164
-6.872e-01,-0.00052
-6.864e-01,0.00156
-6.856e-01,-0.001
-6.848e-01,0.00132
-6.840e-01,-0.00084
-6.832e-01,0.0008
-6.824e-01,-0.0016
-6.816e-01,-0.0012
-6.808e-01,-0.002
-6.800e-01,0.00084
-6.792e-01,4e-05
-6.784e-01,-0.00024
-6.776e-01,0.0012
-6.768e-01,0.00104
-6.760e-01,0.00076
-6.752e-01,-0.00252
-6.744e-01,-0.00208
-6.736e-01,0.0018
-6.728e-01,-0.00048
-6.720e-01,0.00044
-6.712e-01,-0.0024
-6.704e-01,-0.00156
-6.696e-01,0.00076
-6.688e-01,0.00108
-6.680e-01,0.00024
-6.672e-01,-0.00204
-6.664e-01,-0.00068
-6.656e-01,0.00212
-6.648e-01,0.00196
-6.640e-01,0.00272
-6.632e-01,-0.00076
-6.624e-01,-0.002
-6.616e-01,-0.0028
-6.608e-01,-0.002
-6.600e-01,0.00068
-6.592e-01,-0.00036
-6.584e-01,-0.00228
-6.576e-01,-0.00028
-6.568e-01,0.00148
-6.560e-01,-0.00192
-6.552e-01,8e-05
-6.544e-01,0.00048
-6.536e-01,-0.00028
-6.528e-01,-0.00212
-6.520e-01,-0.00164
-6.512e-01,0.0002
-6.504e-01,-4e-05
-6.496e-01,0.00164
-6.488e-01,-0.00176
-6.480e-01,-0.0004
-6.472e-01,-0.00268
-6.464e-01,0.00032
-6.456e-01,0.00092
-6.448e-01,-0.001
-6.440e-01,-0.001
-6.432e-01,-0.00132
-6.424e-01,0.0024
-6.416e-01,-0.0014
-6.408e-01,0.00172
-6.400e-01,0.0014
-6.392e-01,-0.00128
-6.384e-01,0.00168
-6.376e-01,0.0028
-6.368e-01,-0.00084
-6.360e-01,-0.00088
-6.352e-01,-0.00072
-6.344e-01,-0.00036
-6.336e-01,-0.00036
-6.328e-01,0.00068
-6.320e-01,0.0006
-6.312e-01,-0.00016
-6.304e-01,-0.00256
-6.296e-01,-0.00028
-6.288e-01,-0.00016
-6.280e-01,-0.0008
-6.272e-01,0.0018
-6.264e-01,-0.00116
-6.256e-01,-0.00108
-6.248e-01,0.0004
-6.240e-01,-4e-05
-6.232e-01,0.00092
-6.224e-01,0.00148
-6.216e-01,-0.00044
-6.208e-01,-0.00236
-6.200e-01,0.00052
-6.192e-01,-0.00048
-6.184e-01,0.00048
-6.176e-01,-0.0016
-6.168e-01,-0.00056
-6.160e-01,-0.0018
-6.152e-01,0.0006
-6.144e-01,-0.00184
-6.136e-01,-0.00072
-6.128e-01,-0.00188
-6.120e-01,0.0008
-6.112e-01,0.001
-6.104e-01,-0.00128
-6.096e-01,0.00116
-6.088e-01,-0.00104
-6.080e-01,0.00148
-6.072e-01,0.00012
-6.064e-01,-0.00052
-6.056e-01,0.00068
-6.048e-01,0.00124
-6.040e-01,-0.00176
-6.032e-01,0.00164
-6.024e-01,-0.00124
-6.016e-01,-0.00028
-6.008e-01,0.00112
-6.000e-01,0.00152
-5.992e-01,-0.001
-5.984e-01,0.00184
-5.976e-01,-0.00184
-5.968e-01,-0.00108
-5.960e-01,-0.0008
-5.952e-01,-0.00176
-5.944e-01,0.00172
-5.936e-01,0.0002
-5.928e-01,0.00108
-5.920e-01,0.0008
-5.912e-01,0.00088
-5.904e-01,0.00096
-5.896e-01,0.00184
-5.888e-01,-4e-05
-5.880e-01,4e-05
-5.872e-01,0.00036
-5.864e-01,-0.00208
-5.856e-01,-0.00152
-5.848e-01,0.00136
-5.840e-01,-0.00224
-5.832e-01,0.00196
-5.824e-01,-0.00228
-5.816e-01,0.00116
-5.808e-01,-0.00288
-5.800e-01,-0.00152
-5.792e-01,0.00028
-5.784e-01,-0.001
-5.776e-01,0.00088
-5.768e-01,0.00172
-5.760e-01,0.00112
-5.752e-01,0.00216
-5.744e-01,0.00132
-5.736e-01,0.00032
-5.728e-01,-0.00048
-5.720e-01,-0.00144
-5.712e-01,-0.00056
-5.704e-01,-0.00012
-5.696e-01,0.00172
-5.688e-01,0.00124
-5.680e-01,-0.00192
-5.672e-01,0.00016
-5.664e-01,0.0018
-5.656e-01,0.001
-5.648e-01,0.00144
-5.640e-01,0.00152
-5.632e-01,-0.00016
-5.624e-01,0.00108
-5.616e-01,0.00236
-5.608e-01,0.00236
-5.600e-01,-0.00132
-5.592e-01,-0.00088
-5.584e-01,-0.0006
-5.576e-01,0.00096
-5.568e-01,0
-5.560e-01,0.00236
-5.552e-01,-0.00028
-5.544e-01,-0.0002
-5.536e-01,0.00048
-5.528e-01,-0.00168
-5.520e-01,-0.00116
-5.512e-01,0.00052
-5.504e-01,-0.00088
-5.496e-01,-0.0008
-5.488e-01,0.0004
-5.480e-01,-0.0006
-5.472e-01,0.00112
-5.464e-01,0.00092
-5.456e-01,-0.00036
-5.448e-01,-0.00072
-5.440e-01,-0.0018
-5.432e-01,-0.001
-5.424e-01,-0.00108
-5.416e-01,-0.00324
-5.408e-01,0.00148
-5.400e-01,0.00192
-5.392e-01,0.0008
-5.384e-01,-0.00204
-5.376e-01,0.00064
-5.368e-01,0.00104
-5.360e-01,-0.0008
-5.352e-01,-0.00236
-5.344e-01,0.00188
-5.336e-01,-0.0022
-5.328e-01,0.00036
-5.320e-01,-0.00316
-5.312e-01,-0.0012
-5.304e-01,0.0008
-5.296e-01,0.00036
-5.288e-01,0.00012
-5.280e-01,0.002
-5.272e-01,-0.0016
-5.264e-01,0.00048
-5.256e-01,0.00132
-5.248e-01,-0.00012
-5.240e-01,0.00196
-5.232e-01,0.003
-5.224e-01,-0.00228
-5.216e-01,-0.001
-5.208e-01,0.00044
-5.200e-01,0.00084
-5.192e-01,0.00168
-5.184e-01,-0.00272
-5.176e-01,-0.00152
-5.168e-01,0.00084
-5.160e-01,0.00152
-5.152e-01,8e-05
-5.144e-01,0.00092
-5.136e-01,0.0014
-5.128e-01,0.0018
-5.120e-01,0.00044
-5.112e-01,0
-5.104e-01,-0.00228
-5.096e-01,0.00104
-5.088e-01,0.00136
-5.080e-01,0.00024
-5.072e-01,0.00228
-5.064e-01,-0.0024
-5.056e-01,-0.00252
-5.048e-01,0.00076
-5.040e-01,-0.00136
-5.032e-01,-0.00168
-5.024e-01,-0.00092
-5.016e-01,-0.0016
-5.008e-01,-0.0014
-5.000e-01,-0.001
-4.992e-01,-0.0008
-4.984e-01,0.0012
-4.976e-01,-0.00024
-4.968e-01,-0.0008
-4.960e-01,-0.00108
-4.952e-01,-0.00128
-4.944e-01,0.00024
-4.936e-01,0.00016
-4.928e-01,0.00104
-4.920e-01,0.00124
-4.912e-01,-0.00252
-4.904e-01,-0.00212
-4.896e-01,0.00168
-4.888e-01,-0.00344
-4.880e-01,0.0012
-4.872e-01,0.00264
-4.864e-01,-0.0024
-4.856e-01,-0.00064
-4.848e-01,0.00164
-4.840e-01,0.0002
-4.832e-01,0.00164
-4.824e-01,0.00056
-4.816e-01,0.00104
-4.808e-01,-0.00164
-4.800e-01,0.00056
-4.792e-01,-0.00084
-4.784e-01,-0.00028
-4.776e-01,4e-05
-4.768e-01,0.00064
-4.760e-01,-4e-05
-4.752e-01,0.0014
-4.744e-01,0.00184
-4.736e-01,-0.00196
-4.728e-01,0.00096
-4.720e-01,0.00136
-4.712e-01,-0.0002
-4.704e-01,-0.00204
-4.696e-01,0.00196
-4.688e-01,0.0018
-4.680e-01,-0.00204
-4.672e-01,0.00076
-4.664e-01,0.00064
-4.656e-01,0.00116
-4.648e-01,-0.0028
-4.640e-01,4e-05
-4.632e-01,0.00124
-4.624e-01,-0.00104
-4.616e-01,0.0012
-4.608e-01,-0.0022
-4.600e-01,0.0018
-4.592e-01,0.00012
-4.584e-01,-0.003
-4.576e-01,0.00088
-4.568e-01,0.00224
-4.560e-01,0.00136
-4.552e-01,-0.00264
-4.544e-01,0.00044
-4.536e-01,-0.00044
-4.528e-01,0.00124
-4.520e-01,-0.00256
-4.512e-01,-0.00088
-4.504e-01,0.0006
-4.496e-01,0.00136
-4.488e-01,0.00172
-4.480e-01,0.00124
-4.472e-01,-0.00188
-4.464e-01,-0.00036
-4.456e-01,0.00116
-4.448e-01,0.00124
-4.440e-01,0.00016
-4.432e-01,-0.00256
-4.424e-01,0.00136
-4.416e-01,-0.00132
-4.408e-01,0.00148
-4.400e-01,-0.00172
-4.392e-01,-0.00172
-4.384e-01,-0.00164
-4.376e-01,-0.00164
-4.368e-01,-0.00036
-4.360e-01,-0.001
-4.352e-01,-0.00072
-4.344e-01,-0.0002
-4.336e-01,0.001
-4.328e-01,0.00104
-4.320e-01,0.00044
-4.312e-01,-0.00312
-4.304e-01,-0.00064
-4.296e-01,-0.00064
-4.288e-01,0.00112
-4.280e-01,-0.00288
-4.272e-01,-0.00028
-4.264e-01,-0.0014
-4.256e-01,-8e-05
-4.248e-01,0.00228
-4.240e-01,-0.00208
-4.232e-01,0.00212
-4.224e-01,0.00124
-4.216e-01,0
-4.208e-01,-0.00192
-4.200e-01,0.00144
-4.192e-01,0.0018
-4.184e-01,-0.00112
-4.176e-01,-0.00044
-4.168e-01,-0.00036
-4.160e-01,-0.00124
-4.152e-01,0.00124
-4.144e-01,-0.00044
-4.136e-01,0.00188
-4.128e-01,0.00204
-4.120e-01,-0.00148
-4.112e-01,0.00168
-4.104e-01,-0.00108
-4.096e-01,0.00056
-4.088e-01,0.00188
-4.080e-01,0.00152
-4.072e-01,-0.00124
-4.064e-01,0.00156
-4.056e-01,0.00216
-4.048e-01,-0.00132
-4.040e-01,-0.00148
-4.032e-01,-0.00012
-4.024e-01,0.00116
-4.016e-01,0.0018
-4.008e-01,0.00012
-4.000e-01,-0.00136
-3.992e-01,-0.00092
-3.984e-01,0.00032
-3.976e-01,-0.00148
-3.968e-01,0.00056
-3.960e-01,-0.00048
-3.952e-01,4e-05
-3.944e-01,-0.00016
-3.936e-01,-0.00036
-3.928e-01,0
-3.920e-01,0.00108
-3.912e-01,-0.00112
-3.904e-01,0.00056
-3.896e-01,-4e-05
-3.888e-01,-0.00152
-3.880e-01,-0.00104
-3.872e-01,0.00064
-3.864e-01,-0.002
-3.856e-01,0.00072
-3.848e-01,0.00176
-3.840e-01,8e-05
-3.832e-01,-0.0008
-3.824e-01,0.00032
-3.816e-01,-0.00024
-3.808e-01,-0.00068
-3.800e-01,-0.00232
-3.792e-01,0.00112
-3.784e-01,0.00236
-3.776e-01,0.0016
-3.768e-01,0.00092
-3.760e-01,-0.00228
-3.752e-01,0.00116
-3.744e-01,-0.00164
-3.736e-01,0.0028
-3.728e-01,0.00064
-3.720e-01,-0.00168
-3.712e-01,0.00088
-3.704e-01,0.00116
-3.696e-01,0.00084
-3.688e-01,0.00104
-3.680e-01,0.00204
-3.672e-01,0.0006
-3.664e-01,-0.00068
-3.656e-01,0.0018
-3.648e-01,0.00304
-3.640e-01,0.00084
-3.632e-01,-0.00072
-3.624e-01,-0.00196
-3.616e-01,0.00136
-3.608e-01,-0.0014
-3.600e-01,-0.00244
-3.592e-01,-0.00176
-3.584e-01,-0.00204
-3.576e-01,-0.0014
-3.568e-01,0.0012
-3.560e-01,-0.00112
-3.552e-01,-0.0014
-3.544e-01,-0.0002
-3.536e-01,0.00212
-3.528e-01,-0.00124
-3.520e-01,0.00112
-3.512e-01,-0.00136
-3.504e-01,0.00028
-3.496e-01,-0.00092
-3.488e-01,-0.00136
-3.480e-01,-0.00016
-3.472e-01,0.0008
-3.464e-01,-0.0022
-3.456e-01,-0.0008
-3.448e-01,0.001
-3.440e-01,0.0016
-3.432e-01,0.00028
-3.424e-01,0.00076
-3.416e-01,0.00136
-3.408e-01,-0.00156
-3.400e-01,-0.0018
-3.392e-01,0.00056
-3.384e-01,-0.00184
-3.376e-01,0.00084
-3.368e-01,0.00284
-3.360e-01,-0.00184
-3.352e-01,0.00032
-3.344e-01,4e-05
-3.336e-01,0
-3.328e-01,0.00128
-3.320e-01,-0.00108
-3.312e-01,-0.00176
-3.304e-01,-0.00088
-3.296e-01,0.00092
-3.288e-01,-0.00168
-3.280e-01,0.00256
-3.272e-01,-0.0028
-3.264e-01,-0.0014
-3.256e-01,-4e-05
-3.248e-01,-0.00168
-3.240e-01,0.00052
-3.232e-01,-0.0014
-3.224e-01,-0.00016
-3.216e-01,-0.00196
-3.208e-01,0.00112
-3.200e-01,0.00268
-3.192e-01,-0.00152
-3.184e-01,0.00068
-3.176e-01,0.00068
-3.168e-01,0.0016
-3.160e-01,-0.00032
-3.152e-01,0.00016
-3.144e-01,0.00252
-3.136e-01,-0.0028
-3.128e-01,0.00148
-3.120e-01,-0.00048
-3.112e-01,0.00256
-3.104e-01,-0.00144
-3.096e-01,-0.0002
-3.088e-01,0.00108
-3.080e-01,-0.00048
-3.072e-01,-0.00204
-3.064e-01,0.00028
-3.056e-01,-0.0018
-3.048e-01,0.0008
-3.040e-01,-0.00188
-3.032e-01,0.00204
-3.024e-01,-0.00236
-3.016e-01,0.00188
-3.008e-01,-0.00076
-3.000e-01,0.00024
-2.992e-01,-0.00072
-2.984e-01,-0.0004
-2.976e-01,0.00148
-2.968e-01,-0.00212
-2.960e-01,0.0008
-2.952e-01,0.00024
-2.944e-01,-0.00212
-2.936e-01,0.00088
-2.928e-01,0.00104
-2.920e-01,0.0018
-2.912e-01,-0.00072
-2.904e-01,-0.00104
-2.896e-01,-0.00204
-2.888e-01,0.00188
-2.880e-01,-0.002
-2.872e-01,0.00072
-2.864e-01,0.00204
-2.856e-01,0.00108
-2.848e-01,-0.00024
-2.840e-01,0.00252
-2.832e-01,0.00148
-2.824e-01,-0.00128
-2.816e-01,-0.00196
-2.808e-01,0.00224
-2.800e-01,0.00064
-2.792e-01,0.00108
-2.784e-01,-0.00104
-2.776e-01,-0.00184
-2.768e-01,-0.00232
-2.760e-01,-0.00012
-2.752e-01,0.00236
-2.744e-01,0.00212
-2.736e-01,0
-2.728e-01,0.00068
-2.720e-01,-0.003
-2.712e-01,0.00124
-2.704e-01,0.00108
-2.696e-01,0.00296
-2.688e-01,-0.00136
-2.680e-01,0.00076
-2.672e-01,-0.00012
-2.664e-01,-0.00092
-2.656e-01,0.00056
-2.648e-01,0.0026
-2.640e-01,0.0002
-2.632e-01,-0.0014
-2.624e-01,-0.00244
-2.616e-01,0.00152
-2.608e-01,0.0004
-2.600e-01,0.00184
-2.592e-01,0.00192
-2.584e-01,0.00156
-2.576e-01,-0.0006
-2.568e-01,0.00088
-2.560e-01,0.00048
-2.552e-01,0.0012
-2.544e-01,0.00068
-2.536e-01,-0.00028
-2.528e-01,0.00144
-2.520e-01,-0.00092
-2.512e-01,0.00052
-2.504e-01,0.00036
-2.496e-01,0.00204
-2.488e-01,-0.00092
-2.480e-01,-0.0018
-2.472e-01,0
-2.464e-01,-0.00092
-2.456e-01,0.00212
-2.448e-01,0.00104
-2.440e-01,0.00144
-2.432e-01,-0.00168
-2.424e-01,0.00208
-2.416e-01,0.00096
-2.408e-01,-0.00088
-2.400e-01,0.0018
-2.392e-01,-0.00264
-2.384e-01,0.00156
-2.376e-01,-0.00068
-2.368e-01,0.00088
-2.360e-01,0.00048
-2.352e-01,-0.00136
-2.344e-01,-0.0014
-2.336e-01,-0.00248
-2.328e-01,-0.00128
-2.320e-01,-0.00152
-2.312e-01,-0.0012
-2.304e-01,-0.00292
-2.296e-01,-0.0014
-2.288e-01,-0.00108
-2.280e-01,-0.00192
-2.272e-01,-0.00136
-2.264e-01,-0.001
-2.256e-01,0.0012
-2.248e-01,0.00324
-2.240e-01,0
-2.232e-01,0.00192
-2.224e-01,0.00052
-2.216e-01,-0.00144
-2.208e-01,0.001
-2.200e-01,-0.00068
-2.192e-01,0.00192
-2.184e-01,0.00208
-2.176e-01,-0.0014
-2.168e-01,-0.0012
-2.160e-01,0.00168
-2.152e-01,0.00028
-2.144e-01,0.00176
-2.136e-01,-0.0016
-2.128e-01,-0.0002
-2.120e-01,-0.00124
-2.112e-01,0.00076
-2.104e-01,-0.00128
-2.096e-01,-0.00108
-2.088e-01,0.00172
-2.080e-01,0.00016
-2.072e-01,0.00132
-2.064e-01,0.00084
-2.056e-01,-0.0006
-2.048e-01,-0.00032
-2.040e-01,-0.001
-2.032e-01,-0.00136
-2.024e-01,0.00176
-2.016e-01,0
-2.008e-01,0.00248
-2.000e-01,-8e-05
-1.992e-01,0.0034
-1.984e-01,-0.0008
-1.976e-01,-0.00108
-1.968e-01,-0.00128
-1.960e-01,0.00048
-1.952e-01,-0.0004
-1.944e-01,-0.00064
-1.936e-01,0.00132
-1.928e-01,0.00164
-1.920e-01,-0.00128
-1.912e-01,-0.0016
-1.904e-01,-0.0012
-1.896e-01,-0.00352
-1.888e-01,-0.00056
-1.880e-01,-8e-05
-1.872e-01,0.00064
-1.864e-01,-0.00064
-1.856e-01,0.002
-1.848e-01,-0.00024
-1.840e-01,-0.00036
-1.832e-01,0.001
-1.824e-01,0.00108
-1.816e-01,-4e-05
-1.808e-01,0.00132
-1.800e-01,0.00124
-1.792e-01,-8e-05
-1.784e-01,0.00128
-1.776e-01,0.00152
-1.768e-01,0.00312
-1.760e-01,0.00148
-1.752e-01,-0.00184
-1.744e-01,0.00104
-1.736e-01,0.00096
-1.728e-01,0.00104
-1.720e-01,-0.00016
-1.712e-01,0.00104
-1.704e-01,0
-1.696e-01,0.00016
-1.688e-01,-0.00068
-1.680e-01,0.001
-1.672e-01,0.00076
-1.664e-01,0.00132
-1.656e-01,0.00016
-1.648e-01,4e-05
-1.640e-01,0.003
-1.632e-01,0.00124
-1.624e-01,0.00152
-1.616e-01,-0.00256
-1.608e-01,0.00184
-1.600e-01,-0.00016
-1.592e-01,-0.00072
-1.584e-01,0.00076
-1.576e-01,0.00048
-1.568e-01,0.00256
-1.560e-01,-0.00012
-1.552e-01,0.00044
-1.544e-01,-0.00016
-1.536e-01,0
-1.528e-01,0.00132
-1.520e-01,-0.00168
-1.512e-01,0.00208
-1.504e-01,-0.00072
-1.496e-01,0.0002
-1.488e-01,0.00164
-1.480e-01,0.00064
-1.472e-01,0.0006
-1.464e-01,-0.00144
-1.456e-01,-0.0016
-1.448e-01,0.00216
-1.440e-01,0.00024
-1.432e-01,0.00208
-1.424e-01,-0.00016
-1.416e-01,8e-05
-1.408e-01,0.00064
-1.400e-01,0.00244
-1.392e-01,0.0008
-1.384e-01,0.00184
-1.376e-01,0.00132
-1.368e-01,-0.00188
-1.360e-01,-0.00044
-1.352e-01,0.00144
-1.344e-01,0.00132
-1.336e-01,-0.00148
-1.328e-01,0.001
-1.320e-01,-0.00148
-1.312e-01,0.0002
-1.304e-01,-0.0006
-1.296e-01,0.00212
-1.288e-01,0.00052
-1.280e-01,-0.00092
-1.272e-01,-0.00028
-1.264e-01,0.00196
-1.256e-01,-0.00132
-1.248e-01,0.00076
-1.240e-01,0.00212
-1.232e-01,0.00076
-1.224e-01,0.00104
-1.216e-01,0.0008
-1.208e-01,0.0014
-1.200e-01,-0.00096
-1.192e-01,0.00108
-1.184e-01,0.00124
-1.176e-01,0.00044
-1.168e-01,-0.0008
-1.160e-01,-0.0006
-1.152e-01,0.00208
-1.144e-01,0.00116
-1.136e-01,0.0014
-1.128e-01,0.00176
-1.120e-01,0.00208
-1.112e-01,-0.00156
-1.104e-01,0.00208
-1.096e-01,0.00056
-1.088e-01,0.00028
-1.080e-01,0.001
-1.072e-01,-0.00092
-1.064e-01,0.00068
-1.056e-01,0.00184
-1.048e-01,0.00108
-1.040e-01,0.00216
-1.032e-01,-0.00048
-1.024e-01,0.00148
-1.016e-01,0.00092
-1.008e-01,0.00024
-1.000e-01,-0.00108
-9.920e-02,0.00244
-9.840e-02,0.00188
-9.760e-02,0.0002
-9.680e-02,0.0008
-9.600e-02,0.00312
-9.520e-02,-0.00184
-9.440e-02,0.00068
-9.360e-02,0.00128
-9.280e-02,0.00216
-9.200e-02,-0.0012
-9.120e-02,-0.00188
-9.040e-02,-0.00164
-8.960e-02,0.00104
-8.880e-02,0.0012
-8.800e-02,8e-05
-8.720e-02,0.00128
-8.640e-02,0.00012
-8.560e-02,-0.00064
-8.480e-02,-0.00048
-8.400e-02,0.00252
-8.320e-02,-0.00268
-8.240e-02,0.00056
-8.160e-02,0.00224
-8.080e-02,0.0022
-8.000e-02,-0.00196
-7.920e-02,-0.00052
-7.840e-02,-0.00084
-7.760e-02,-0.00048
-7.680e-02,-0.00048
-7.600e-02,0.00216
-7.520e-02,0.00212
-7.440e-02,-0.00016
-7.360e-02,0.00136
-7.280e-02,0.003
-7.200e-02,-0.00028
-7.120e-02,-0.00056
-7.040e-02,-0.00228
-6.960e-02,0.00212
-6.880e-02,0.00152
-6.800e-02,0.00212
-6.720e-02,-0.00076
-6.640e-02,0.0014
-6.560e-02,-0.00168
-6.480e-02,0.00036
-6.400e-02,0.00216
-6.320e-02,0.0004
-6.240e-02,-0.00088
-6.160e-02,0.0016
-6.080e-02,0.00216
-6.000e-02,-0.00108
-5.920e-02,-0.00224
-5.840e-02,-0.00092
-5.760e-02,-0.00148
-5.680e-02,-0.00056
-5.600e-02,0.00132
-5.520e-02,-0.00148
-5.440e-02,-0.0012
-5.360e-02,0.00168
-5.280e-02,-0.00028
-5.200e-02,0.00104
-5.120e-02,0.00292
-5.040e-02,0.00152
-4.960e-02,0.00164
-4.880e-02,-0.00088
-4.800e-02,-0.00088
-4.720e-02,-0.00076
-4.640e-02,0.00048
-4.560e-02,0.0002
-4.480e-02,-0.00128
-4.400e-02,0.00168
-4.320e-02,-0.00096
-4.240e-02,-0.00188
-4.160e-02,0.00096
-4.080e-02,0.0032
-4.000e-02,0.00272
-3.920e-02,-4e-05
-3.840e-02,0.00224
-3.760e-02,-0.0004
-3.680e-02,-0.0002
-3.600e-02,-0.00136
-3.520e-02,0.0016
-3.440e-02,-0.00168
-3.360e-02,0.002
-3.280e-02,0.00296
-3.200e-02,0.00228
-3.120e-02,-0.00012
-3.040e-02,-0.00136
-2.960e-02,0
-2.880e-02,-0.002
-2.800e-02,0.0018
-2.720e-02,-0.00116
-2.640e-02,-0.00012
-2.560e-02,0.00212
-2.480e-02,-0.0008
-2.400e-02,-0.00104
-2.320e-02,-0.00264
-2.240e-02,0.00016
-2.160e-02,0
-2.080e-02,-0.0006
-2.000e-02,0.00132
-1.920e-02,0.0028
-1.840e-02,0.00092
-1.760e-02,-0.00128
-1.680e-02,0.00208
-1.600e-02,0.00276
-1.520e-02,0.00252
-1.440e-02,-0.00044
-1.360e-02,-0.00044
-1.280e-02,-0.00128
-1.200e-02,-0.00108
-1.120e-02,0.00168
-1.040e-02,0.00216
-9.600e-03,0.00236
-8.800e-03,0.00152
-8.000e-03,-0.0016
-7.200e-03,-0.00088
-6.400e-03,-0.00048
-5.600e-03,0.00236
-4.800e-03,-0.00172
-4.000e-03,-0.00028
-3.200e-03,-4e-05
-2.400e-03,-0.00136
-1.600e-03,0.00192
-8.000e-04,0.00108
1.440e-14,0.00124
8.000e-04,-0.001
1.600e-03,-0.00072
2.400e-03,-0.00056
3.200e-03,-0.0016
4.000e-03,0.00336
4.800e-03,0.00168
5.600e-03,-0.00116
6.400e-03,-0.0004
7.200e-03,0.00064
8.000e-03,4e-05
8.800e-03,-0.00128
9.600e-03,-0.00064
1.040e-02,-0.00224
1.120e-02,0.00204
1.200e-02,-0.0006
1.280e-02,0.00048
1.360e-02,0.00192
1.440e-02,-0.00188
1.520e-02,0.00208
1.600e-02,0.00204
1.680e-02,-0.00136
1.760e-02,-0.0002
1.840e-02,0.00116
1.920e-02,0.00028
2.000e-02,0.00156
2.080e-02,-0.00128
2.160e-02,0.00156
2.240e-02,0.00292
2.320e-02,0.00296
2.400e-02,0.00124
2.480e-02,0.00156
2.560e-02,-0.00012
2.640e-02,0.00268
2.720e-02,-0.001
2.800e-02,0.00064
2.880e-02,-0.00148
2.960e-02,-0.00156
3.040e-02,0.00224
3.120e-02,0.0004
3.200e-02,0.00072
3.280e-02,-0.0018
3.360e-02,0.00096
3.440e-02,0.00176
3.520e-02,-0.00124
3.600e-02,-0.0006
