data/PSU_noise/PSU2_CC2_0A_100ms.CSV

Model,TBS1102C
Firmware Version,v2015-08-04-prequal4ch70_v1.3

Point Format,Y
Horizontal Units,S
Horizontal Scale,0.1
Sample Interval,0.0008
Filter Frequency,2e+08
Record Length,2000
Gating,0.0% to 100.0%
Probe Attenuation,1
Vertical Units,V
Vertical Offset,0
Vertical Scale,0.001
Label,
TIME,CH1
-7.904e-01,-0.00056
-7.896e-01,0.00144
-7.888e-01,0.0002
-7.880e-01,-0.00228
-7.872e-01,0.0004
-7.864e-01,0.00076
-7.856e-01,0.0006
-7.848e-01,-0.00052
-7.840e-01,0.00032
-7.832e-01,0.0008
-7.824e-01,-0.00104
-7.816e-01,0.00196
-7.808e-01,-0.00028
-7.800e-01,-0.00044
-7.792e-01,-0.00096
-7.784e-01,0.00196
-7.776e-01,-0.00032
-7.768e-01,-0.00128
-7.760e-01,-0.00148
-7.752e-01,-0.00032
-7.744e-01,0.00168
-7.736e-01,-0.00128
-7.728e-01,0.00024
-7.720e-01,-0.0002
-7.712e-01,-0.00168
-7.704e-01,-0.0016
-7.696e-01,0.00068
-7.688e-01,0.00104
-7.680e-01,0.0002
-7.672e-01,0.0012
-7.664e-01,0.0014
-7.656e-01,-0.00032
-7.648e-01,0.00028
-7.640e-01,-0.00072
-7.632e-01,-0.00036
-7.624e-01,0.00196
-7.616e-01,-0.00016
-7.608e-01,0.00088
-7.600e-01,0.0016
-7.592e-01,-0.00152
-7.584e-01,0.0022
-7.576e-01,0.00152
-7.568e-01,0.0002
-7.560e-01,-0.00116
-7.552e-01,-0.00028
-7.544e-01,0.00208
-7.536e-01,-0.00228
-7.528e-01,0.00144
-7.520e-01,-0.00104
-7.512e-01,-0.00068
-7.504e-01,0.0008
-7.496e-01,-0.0002
-7.488e-01,-0.00064
-7.480e-01,0.00048
-7.472e-01,-0.0024
-7.464e-01,0.00012
-7.456e-01,0.0008
-7.448e-01,0.0006
-7.440e-01,0.00096
-7.432e-01,0.00124
-7.424e-01,-0.00176
-7.416e-01,-0.00172
-7.408e-01,4e-05
-7.400e-01,0.001
-7.392e-01,0.0016
-7.384e-01,-0.0014
-7.376e-01,-0.00052
-7.368e-01,-0.00044
-7.360e-01,-0.00068
-7.352e-01,0.00188
-7.344e-01,0.00148
-7.336e-01,-0.00116
-7.328e-01,0.00028
-7.320e-01,-0.00088
-7.312e-01,0.00068
-7.304e-01,0.0022
-7.296e-01,0.0012
-7.288e-01,0.00048
-7.280e-01,0.00016
-7.272e-01,-0.0006
-7.264e-01,0.00104
-7.256e-01,0.00124
-7.248e-01,0.0008
-7.240e-01,0.00056
-7.232e-01,0
-7.224e-01,-0.00032
-7.216e-01,-0.00028
-7.208e-01,0.00168
-7.200e-01,0.00048
-7.192e-01,-0.0008
-7.184e-01,0.00176
-7.176e-01,0.0012
-7.168e-01,-0.00044
-7.160e-01,-0.00168
-7.152e-01,0
-7.144e-01,0.00092
-7.136e-01,-0.0022
-7.128e-01,0.0024
-7.120e-01,0.00252
-7.112e-01,-0.00092
-7.104e-01,0.00104
-7.096e-01,-0.001
-7.088e-01,-0.00144
-7.080e-01,0.00124
-7.072e-01,-0.00112
-7.064e-01,-0.00124
-7.056e-01,-0.00244
-7.048e-01,-0.00152
-7.040e-01,4e-05
-7.032e-01,-0.0004
-7.024e-01,0.00124
-7.016e-01,-0.00012
-7.008e-01,0.00164
-7.000e-01,-0.00208
-6.992e-01,-0.00096
-6.984e-01,-0.00164
-6.976e-01,0.00256
-6.968e-01,-0.00052
-6.960e-01,-0.00124
-6.952e-01,-0.00012
-6.944e-01,0.00044
-6.936e-01,-0.0004
-6.928e-01,-0.00084
-6.920e-01,0.00044
-6.912e-01,-0.00216
-6.904e-01,0.00156
-6.896e-01,0.00048
-6.888e-01,0.00156
-6.880e-01,0.0016
-6.872e-01,-0.00116
-6.864e-01,0.0012
-6.856e-01,-0.00136
-6.848e-01,0.00128
-6.840e-01,0.00152
-6.832e-01,0.00184
-6.824e-01,-0.00036
-6.816e-01,-0.00024
-6.808e-01,-0.00144
-6.800e-01,-0.00152
-6.792e-01,0.00092
-6.784e-01,-0.00148
-6.776e-01,-0.0004
-6.768e-01,0.00132
-6.760e-01,-0.0002
-6.752e-01,-0.00108
-6.744e-01,-0.00116
-6.736e-01,-0.00128
-6.728e-01,-0.00116
-6.720e-01,-0.00164
-6.712e-01,-0.00184
-6.704e-01,0.00068
-6.696e-01,0.00144
-6.688e-01,-0.00152
-6.680e-01,-0.0014
-6.672e-01,4e-05
-6.664e-01,0.0008
-6.656e-01,-0.00108
-6.648e-01,0.00156
-6.640e-01,0.00204
-6.632e-01,0.0008
-6.624e-01,-0.00132
-6.616e-01,-0.00096
-6.608e-01,-0.00176
-6.600e-01,0.0006
-6.592e-01,-0.00208
-6.584e-01,0.00196
-6.576e-01,-0.00084
-6.568e-01,0.0008
-6.560e-01,0.00024
-6.552e-01,0.00208
-6.544e-01,0.0014
-6.536e-01,-0.00064
-6.528e-01,0.00012
-6.520e-01,-0.00148
-6.512e-01,8e-05
-6.504e-01,0.00132
-6.496e-01,-0.00032
-6.488e-01,0.00196
-6.480e-01,0.00088
-6.472e-01,-0.00104
-6.464e-01,-0.00072
-6.456e-01,-0.00132
-6.448e-01,0.00028
-6.440e-01,0.00028
-6.432e-01,-0.00148
-6.424e-01,0.0006
-6.416e-01,-0.0014
-6.408e-01,0.00144
-6.400e-01,-0.0012
-6.392e-01,-0.00096
-6.384e-01,-0.0016
-6.376e-01,-0.00164
-6.368e-01,0.0008
-6.360e-01,0.00092
-6.352e-01,-0.00208
-6.344e-01,-0.00136
-6.336e-01,-0.00172
-6.328e-01,0.00076
-6.320e-01,0.0004
-6.312e-01,-0.00032
-6.304e-01,-0.00148
-6.296e-01,0.0014
-6.288e-01,0.00116
-6.280e-01,-0.0006
-6.272e-01,-0.00048
-6.264e-01,-0.0002
-6.256e-01,0.00192
-6.248e-01,0.001
-6.240e-01,0.00196
-6.232e-01,-0.00172
-6.224e-01,0.00196
-6.216e-01,0.00056
-6.208e-01,0.0002
-6.200e-01,0.00088
-6.192e-01,-0.00056
-6.184e-01,0.00136
-6.176e-01,0.0018
-6.168e-01,-0.00032
-6.160e-01,-0.00048
-6.152e-01,-0.00068
-6.144e-01,-0.00064
-6.136e-01,-0.00148
-6.128e-01,-0.00064
-6.120e-01,0.00084
-6.112e-01,-0.00024
-6.104e-01,0.00044
-6.096e-01,0.00068
-6.088e-01,4e-05
-6.080e-01,0.00188
-6.072e-01,-0.00136
-6.064e-01,0.00084
-6.056e-01,-0.00212
-6.048e-01,-0.00104
-6.040e-01,0.00128
-6.032e-01,0.00056
-6.024e-01,-0.00132
-6.016e-01,0.00064
-6.008e-01,-4e-05
-6.000e-01,-0.00044
-5.992e-01,0.00132
-5.984e-01,-0.00052
-5.976e-01,0.00036
-5.968e-01,0.00184
-5.960e-01,0.0008
-5.952e-01,-0.00144
-5.944e-01,-0.00048
-5.936e-01,0.0018
-5.928e-01,0.00212
-5.920e-01,0.00096
-5.912e-01,0.00012
-5.904e-01,-0.00092
-5.896e-01,0.00024
-5.888e-01,0.00192
-5.880e-01,-0.00148
-5.872e-01,-0.0006
-5.864e-01,-0.00152
-5.856e-01,0.0008
-5.848e-01,-0.00076
-5.840e-01,0.00136
-5.832e-01,-0.00028
-5.824e-01,-0.00176
-5.816e-01,-0.00176
-5.808e-01,0.00092
-5.800e-01,-0.0006
-5.792e-01,0.0002
-5.784e-01,0.00248
-5.776e-01,-0.00112
-5.768e-01,0.00028
-5.760e-01,8e-05
-5.752e-01,0.00044
-5.744e-01,0.00044
-5.736e-01,0
-5.728e-01,-0.0018
-5.720e-01,0
-5.712e-01,0.00056
-5.704e-01,-0.00036
-5.696e-01,-0.00096
-5.688e-01,0.00128
-5.680e-01,-0.00024
-5.672e-01,-0.0018
-5.664e-01,-0.00028
-5.656e-01,-0.00164
-5.648e-01,-0.0014
-5.640e-01,-0.00044
-5.632e-01,0.00032
-5.624e-01,8e-05
-5.616e-01,0.0002
-5.608e-01,0.00144
-5.600e-01,-0.00048
-5.592e-01,-0.00044
-5.584e-01,0.00108
-5.576e-01,-0.00024
-5.568e-01,-0.0002
-5.560e-01,8e-05
-5.552e-01,-0.0004
-5.544e-01,-0.00052
-5.536e-01,0.00116
-5.528e-01,0.00148
-5.520e-01,-0.0008
-5.512e-01,0.00164
-5.504e-01,0.00088
-5.496e-01,0.0008
-5.488e-01,0.00156
-5.480e-01,-0.0004
-5.472e-01,4e-05
-5.464e-01,-0.00036
-5.456e-01,-0.00064
-5.448e-01,0.00028
-5.440e-01,0.00036
-5.432e-01,0.00064
-5.424e-01,0.00072
-5.416e-01,-0.00116
-5.408e-01,0.0012
-5.400e-01,-0.00148
-5.392e-01,-8e-05
-5.384e-01,0.00172
-5.376e-01,-0.00024
-5.368e-01,0.0014
-5.360e-01,0.00164
-5.352e-01,0.00128
-5.344e-01,0.00024
-5.336e-01,0.00124
-5.328e-01,-0.00056
-5.320e-01,-0.00132
-5.312e-01,-0.002
-5.304e-01,-0.00148
-5.296e-01,0.0012
-5.288e-01,8e-05
-5.280e-01,0.00072
-5.272e-01,-0.0018
-5.264e-01,-0.0002
-5.256e-01,0.00076
-5.248e-01,-0.00056
-5.240e-01,0.00016
-5.232e-01,-0.00076
-5.224e-01,0.00016
-5.216e-01,0.00188
-5.208e-01,0.00088
-5.200e-01,0.00064
-5.192e-01,-0.00152
-5.184e-01,0
-5.176e-01,0.00108
-5.168e-01,-0.00048
-5.160e-01,0.00156
-5.152e-01,0.00092
-5.144e-01,-0.00096
-5.136e-01,0.00224
-5.128e-01,-4e-05
-5.120e-01,0.001
-5.112e-01,-0.00016
-5.104e-01,0.0012
-5.096e-01,0.00132
-5.088e-01,0.00088
-5.080e-01,0.00028
-5.072e-01,0.00208
-5.064e-01,0.00132
-5.056e-01,0.0022
-5.048e-01,0.0002
-5.040e-01,-4e-05
-5.032e-01,-0.00032
-5.024e-01,-0.00116
-5.016e-01,-0.00092
-5.008e-01,0.00188
-5.000e-01,0.00044
-4.992e-01,0.00072
-4.984e-01,-0.00132
-4.976e-01,-0.00084
-4.968e-01,-0.00068
-4.960e-01,0.0006
-4.952e-01,-0.00016
-4.944e-01,-0.00068
-4.936e-01,0.0006
-4.928e-01,-8e-05
-4.920e-01,-0.0002
-4.912e-01,0.00176
-4.904e-01,0.0018
-4.896e-01,0.0002
-4.888e-01,8e-05
-4.880e-01,-0.00084
-4.872e-01,-0.0016
-4.864e-01,0.00092
-4.856e-01,0.0024
-4.848e-01,-0.00016
-4.840e-01,0.0008
-4.832e-01,-0.0012
-4.824e-01,-0.001
-4.816e-01,0.00128
-4.808e-01,0.0008
-4.800e-01,0.00124
-4.792e-01,0.00044
-4.784e-01,-0.0016
-4.776e-01,-0.00116
-4.768e-01,-8e-05
-4.760e-01,0.00176
-4.752e-01,0.00076
-4.744e-01,-0.00096
-4.736e-01,-0.0002
-4.728e-01,0.0014
-4.720e-01,0.00072
-4.712e-01,-0.00076
-4.704e-01,-0.001
-4.696e-01,0.0012
-4.688e-01,0.00164
-4.680e-01,0.00088
-4.672e-01,-0.00212
-4.664e-01,-0.0006
-4.656e-01,0.00096
-4.648e-01,-0.0004
-4.640e-01,0.001
-4.632e-01,-0.00076
-4.624e-01,-0.00032
-4.616e-01,-0.0006
-4.608e-01,-0.00052
-4.600e-01,0.00056
-4.592e-01,0.0002
-4.584e-01,0.00032
-4.576e-01,-0.0006
-4.568e-01,0.00012
-4.560e-01,-0.00072
-4.552e-01,0.00184
-4.544e-01,-0.00092
-4.536e-01,0.00148
-4.528e-01,-0.001
-4.520e-01,0.00108
-4.512e-01,0.0018
-4.504e-01,0.00068
-4.496e-01,0
-4.488e-01,0.00144
-4.480e-01,0.00124
-4.472e-01,-0.00096
-4.464e-01,0.00072
-4.456e-01,4e-05
-4.448e-01,0.00148
-4.440e-01,-0.00044
-4.432e-01,-0.00036
-4.424e-01,0.00164
-4.416e-01,-0.00072
-4.408e-01,0.00148
-4.400e-01,0.00032
-4.392e-01,0.00028
-4.384e-01,0.00012
-4.376e-01,-4e-05
-4.368e-01,-0.00056
-4.360e-01,0.00092
-4.352e-01,-0.0012
-4.344e-01,0.00184
-4.336e-01,-0.0006
-4.328e-01,-0.00108
-4.320e-01,-0.0008
-4.312e-01,0.0008
-4.304e-01,0.0008
-4.296e-01,0.00016
-4.288e-01,0.00032
-4.280e-01,0.00088
-4.272e-01,-0.00052
-4.264e-01,0.0012
-4.256e-01,0.00128
-4.248e-01,-0.0002
-4.240e-01,0.00088
-4.232e-01,0.00168
-4.224e-01,0
-4.216e-01,0.00068
-4.208e-01,-0.00136
-4.200e-01,-0.001
-4.192e-01,-0.0014
-4.184e-01,0.00192
-4.176e-01,-0.00172
-4.168e-01,-0.00052
-4.160e-01,-0.0004
-4.152e-01,4e-05
-4.144e-01,0.00112
-4.136e-01,-0.00032
-4.128e-01,0.00076
-4.120e-01,0.00028
-4.112e-01,0.00064
-4.104e-01,-0.00144
-4.096e-01,-0.00056
-4.088e-01,-0.0006
-4.080e-01,0.00088
-4.072e-01,0.00044
-4.064e-01,0.00044
-4.056e-01,-0.00176
-4.048e-01,0.00088
-4.040e-01,-0.00076
-4.032e-01,0.00064
-4.024e-01,0.00092
-4.016e-01,-0.00124
-4.008e-01,-0.0002
-4.000e-01,0.00136
-3.992e-01,-0.00084
-3.984e-01,0.00152
-3.976e-01,0.00104
-3.968e-01,-0.00108
-3.960e-01,-0.00016
-3.952e-01,-0.00028
-3.944e-01,-0.00208
-3.936e-01,-0.00084
-3.928e-01,-0.00132
-3.920e-01,0.00024
-3.912e-01,-0.00116
-3.904e-01,-0.00128
-3.896e-01,4e-05
-3.888e-01,-0.00144
-3.880e-01,0.00204
-3.872e-01,-0.00128
-3.864e-01,-0.00024
-3.856e-01,-0.00132
-3.848e-01,0.00132
-3.840e-01,0.00108
-3.832e-01,-0.0016
-3.824e-01,0.00108
-3.816e-01,0.0006
-3.808e-01,0.00052
-3.800e-01,0.00096
-3.792e-01,0.00032
-3.784e-01,0.0008
-3.776e-01,-0.00056
-3.768e-01,0.0016
-3.760e-01,-0.00112
-3.752e-01,0.00128
-3.744e-01,0.00024
-3.736e-01,0.00012
-3.728e-01,-0.00112
-3.720e-01,0.0016
-3.712e-01,-0.00016
-3.704e-01,-0.0014
-3.696e-01,0.00136
-3.688e-01,0.00104
-3.680e-01,-0.00068
-3.672e-01,0.0002
-3.664e-01,0.00148
-3.656e-01,-0.00208
-3.648e-01,4e-05
-3.640e-01,-0.00012
-3.632e-01,0
-3.624e-01,-0.00112
-3.616e-01,0.00184
-3.608e-01,0
-3.600e-01,-0.00028
-3.592e-01,-0.00112
-3.584e-01,0.00096
-3.576e-01,-0.0022
-3.568e-01,0.00052
-3.560e-01,-0.00128
-3.552e-01,0.0002
-3.544e-01,0
-3.536e-01,-0.00172
-3.528e-01,-0.00196
-3.520e-01,0.00052
-3.512e-01,0.00024
-3.504e-01,-0.00056
-3.496e-01,0.0004
-3.488e-01,-0.00012
-3.480e-01,-0.00032
-3.472e-01,-0.00132
-3.464e-01,-0.00076
-3.456e-01,0.00068
-3.448e-01,0.00044
-3.440e-01,0.00096
-3.432e-01,0.00076
-3.424e-01,-0.0026
-3.416e-01,0.0008
-3.408e-01,0.0024
-3.400e-01,-0.00028
-3.392e-01,-0.0016
-3.384e-01,-0.00128
-3.376e-01,0.00156
-3.368e-01,0.0004
-3.360e-01,-0.00064
-3.352e-01,-0.00028
-3.344e-01,-4e-05
-3.336e-01,0.00044
-3.328e-01,0.00088
-3.320e-01,0.00176
-3.312e-01,-0.00092
-3.304e-01,0.0002
-3.296e-01,-0.00116
-3.288e-01,-0.0026
-3.280e-01,0.00064
-3.272e-01,-0.00144
-3.264e-01,0.00108
-3.256e-01,0.00168
-3.248e-01,0.00024
-3.240e-01,0.0002
-3.232e-01,0.00084
-3.224e-01,8e-05
-3.216e-01,-0.00112
-3.208e-01,-0.00048
-3.200e-01,0.0006
-3.192e-01,-0.00112
-3.184e-01,0.0004
-3.176e-01,-0.00044
-3.168e-01,-0.00064
-3.160e-01,-0.00052
-3.152e-01,0.00148
-3.144e-01,0.0014
-3.136e-01,-0.0002
-3.128e-01,0.00124
-3.120e-01,0.00088
-3.112e-01,0.00084
-3.104e-01,0.00084
-3.096e-01,0.00116
-3.088e-01,-0.00128
-3.080e-01,-0.00104
-3.072e-01,0.00132
-3.064e-01,0.00184
-3.056e-01,0.00104
-3.048e-01,-0.00124
-3.040e-01,0.00096
-3.032e-01,0.00096
-3.024e-01,0
-3.016e-01,0.00056
-3.008e-01,-0.00088
-3.000e-01,0.00088
-2.992e-01,-4e-05
-2.984e-01,-0.00112
-2.976e-01,-0.00084
-2.968e-01,-0.00248
-2.960e-01,0.00124
-2.952e-01,-0.0002
-2.944e-01,0.00104
-2.936e-01,-0.00064
-2.928e-01,0.00124
-2.920e-01,-0.00104
-2.912e-01,0.0008
-2.904e-01,0.00124
-2.896e-01,-0.00084
-2.888e-01,0.0008
-2.880e-01,0.00148
-2.872e-01,0.00024
-2.864e-01,-0.00012
-2.856e-01,-0.00052
-2.848e-01,0.00152
-2.840e-01,0.00172
-2.832e-01,0.00132
-2.824e-01,0.00048
-2.816e-01,-0.00168
-2.808e-01,0.00032
-2.800e-01,-0.00128
-2.792e-01,-0.00084
-2.784e-01,-0.0006
-2.776e-01,0.00132
-2.768e-01,-0.00112
-2.760e-01,0.0008
-2.752e-01,0.0002
-2.744e-01,-0.00116
-2.736e-01,0.00028
-2.728e-01,0.00068
-2.720e-01,-0.00108
-2.712e-01,0.0004
-2.704e-01,-0.00024
-2.696e-01,0.00188
-2.688e-01,0.00124
-2.680e-01,-0.00012
-2.672e-01,0.00056
-2.664e-01,0.00176
-2.656e-01,0.00104
-2.648e-01,-0.00044
-2.640e-01,0.00132
-2.632e-01,0.00244
-2.624e-01,0.00032
-2.616e-01,0.0004
-2.608e-01,-0.00136
-2.600e-01,-0.00152
-2.592e-01,0.00136
-2.584e-01,4e-05
-2.576e-01,0.00128
-2.568e-01,0.00032
-2.560e-01,0.00116
-2.552e-01,-0.0014
-2.544e-01,-0.00204
-2.536e-01,0.00108
-2.528e-01,0.00128
-2.520e-01,-0.00136
-2.512e-01,0.00156
-2.504e-01,0.00088
-2.496e-01,-0.00088
-2.488e-01,-0.00168
-2.480e-01,-0.00032
-2.472e-01,-0.00096
-2.464e-01,0.00092
-2.456e-01,0.00012
-2.448e-01,-0.0004
-2.440e-01,-8e-05
-2.432e-01,-0.00032
-2.424e-01,0.00036
-2.416e-01,0.0024
-2.408e-01,-0.00132
-2.400e-01,0.001
-2.392e-01,-0.00036
-2.384e-01,-0.0012
-2.376e-01,0.00088
-2.368e-01,0.00016
-2.360e-01,0.00108
-2.352e-01,0.00068
-2.344e-01,-0.00084
-2.336e-01,0.00052
-2.328e-01,0.00228
-2.320e-01,0.00092
-2.312e-01,-0.00076
-2.304e-01,0.00148
-2.296e-01,0.00052
-2.288e-01,0.00028
-2.280e-01,-0.00012
-2.272e-01,-0.00028
-2.264e-01,0.00252
-2.256e-01,0.00128
-2.248e-01,-0.00096
-2.240e-01,0.00084
-2.232e-01,-0.00176
-2.224e-01,0.0002
-2.216e-01,0.00056
-2.208e-01,0.00128
-2.200e-01,-0.00108
-2.192e-01,-0.0008
-2.184e-01,0.00104
-2.176e-01,-0.00012
-2.168e-01,-0.00172
-2.160e-01,-0.00056
-2.152e-01,-0.001
-2.144e-01,0.00072
-2.136e-01,-0.00032
-2.128e-01,-0.00108
-2.120e-01,-0.00168
-2.112e-01,0.0018
-2.104e-01,0.001
-2.096e-01,-0.001
-2.088e-01,0.00156
-2.080e-01,0.00128
-2.072e-01,0.00156
-2.064e-01,0.00024
-2.056e-01,0.00132
-2.048e-01,0.00056
-2.040e-01,-8e-05
-2.032e-01,-0.0016
-2.024e-01,-0.0002
-2.016e-01,-0.00128
-2.008e-01,-0.00152
-2.000e-01,8e-05
-1.992e-01,0.00032
-1.984e-01,-0.00028
-1.976e-01,0.00012
-1.968e-01,-0.00232
-1.960e-01,0.00156
-1.952e-01,0.00132
-1.944e-01,-0.00036
-1.936e-01,0.00028
-1.928e-01,0.00056
-1.920e-01,-0.00112
-1.912e-01,-8e-05
-1.904e-01,0
-1.896e-01,-0.00016
-1.888e-01,0.00168
-1.880e-01,-0.0008
-1.872e-01,-0.0006
-1.864e-01,0.00168
-1.856e-01,0.00044
-1.848e-01,0.00072
-1.840e-01,-0.00052
-1.832e-01,-0.00064
-1.824e-01,0
-1.816e-01,-0.00136
-1.808e-01,0.00096
-1.800e-01,-0.00044
-1.792e-01,0.00128
-1.784e-01,0.00156
-1.776e-01,-0.00128
-1.768e-01,0.0002
-1.760e-01,0.00108
-1.752e-01,0.00056
-1.744e-01,0.00152
-1.736e-01,0.00016
-1.728e-01,-0.00016
-1.720e-01,-0.0012
-1.712e-01,0.0006
-1.704e-01,-0.00084
-1.696e-01,-0.00108
-1.688e-01,-0.00048
-1.680e-01,0.00048
-1.672e-01,-0.00116
-1.664e-01,-0.00072
-1.656e-01,0.00064
-1.648e-01,-0.00124
-1.640e-01,0.0012
-1.632e-01,0.00128
-1.624e-01,-0.0006
-1.616e-01,0.00052
-1.608e-01,0.00056
-1.600e-01,0.002
-1.592e-01,-0.00076
-1.584e-01,-0.00044
-1.576e-01,0.00012
-1.568e-01,-0.00172
-1.560e-01,0.0018
-1.552e-01,-0.00064
-1.544e-01,0.00172
-1.536e-01,-0.00132
-1.528e-01,0.00196
-1.520e-01,-0.00024
-1.512e-01,0.00192
-1.504e-01,0.00024
-1.496e-01,0.00096
-1.488e-01,0.001
-1.480e-01,0.00088
-1.472e-01,4e-05
-1.464e-01,-0.0016
-1.456e-01,0.00156
-1.448e-01,0.00028
-1.440e-01,-0.00128
-1.432e-01,0.00124
-1.424e-01,0.00036
-1.416e-01,-0.00032
-1.408e-01,0.00016
-1.400e-01,-0.00048
-1.392e-01,0.00092
-1.384e-01,-0.00092
-1.376e-01,0.00164
-1.368e-01,0.00096
-1.360e-01,-0.00068
-1.352e-01,-0.00148
-1.344e-01,0.0002
-1.336e-01,0.00048
-1.328e-01,0.00056
-1.320e-01,0.00112
-1.312e-01,0.00136
-1.304e-01,0.0004
-1.296e-01,0.00168
-1.288e-01,0.00192
-1.280e-01,0.00052
-1.272e-01,-0.00152
-1.264e-01,-0.00052
-1.256e-01,0.0002
-1.248e-01,0.00092
-1.240e-01,-0.00088
-1.232e-01,0.00088
-1.224e-01,-0.00072
-1.216e-01,0.001
-1.208e-01,-0.001
-1.200e-01,-0.0004
-1.192e-01,0.00136
-1.184e-01,0.00148
-1.176e-01,0.002
-1.168e-01,0.00228
-1.160e-01,0.00072
-1.152e-01,-0.00048
-1.144e-01,-0.00092
-1.136e-01,0.00036
-1.128e-01,0.0002
-1.120e-01,-0.00076
-1.112e-01,-0.00056
-1.104e-01,4e-05
-1.096e-01,0.00032
-1.088e-01,0.00016
-1.080e-01,-0.00076
-1.072e-01,0.0012
-1.064e-01,0.00152
-1.056e-01,-0.00088
-1.048e-01,-0.00036
-1.040e-01,0.00076
-1.032e-01,0.00048
-1.024e-01,0.00176
-1.016e-01,-0.00088
-1.008e-01,0.00052
-1.000e-01,0.00048
-9.920e-02,-0.00036
-9.840e-02,0.00076
-9.760e-02,-0.0006
-9.680e-02,4e-05
-9.600e-02,0.00232
-9.520e-02,0.00044
-9.440e-02,-0.00112
-9.360e-02,-0.0004
-9.280e-02,0.00072
-9.200e-02,-0.00088
-9.120e-02,-0.00048
-9.040e-02,0.0012
-8.960e-02,-0.00104
-8.880e-02,-0.00068
-8.800e-02,-0.00124
-8.720e-02,0.0002
-8.640e-02,4e-05
-8.560e-02,0.00072
-8.480e-02,-0.00212
-8.400e-02,-0.00164
-8.320e-02,-0.00044
-8.240e-02,-0.00088
-8.160e-02,-0.00044
-8.080e-02,0.00064
-8.000e-02,0.0002
-7.920e-02,-0.00244
-7.840e-02,0.00116
-7.760e-02,-0.00204
-7.680e-02,0.0006
-7.600e-02,-0.00012
-7.520e-02,0.00092
-7.440e-02,0.00164
-7.360e-02,0.00044
-7.280e-02,0.00188
-7.200e-02,-0.00044
-7.120e-02,0.00208
-7.040e-02,0.00132
-6.960e-02,0.00184
-6.880e-02,-0.00068
-6.800e-02,-0.001
-6.720e-02,0.00168
-6.640e-02,0.00248
-6.560e-02,-0.0002
-6.480e-02,-0.001
-6.400e-02,-0.00188
-6.320e-02,0.00064
-6.240e-02,0.00072
-6.160e-02,-0.001
-6.080e-02,0.00048
-6.000e-02,0.0002
-5.920e-02,0.00016
-5.840e-02,-0.00084
-5.760e-02,0.00092
-5.680e-02,-0.00092
-5.600e-02,0.0012
-5.520e-02,-0.00048
-5.440e-02,0.00164
-5.360e-02,-0.00136
-5.280e-02,4e-05
-5.200e-02,0.00116
-5.120e-02,-0.00012
-5.040e-02,-0.00048
-4.960e-02,0.00192
-4.880e-02,-0.00116
-4.800e-02,-0.00128
-4.720e-02,-0.00124
-4.640e-02,-0.0012
-4.560e-02,0.001
-4.480e-02,0.00152
-4.400e-02,0.00112
-4.320e-02,-0.00016
-4.240e-02,0.00156
-4.160e-02,0.00112
-4.080e-02,-0.00116
-4.000e-02,0.00144
-3.920e-02,0.0012
-3.840e-02,0.00108
-3.760e-02,0.00104
-3.680e-02,0.00024
-3.600e-02,0.0002
-3.520e-02,-0.00064
-3.440e-02,0.00104
-3.360e-02,-0.00112
-3.280e-02,0.00088
-3.200e-02,-0.00072
-3.120e-02,0.00076
-3.040e-02,0.00156
-2.960e-02,-0.00032
-2.880e-02,-0.00052
-2.800e-02,-0.00208
-2.720e-02,0.00068
-2.640e-02,0.0004
-2.560e-02,-0.00012
-2.480e-02,-0.00016
-2.400e-02,0.00088
-2.320e-02,0.00032
-2.240e-02,0.00112
-2.160e-02,0.00024
-2.080e-02,0.00048
-2.000e-02,-0.00116
-1.920e-02,0.0002
-1.840e-02,-0.0002
-1.760e-02,0.00088
-1.680e-02,0.00096
-1.600e-02,-0.00068
-1.520e-02,4e-05
-1.440e-02,-0.00064
-1.360e-02,-4e-05
-1.280e-02,0.00076
-1.200e-02,0
-1.120e-02,0.00124
-1.040e-02,0.00104
-9.600e-03,0.00044
-8.800e-03,-0.00092
-8.000e-03,0.00096
-7.200e-03,0.00124
-6.400e-03,0.0008
-5.600e-03,-0.00032
-4.800e-03,-0.00112
-4.000e-03,0.00168
-3.200e-03,-0.0004
-2.400e-03,0.00064
-1.600e-03,-0.00108
-8.000e-04,0.00156
1.440e-14,-0.00152
8.000e-04,-0.00104
1.600e-03,0.00076
2.400e-03,-0.00044
3.200e-03,0.00068
4.000e-03,0.00052
4.800e-03,-0.0016
5.600e-03,0.00028
6.400e-03,0.00104
7.200e-03,0.00096
8.000e-03,0.00116
8.800e-03,-0.00096
9.600e-03,0.00032
1.040e-02,0.00148
1.120e-02,0.00068
1.200e-02,-0.0008
1.280e-02,-0.00064
1.360e-02,0.00048
1.440e-02,-0.00084
1.520e-02,0.0008
1.600e-02,-0.00056
1.680e-02,0.0012
1.760e-02,-0.00172
1.840e-02,0.00044
1.920e-02,0.00048
2.000e-02,-0.0012
2.080e-02,0.00012
2.160e-02,-0.00084
2.240e-02,-0.0012
2.320e-02,0.001
2.400e-02,-0.00088
2.480e-02,-0.001
2.560e-02,-0.00148
2.640e-02,-0.0004
2.720e-02,-0.00112
2.800e-02,0.00148
2.880e-02,0.0012
2.960e-02,-0.0014
3.040e-02,-0.00012
3.120e-02,-8e-05
3.200e-02,-0.00104
3.280e-02,0.00148
3.360e-02,-0.00108
3.440e-02,-0.00196
3.520e-02,0.00028
3.600e-02,-0.00068
3.680e-02,0.00048
